ID,type,Name,LongName,Parent,Compnent,NumAttr,NumOps,NumPubOps,Setters,Getters,Nesting,IFImpl,NOC,NumDesc,NumAnc,DIT,CLD,OpsInh,AttrInh,Dep_Out,Dep_In,NumAssEl_ssc,NumAssEl_sb,NumAssEl_nsb,EC_Attr,IC_Attr,EC_Par,IC_Par,Connectors,InstSpec,LLInst,MsgSent,MsgRecv,MsgSelf,Diags,Assoc,NumDirClients,NumIndClients,BugNo,Label
L4254,Class,FileProducer,org.apache.camel.component.file.FileProducer,L4095,L103,1,4,3,0,0,0,0,0,0,2,2,0,13,4,0,0,1,1,0,0,1,0,4,0,0,0,0,0,0,0,,,,2,1
L11827,Class,NIOConverter,org.apache.camel.converter.NIOConverter,L11451,L103,0,8,8,0,0,0,0,0,0,0,0,0,0,0,0,0,0,0,0,0,0,0,14,0,0,0,0,0,0,0,,,,1,1
L12891,Class,MessageSupport,org.apache.camel.impl.MessageSupport,L12088,L103,2,11,10,4,4,0,1,1,12,0,0,2,0,0,0,0,0,1,1,0,2,0,12,0,0,0,0,0,0,0,,,,1,1
L1416,Class,PredicateBuilder,org.apache.camel.builder.PredicateBuilder,L176,L103,0,14,14,0,9,0,0,0,0,0,0,0,0,0,0,0,0,0,0,0,0,0,40,0,0,0,0,0,0,0,,,,1,1
L1830,Class,DefaultCamelContext,org.apache.camel.impl.DefaultCamelContext,L12088,L103,1,31,24,6,12,0,2,1,1,1,1,1,7,3,0,0,4,5,3,0,0,0,38,0,0,0,0,0,0,0,,,,1,1
L2421,Class,XsltBuilder,org.apache.camel.builder.xml.XsltBuilder,L1955,L103,3,25,22,5,5,0,1,0,0,0,0,0,0,0,0,0,1,1,1,0,2,0,23,0,0,0,0,0,0,0,,,,1,1
L2635,Class,DefaultExchange,org.apache.camel.impl.DefaultExchange,L12088,L103,3,27,22,7,10,0,1,14,14,0,0,1,0,0,0,0,0,2,1,0,3,0,32,0,0,0,0,0,0,0,,,,1,1
L3766,Class,ServiceSupport,org.apache.camel.impl.ServiceSupport,L12088,L103,3,7,5,0,3,0,1,27,40,0,0,2,0,0,0,0,0,0,0,0,1,0,0,0,0,0,0,0,0,0,,,,1,1
L4130,Class,FileEndpoint,org.apache.camel.component.file.FileEndpoint,L4095,L103,2,9,8,1,3,0,0,0,0,1,1,0,0,0,0,0,2,2,0,0,1,2,10,0,0,0,0,0,0,0,,,,1,1
L4137,Class,FileConsumer,org.apache.camel.component.file.FileConsumer,L4095,L103,5,13,7,3,5,0,0,0,0,1,1,0,0,0,0,0,1,1,0,0,2,0,9,0,0,0,0,0,0,0,,,,1,1
L2107,Interface,Message,org.apache.camel.Message,L106,L103,,13,,,,,,,0,0,,,,,,,,,,0,,27,17,,,,,,,0,1,1,0,1,1
L320,Interface,CamelContext,org.apache.camel.CamelContext,L106,L103,,17,,,,,,,0,1,,,,,,,,,,0,,94,28,,,,,,,0,32,1,0,1,1
L521,Interface,Processor,org.apache.camel.Processor,L106,L103,,1,,,,,,,3,0,,,,,,,,,,0,,157,1,,,,,,,0,22,19,3,1,1
L11480,Annotation,HasAnnotation,org.apache.camel.converter.HasAnnotation,L11451,L103,,0,,,,,,,0,0,,,,,,,,,,0,,0,0,,,,,,,0,0,0,0,0,0
L12022,Annotation,EndpointInject,org.apache.camel.EndpointInject,L106,L103,,0,,,,,,,0,0,,,,,,,,,,0,,1,0,,,,,,,0,0,0,0,0,0
L12085,Annotation,Header,org.apache.camel.Header,L106,L103,,0,,,,,,,0,0,,,,,,,,,,0,,0,0,,,,,,,0,0,0,0,0,0
L13320,Annotation,MessageDriven,org.apache.camel.MessageDriven,L106,L103,,0,,,,,,,0,0,,,,,,,,,,0,,0,0,,,,,,,0,0,0,0,0,0
L14454,Annotation,Property,org.apache.camel.Property,L106,L103,,0,,,,,,,0,0,,,,,,,,,,0,,0,0,,,,,,,0,0,0,0,0,0
L161,Annotation,Body,org.apache.camel.Body,L106,L103,,0,,,,,,,0,0,,,,,,,,,,0,,0,0,,,,,,,0,0,0,0,0,0
L258,Annotation,FluentArg,org.apache.camel.builder.FluentArg,L176,L103,,0,,,,,,,0,0,,,,,,,,,,0,,0,0,,,,,,,0,0,0,0,0,0
L348,Annotation,Fluent,org.apache.camel.builder.Fluent,L176,L103,,0,,,,,,,0,0,,,,,,,,,,0,,1,0,,,,,,,0,1,0,0,0,0
L9006,Annotation,Converter,org.apache.camel.Converter,L106,L103,,0,,,,,,,0,0,,,,,,,,,,0,,0,0,,,,,,,0,0,0,0,0,0
L10014,Class,MailComponent,org.apache.camel.component.mail.MailComponent,L9923,L103,2,9,7,1,1,0,0,0,0,1,1,0,0,0,0,0,1,1,0,0,1,1,11,0,0,0,0,0,0,0,,,,0,0
L10022,Class,MailConfiguration,org.apache.camel.component.mail.MailConfiguration,L9923,L103,12,28,28,12,12,0,1,0,0,0,0,0,0,0,0,0,2,2,0,0,3,6,23,0,0,0,0,0,0,0,,,,0,0
L10139,Class,MailConsumer,org.apache.camel.component.mail.MailConsumer,L9923,L103,2,9,3,0,0,0,1,0,0,1,1,0,0,0,0,0,1,1,0,0,2,0,7,0,0,0,0,0,0,0,,,,0,0
L10179,Class,MailConverters,org.apache.camel.component.mail.MailConverters,L9923,L103,0,2,2,0,0,0,0,0,0,0,0,0,0,0,0,0,0,0,0,0,0,0,4,0,0,0,0,0,0,0,,,,0,0
L10208,Class,MailProducer,org.apache.camel.component.mail.MailProducer,L9923,L103,2,2,2,0,0,0,0,0,0,1,1,0,0,0,0,0,1,1,0,0,2,0,3,0,0,0,0,0,0,0,,,,0,0
L10251,Class,MailMessage,org.apache.camel.component.mail.MailMessage,L9923,L103,1,10,8,1,3,0,0,0,0,2,2,0,20,3,0,0,0,0,0,0,1,6,9,0,0,0,0,0,0,0,,,,0,0
L10283,Class,MessageHeaderAccessException,org.apache.camel.component.mail.MessageHeaderAccessException,L9923,L103,2,2,2,0,1,0,0,0,0,2,2,0,1,1,0,0,0,0,0,0,1,0,3,0,0,0,0,0,0,0,,,,0,0
L10295,Class,MessageHeaderNamesAccessException,org.apache.camel.component.mail.MessageHeaderNamesAccessException,L9923,L103,1,1,1,0,0,0,0,0,0,2,2,0,1,1,0,0,0,0,0,0,0,0,1,0,0,0,0,0,0,0,,,,0,0
L1036,Class,ToBuilder<E extends Exchange>,org.apache.camel.builder.ToBuilder,L176,L103,0,2,2,0,0,0,0,0,0,2,2,0,74,2,0,0,0,1,0,0,0,0,3,0,0,0,0,0,0,0,,,,0,0
L10445,Class,MinaComponent,org.apache.camel.component.mina.MinaComponent,L10420,L103,0,6,2,0,0,0,0,0,0,1,1,0,0,0,0,0,0,0,0,0,0,1,14,0,0,0,0,0,0,0,,,,0,0
L10448,Class,MinaExchange,org.apache.camel.component.mina.MinaExchange,L10420,L103,0,1,1,0,0,0,0,0,0,1,1,0,27,3,0,0,0,0,0,0,0,2,1,0,0,0,0,0,0,0,,,,0,0
L10471,Class,MinaEndpoint,org.apache.camel.component.mina.MinaEndpoint,L10420,L103,4,10,10,0,5,0,0,0,0,1,1,0,0,0,0,0,2,2,0,0,4,5,17,0,0,0,0,0,0,0,,,,0,0
L10490,Class,MinaConsumer,org.apache.camel.component.mina.MinaConsumer,L10420,L103,3,3,1,0,0,0,0,0,0,1,1,0,0,0,0,0,1,1,0,0,3,0,2,0,0,0,0,0,0,0,,,,0,0
L10546,Class,MinaProducer,org.apache.camel.component.mina.MinaProducer,L10420,L103,2,4,2,0,0,0,0,0,0,2,2,0,13,4,0,0,1,1,0,0,2,0,2,0,0,0,0,0,0,0,,,,0,0
L1061,Class,MulticastBuilder,org.apache.camel.builder.MulticastBuilder,L176,L103,0,2,2,0,0,0,0,0,0,2,2,0,74,2,0,0,1,1,0,0,0,0,3,0,0,0,0,0,0,0,,,,0,0
L10649,Class,CamelJob,org.apache.camel.component.quartz.CamelJob,L10624,L103,0,1,1,0,0,0,1,0,0,0,0,0,0,0,0,0,0,0,0,0,0,0,1,0,0,0,0,0,0,0,,,,0,0
L10654,Class,QuartzEndpoint,org.apache.camel.component.quartz.QuartzEndpoint,L10624,L103,6,23,20,3,6,0,0,0,0,1,1,0,0,0,0,0,0,0,1,0,5,4,28,0,0,0,0,0,0,0,,,,0,0
L10661,Class,QuartzComponent,org.apache.camel.component.quartz.QuartzComponent,L10624,L103,4,13,8,3,3,0,0,0,0,1,1,0,0,0,0,0,0,0,0,0,4,2,13,0,0,0,0,0,0,0,,,,0,0
L10664,Class,QuartzExchange,org.apache.camel.component.quartz.QuartzExchange,L10624,L103,0,3,3,0,2,0,0,0,0,1,1,0,27,3,0,0,0,0,0,0,0,3,4,0,0,0,0,0,0,0,,,,0,0
L10722,Class,QuartzConsumer,org.apache.camel.component.quartz.QuartzConsumer,L10624,L103,0,4,2,0,1,0,0,0,0,1,1,0,0,0,0,0,0,0,0,0,0,3,3,0,0,0,0,0,0,0,,,,0,0
L1076,Class,PipelineBuilder,org.apache.camel.builder.PipelineBuilder,L176,L103,0,2,2,0,0,0,0,0,0,2,2,0,74,2,0,0,1,1,0,0,0,0,3,0,0,0,0,0,0,0,,,,0,0
L10823,Class,RoundRobinLoadBalancer,org.apache.camel.processor.loadbalancer.RoundRobinLoadBalancer,L13653,L103,1,1,0,0,0,0,0,0,0,2,2,0,5,0,0,0,0,0,0,0,0,0,3,0,0,0,0,0,0,0,,,,0,0
L1083,Class,IdempotentConsumerBuilder,org.apache.camel.builder.IdempotentConsumerBuilder,L176,L103,0,4,2,0,1,0,1,0,0,2,2,0,74,2,0,0,0,1,1,0,0,1,8,0,0,0,0,0,0,0,,,,0,0
L10831,Class,QuartzMessage,org.apache.camel.component.quartz.QuartzMessage,L10624,L103,1,3,2,0,1,0,0,0,0,2,2,0,20,3,0,0,0,0,0,0,1,1,4,0,0,0,0,0,0,0,,,,0,0
L10892,Class,RmiComponent,org.apache.camel.component.rmi.RmiComponent,L10868,L103,0,3,2,0,0,0,0,0,0,1,1,0,0,0,0,0,0,0,0,0,0,1,5,0,0,0,0,0,0,0,,,,0,0
L10901,Class,RmiEndpoint,org.apache.camel.component.rmi.RmiEndpoint,L10868,L103,4,14,13,4,6,0,0,0,0,1,1,0,0,0,0,0,2,2,0,0,3,2,13,0,0,0,0,0,0,0,,,,0,0
L10906,Class,RmiConsumer,org.apache.camel.component.rmi.RmiConsumer,L10868,L103,2,6,4,0,2,0,1,0,0,1,1,0,0,0,0,0,1,1,0,0,1,0,8,0,0,0,0,0,0,0,,,,0,0
L10971,Class,RmiProducer,org.apache.camel.component.rmi.RmiProducer,L10868,L103,1,3,3,0,1,0,0,0,0,2,2,0,13,4,0,0,1,1,0,0,1,0,3,0,0,0,0,0,0,0,,,,0,0
L1104,Class,RecipientListBuilder<E extends Exchange>,org.apache.camel.builder.RecipientListBuilder,L176,L103,0,2,2,0,0,0,1,0,0,1,1,0,27,1,0,0,0,1,0,0,0,1,3,0,0,0,0,0,0,0,,,,0,0
L11083,Class,RuntimeXmppException,org.apache.camel.component.xmpp.RuntimeXmppException,L11055,L103,1,2,2,0,0,0,0,0,0,1,1,0,0,0,0,0,0,0,0,0,0,0,3,0,0,0,0,0,0,0,,,,0,0
L11091,Class,XmppBinding,org.apache.camel.component.xmpp.XmppBinding,L11055,L103,0,3,2,0,0,0,0,0,0,0,0,0,0,0,0,0,2,2,0,0,0,5,8,0,0,0,0,0,0,0,,,,0,0
L11105,Class,XmppExchange,org.apache.camel.component.xmpp.XmppExchange,L11055,L103,0,13,11,0,8,0,0,0,0,1,1,0,27,3,0,0,2,2,0,0,0,4,16,0,0,0,0,0,0,0,,,,0,0
L11113,Class,XmppComponent,org.apache.camel.component.xmpp.XmppComponent,L11055,L103,0,4,3,0,0,0,0,0,0,1,1,0,0,0,0,0,0,0,0,0,0,1,5,0,0,0,0,0,0,0,,,,0,0
L1112,Class,SplitterBuilder,org.apache.camel.builder.SplitterBuilder,L176,L103,0,2,2,0,0,0,0,0,0,2,2,0,74,2,0,0,0,1,0,0,0,1,3,0,0,0,0,0,0,0,,,,0,0
L11133,Class,XmppEndpoint,org.apache.camel.component.xmpp.XmppEndpoint,L11055,L103,12,33,32,12,13,0,0,0,0,1,1,0,0,0,0,0,4,4,0,0,4,3,31,0,0,0,0,0,0,0,,,,0,0
L11146,Class,XmppConsumer,org.apache.camel.component.xmpp.XmppConsumer,L11055,L103,1,4,2,0,0,0,1,0,0,1,1,0,0,0,0,0,1,1,0,0,1,0,3,0,0,0,0,0,0,0,,,,0,0
L1120,Class,ResequencerBuilder,org.apache.camel.builder.ResequencerBuilder,L176,L103,2,8,8,2,2,0,0,0,0,2,2,0,74,2,0,0,1,1,0,0,0,3,3,0,0,0,0,0,0,0,,,,0,0
L11202,Class,XmppGroupChatProducer,org.apache.camel.component.xmpp.XmppGroupChatProducer,L11055,L103,3,7,5,1,2,0,0,0,0,2,2,0,13,4,0,0,1,1,0,0,3,0,6,0,0,0,0,0,0,0,,,,0,0
L11208,Class,XmppPrivateChatProducer,org.apache.camel.component.xmpp.XmppPrivateChatProducer,L11055,L103,3,7,5,1,2,0,0,0,0,2,2,0,13,4,0,0,1,1,0,0,3,0,6,0,0,0,0,0,0,0,,,,0,0
L11284,Class,XmppMessage,org.apache.camel.component.xmpp.XmppMessage,L11055,L103,1,11,10,2,4,0,0,0,0,2,2,0,20,3,0,0,0,0,0,0,1,6,11,0,0,0,0,0,0,0,,,,0,0
L11461,Class,CollectionConverter,org.apache.camel.converter.CollectionConverter,L11451,L103,0,5,5,0,0,0,0,0,0,0,0,0,0,0,0,0,0,0,0,0,0,0,10,0,0,0,0,0,0,0,,,,0,0
L11483,Class,IOConverter,org.apache.camel.converter.IOConverter,L11451,L103,1,14,14,0,0,0,0,0,0,0,0,0,0,0,0,0,0,0,0,0,1,0,25,0,0,0,0,0,0,0,,,,0,0
L1156,Class,InterceptorBuilder,org.apache.camel.builder.InterceptorBuilder,L176,L103,0,4,4,0,0,0,1,0,0,0,0,0,0,0,0,0,2,2,0,0,0,1,4,0,0,0,0,0,0,0,,,,0,0
L1170,Class,DelegateProcessor,org.apache.camel.processor.DelegateProcessor,L13364,L103,0,9,6,1,1,0,1,1,1,1,1,1,7,3,0,0,0,1,1,0,0,2,6,0,0,0,0,0,0,0,,,,0,0
L11862,Class,ObjectConverter,org.apache.camel.converter.ObjectConverter,L11451,L103,0,4,4,0,1,0,0,0,0,0,0,0,0,0,0,0,0,0,0,0,0,0,6,0,0,0,0,0,0,0,,,,0,0
L1188,Class,PolicyBuilder,org.apache.camel.builder.PolicyBuilder,L176,L103,0,4,4,0,0,0,1,0,0,0,0,0,0,0,0,0,2,2,0,0,0,1,4,0,0,0,0,0,0,0,,,,0,0
L11890,Class,DefaultTypeConverter,org.apache.camel.impl.converter.DefaultTypeConverter,L12169,L103,2,10,7,1,3,0,2,0,0,0,0,0,0,0,0,0,3,3,1,0,1,0,18,0,0,0,0,0,0,0,,,,0,0
L11957,Class,JaxbConverter,org.apache.camel.converter.jaxb.JaxbConverter,L11946,L103,0,5,4,1,1,0,0,0,0,0,0,0,0,0,0,0,0,0,1,0,0,0,8,0,0,0,0,0,0,0,,,,0,0
L12146,Class,CachingInjector<T extends Object>,org.apache.camel.impl.CachingInjector,L12088,L103,2,3,2,0,0,0,0,0,0,0,0,0,0,0,0,0,0,2,0,0,2,1,5,0,0,0,0,0,0,0,,,,0,0
L12180,Class,AnnotationTypeConverterLoader,org.apache.camel.impl.converter.AnnotationTypeConverterLoader,L12169,L103,3,5,1,0,0,0,1,0,0,0,0,0,0,0,0,0,0,0,1,0,3,0,8,0,0,0,0,0,0,0,,,,0,0
L12191,Class,ResolverUtil<T extends Object>,org.apache.camel.util.ResolverUtil,L14601,L103,3,9,6,1,2,0,0,0,0,0,0,0,0,0,0,0,0,0,2,0,3,0,17,0,0,0,0,0,0,0,,,,0,0
L12270,Class,StaticMethodTypeConverter,org.apache.camel.impl.converter.StaticMethodTypeConverter,L12169,L103,1,3,3,0,0,0,1,0,0,0,0,0,0,0,0,0,0,0,0,0,1,0,4,0,0,0,0,0,0,0,,,,0,0
L12276,Class,InstanceMethodTypeConverter,org.apache.camel.impl.converter.InstanceMethodTypeConverter,L12169,L103,1,3,3,0,0,0,1,0,0,0,0,0,0,0,0,0,0,1,0,0,1,0,5,0,0,0,0,0,0,0,,,,0,0
L12283,Class,ArrayTypeConverter,org.apache.camel.impl.converter.ArrayTypeConverter,L12169,L103,0,1,1,0,0,0,1,0,0,0,0,0,0,0,0,0,0,0,0,0,0,0,2,0,0,0,0,0,0,0,,,,0,0
L12340,Class,PropertyEditorTypeConverter,org.apache.camel.impl.converter.PropertyEditorTypeConverter,L12169,L103,0,1,1,0,0,0,1,0,0,0,0,0,0,0,0,0,0,0,0,0,0,0,2,0,0,0,0,0,0,0,,,,0,0
L12345,Class,ToStringTypeConverter,org.apache.camel.impl.converter.ToStringTypeConverter,L12169,L103,0,1,1,0,0,0,1,0,0,0,0,0,0,0,0,0,0,0,0,0,0,0,2,0,0,0,0,0,0,0,,,,0,0
L12381,Class,ReflectionInjector<T extends Object>,org.apache.camel.impl.ReflectionInjector,L12088,L103,0,1,1,0,0,0,1,1,1,0,0,1,0,0,0,0,0,0,0,0,0,0,2,0,0,0,0,0,0,0,,,,0,0
L1255,Class,Route<E extends Exchange>,org.apache.camel.Route,L106,L103,2,8,7,2,4,0,0,0,0,0,0,0,0,0,0,0,1,1,0,0,2,4,8,0,0,0,0,0,0,0,,,,0,0
L12563,Class,ResolveEndpointFailedException,org.apache.camel.ResolveEndpointFailedException,L106,L103,1,2,2,0,1,0,0,0,0,2,2,0,4,1,0,0,0,0,0,0,1,0,3,0,0,0,0,0,0,0,,,,0,0
L12628,Class,DefaultExchangeConverter,org.apache.camel.impl.DefaultExchangeConverter,L12088,L103,0,1,1,0,0,0,1,0,0,0,0,0,0,0,0,0,0,0,0,0,0,0,2,0,0,0,0,0,0,0,,,,0,0
L12635,Class,FactoryFinder,org.apache.camel.util.FactoryFinder,L14601,L103,2,10,8,0,0,0,0,0,0,0,0,0,0,0,0,0,0,0,1,0,2,0,23,0,0,0,0,0,0,0,,,,0,0
L12642,Class,NoFactoryAvailableException,org.apache.camel.util.NoFactoryAvailableException,L14601,L103,1,2,2,0,1,0,0,0,0,1,1,0,0,0,0,0,0,0,0,0,1,0,2,0,0,0,0,0,0,0,,,,0,0
L1265,Class,EventDrivenConsumerRoute<E extends Exchange>,org.apache.camel.impl.EventDrivenConsumerRoute,L12088,L103,0,5,4,1,1,0,0,0,0,1,1,0,0,0,0,0,0,1,0,0,0,0,6,0,0,0,0,0,0,0,,,,0,0
L12655,Class,DefaultComponentResolver<E extends Exchange>,org.apache.camel.impl.DefaultComponentResolver,L12088,L103,0,1,1,0,0,0,1,0,0,0,0,0,0,0,0,0,0,0,1,0,0,0,3,0,0,0,0,0,0,0,,,,0,0
L12741,Class,LoggingExceptionHandler,org.apache.camel.impl.LoggingExceptionHandler,L12088,L103,0,3,3,0,0,0,1,0,0,0,0,0,0,0,0,0,0,0,1,0,0,0,3,0,0,0,0,0,0,0,,,,0,0
L1276,Class,CompositeProcessor,org.apache.camel.processor.CompositeProcessor,L13364,L103,0,6,4,0,1,0,1,0,0,1,1,0,7,3,0,0,1,1,0,0,0,0,4,0,0,0,0,0,0,0,,,,0,0
L12782,Class,DefaultPollingConsumer<E extends Exchange>,org.apache.camel.impl.DefaultPollingConsumer,L12088,L103,3,11,8,1,1,0,1,0,0,1,1,0,0,0,0,0,0,0,1,0,3,0,10,0,0,0,0,0,0,0,,,,0,0
L12819,Class,UuidGenerator,org.apache.camel.util.UuidGenerator,L14601,L103,6,5,5,0,1,0,0,0,0,0,0,0,0,0,0,0,0,0,2,0,2,0,4,0,0,0,0,0,0,0,,,,0,0
L13055,Class,NoPolicy<E extends Object>,org.apache.camel.impl.NoPolicy,L12088,L103,0,1,1,0,0,0,1,0,0,0,0,0,0,0,0,0,0,0,0,0,0,0,2,0,0,0,0,0,0,0,,,,0,0
L13066,Class,NoRouteBuilder,org.apache.camel.impl.NoRouteBuilder,L12088,L103,0,2,2,0,1,0,0,0,0,2,2,0,41,2,0,0,0,0,0,0,0,0,0,0,0,0,0,0,0,0,,,,0,0
L13074,Class,PollingConsumerRoute<E extends Exchange>,org.apache.camel.impl.PollingConsumerRoute,L12088,L103,0,5,4,1,1,0,0,0,0,1,1,0,0,0,0,0,0,1,0,0,0,0,6,0,0,0,0,0,0,0,,,,0,0
L1312,Class,IdempotentConsumer,org.apache.camel.processor.idempotent.IdempotentConsumer,L13509,L103,2,9,6,0,3,0,1,0,0,1,1,0,7,3,0,0,1,2,0,0,2,0,10,0,0,0,0,0,0,0,,,,0,0
L13267,Class,InvalidHeaderTypeException,org.apache.camel.InvalidHeaderTypeException,L106,L103,2,4,3,0,1,0,0,0,0,2,2,0,4,1,0,0,0,0,0,0,1,0,7,0,0,0,0,0,0,0,,,,0,0
L1333,Class,RuntimeCamelException,org.apache.camel.RuntimeCamelException,L106,L103,1,4,4,0,0,0,0,13,14,1,1,2,0,0,0,0,0,0,0,0,0,0,4,0,0,0,0,0,0,0,,,,0,0
L13531,Class,NoMessageIdException,org.apache.camel.processor.idempotent.NoMessageIdException,L13509,L103,0,3,3,0,2,0,0,0,0,2,2,0,4,1,0,0,0,2,0,0,0,0,4,0,0,0,0,0,0,0,,,,0,0
L13558,Class,"LRUCache<K extends Object, V extends Object>",org.apache.camel.util.LRUCache,L14601,L103,2,4,3,0,1,0,0,0,0,1,1,0,0,0,0,0,0,0,0,0,0,0,1,0,0,0,0,0,0,0,,,,0,0
L1361,Class,LoggingErrorHandler,org.apache.camel.processor.LoggingErrorHandler,L13364,L103,1,13,9,2,3,0,1,0,0,1,1,0,7,3,0,0,1,2,0,0,1,0,13,0,0,0,0,0,0,0,,,,0,0
L13668,Class,LoadBalancerSupport,org.apache.camel.processor.loadbalancer.LoadBalancerSupport,L13653,L103,0,3,3,0,1,0,1,2,5,0,0,2,0,0,0,0,1,1,0,0,0,0,3,0,0,0,0,0,0,0,,,,0,0
L13683,Class,QueueLoadBalancer,org.apache.camel.processor.loadbalancer.QueueLoadBalancer,L13653,L103,0,2,1,0,0,0,0,3,3,1,1,1,3,0,0,0,1,1,0,0,0,1,4,0,0,0,0,0,0,0,,,,0,0
L13696,Class,RandomLoadBalancer,org.apache.camel.processor.loadbalancer.RandomLoadBalancer,L13653,L103,0,1,0,0,0,0,0,0,0,2,2,0,5,0,0,0,0,0,0,0,0,0,3,0,0,0,0,0,0,0,,,,0,0
L13713,Class,StickyLoadBalancer,org.apache.camel.processor.loadbalancer.StickyLoadBalancer,L13653,L103,2,7,5,1,2,0,0,0,0,2,2,0,5,0,0,0,2,2,0,0,1,0,9,0,0,0,0,0,0,0,,,,0,0
L1374,Class,MulticastProcessor,org.apache.camel.processor.MulticastProcessor,L13364,L103,0,9,6,0,2,0,1,1,1,1,1,1,7,3,0,0,1,1,0,0,0,0,10,0,0,0,0,0,0,0,,,,0,0
L13760,Class,TopicLoadBalancer,org.apache.camel.processor.loadbalancer.TopicLoadBalancer,L13653,L103,0,2,1,0,0,0,0,0,0,1,1,0,3,0,0,0,0,0,0,0,0,0,4,0,0,0,0,0,0,0,,,,0,0
L1392,Class,Pipeline,org.apache.camel.processor.Pipeline,L13364,L103,0,5,3,0,0,0,1,0,0,2,2,0,16,3,0,0,0,0,0,0,0,0,8,0,0,0,0,0,0,0,,,,0,0
L14061,Class,ExpressionComparator<E extends Exchange>,org.apache.camel.util.ExpressionComparator,L14601,L103,1,2,2,0,0,0,1,0,0,0,0,0,0,0,0,0,0,0,0,0,1,0,3,0,0,0,0,0,0,0,,,,0,0
L14070,Class,ExpressionListComparator<E extends Exchange>,org.apache.camel.util.ExpressionListComparator,L14601,L103,1,2,2,0,0,0,1,0,0,0,0,0,0,0,0,0,0,0,0,0,1,0,3,0,0,0,0,0,0,0,,,,0,0
L1431,Class,PredicateSupport<E extends Exchange>,org.apache.camel.impl.PredicateSupport,L12088,L103,0,2,1,0,0,0,1,0,0,0,0,0,0,0,0,0,0,0,0,0,0,0,4,0,0,0,0,0,0,0,,,,0,0
L14569,Class,XmlMarshaller,org.apache.camel.spi.XmlMarshaller,L14513,L103,0,2,2,0,0,0,1,0,0,0,0,0,0,0,0,0,0,0,0,0,0,0,4,0,0,0,0,0,0,0,,,,0,0
L14582,Class,XmlUnmarshaller,org.apache.camel.spi.XmlUnmarshaller,L14513,L103,0,2,2,0,0,0,1,0,0,0,0,0,0,0,0,0,0,0,0,0,0,0,4,0,0,0,0,0,0,0,,,,0,0
L14621,Class,CollectionHelper,org.apache.camel.util.CollectionHelper,L14601,L103,0,1,1,0,0,0,0,0,0,0,0,0,0,0,0,0,0,0,0,0,0,0,3,0,0,0,0,0,0,0,,,,0,0
L14628,Class,ExchangeHelper,org.apache.camel.util.ExchangeHelper,L14601,L103,0,1,1,0,0,0,0,0,0,0,0,0,0,0,0,0,0,0,0,0,0,0,2,0,0,0,0,0,0,0,,,,0,0
L1465,Class,BinaryPredicateSupport<E extends Exchange>,org.apache.camel.impl.BinaryPredicateSupport,L12088,L103,2,7,3,0,1,0,1,0,0,0,0,0,0,0,0,0,0,0,0,0,1,0,14,0,0,0,0,0,0,0,,,,0,0
L14650,Class,ExpressionHelper,org.apache.camel.util.ExpressionHelper,L14601,L103,0,2,2,0,0,0,0,0,0,0,0,0,0,0,0,0,0,0,0,0,0,0,4,0,0,0,0,0,0,0,,,,0,0
L14727,Class,IntrospectionSupport,org.apache.camel.util.IntrospectionSupport,L14601,L103,0,14,8,3,2,0,0,0,0,0,0,0,0,0,0,0,0,0,0,0,0,0,37,0,0,0,0,0,0,0,,,,0,0
L14869,Class,ObjectHelper,org.apache.camel.util.ObjectHelper,L14601,L103,1,16,16,0,2,0,0,0,0,0,0,0,0,0,0,0,0,0,0,0,1,0,36,0,0,0,0,0,0,0,,,,0,0
L15081,Class,ServiceHelper,org.apache.camel.util.ServiceHelper,L14601,L103,1,5,5,0,0,0,0,0,0,0,0,0,0,0,0,0,0,0,0,0,1,0,5,0,0,0,0,0,0,0,,,,0,0
L15099,Class,Time,org.apache.camel.util.Time,L14601,L103,2,15,12,0,2,0,0,0,0,0,0,0,0,0,0,0,0,0,0,0,1,2,3,0,0,0,0,0,0,0,,,,0,0
L15145,Class,URISupport,org.apache.camel.util.URISupport,L14601,L103,0,14,12,0,0,0,0,0,0,0,0,0,0,0,0,0,0,0,0,0,0,0,31,0,0,0,0,0,0,0,,,,0,0
L15301,Class,RouteDotGenerator,org.apache.camel.view.RouteDotGenerator,L15298,L103,2,5,3,1,1,0,0,0,0,0,0,0,0,0,0,0,0,0,0,0,2,0,7,0,0,0,0,0,0,0,,,,0,0
L15481,Class,ActivityBuilder,org.apache.camel.bam.ActivityBuilder,L15461,L103,0,11,11,0,4,0,1,0,0,0,0,0,0,0,0,0,2,5,0,0,0,5,12,0,0,0,0,0,0,0,,,,0,0
L15484,Class,ProcessBuilder,org.apache.camel.bam.ProcessBuilder,L15461,L103,5,19,14,2,7,0,0,0,0,2,2,0,41,2,0,0,2,5,0,0,4,3,26,0,0,0,0,0,0,0,,,,0,0
L15489,Class,ActivityRules,org.apache.camel.bam.rules.ActivityRules,L16139,L103,3,12,10,3,3,0,0,0,0,1,1,0,7,3,0,0,2,5,3,0,2,17,9,0,0,0,0,0,0,0,,,,0,0
L15521,Class,TimeExpression,org.apache.camel.bam.TimeExpression,L15461,L103,0,10,10,0,6,0,0,0,0,0,0,0,0,0,0,0,2,4,0,0,0,6,14,0,0,0,0,0,0,0,,,,0,0
L15538,Class,ProcessInstance,org.apache.camel.bam.model.ProcessInstance,L15575,L103,2,12,11,3,6,0,0,0,0,2,2,0,9,3,0,0,3,3,1,0,2,12,13,0,0,0,0,0,0,0,,,,0,0
L15542,Class,ActivityState,org.apache.camel.bam.model.ActivityState,L15575,L103,4,21,17,7,8,0,0,0,0,2,2,0,9,3,0,0,2,2,1,0,2,16,22,0,0,0,0,0,0,0,,,,0,0
L15583,Class,ActivityDefinition,org.apache.camel.bam.model.ActivityDefinition,L15575,L103,1,6,6,2,3,0,0,0,0,1,1,0,3,1,0,0,2,2,1,0,1,5,6,0,0,0,0,0,0,0,,,,0,0
L15585,Class,EntitySupport,org.apache.camel.bam.model.EntitySupport,L15575,L103,1,3,3,1,1,0,0,3,5,0,0,2,0,0,0,0,0,0,0,0,1,0,3,0,0,0,0,0,0,0,,,,0,0
L15593,Class,ProcessDefinition,org.apache.camel.bam.model.ProcessDefinition,L15575,L103,2,5,5,1,3,0,0,0,0,1,1,0,3,1,0,0,2,3,1,0,2,10,6,0,0,0,0,0,0,0,,,,0,0
L15612,Class,TemporalEntity,org.apache.camel.bam.model.TemporalEntity,L15575,L103,2,6,6,2,4,0,0,2,2,1,1,1,3,1,0,0,0,0,0,0,1,0,4,0,0,0,0,0,0,0,,,,0,0
L15635,Class,ProcessContext,org.apache.camel.bam.processor.ProcessContext,L15885,L103,0,14,14,5,6,0,0,0,0,0,0,0,0,0,0,0,0,1,4,0,0,4,17,0,0,0,0,0,0,0,,,,0,0
L15800,Class,ProcessRules,org.apache.camel.bam.rules.ProcessRules,L16139,L103,0,7,5,1,2,0,0,0,0,1,1,0,7,3,0,0,2,3,3,0,0,5,6,0,0,0,0,0,0,0,,,,0,0
L15838,Class,JpaBamProcessor,org.apache.camel.bam.processor.JpaBamProcessor,L15885,L103,1,3,2,0,0,0,0,0,0,1,1,0,0,0,0,0,0,0,0,0,1,0,11,0,0,0,0,0,0,0,,,,0,0
L15868,Class,ActivityMonitorEngine,org.apache.camel.bam.processor.ActivityMonitorEngine,L15885,L103,7,7,4,1,1,0,1,0,0,1,1,0,7,3,0,0,0,0,1,0,4,0,4,0,0,0,0,0,0,0,,,,0,0
L15934,Class,BamProcessorSupport<T extends Object>,org.apache.camel.bam.processor.BamProcessorSupport,L15885,L103,4,8,3,0,3,0,1,0,0,0,0,0,0,0,0,0,1,1,0,0,4,2,15,0,0,0,0,0,0,0,,,,0,0
L15977,Class,NoCorrelationKeyException,org.apache.camel.bam.processor.NoCorrelationKeyException,L15885,L103,0,3,3,0,2,0,0,0,0,2,2,0,4,0,0,0,1,2,0,0,0,0,4,0,0,0,0,0,0,0,,,,0,0
L15985,Class,JpaBamProcessorSupport<T extends Object>,org.apache.camel.bam.processor.JpaBamProcessorSupport,L15885,L103,3,16,10,6,4,0,0,0,0,1,1,0,0,0,0,0,0,0,1,0,2,0,30,0,0,0,0,0,0,0,,,,0,0
L16150,Class,TemporalRule,org.apache.camel.bam.rules.TemporalRule,L16139,L103,3,14,10,0,3,0,0,0,0,1,1,0,7,3,0,0,0,2,1,0,1,2,15,0,0,0,0,0,0,0,,,,0,0
L16502,Class,CamelBeanPostProcessor,org.apache.camel.spring.CamelBeanPostProcessor,L16472,L103,2,17,8,4,4,0,2,0,0,0,0,0,0,0,0,0,0,2,0,0,2,0,29,0,0,0,0,0,0,0,,,,0,0
L1651,Class,ProcessorBuilder,org.apache.camel.builder.ProcessorBuilder,L176,L103,0,5,5,5,0,0,0,0,0,0,0,0,0,0,0,0,0,0,0,0,0,0,13,0,0,0,0,0,0,0,,,,0,0
L16513,Class,DefaultMethodInvocationStrategy,org.apache.camel.spring.util.DefaultMethodInvocationStrategy,L17131,L103,0,4,4,0,1,0,1,0,0,0,0,0,0,0,0,0,1,1,0,0,0,0,4,0,0,0,0,0,0,0,,,,0,0
L16545,Class,ReflectionUtils,org.apache.camel.spring.util.ReflectionUtils,L17131,L103,0,2,2,1,0,0,0,0,0,1,1,0,0,0,0,0,0,0,0,0,0,0,5,0,0,0,0,0,0,0,,,,0,0
L16593,Class,BeanInfo,org.apache.camel.spring.util.BeanInfo,L17131,L103,2,10,5,0,1,0,0,0,0,0,0,0,0,0,0,0,3,3,0,0,2,0,26,0,0,0,0,0,0,0,,,,0,0
L16617,Class,CamelContextFactoryBean,org.apache.camel.spring.CamelContextFactoryBean,L16472,L103,2,16,14,5,7,0,4,0,0,0,0,0,0,0,0,0,1,2,1,0,2,1,11,0,0,0,0,0,0,0,,,,0,0
L16673,Class,RouteBuilderFinder,org.apache.camel.spring.RouteBuilderFinder,L16472,L103,2,11,8,2,3,0,1,0,0,0,0,0,0,0,0,0,0,0,1,0,2,0,12,0,0,0,0,0,0,0,,,,0,0
L16683,Class,BeanComponent,org.apache.camel.spring.component.BeanComponent,L16680,L103,1,5,4,1,1,0,1,0,0,2,2,0,18,5,0,0,0,0,0,0,1,0,7,0,0,0,0,0,0,0,,,,0,0
L16700,Class,ResourceConverter,org.apache.camel.spring.converter.ResourceConverter,L16697,L103,0,7,7,0,0,0,0,0,0,0,0,0,0,0,0,0,0,0,0,0,0,0,13,0,0,0,0,0,0,0,,,,0,0
L16717,Class,EndpointFactoryBean,org.apache.camel.spring.EndpointFactoryBean,L16472,L103,2,11,10,4,6,0,1,0,0,0,0,0,0,0,0,0,0,2,0,0,1,0,9,0,0,0,0,0,0,0,,,,0,0
L16746,Class,Main,org.apache.camel.spring.Main,L16472,L103,6,16,11,2,3,0,0,0,0,1,1,0,7,3,0,0,0,0,0,0,6,0,9,0,0,0,0,0,0,0,,,,0,0
L16906,Class,CamelProxyFactoryBean,org.apache.camel.spring.remoting.CamelProxyFactoryBean,L16898,L103,1,8,8,2,5,0,1,0,0,1,1,0,0,0,0,0,0,2,0,0,1,0,6,0,0,0,0,0,0,0,,,,0,0
L16927,Class,CamelServiceExporter,org.apache.camel.spring.remoting.CamelServiceExporter,L16898,L103,1,8,8,3,3,0,2,0,0,1,1,0,0,0,0,0,0,1,1,0,1,0,6,0,0,0,0,0,0,0,,,,0,0
L17017,Class,BeanInjector,org.apache.camel.spring.spi.BeanInjector,L17011,L103,0,2,2,0,0,0,0,0,0,1,1,0,0,0,0,0,0,0,0,0,0,0,2,0,0,0,0,0,0,0,,,,0,0
L17023,Class,SpringComponentResolver,org.apache.camel.spring.spi.SpringComponentResolver,L17011,L103,1,2,2,0,0,0,1,0,0,0,0,0,0,0,0,0,0,0,1,0,1,0,5,0,0,0,0,0,0,0,,,,0,0
L17035,Class,SpringInjector,org.apache.camel.spring.spi.SpringInjector,L17011,L103,4,6,6,2,2,0,0,0,0,1,1,0,1,0,0,0,0,0,0,0,2,0,3,0,0,0,0,0,0,0,,,,0,0
L17144,Class,MethodInfo,org.apache.camel.spring.util.MethodInfo,L17131,L103,2,6,5,0,3,0,0,0,0,0,0,0,0,0,0,0,1,2,0,0,2,1,14,0,0,0,0,0,0,0,,,,0,0
L1719,Class,Resequencer,org.apache.camel.processor.Resequencer,L13364,L103,3,17,11,3,3,0,1,0,0,1,1,0,7,3,0,0,1,4,1,0,1,0,18,0,0,0,0,0,0,0,,,,0,0
L17320,Class,BeanDefinitionParser,org.apache.camel.spring.xml.BeanDefinitionParser,L17305,L103,1,5,1,0,2,0,0,1,2,1,1,2,0,0,0,0,1,1,0,0,1,0,5,0,0,0,0,0,0,0,,,,0,0
L17333,Class,BuilderAction,org.apache.camel.spring.xml.BuilderAction,L17305,L103,1,5,4,0,2,0,0,0,0,0,0,0,0,0,0,0,1,1,0,0,1,0,12,0,0,0,0,0,0,0,,,,0,0
L17335,Class,MethodInfo,org.apache.camel.spring.xml.MethodInfo,L17305,L103,3,2,2,0,1,0,0,0,0,0,0,0,0,0,0,0,1,1,1,0,3,3,5,0,0,0,0,0,0,0,,,,0,0
L17360,Class,BuilderStatement,org.apache.camel.spring.xml.BuilderStatement,L17305,L103,1,5,5,2,2,0,0,0,0,0,0,0,0,0,0,0,1,1,0,0,1,0,7,0,0,0,0,0,0,0,,,,0,0
L17391,Class,CamelBeanDefinitionParser,org.apache.camel.spring.xml.CamelBeanDefinitionParser,L17305,L103,1,13,1,0,5,0,0,0,0,1,1,0,0,0,0,0,1,1,0,0,0,0,37,0,0,0,0,0,0,0,,,,0,0
L17393,Class,CamelNamespaceHandler,org.apache.camel.spring.xml.CamelNamespaceHandler,L17305,L103,1,4,2,0,1,0,0,0,0,1,1,0,0,0,0,0,2,2,0,0,1,1,5,0,0,0,0,0,0,0,,,,0,0
L17403,Class,RouteBuilderFactoryBean,org.apache.camel.spring.xml.RouteBuilderFactoryBean,L17305,L103,1,9,9,3,5,0,3,0,0,0,0,0,0,0,0,0,2,3,0,0,1,0,7,0,0,0,0,0,0,0,,,,0,0
L17466,Class,IllegalActionException,org.apache.camel.spring.xml.IllegalActionException,L17305,L103,3,2,2,0,1,0,0,0,0,1,1,0,0,0,0,0,0,0,0,0,1,0,3,0,0,0,0,0,0,0,,,,0,0
L17604,Class,ScriptDefinitionParser,org.apache.camel.spring.xml.ScriptDefinitionParser,L17305,L103,1,2,1,0,0,0,0,0,0,3,3,0,7,3,0,0,0,0,0,0,1,0,4,0,0,0,0,0,0,0,,,,0,0
L17620,Class,LazyLoadingBeanDefinitionParser,org.apache.camel.spring.xml.LazyLoadingBeanDefinitionParser,L17305,L103,2,2,1,0,0,0,0,1,1,2,2,1,5,1,0,0,0,0,0,0,1,0,3,0,0,0,0,0,0,0,,,,0,0
L17641,Class,StatementRouteBuilder,org.apache.camel.spring.xml.StatementRouteBuilder,L17305,L103,1,4,4,2,1,0,0,0,0,2,2,0,41,2,0,0,2,2,0,0,1,0,3,0,0,0,0,0,0,0,,,,0,0
L1841,Class,Splitter,org.apache.camel.processor.Splitter,L13364,L103,0,5,3,0,0,0,1,0,0,1,1,0,7,3,0,0,0,2,0,0,0,0,4,0,0,0,0,0,0,0,,,,0,0
L1853,Class,UndefinedDestinationException,org.apache.camel.builder.UndefinedDestinationException,L176,L103,1,1,1,0,0,0,0,0,0,2,2,0,4,1,0,0,0,0,0,0,0,0,0,0,0,0,0,0,0,0,,,,0,0
L1971,Class,DefaultNamespaceContext,org.apache.camel.builder.xml.DefaultNamespaceContext,L1955,L103,2,8,8,1,3,0,1,0,0,0,0,0,0,0,0,0,1,1,0,0,2,2,12,0,0,0,0,0,0,0,,,,0,0
L2090,Class,DomResultHandler,org.apache.camel.builder.xml.DomResultHandler,L1955,L103,1,2,2,1,1,0,1,0,0,0,0,0,0,0,0,0,0,0,0,0,1,0,2,0,0,0,0,0,0,0,,,,0,0
L2112,Class,InvalidXPathExpression,org.apache.camel.builder.xml.InvalidXPathExpression,L1955,L103,1,2,2,0,1,0,0,0,0,3,3,0,7,2,0,0,0,0,0,0,1,0,3,0,0,0,0,0,0,0,,,,0,0
L2114,Class,RuntimeExpressionException,org.apache.camel.RuntimeExpressionException,L106,L103,1,3,3,0,0,0,0,1,1,2,2,1,4,1,0,0,0,0,0,0,0,0,4,0,0,0,0,0,0,0,,,,0,0
L2128,Class,MessageVariableResolver,org.apache.camel.builder.xml.MessageVariableResolver,L1955,L103,7,4,4,1,1,0,1,0,0,0,0,0,0,0,0,0,1,2,0,0,3,0,6,0,0,0,0,0,0,0,,,,0,0
L216,Class,Builder,org.apache.camel.builder.Builder,L176,L103,0,8,8,0,0,0,0,0,0,0,0,0,0,0,0,0,0,0,0,0,0,0,15,0,0,0,0,0,0,0,,,,0,0
L2177,Class,NamespaceBuilder,org.apache.camel.builder.xml.NamespaceBuilder,L1955,L103,1,4,4,0,0,0,0,0,0,0,0,0,0,0,0,0,0,0,0,0,1,0,6,0,0,0,0,0,0,0,,,,0,0
L2201,Class,XPathBuilder<E extends Exchange>,org.apache.camel.builder.xml.XPathBuilder,L1955,L103,7,30,27,5,8,0,2,0,0,0,0,0,0,0,0,0,2,2,0,0,6,1,41,0,0,0,0,0,0,0,,,,0,0
L2219,Class,StreamResultHandler,org.apache.camel.builder.xml.StreamResultHandler,L1955,L103,2,2,2,1,1,0,1,0,0,0,0,0,0,0,0,0,0,0,0,0,2,0,2,0,0,0,0,0,0,0,,,,0,0
L2237,Class,StringResultHandler,org.apache.camel.builder.xml.StringResultHandler,L1955,L103,2,2,2,1,1,0,1,0,0,0,0,0,0,0,0,0,0,0,0,0,2,0,2,0,0,0,0,0,0,0,,,,0,0
L227,Class,ValueBuilder<E extends Exchange>,org.apache.camel.builder.ValueBuilder,L176,L103,1,26,24,0,10,0,1,0,0,0,0,0,0,0,0,0,0,0,0,0,1,7,47,0,0,0,0,0,0,0,,,,0,0
L2425,Class,XmlConverter,org.apache.camel.converter.jaxp.XmlConverter,L11560,L103,5,38,38,2,2,0,0,0,0,0,0,0,0,0,0,0,0,0,3,0,4,2,62,0,0,0,0,0,0,0,,,,0,0
L2550,Class,ExpectedBodyTypeException,org.apache.camel.ExpectedBodyTypeException,L106,L103,1,3,3,0,2,0,0,0,0,2,2,0,4,1,0,0,1,1,0,0,1,0,4,0,0,0,0,0,0,0,,,,0,0
L2562,Class,RuntimeTransformException,org.apache.camel.RuntimeTransformException,L106,L103,1,3,3,0,0,0,0,0,0,2,2,0,4,1,0,0,0,0,0,0,0,0,4,0,0,0,0,0,0,0,,,,0,0
L2667,Class,MockEndpoint,org.apache.camel.component.mock.MockEndpoint,L5135,L103,7,32,28,1,7,0,0,0,0,1,1,0,0,0,0,0,2,2,29,0,4,1,23,0,0,0,0,0,0,0,,,,0,0
L2934,Class,MemoryMessageIdRepository,org.apache.camel.processor.idempotent.MemoryMessageIdRepository,L13509,L103,1,5,5,0,0,0,1,0,0,0,0,0,0,0,0,0,0,0,0,0,1,0,6,0,0,0,0,0,0,0,,,,0,0
L2969,Class,SqlBuilder<E extends Exchange>,org.apache.camel.builder.sql.SqlBuilder,L2948,L103,2,12,8,1,1,0,2,0,0,0,0,0,0,0,0,0,0,0,0,0,2,0,19,0,0,0,0,0,0,0,,,,0,0
L3158,Class,StringSource,org.apache.camel.converter.jaxp.StringSource,L11560,L103,2,7,7,0,3,0,1,0,0,1,1,0,0,0,0,0,0,0,0,0,1,1,10,0,0,0,0,0,0,0,,,,0,0
L3168,Class,BytesSource,org.apache.camel.converter.jaxp.BytesSource,L11560,L103,1,6,6,0,3,0,0,0,0,1,1,0,0,0,0,0,0,0,0,0,0,1,4,0,0,0,0,0,0,0,,,,0,0
L317,Class,BuilderSupport,org.apache.camel.builder.BuilderSupport,L176,L103,1,27,24,3,3,0,0,3,18,0,0,3,0,0,0,0,1,2,0,0,0,0,38,0,0,0,0,0,0,0,,,,0,0
L3350,Class,ScriptBuilder<E extends Exchange>,org.apache.camel.builder.script.ScriptBuilder,L3329,L103,6,53,43,3,7,0,3,0,0,0,0,0,0,0,0,0,0,0,0,0,5,0,66,0,0,0,0,0,0,0,,,,0,0
L3555,Class,ScriptEvaluationException,org.apache.camel.builder.script.ScriptEvaluationException,L3329,L103,0,3,3,0,0,0,0,0,0,2,2,0,4,1,0,0,0,0,0,0,0,2,4,0,0,0,0,0,0,0,,,,0,0
L3746,Class,CamelException,org.apache.camel.CamelException,L106,L103,0,4,4,0,0,0,0,2,2,1,1,1,0,0,0,0,0,0,0,0,0,0,4,0,0,0,0,0,0,0,,,,0,0
L3764,Class,CamelTemplate<E extends Exchange>,org.apache.camel.CamelTemplate,L106,L103,4,25,20,3,5,0,0,0,0,1,1,0,7,3,0,0,1,6,0,0,3,5,47,0,0,0,0,0,0,0,,,,0,0
L3772,Class,ProducerCache<E extends Exchange>,org.apache.camel.util.ProducerCache,L14601,L103,2,5,3,0,1,0,0,0,0,1,1,0,7,3,0,0,0,0,0,0,2,0,7,0,0,0,0,0,0,0,,,,0,0
L3911,Class,NoSuchEndpointException,org.apache.camel.NoSuchEndpointException,L106,L103,2,2,2,0,1,0,0,0,0,2,2,0,4,1,0,0,0,0,0,0,1,0,2,0,0,0,0,0,0,0,,,,0,0
L3945,Class,DirectComponent<E extends Exchange>,org.apache.camel.component.direct.DirectComponent,L3937,L103,0,4,4,1,2,0,1,0,0,0,0,0,0,0,0,0,0,1,0,0,0,0,5,0,0,0,0,0,0,0,,,,0,0
L3972,Class,DirectEndpoint<E extends Exchange>,org.apache.camel.component.direct.DirectEndpoint,L3937,L103,3,8,7,1,2,0,0,0,0,1,1,0,0,0,0,0,0,0,0,0,2,0,7,0,0,0,0,0,0,0,,,,0,0
L3985,Class,DefaultEndpoint<E extends Exchange>,org.apache.camel.impl.DefaultEndpoint,L12088,L103,2,15,13,1,6,0,1,0,0,0,0,0,0,0,0,0,0,2,0,0,2,0,19,0,0,0,0,0,0,0,,,,0,0
L3996,Class,DefaultConsumer<E extends Exchange>,org.apache.camel.impl.DefaultConsumer,L12088,L103,1,9,6,1,3,0,1,1,1,1,1,1,7,3,0,0,0,1,1,0,1,0,8,0,0,0,0,0,0,0,,,,0,0
L4016,Class,DefaultProducer<E extends Exchange>,org.apache.camel.impl.DefaultProducer,L12088,L103,1,6,4,0,1,0,1,8,8,1,1,1,7,3,0,0,0,0,0,0,1,0,5,0,0,0,0,0,0,0,,,,0,0
L4105,Class,FileComponent,org.apache.camel.component.file.FileComponent,L4095,L103,0,3,2,0,0,0,0,0,0,1,1,0,0,0,0,0,0,0,0,0,0,1,5,0,0,0,0,0,0,0,,,,0,0
L4108,Class,DefaultComponent<E extends Exchange>,org.apache.camel.impl.DefaultComponent,L12088,L103,2,11,7,2,2,0,1,1,1,1,1,1,7,3,0,0,0,1,0,0,1,0,12,0,0,0,0,0,0,0,,,,0,0
L4109,Class,FileExchange,org.apache.camel.component.file.FileExchange,L4095,L103,1,3,3,1,1,0,0,0,0,1,1,0,27,3,0,0,0,0,0,0,1,4,4,0,0,0,0,0,0,0,,,,0,0
L4140,Class,ScheduledPollConsumer<E extends Exchange>,org.apache.camel.impl.ScheduledPollConsumer,L12088,L103,7,14,11,4,4,0,1,0,0,1,1,0,0,0,0,0,0,0,0,0,4,0,7,0,0,0,0,0,0,0,,,,0,0
L417,Class,NoErrorHandlerBuilder<E extends Exchange>,org.apache.camel.builder.NoErrorHandlerBuilder,L176,L103,0,2,2,0,0,0,1,0,0,0,0,0,0,0,0,0,0,0,0,0,0,1,3,0,0,0,0,0,0,0,,,,0,0
L4236,Class,ScheduledPollEndpoint<E extends Exchange>,org.apache.camel.impl.ScheduledPollEndpoint,L12088,L103,1,5,3,1,1,0,0,0,0,1,1,0,0,0,0,0,0,0,0,0,1,0,6,0,0,0,0,0,0,0,,,,0,0
L424,Class,LoggingErrorHandlerBuilder,org.apache.camel.builder.LoggingErrorHandlerBuilder,L176,L103,1,9,9,2,2,0,1,0,0,0,0,0,0,0,0,0,0,0,1,0,1,4,7,0,0,0,0,0,0,0,,,,0,0
L4292,Class,FileMessage,org.apache.camel.component.file.FileMessage,L4095,L103,1,7,7,1,2,0,0,0,0,2,2,0,20,3,0,0,0,0,0,0,1,0,5,0,0,0,0,0,0,0,,,,0,0
L4304,Class,DefaultMessage,org.apache.camel.impl.DefaultMessage,L12088,L103,1,9,7,2,3,0,0,11,11,1,1,1,11,2,0,0,0,0,0,0,1,0,11,0,0,0,0,0,0,0,,,,0,0
L451,Class,DeadLetterChannelBuilder,org.apache.camel.builder.DeadLetterChannelBuilder,L176,L103,1,28,28,6,6,0,1,0,0,0,0,0,0,0,0,0,1,3,2,0,1,3,21,0,0,0,0,0,0,0,,,,0,0
L463,Class,SendProcessor,org.apache.camel.processor.SendProcessor,L13364,L103,0,6,4,0,1,0,2,0,0,1,1,0,7,3,0,0,0,2,0,0,0,0,4,0,0,0,0,0,0,0,,,,0,0
L485,Class,ChoiceBuilder,org.apache.camel.builder.ChoiceBuilder,L176,L103,0,6,6,0,2,0,0,0,0,2,2,0,74,2,0,0,3,3,0,0,0,5,7,0,0,0,0,0,0,0,,,,0,0
L487,Class,FromBuilder,org.apache.camel.builder.FromBuilder,L176,L103,1,47,41,6,4,0,1,8,9,1,1,2,27,1,0,0,6,7,0,0,1,20,66,0,0,0,0,0,0,0,,,,0,0
L493,Class,WhenBuilder,org.apache.camel.builder.WhenBuilder,L176,L103,0,4,4,0,0,0,0,0,0,3,3,0,79,2,0,0,1,1,0,0,0,1,8,0,0,0,0,0,0,0,,,,0,0
L4968,Class,JMXComponent,org.apache.camel.component.jmx.JMXComponent,L4961,L103,1,5,4,1,1,0,0,0,0,1,1,0,0,0,0,0,0,0,0,0,1,1,7,0,0,0,0,0,0,0,,,,0,0
L4971,Class,JMXExchange,org.apache.camel.component.jmx.JMXExchange,L4961,L103,0,1,1,0,0,0,0,0,0,1,1,0,27,3,0,0,0,0,0,0,0,3,2,0,0,0,0,0,0,0,,,,0,0
L4990,Class,JMXEndpoint,org.apache.camel.component.jmx.JMXEndpoint,L4961,L103,10,18,17,6,7,0,0,0,0,1,1,0,0,0,0,0,1,1,0,0,6,1,18,0,0,0,0,0,0,0,,,,0,0
L5002,Class,JMXConsumer,org.apache.camel.component.jmx.JMXConsumer,L4961,L103,0,2,2,0,0,0,1,0,0,2,2,0,16,4,0,0,1,1,0,0,0,0,4,0,0,0,0,0,0,0,,,,0,0
L5120,Class,JMXMessage,org.apache.camel.component.jmx.JMXMessage,L4961,L103,1,6,6,0,2,0,0,0,0,2,2,0,20,3,0,0,0,0,0,0,1,0,4,0,0,0,0,0,0,0,,,,0,0
L5140,Class,AssertionClause<E extends Exchange>,org.apache.camel.component.mock.AssertionClause,L5135,L103,1,8,6,0,0,0,1,0,0,0,0,0,0,0,0,0,0,0,0,0,1,2,13,0,0,0,0,0,0,0,,,,0,0
L5204,Class,MockComponent,org.apache.camel.component.mock.MockComponent,L5135,L103,0,1,0,0,0,0,0,0,0,1,1,0,0,0,0,0,0,0,0,0,0,0,4,0,0,0,0,0,0,0,,,,0,0
L531,Class,FilterProcessor,org.apache.camel.processor.FilterProcessor,L13364,L103,1,7,5,0,2,0,1,0,0,1,1,0,7,3,0,0,0,1,0,0,1,1,6,0,0,0,0,0,0,0,,,,0,0
L5415,Class,NoPojoAvailableException,org.apache.camel.component.pojo.NoPojoAvailableException,L5404,L103,0,2,2,0,1,0,0,0,0,2,2,0,4,0,0,0,1,1,0,0,0,0,2,0,0,0,0,0,0,0,,,,0,0
L5420,Class,PojoEndpoint,org.apache.camel.component.pojo.PojoEndpoint,L5404,L103,1,8,8,1,2,0,0,0,0,1,1,0,0,0,0,0,1,1,0,0,1,2,11,0,0,0,0,0,0,0,,,,0,0
L5428,Class,PojoComponent,org.apache.camel.component.pojo.PojoComponent,L5404,L103,1,8,7,0,1,0,0,0,0,1,1,0,0,0,0,0,0,0,1,0,1,2,21,0,0,0,0,0,0,0,,,,0,0
L543,Class,ChoiceProcessor,org.apache.camel.processor.ChoiceProcessor,L13364,L103,0,7,5,0,2,0,1,0,0,1,1,0,7,3,0,0,1,2,0,0,0,0,6,0,0,0,0,0,0,0,,,,0,0
L5431,Class,PojoExchange,org.apache.camel.component.pojo.PojoExchange,L5404,L103,0,4,4,1,1,0,0,0,0,1,1,0,27,3,0,0,0,0,0,0,0,4,4,0,0,0,0,0,0,0,,,,0,0
L548,Class,ConstantProcessorBuilder,org.apache.camel.builder.ConstantProcessorBuilder,L176,L103,0,2,2,0,0,0,1,0,0,0,0,0,0,0,0,0,0,1,0,0,0,0,2,0,0,0,0,0,0,0,,,,0,0
L5486,Class,PojoInvocation,org.apache.camel.component.pojo.PojoInvocation,L5404,L103,3,4,4,0,3,0,0,0,0,0,0,0,0,0,0,0,0,0,0,0,2,2,6,0,0,0,0,0,0,0,,,,0,0
L560,Class,RedeliveryPolicy,org.apache.camel.processor.RedeliveryPolicy,L13364,L103,7,26,25,7,9,0,2,0,0,0,0,0,0,0,0,0,1,1,1,0,1,5,2,0,0,0,0,0,0,0,,,,0,0
L5609,Class,TimerComponent,org.apache.camel.component.pojo.timer.TimerComponent,L5602,L103,0,3,0,0,0,0,0,0,0,1,1,0,0,0,0,0,2,2,0,0,0,2,6,0,0,0,0,0,0,0,,,,0,0
L5614,Class,TimerConsumer,org.apache.camel.component.pojo.timer.TimerConsumer,L5602,L103,1,6,3,0,0,0,1,0,0,1,1,0,0,0,0,0,1,1,0,0,1,2,8,0,0,0,0,0,0,0,,,,0,0
L5630,Class,TimerEndpoint,org.apache.camel.component.pojo.timer.TimerEndpoint,L5602,L103,6,17,17,5,8,0,0,0,0,1,1,0,0,0,0,0,2,2,0,0,2,1,11,0,0,0,0,0,0,0,,,,0,0
L568,Class,Logger,org.apache.camel.processor.Logger,L13364,L103,1,12,11,2,2,0,1,0,0,0,0,0,0,0,0,0,2,2,2,0,1,8,11,0,0,0,0,0,0,0,,,,0,0
L5809,Class,ProcessorEndpoint,org.apache.camel.component.processor.ProcessorEndpoint,L5805,L103,0,8,6,0,3,0,0,0,0,1,1,0,0,0,0,0,1,2,1,0,0,1,11,0,0,0,0,0,0,0,,,,0,0
L5835,Class,ProcessorEndpointConsumer,org.apache.camel.component.processor.ProcessorEndpointConsumer,L5805,L103,0,3,1,0,0,0,0,0,0,1,1,0,0,0,0,0,1,1,0,0,0,0,2,0,0,0,0,0,0,0,,,,0,0
L5872,Class,QueueComponent<E extends Exchange>,org.apache.camel.component.queue.QueueComponent,L5865,L103,0,2,1,0,0,0,0,0,0,1,1,0,0,0,0,0,0,0,0,0,0,0,5,0,0,0,0,0,0,0,,,,0,0
L5901,Class,QueueEndpoint<E extends Exchange>,org.apache.camel.component.queue.QueueEndpoint,L5865,L103,1,6,6,0,2,0,0,0,0,1,1,0,0,0,0,0,0,0,0,0,1,0,7,0,0,0,0,0,0,0,,,,0,0
L5934,Class,QueueEndpointConsumer<E extends Exchange>,org.apache.camel.component.queue.QueueEndpointConsumer,L5865,L103,2,5,3,0,0,0,2,0,0,1,1,0,7,3,0,0,0,1,0,0,2,0,3,0,0,0,0,0,0,0,,,,0,0
L594,Class,DeadLetterChannel,org.apache.camel.processor.DeadLetterChannel,L13364,L103,3,15,11,2,4,0,1,0,0,1,1,0,7,3,0,0,2,3,0,0,2,0,16,0,0,0,0,0,0,0,,,,0,0
L6023,Class,ActiveMQComponent,org.apache.camel.component.activemq.ActiveMQComponent,L6002,L103,0,8,7,1,1,0,0,0,0,2,2,0,49,2,0,0,0,0,0,0,0,0,6,0,0,0,0,0,0,0,,,,0,0
L6025,Class,JmsComponent,org.apache.camel.component.jms.JmsComponent,L8367,L103,2,49,46,35,1,0,0,1,1,1,1,1,0,0,0,0,1,1,0,0,1,1,29,0,0,0,0,0,0,0,,,,0,0
L6049,Class,ActiveMQConfiguration,org.apache.camel.component.activemq.ActiveMQConfiguration,L6002,L103,1,7,5,2,2,0,0,0,0,1,1,0,82,39,0,0,0,0,0,0,1,2,6,0,0,0,0,0,0,0,,,,0,0
L6059,Class,JmsConfiguration,org.apache.camel.component.jms.JmsConfiguration,L8367,L103,39,82,77,36,36,0,1,1,1,0,0,1,0,0,0,0,3,3,0,0,7,8,35,0,0,0,0,0,0,0,,,,0,0
L6087,Class,JmsEndpoint,org.apache.camel.component.jms.JmsEndpoint,L8367,L103,3,16,15,2,5,0,0,0,0,1,1,0,0,0,0,0,4,4,0,0,1,8,23,0,0,0,0,0,0,0,,,,0,0
L6092,Class,JmsProducer,org.apache.camel.component.jms.JmsProducer,L8367,L103,2,3,3,0,1,0,0,0,0,2,2,0,13,4,0,0,1,1,0,0,2,2,4,0,0,0,0,0,0,0,,,,0,0
L6100,Class,JmsConsumer,org.apache.camel.component.jms.JmsConsumer,L8367,L103,1,5,2,0,1,0,0,0,0,1,1,0,0,0,0,0,0,0,0,0,1,2,7,0,0,0,0,0,0,0,,,,0,0
L6170,Class,CxfBinding,org.apache.camel.component.cxf.CxfBinding,L6137,L103,0,5,4,0,1,0,0,0,0,0,0,0,0,0,0,0,3,3,0,0,0,8,11,0,0,0,0,0,0,0,,,,0,0
L6175,Class,CxfExchange,org.apache.camel.component.cxf.CxfExchange,L6137,L103,1,17,15,0,12,0,0,0,0,1,1,0,27,3,0,0,1,1,0,0,1,11,23,0,0,0,0,0,0,0,,,,0,0
L6192,Class,CxfMessage,org.apache.camel.component.cxf.CxfMessage,L6137,L103,1,11,10,2,4,0,0,0,0,2,2,0,20,3,0,0,0,0,0,0,1,6,11,0,0,0,0,0,0,0,,,,0,0
L6213,Class,CxfComponent,org.apache.camel.component.cxf.CxfComponent,L6137,L103,1,6,4,1,1,0,0,0,0,1,1,0,0,0,0,0,1,1,0,0,1,2,8,0,0,0,0,0,0,0,,,,0,0
L6229,Class,CxfEndpoint,org.apache.camel.component.cxf.CxfEndpoint,L6137,L103,2,13,13,2,6,0,0,0,0,1,1,0,0,0,0,0,4,4,0,0,1,2,14,0,0,0,0,0,0,0,,,,0,0
L6245,Class,CxfConsumer,org.apache.camel.component.cxf.CxfConsumer,L6137,L103,2,4,1,0,0,0,0,0,0,1,1,0,0,0,0,0,1,1,0,0,2,0,4,0,0,0,0,0,0,0,,,,0,0
L6293,Class,CxfProducer,org.apache.camel.component.cxf.CxfProducer,L6137,L103,4,5,3,0,0,0,0,0,0,2,2,0,13,4,0,0,1,1,0,0,4,0,4,0,0,0,0,0,0,0,,,,0,0
L6373,Class,CxfInvokeComponent,org.apache.camel.component.cxf.CxfInvokeComponent,L6137,L103,1,6,3,0,3,0,0,0,0,1,1,0,0,0,0,0,1,1,0,0,1,2,10,0,0,0,0,0,0,0,,,,0,0
L6384,Class,CxfInvokeEndpoint,org.apache.camel.component.cxf.CxfInvokeEndpoint,L6137,L103,2,13,13,2,6,0,0,0,0,1,1,0,0,0,0,0,4,4,0,0,1,2,15,0,0,0,0,0,0,0,,,,0,0
L6404,Class,CxfInvokeConsumer,org.apache.camel.component.cxf.CxfInvokeConsumer,L6137,L103,1,4,1,0,0,0,0,0,0,1,1,0,0,0,0,0,1,1,0,0,1,0,3,0,0,0,0,0,0,0,,,,0,0
L6438,Class,CxfInvokeProducer,org.apache.camel.component.cxf.CxfInvokeProducer,L6137,L103,1,5,3,0,0,0,0,0,0,2,2,0,13,4,0,0,1,1,0,0,1,0,3,0,0,0,0,0,0,0,,,,0,0
L6551,Class,CamelConduit,org.apache.camel.component.cxf.transport.CamelConduit,L6540,L103,3,7,4,0,3,0,1,0,0,1,1,0,0,0,0,0,1,1,0,0,2,1,7,0,0,0,0,0,0,0,,,,0,0
L6561,Class,CamelTransportBase,org.apache.camel.component.cxf.transport.CamelTransportBase,L6540,L103,4,7,6,1,1,0,0,0,0,0,0,0,0,0,0,0,2,3,0,0,4,0,14,0,0,0,0,0,0,0,,,,0,0
L6657,Class,CamelConstants,org.apache.camel.component.cxf.transport.CamelConstants,L6540,L103,18,0,0,0,0,0,0,0,0,0,0,0,0,0,0,0,0,0,0,0,1,0,0,0,0,0,0,0,0,0,,,,0,0
L6677,Class,CamelDestination,org.apache.camel.component.cxf.transport.CamelDestination,L6540,L103,4,11,5,1,4,0,1,0,0,1,1,0,0,0,0,0,1,3,0,0,3,1,13,0,0,0,0,0,0,0,,,,0,0
L674,Class,RecipientList,org.apache.camel.processor.RecipientList,L13364,L103,2,6,3,0,0,0,1,0,0,1,1,0,7,3,0,0,0,0,0,0,2,0,6,0,0,0,0,0,0,0,,,,0,0
L6806,Class,CamelTransportFactory,org.apache.camel.component.cxf.transport.CamelTransportFactory,L6540,L103,2,8,8,2,6,0,2,0,0,1,1,0,0,0,0,0,0,1,0,0,2,0,12,0,0,0,0,0,0,0,,,,0,0
L7052,Class,CamelServlet,org.apache.camel.component.http.CamelServlet,L7024,L103,1,5,3,0,0,0,0,0,0,1,1,0,0,0,0,0,1,1,0,0,1,2,6,0,0,0,0,0,0,0,,,,0,0
L7060,Class,HttpConsumer,org.apache.camel.component.http.HttpConsumer,L7024,L103,0,6,4,0,3,0,0,0,0,1,1,0,0,0,0,0,1,1,0,0,0,9,5,0,0,0,0,0,0,0,,,,0,0
L707,Class,ExpressionBuilder,org.apache.camel.builder.ExpressionBuilder,L176,L103,0,17,17,0,0,0,0,0,0,0,0,0,0,0,0,0,0,0,0,0,0,0,39,0,0,0,0,0,0,0,,,,0,0
L7088,Class,HttpExchange,org.apache.camel.component.http.HttpExchange,L7024,L103,2,5,5,0,3,0,0,0,0,1,1,0,27,3,0,0,1,1,0,0,2,5,7,0,0,0,0,0,0,0,,,,0,0
L7117,Class,HttpBinding,org.apache.camel.component.http.HttpBinding,L7024,L103,0,2,2,0,0,0,0,0,0,0,0,0,0,0,0,0,1,1,0,0,0,3,3,0,0,0,0,0,0,0,,,,0,0
L7126,Class,HttpMessage,org.apache.camel.component.http.HttpMessage,L7024,L103,1,5,3,0,2,0,0,0,0,2,2,0,20,3,0,0,0,0,0,0,1,1,6,0,0,0,0,0,0,0,,,,0,0
L7133,Class,HttpComponent,org.apache.camel.component.http.HttpComponent,L7024,L103,0,5,4,1,1,0,0,1,1,1,1,1,0,0,0,0,2,2,0,0,0,1,8,0,0,0,0,0,0,0,,,,0,0
L7161,Class,HttpEndpoint,org.apache.camel.component.http.HttpEndpoint,L7024,L103,1,13,12,1,5,0,0,0,0,1,1,0,0,0,0,0,4,4,0,0,1,6,15,0,0,0,0,0,0,0,,,,0,0
L7201,Class,HttpProducer,org.apache.camel.component.http.HttpProducer,L7024,L103,1,4,2,0,0,0,1,0,0,1,1,0,0,0,0,0,0,0,0,0,1,1,6,0,0,0,0,0,0,0,,,,0,0
L7297,Class,JettyHttpComponent,org.apache.camel.component.http.JettyHttpComponent,L7024,L103,2,5,2,0,0,0,0,0,0,2,2,0,5,0,0,0,0,0,0,0,2,0,3,0,0,0,0,0,0,0,,,,0,0
L8001,Class,CamelJbiComponent,org.apache.camel.component.jbi.CamelJbiComponent,L7971,L103,1,12,8,2,7,0,1,0,0,1,1,0,0,0,0,0,2,3,0,0,1,1,17,0,0,0,0,0,0,0,,,,0,0
L8008,Class,JbiBinding,org.apache.camel.component.jbi.JbiBinding,L7971,L103,0,5,2,0,1,0,0,0,0,0,0,0,0,0,0,0,5,5,0,0,0,10,14,0,0,0,0,0,0,0,,,,0,0
L8016,Class,CamelJbiEndpoint,org.apache.camel.component.jbi.CamelJbiEndpoint,L7971,L103,2,4,2,0,0,0,0,0,0,1,1,0,0,0,0,0,1,3,0,0,2,2,15,0,0,0,0,0,0,0,,,,0,0
L8044,Class,FailedToCreateProducerException,org.apache.camel.FailedToCreateProducerException,L106,L103,0,2,2,0,1,0,0,0,0,2,2,0,4,1,0,0,1,1,0,0,0,0,3,0,0,0,0,0,0,0,,,,0,0
L8056,Class,JbiEndpoint,org.apache.camel.component.jbi.JbiEndpoint,L7971,L103,0,6,6,0,2,0,0,0,0,1,1,0,0,0,0,0,1,2,0,0,0,1,7,0,0,0,0,0,0,0,,,,0,0
L8103,Class,JbiExchange,org.apache.camel.component.jbi.JbiExchange,L7971,L103,1,13,11,0,9,0,0,0,0,1,1,0,27,3,0,0,1,1,0,0,1,3,16,0,0,0,0,0,0,0,,,,0,0
L8112,Class,FromJbiProcessor,org.apache.camel.component.jbi.FromJbiProcessor,L7971,L103,0,2,2,0,0,0,1,0,0,0,0,0,0,0,0,0,1,3,0,0,0,0,4,0,0,0,0,0,0,0,,,,0,0
L8157,Class,ToJbiProcessor,org.apache.camel.component.jbi.ToJbiProcessor,L7971,L103,2,2,2,0,0,0,1,0,0,0,0,0,0,0,0,0,1,1,0,0,2,0,4,0,0,0,0,0,0,0,,,,0,0
L8187,Class,JbiException,org.apache.camel.component.jbi.JbiException,L7971,L103,0,3,3,0,0,0,0,0,0,2,2,0,4,1,0,0,0,0,0,0,0,0,4,0,0,0,0,0,0,0,,,,0,0
L8206,Class,JbiMessage,org.apache.camel.component.jbi.JbiMessage,L7971,L103,1,10,8,1,3,0,0,0,0,2,2,0,20,3,0,0,0,0,0,0,1,6,9,0,0,0,0,0,0,0,,,,0,0
L8422,Class,EndpointMessageListener<E extends Exchange>,org.apache.camel.component.jms.EndpointMessageListener,L8367,L103,2,5,5,1,1,0,1,0,0,0,0,0,0,0,0,0,1,2,0,0,2,0,7,0,0,0,0,0,0,0,,,,0,0
L8433,Class,JmsBinding,org.apache.camel.component.jms.JmsBinding,L8367,L103,0,6,3,0,0,0,0,0,0,0,0,0,0,0,0,0,3,3,0,0,0,7,17,0,0,0,0,0,0,0,,,,0,0
L8444,Class,JmsExchange,org.apache.camel.component.jms.JmsExchange,L8367,L103,0,13,11,0,8,0,0,0,0,1,1,0,27,3,0,0,1,1,0,0,0,7,16,0,0,0,0,0,0,0,,,,0,0
L8469,Class,RuntimeJmsException,org.apache.camel.component.jms.RuntimeJmsException,L8367,L103,1,1,1,0,0,0,0,2,2,1,1,1,0,0,0,0,0,0,0,0,0,0,2,0,0,0,0,0,0,0,,,,0,0
L8944,Class,JmsPollingConsumer,org.apache.camel.component.jms.JmsPollingConsumer,L8367,L103,1,8,5,1,1,0,0,0,0,1,1,0,0,0,0,0,0,0,0,0,1,0,6,0,0,0,0,0,0,0,,,,0,0
L8974,Class,JmsMessage,org.apache.camel.component.jms.JmsMessage,L8367,L103,2,11,7,1,4,0,0,0,0,2,2,0,20,3,0,0,0,0,0,0,2,6,12,0,0,0,0,0,0,0,,,,0,0
L9004,Class,JmsIOConverter,org.apache.camel.component.jms.JmsIOConverter,L8367,L103,0,2,1,0,0,0,0,0,0,0,0,0,0,0,0,0,0,0,0,0,0,0,4,0,0,0,0,0,0,0,,,,0,0
L9108,Class,MessagePropertyAccessException,org.apache.camel.component.jms.MessagePropertyAccessException,L8367,L103,2,2,2,0,1,0,0,0,0,2,2,0,1,1,0,0,0,0,0,0,1,0,3,0,0,0,0,0,0,0,,,,0,0
L9119,Class,MessagePropertyNamesAccessException,org.apache.camel.component.jms.MessagePropertyNamesAccessException,L8367,L103,1,1,1,0,0,0,0,0,0,2,2,0,1,1,0,0,0,0,0,0,0,0,1,0,0,0,0,0,0,0,,,,0,0
L9132,Class,PollingConsumerSupport<E extends Exchange>,org.apache.camel.impl.PollingConsumerSupport,L12088,L103,1,6,5,1,2,0,1,0,0,1,1,0,7,3,0,0,0,0,1,0,1,0,6,0,0,0,0,0,0,0,,,,0,0
L9174,Class,MessageListenerProcessor,org.apache.camel.component.jms.MessageListenerProcessor,L8367,L103,0,2,2,0,0,0,1,0,0,0,0,0,0,0,0,0,1,2,0,0,0,0,3,0,0,0,0,0,0,0,,,,0,0
L9302,Class,SpringRouteBuilder,org.apache.camel.spring.SpringRouteBuilder,L16472,L103,1,4,4,1,1,0,0,0,0,2,2,0,41,2,0,0,0,0,0,0,1,0,5,0,0,0,0,0,0,0,,,,0,0
L9311,Class,SpringTransactionPolicy<E extends Object>,org.apache.camel.spring.spi.SpringTransactionPolicy,L17011,L103,2,5,5,1,1,0,1,0,0,0,0,0,0,0,0,0,0,0,0,0,2,0,5,0,0,0,0,0,0,0,,,,0,0
L9348,Class,SpringCamelContext,org.apache.camel.spring.SpringCamelContext,L16472,L103,1,10,8,1,1,0,3,0,0,2,2,0,38,4,0,0,1,1,0,0,1,6,7,0,0,0,0,0,0,0,,,,0,0
L960,Class,FilterBuilder,org.apache.camel.builder.FilterBuilder,L176,L103,0,5,5,0,1,0,0,1,1,2,2,1,74,2,0,0,0,1,0,0,0,1,6,0,0,0,0,0,0,0,,,,0,0
L9666,Class,NoTypeConversionAvailableException,org.apache.camel.NoTypeConversionAvailableException,L106,L103,2,3,3,0,2,0,0,0,0,2,2,0,4,1,0,0,0,0,0,0,2,0,4,0,0,0,0,0,0,0,,,,0,0
L9958,Class,JavaMailConnection,org.apache.camel.component.mail.JavaMailConnection,L9923,L103,0,1,1,0,1,0,0,0,0,1,1,0,0,0,0,0,0,0,0,0,0,1,3,0,0,0,0,0,0,0,,,,0,0
L9964,Class,MailBinding,org.apache.camel.component.mail.MailBinding,L9923,L103,0,6,2,0,0,0,0,0,0,0,0,0,0,0,0,0,2,2,0,0,0,5,16,0,0,0,0,0,0,0,,,,0,0
L9969,Class,MailEndpoint,org.apache.camel.component.mail.MailEndpoint,L9923,L103,0,11,11,1,3,0,0,0,0,1,1,0,0,0,0,0,5,5,0,0,0,6,17,0,0,0,0,0,0,0,,,,0,0
L9984,Class,RuntimeMailException,org.apache.camel.component.mail.RuntimeMailException,L9923,L103,1,1,1,0,0,0,0,2,2,1,1,1,0,0,0,0,0,0,0,0,0,0,2,0,0,0,0,0,0,0,,,,0,0
L999,Class,RouteBuilder,org.apache.camel.builder.RouteBuilder,L176,L103,1,14,9,0,3,0,0,6,6,1,1,1,27,1,0,0,3,3,1,0,1,47,12,0,0,0,0,0,0,0,,,,0,0
L9993,Class,MailExchange,org.apache.camel.component.mail.MailExchange,L9923,L103,0,10,8,0,5,0,0,0,0,1,1,0,27,3,0,0,1,1,0,0,0,4,13,0,0,0,0,0,0,0,,,,0,0
L1088,Interface,MessageIdRepository,org.apache.camel.processor.idempotent.MessageIdRepository,L13509,L103,,1,,,,,,,0,0,,,,,,,,,,0,,8,1,,,,,,,0,2,2,0,0,0
L1195,Interface,Policy<E extends Object>,org.apache.camel.spi.Policy,L14513,L103,,1,,,,,,,0,0,,,,,,,,,,0,,2,2,,,,,,,0,0,0,0,0,0
L12149,Interface,TypeConverterRegistry,org.apache.camel.impl.converter.TypeConverterRegistry,L12169,L103,,2,,,,,,,0,0,,,,,,,,,,0,,4,4,,,,,,,0,1,1,0,0,0
L12182,Interface,TypeConverterLoader,org.apache.camel.impl.converter.TypeConverterLoader,L12169,L103,,1,,,,,,,0,0,,,,,,,,,,0,,0,1,,,,,,,0,0,1,0,0,0
L12514,Interface,ComponentResolver<E extends Exchange>,org.apache.camel.spi.ComponentResolver,L14513,L103,,1,,,,,,,0,0,,,,,,,,,,0,,5,3,,,,,,,0,2,1,0,0,0
L12731,Interface,ExceptionHandler,org.apache.camel.spi.ExceptionHandler,L14513,L103,,1,,,,,,,0,0,,,,,,,,,,0,,8,1,,,,,,,0,4,1,0,0,0
L13430,Interface,ErrorHandler,org.apache.camel.processor.ErrorHandler,L13364,L103,,0,,,,,,,0,1,,,,,,,,,,0,,0,0,,,,,,,0,0,2,0,0,0
L14547,Interface,Marshaller,org.apache.camel.spi.Marshaller,L14513,L103,,1,,,,,,,0,0,,,,,,,,,,0,,0,2,,,,,,,0,0,1,0,0,0
L14557,Interface,Provider<T extends Object>,org.apache.camel.spi.Provider,L14513,L103,,1,,,,,,,0,0,,,,,,,,,,0,,0,1,,,,,,,0,0,0,0,0,0
L14564,Interface,Unmarshaller,org.apache.camel.spi.Unmarshaller,L14513,L103,,1,,,,,,,0,0,,,,,,,,,,0,,0,2,,,,,,,0,0,1,0,0,0
L1644,Interface,PredicateFactory<E extends Exchange>,org.apache.camel.builder.PredicateFactory,L176,L103,,1,,,,,,,0,0,,,,,,,,,,0,,0,1,,,,,,,0,0,0,0,0,0
L16510,Interface,MethodInvocationStrategy,org.apache.camel.spring.util.MethodInvocationStrategy,L17131,L103,,1,,,,,,,0,0,,,,,,,,,,0,,3,2,,,,,,,0,2,1,0,0,0
L1739,Interface,Service,org.apache.camel.Service,L106,L103,,2,,,,,,,4,0,,,,,,,,,,0,,0,0,,,,,,,0,0,3,3,0,0
L2092,Interface,ResultHandler,org.apache.camel.builder.xml.ResultHandler,L1955,L103,,2,,,,,,,0,0,,,,,,,,,,0,,2,2,,,,,,,0,1,3,0,0,0
L237,Interface,Expression<E extends Exchange>,org.apache.camel.Expression,L106,L103,,1,,,,,,,0,0,,,,,,,,,,0,,35,2,,,,,,,0,8,0,0,0,0
L246,Interface,Exchange,org.apache.camel.Exchange,L106,L103,,15,,,,,,,0,0,,,,,,,,,,0,,145,18,,,,,,,0,16,1,0,0,0
L2755,Interface,Producer<E extends Exchange>,org.apache.camel.Producer,L106,L103,,3,,,,,,,0,2,,,,,,,,,,0,,6,4,,,,,,,0,2,0,0,0,0
L324,Interface,ErrorHandlerBuilder<E extends Exchange>,org.apache.camel.builder.ErrorHandlerBuilder,L176,L103,,2,,,,,,,0,0,,,,,,,,,,0,,7,3,,,,,,,0,1,2,0,0,0
L3663,Interface,Component<E extends Exchange>,org.apache.camel.Component,L106,L103,,3,,,,,,,0,0,,,,,,,,,,0,,16,4,,,,,,,0,1,0,0,0,0
L3734,Interface,ExchangeConverter,org.apache.camel.spi.ExchangeConverter,L14513,L103,,1,,,,,,,0,0,,,,,,,,,,0,,4,2,,,,,,,0,1,1,0,0,0
L3738,Interface,TypeConverter,org.apache.camel.TypeConverter,L106,L103,,1,,,,,,,0,0,,,,,,,,,,0,,9,2,,,,,,,0,3,6,0,0,0
L3743,Interface,Injector<T extends Object>,org.apache.camel.spi.Injector,L14513,L103,,1,,,,,,,0,0,,,,,,,,,,0,,11,2,,,,,,,0,2,0,0,0,0
L383,Interface,Endpoint<E extends Exchange>,org.apache.camel.Endpoint,L106,L103,,9,,,,,,,0,0,,,,,,,,,,0,,55,11,,,,,,,0,12,0,0,0,0
L4038,Interface,Consumer<E extends Exchange>,org.apache.camel.Consumer,L106,L103,,0,,,,,,,0,1,,,,,,,,,,0,,1,0,,,,,,,0,0,0,0,0,0
L510,Interface,Predicate<E extends Object>,org.apache.camel.Predicate,L106,L103,,2,,,,,,,0,0,,,,,,,,,,0,,10,3,,,,,,,0,1,0,0,0,0
L550,Interface,ProcessorFactory,org.apache.camel.builder.ProcessorFactory,L176,L103,,1,,,,,,,0,0,,,,,,,,,,0,,14,1,,,,,,,0,2,7,0,0,0
L5813,Interface,LoadBalancer,org.apache.camel.processor.loadbalancer.LoadBalancer,L13653,L103,,3,,,,,,,0,1,,,,,,,,,,0,,5,3,,,,,,,0,2,1,0,0,0
L6240,Interface,CxfConstants,org.apache.camel.component.cxf.CxfConstants,L6137,L103,,0,,,,,,,0,0,,,,,,,,,,0,,0,0,,,,,,,0,0,0,0,0,0
L8939,Interface,PollingConsumer<E extends Exchange>,org.apache.camel.PollingConsumer,L106,L103,,3,,,,,,,0,1,,,,,,,,,,0,,0,3,,,,,,,0,1,0,0,0,0
