ID,Type,Name,LongName,Parent,Component,NumAttr,NumOps,NumPubOps,Setters,Getters,Nesting,IFImpl,NOC,NumDesc,NumAnc,DIT,CLD,OpsInh,AttrInh,Dep_Out,Dep_In,NumAssEl_ssc,NumAssEl_sb,NumAssEl_nsb,EC_Attr,IC_Attr,EC_Par,IC_Par,Connectors,InstSpec,LLInst,MsgSent,MsgRecv,MsgSelf,Diags,Assoc,NumDirClients,NumIndClients,BugNo,Label
L1029,Class,SourceTypeAction,org.apache.forrest.sourcetype.SourceTypeAction,L912,L103,2,2,2,0,0,0,3,0,0,1,1,0,0,0,0,0,0,0,0,0,2,0,7,0,0,0,0,0,0,0,,,,0,0
L1062,Class,XmlSchemaRule,org.apache.forrest.sourcetype.XmlSchemaRule,L912,L103,2,2,2,0,0,0,1,0,0,0,0,0,0,0,0,0,0,0,0,0,1,0,2,0,0,0,0,0,0,0,,,,0,0
L1079,Class,IdGeneratorTransformer,org.apache.forrest.util.IdGeneratorTransformer,L1075,L103,4,12,9,1,2,0,3,0,0,1,1,0,0,0,0,0,0,0,0,0,2,0,21,0,0,0,0,0,0,0,,,,0,0
L1169,Class,XPathTransformer,org.apache.forrest.util.XPathTransformer,L1075,L103,4,16,8,1,2,0,1,0,0,1,1,0,0,0,0,0,0,0,0,0,3,0,28,0,0,0,0,0,0,0,,,,0,0
L1295,Class,XNIConfigurableFileGenerator,org.apache.forrest.xni.XNIConfigurableFileGenerator,L1292,L103,4,8,8,1,2,0,2,0,0,1,1,0,0,0,0,0,0,0,0,0,3,0,8,0,0,0,0,0,0,0,,,,0,0
L261,Class,AntProperties,org.apache.forrest.conf.AntProperties,L253,L103,0,7,7,1,0,0,0,0,0,1,1,0,0,0,0,0,1,1,0,0,0,5,11,0,0,0,0,0,0,0,,,,0,0
L390,Class,AntPropertiesModule,org.apache.forrest.conf.AntPropertiesModule,L253,L103,2,4,2,0,1,0,4,0,0,1,1,0,0,0,0,0,0,0,0,0,2,0,6,0,0,0,0,0,0,0,,,,0,0
L499,Class,SkinconfTransformer,org.apache.forrest.conf.SkinconfTransformer,L253,L103,0,2,2,1,0,0,0,0,0,1,1,0,0,0,0,0,0,0,0,0,0,0,8,0,0,0,0,0,0,0,,,,0,0
L563,Class,AbstractWrappingModule,org.apache.forrest.locationmap.AbstractWrappingModule,L556,L103,2,6,6,0,3,0,4,0,0,1,1,0,0,0,0,0,0,0,0,0,2,0,13,0,0,0,0,0,0,0,,,,0,0
L597,Class,AbstractNode,org.apache.forrest.locationmap.lm.AbstractNode,L589,L103,2,5,3,0,1,0,0,4,4,1,1,1,0,0,0,0,3,3,0,0,2,0,10,0,0,0,0,0,0,0,,,,0,0
L650,Class,LocatorNode,org.apache.forrest.locationmap.lm.LocatorNode,L589,L103,1,5,3,0,2,0,0,0,0,2,2,0,5,2,0,0,5,5,0,0,1,3,8,0,0,0,0,0,0,0,,,,0,0
L691,Class,LocationNode,org.apache.forrest.locationmap.lm.LocationNode,L589,L103,1,3,3,0,0,0,0,0,0,2,2,0,5,2,0,0,1,1,0,0,1,0,6,0,0,0,0,0,0,0,,,,0,0
L734,Class,MatchNode,org.apache.forrest.locationmap.lm.MatchNode,L589,L103,3,3,3,0,0,0,0,0,0,2,2,0,5,2,0,0,2,2,0,0,2,0,6,0,0,0,0,0,0,0,,,,0,0
L739,Class,SelectNode,org.apache.forrest.locationmap.lm.SelectNode,L589,L103,2,3,3,0,0,0,0,0,0,2,2,0,5,2,0,0,2,2,0,0,2,0,6,0,0,0,0,0,0,0,,,,0,0
L864,Class,RegexpLocationMapMatcher,org.apache.forrest.locationmap.RegexpLocationMapMatcher,L556,L103,0,1,0,0,1,0,1,0,0,1,1,0,0,0,0,0,0,0,0,0,0,0,3,0,0,0,0,0,0,0,,,,0,0
L872,Class,WildcardLocationMapHintMatcher,org.apache.forrest.locationmap.WildcardLocationMapHintMatcher,L556,L103,0,1,0,0,1,0,0,0,0,1,1,0,0,0,0,0,0,0,0,0,0,0,3,0,0,0,0,0,0,0,,,,0,0
L878,Class,WildcardLocationMapMatcher,org.apache.forrest.locationmap.WildcardLocationMapMatcher,L556,L103,0,1,0,0,1,0,1,0,0,1,1,0,0,0,0,0,0,0,0,0,0,0,3,0,0,0,0,0,0,0,,,,0,0
L888,Class,ForrestLogTargetFactory,org.apache.forrest.log.ForrestLogTargetFactory,L885,L103,0,1,1,0,0,0,0,0,0,1,1,0,0,0,0,0,0,0,0,0,0,0,1,0,0,0,0,0,0,0,,,,0,0
L897,Class,SourceExistsSelector,org.apache.forrest.sourceexists.SourceExistsSelector,L894,L103,1,2,2,0,0,0,3,0,0,1,1,0,0,0,0,0,0,0,0,0,1,0,4,0,0,0,0,0,0,0,,,,0,0
L922,Class,DocDeclRule,org.apache.forrest.sourcetype.DocDeclRule,L912,L103,1,2,2,0,0,0,1,0,0,0,0,0,0,0,0,0,0,0,0,0,1,0,2,0,0,0,0,0,0,0,,,,0,0
L924,Interface,SourceTypeRule,org.apache.forrest.sourcetype.SourceTypeRule,L912,L103,,1,,,,,,,0,1,,,,,,,,,,0,0,1,,,,,,,,0,0,4,0,0,0
L934,Class,SourceInfo,org.apache.forrest.sourcetype.SourceInfo,L912,L103,6,13,13,5,7,0,0,0,0,0,0,0,0,0,0,0,0,0,0,0,2,6,15,0,0,0,0,0,0,0,,,,0,0
L939,Class,DocumentElementRule,org.apache.forrest.sourcetype.DocumentElementRule,L912,L103,2,2,2,0,0,0,1,0,0,0,0,0,0,0,0,0,0,0,0,0,1,0,2,0,0,0,0,0,0,0,,,,0,0
L954,Class,ProcessingInstructionRule,org.apache.forrest.sourcetype.ProcessingInstructionRule,L912,L103,2,2,2,0,0,0,1,0,0,0,0,0,0,0,0,0,0,0,0,0,1,0,2,0,0,0,0,0,0,0,,,,0,0
L1006,Class,SourceType,org.apache.forrest.sourcetype.SourceType,L912,L103,2,3,3,0,1,0,1,0,0,0,0,0,0,0,0,0,0,0,0,0,2,0,3,0,0,0,0,0,0,0,,,,1,1
L482,Class,ForrestConfUtils,org.apache.forrest.conf.ForrestConfUtils,L253,L103,1,6,4,1,4,0,0,0,0,0,0,0,0,0,0,0,0,0,0,0,1,0,8,0,0,0,0,0,0,0,,,,1,1
L629,Class,LocationMap,org.apache.forrest.locationmap.lm.LocationMap,L589,L103,7,7,4,0,2,0,0,0,0,1,1,0,0,0,0,0,1,2,0,0,2,2,10,0,0,0,0,0,0,0,,,,2,1
L810,Class,LocationMapModule,org.apache.forrest.locationmap.LocationMapModule,L556,L103,5,9,7,0,4,0,5,0,0,1,1,0,0,0,0,0,0,1,0,0,5,0,16,0,0,0,0,0,0,0,,,,3,1
L413,Class,ForrestConfModule,org.apache.forrest.conf.ForrestConfModule,L253,L103,5,9,4,0,3,0,4,0,0,1,1,0,0,0,0,0,1,1,0,0,2,0,16,0,0,0,0,0,0,0,,,,8,1
