ID,Type,Name,LongName,Parent,Component,NumAttr,NumOps,NumPubOps,Setters,Getters,Nesting,IFImpl,NOC,NumDesc,NumAnc,DIT,CLD,OpsInh,AttrInh,Dep_Out,Dep_In,NumAssEl_ssc,NumAssEl_sb,NumAssEl_nsb,EC_Attr,IC_Attr,EC_Par,IC_Par,Connectors,InstSpec,LLInst,MsgSent,MsgRecv,MsgSelf,Diags,Assoc,NumDirClients,NumIndClients,BugNo,Label
L10115,Class,Abbrevs,org.gjt.sp.jedit.Abbrevs,L10077,L103,7,16,9,3,3,0,0,0,0,0,0,0,0,0,0,0,0,0,0,0,2,0,18,0,0,0,0,0,0,0,,,,0,0
L10170,Class,AddAbbrevDialog,org.gjt.sp.jedit.gui.AddAbbrevDialog,L15282,L103,3,1,1,0,0,0,0,0,0,1,1,0,0,0,0,0,1,2,0,0,1,0,2,0,0,0,0,0,0,0,,,,0,0
L1021,Class,ClassPathException,bsh.ClassPathException,L104,L103,0,1,1,0,0,0,0,0,0,2,2,0,15,1,0,0,0,0,0,0,0,0,1,0,0,0,0,0,0,0,,,,0,0
L10320,Interface,OptionPane,org.gjt.sp.jedit.OptionPane,L10077,L103,,4,,,,,,,0,0,,,,,,,,,,0,,3,2,,,,,,,0,0,1,0,0,0
L1045,Class,BSHFormalComment,bsh.BSHFormalComment,L104,L103,1,1,1,0,0,0,0,0,0,1,1,0,19,2,0,0,0,0,0,0,1,0,0,0,0,0,0,0,0,0,,,,0,0
L10456,Class,ActionListHandler,org.gjt.sp.jedit.ActionListHandler,L10077,L103,7,11,7,0,0,0,0,0,0,1,1,0,13,0,0,0,1,1,0,0,2,0,16,0,0,0,0,0,0,0,,,,0,0
L1049,Class,BSHFormalParameter,bsh.BSHFormalParameter,L104,L103,3,2,1,0,0,0,0,0,0,1,1,0,19,2,0,0,0,0,0,0,2,0,2,0,0,0,0,0,0,0,,,,0,0
L10521,Class,BeanShellAction,org.gjt.sp.jedit.BeanShellAction,L10077,L103,5,7,7,0,3,0,0,0,0,1,1,0,12,1,0,0,0,0,1,0,1,0,6,0,0,0,0,0,0,0,,,,0,0
L10559,Class,EditAction,org.gjt.sp.jedit.EditAction,L10077,L103,1,12,12,0,7,0,0,5,5,0,0,1,0,0,0,0,0,4,0,0,1,15,10,0,0,0,0,0,0,0,,,,0,0
L1061,Class,BSHFormalParameters,bsh.BSHFormalParameters,L104,L103,3,2,1,0,0,0,0,0,0,1,1,0,19,2,0,0,1,1,0,0,2,0,2,0,0,0,0,0,0,0,,,,0,0
L1084,Class,BSHForStatement,bsh.BSHForStatement,L104,L103,4,2,1,0,0,0,1,0,0,1,1,0,19,2,0,0,1,1,0,0,0,0,3,0,0,0,0,0,0,0,,,,0,0
L10885,Class,BrowserCommandsMenu,org.gjt.sp.jedit.browser.BrowserCommandsMenu,L10876,L103,5,4,2,0,0,0,0,0,0,1,1,0,0,0,0,0,2,2,1,1,4,0,5,0,0,0,0,0,0,0,,,,0,0
L11050,Class,WorkRequest,org.gjt.sp.util.WorkRequest,L32075,L103,0,4,4,4,0,0,1,4,4,0,0,1,0,0,0,0,0,0,0,0,0,0,1,0,0,0,0,0,0,0,,,,0,0
L11131,Class,WorkThread,org.gjt.sp.util.WorkThread,L32075,L103,7,13,11,4,4,0,0,0,0,1,1,0,0,0,0,0,1,1,0,0,2,3,6,0,0,0,0,0,0,0,,,,0,0
L11150,Interface,BrowserListener,org.gjt.sp.jedit.browser.BrowserListener,L10876,L103,,2,,,,,,,0,1,,,,,,,,,,0,,2,4,,,,,,,0,0,1,0,0,0
L1116,Class,BSHIfStatement,bsh.BSHIfStatement,L104,L103,0,3,2,0,0,0,0,0,0,1,1,0,19,2,0,0,0,0,0,0,0,0,6,0,0,0,0,0,0,0,,,,0,0
L1125,Class,BSHImportDeclaration,bsh.BSHImportDeclaration,L104,L103,2,2,1,0,0,0,0,0,0,1,1,0,19,2,0,0,0,0,0,0,0,0,3,0,0,0,0,0,0,0,,,,0,0
L1146,Class,BSHLHSPrimarySuffix,bsh.BSHLHSPrimarySuffix,L104,L103,7,5,1,0,0,0,0,0,0,1,1,0,19,2,0,0,0,0,0,0,2,0,16,0,0,0,0,0,0,0,,,,0,0
L11868,Class,HistoryTextField,org.gjt.sp.jedit.gui.HistoryTextField,L15282,L103,6,22,15,7,2,0,0,0,0,1,1,0,0,0,0,0,1,1,4,0,2,2,9,0,0,0,0,0,0,0,,,,0,0
L11921,Class,VFSUpdate,org.gjt.sp.jedit.msg.VFSUpdate,L23289,L103,1,3,3,0,1,0,0,0,0,1,1,0,6,0,0,0,0,0,0,0,1,0,3,0,0,0,0,0,0,0,,,,0,0
L1195,Class,BSHLiteral,bsh.BSHLiteral,L104,L103,1,5,2,0,1,0,0,0,0,1,1,0,19,2,0,0,0,0,0,0,1,0,5,0,0,0,0,0,0,0,,,,0,0
L12007,Class,DirectoryListSet,org.gjt.sp.jedit.search.DirectoryListSet,L26498,L103,3,6,5,0,4,0,0,0,0,1,1,0,7,1,0,0,0,0,0,0,1,0,7,0,0,0,0,0,0,0,,,,0,0
L12164,Class,RolloverButton,org.gjt.sp.jedit.gui.RolloverButton,L15282,L103,1,5,5,1,1,0,0,1,1,1,1,1,0,0,0,0,0,0,2,0,1,0,2,0,0,0,0,0,0,0,,,,0,0
L12253,Class,PluginManager,org.gjt.sp.jedit.pluginmgr.PluginManager,L25229,L103,8,5,3,0,1,0,0,0,0,2,2,0,5,1,0,0,2,2,0,0,3,1,2,0,0,0,0,0,0,0,,,,0,0
L12303,Class,EnhancedDialog,org.gjt.sp.jedit.gui.EnhancedDialog,L15282,L103,1,5,4,0,0,0,0,19,20,1,1,2,0,0,0,0,0,0,0,0,1,0,4,0,0,0,0,0,0,0,,,,0,0
L1235,Class,BshMethod,bsh.BshMethod,L104,L103,1,6,4,0,2,0,1,0,0,0,0,0,0,0,0,0,2,2,3,0,1,9,14,0,0,0,0,0,0,0,,,,0,0
L1241,Class,BSHMethodDeclaration,bsh.BSHMethodDeclaration,L104,L103,2,3,2,0,0,0,0,0,0,1,1,0,19,2,0,0,3,3,0,0,2,1,3,0,0,0,0,0,0,0,,,,0,0
L12444,Interface,WorkThreadProgressListener,org.gjt.sp.util.WorkThreadProgressListener,L32075,L103,,2,,,,,,,0,1,,,,,,,,,,0,,2,2,,,,,,,0,0,3,0,0,0
L12560,Class,IntegerArray,org.gjt.sp.util.IntegerArray,L32075,L103,2,6,6,1,2,0,0,0,0,0,0,0,0,0,0,0,0,0,1,0,0,2,0,0,0,0,0,0,0,0,,,,0,0
L12621,Class,SegmentBuffer,org.gjt.sp.util.SegmentBuffer,L32075,L103,0,4,3,0,0,0,0,0,0,1,1,0,0,0,0,0,0,0,0,0,0,0,0,0,0,0,0,0,0,0,,,,0,0
L1299,Class,BSHReturnType,bsh.BSHReturnType,L104,L103,1,2,1,0,1,0,0,0,0,1,1,0,19,2,0,0,0,0,0,0,0,0,2,0,0,0,0,0,0,0,,,,0,0
L13030,Class,DummyFoldHandler,org.gjt.sp.jedit.buffer.DummyFoldHandler,L13722,L103,0,2,2,0,1,0,0,0,0,1,1,0,9,2,0,0,0,0,0,0,0,0,2,0,0,0,0,0,0,0,,,,0,0
L1311,Class,BSHMethodInvocation,bsh.BSHMethodInvocation,L104,L103,0,2,1,0,0,0,0,0,0,1,1,0,19,2,0,0,0,0,0,0,0,0,3,0,0,0,0,0,0,0,,,,0,0
L13117,Class,DefaultTokenHandler,org.gjt.sp.jedit.syntax.DefaultTokenHandler,L27718,L103,0,6,3,0,2,0,1,2,3,0,0,2,0,0,0,0,1,1,0,0,0,0,8,0,0,0,0,0,0,0,,,,0,0
L13124,Class,Token,org.gjt.sp.jedit.syntax.Token,L27718,L103,21,3,3,0,0,0,0,1,1,0,0,1,0,0,0,0,3,3,0,0,0,7,3,0,0,0,0,0,0,0,,,,0,0
L13179,Class,Mode,org.gjt.sp.jedit.Mode,L10077,L103,2,13,13,3,4,0,0,0,0,0,0,0,0,0,0,0,1,5,1,1,2,9,14,0,0,0,0,0,0,0,,,,0,0
L13204,Interface,TokenHandler,org.gjt.sp.jedit.syntax.TokenHandler,L27718,L103,,1,,,,,,,0,0,,,,,,,,,,0,,3,1,,,,,,,0,1,2,0,0,0
L1322,Class,BSHPrimaryExpression,bsh.BSHPrimaryExpression,L104,L103,0,2,1,0,0,0,0,0,0,1,1,0,19,2,0,0,0,0,0,0,0,0,3,0,0,0,0,0,0,0,,,,0,0
L13222,Class,ParserRule,org.gjt.sp.jedit.syntax.ParserRule,L27718,L103,21,11,10,0,1,0,0,0,0,0,0,0,0,0,0,0,1,1,1,1,1,7,21,0,0,0,0,0,0,0,,,,0,0
L1331,Class,BSHPrimarySuffix,bsh.BSHPrimarySuffix,L104,L103,7,6,1,0,1,0,0,0,0,1,1,0,19,2,0,0,0,0,0,0,2,0,20,0,0,0,0,0,0,0,,,,0,0
L13367,Class,LineElement,org.gjt.sp.jedit.buffer.LineElement,L13722,L103,1,11,11,0,10,0,1,0,0,0,0,0,0,0,0,0,0,1,0,0,0,0,6,0,0,0,0,0,0,0,,,,0,0
L13375,Class,RootElement,org.gjt.sp.jedit.buffer.RootElement,L13722,L103,0,11,11,0,10,0,1,0,0,0,0,0,0,0,0,0,0,1,0,0,0,0,6,0,0,0,0,0,0,0,,,,0,0
L13468,Class,Marker,org.gjt.sp.jedit.Marker,L10077,L103,3,7,2,2,2,0,0,0,0,0,0,0,0,0,0,0,1,1,0,0,1,3,1,0,0,0,0,0,0,0,,,,0,0
L13534,Class,EditPaneUpdate,org.gjt.sp.jedit.msg.EditPaneUpdate,L23289,L103,4,4,4,0,2,0,0,0,0,1,1,0,6,0,0,0,0,0,0,0,1,1,5,0,0,0,0,0,0,0,,,,0,0
L13545,Class,FoldVisibilityManager,org.gjt.sp.jedit.textarea.FoldVisibilityManager,L28739,L103,4,21,21,0,7,0,0,0,0,0,0,0,0,0,0,0,1,2,1,0,0,3,3,0,0,0,0,0,0,0,,,,0,0
L13580,Class,ReadWriteLock,org.gjt.sp.util.ReadWriteLock,L32075,L103,7,8,5,0,1,0,0,0,0,0,0,0,0,0,0,0,0,0,1,0,2,0,0,0,0,0,0,0,0,0,,,,0,0
L13585,Class,ContentManager,org.gjt.sp.jedit.buffer.ContentManager,L13722,L103,4,11,8,0,3,0,0,0,0,0,0,0,0,0,0,0,0,1,0,0,0,0,4,0,0,0,0,0,0,0,,,,0,0
L1393,Class,BSHReturnStatement,bsh.BSHReturnStatement,L104,L103,1,2,1,0,0,0,1,0,0,1,1,0,19,2,0,0,0,0,0,0,0,0,3,0,0,0,0,0,0,0,,,,0,0
L1408,Class,BSHStatementExpressionList,bsh.BSHStatementExpressionList,L104,L103,0,2,1,0,0,0,0,0,0,1,1,0,19,2,0,0,0,0,0,0,0,0,3,0,0,0,0,0,0,0,,,,0,0
L14109,Class,IndentFoldHandler,org.gjt.sp.jedit.buffer.IndentFoldHandler,L13722,L103,0,2,2,0,1,0,0,0,0,1,1,0,9,2,0,0,0,0,0,0,0,0,2,0,0,0,0,0,0,0,,,,0,0
L1414,Class,BSHSwitchLabel,bsh.BSHSwitchLabel,L104,L103,1,2,2,0,0,0,0,0,0,1,1,0,19,2,0,0,0,0,0,0,0,0,3,0,0,0,0,0,0,0,,,,0,0
L1422,Class,BSHSwitchStatement,bsh.BSHSwitchStatement,L104,L103,0,2,2,0,0,0,1,0,0,1,1,0,19,2,0,0,0,0,0,0,0,0,3,0,0,0,0,0,0,0,,,,0,0
L1433,Class,BSHTernaryExpression,bsh.BSHTernaryExpression,L104,L103,0,2,1,0,0,0,0,0,0,1,1,0,19,2,0,0,0,0,0,0,0,0,3,0,0,0,0,0,0,0,,,,0,0
L1440,Class,BSHThrowStatement,bsh.BSHThrowStatement,L104,L103,0,2,1,0,0,0,0,0,0,1,1,0,19,2,0,0,0,0,0,0,0,0,3,0,0,0,0,0,0,0,,,,0,0
L1448,Class,BSHTryStatement,bsh.BSHTryStatement,L104,L103,0,2,1,0,0,0,0,0,0,1,1,0,19,2,0,0,0,0,0,0,0,0,3,0,0,0,0,0,0,0,,,,0,0
L1459,Interface,Node,bsh.Node,L104,L103,,7,,,,,,,0,1,,,,,,,,,,0,,18,4,,,,,,,0,1,1,0,0,0
L14795,Class,EditBus,org.gjt.sp.jedit.EditBus,L10077,L103,1,5,4,0,1,0,0,0,0,0,0,0,0,0,0,0,1,1,0,0,1,0,4,0,0,0,0,0,0,0,,,,0,0
L14909,Class,BufferSwitcher,org.gjt.sp.jedit.gui.BufferSwitcher,L15282,L103,1,2,2,0,0,0,0,0,0,1,1,0,0,0,0,0,0,1,0,0,0,1,1,0,0,0,0,0,0,0,,,,0,0
L1496,Class,BSHTypedVariableDeclaration,bsh.BSHTypedVariableDeclaration,L104,L103,1,3,1,0,0,0,0,0,0,1,1,0,19,2,0,0,0,0,0,0,0,0,5,0,0,0,0,0,0,0,,,,0,0
L1504,Class,BSHVariableDeclarator,bsh.BSHVariableDeclarator,L104,L103,1,2,1,0,0,0,0,0,0,1,1,0,19,2,0,0,0,0,0,0,1,0,4,0,0,0,0,0,0,0,,,,0,0
L15170,Class,EditServer,org.gjt.sp.jedit.EditServer,L10077,L103,5,6,2,0,1,0,0,0,0,1,1,0,0,0,0,0,1,1,0,0,2,0,5,0,0,0,0,0,0,0,,,,0,0
L1518,Class,BSHUnaryExpression,bsh.BSHUnaryExpression,L104,L103,2,5,1,0,0,0,1,0,0,1,1,0,19,2,0,0,0,0,0,0,0,0,9,0,0,0,0,0,0,0,,,,0,0
L15332,Class,AbbrevEditor,org.gjt.sp.jedit.gui.AbbrevEditor,L15282,L103,3,8,8,2,5,0,0,0,0,1,1,0,0,0,0,0,2,2,0,0,2,0,7,0,0,0,0,0,0,0,,,,0,0
L15527,Class,AnimatedIcon,org.gjt.sp.jedit.gui.AnimatedIcon,L15282,L103,6,9,9,3,3,0,0,0,0,1,1,0,0,0,0,0,0,0,0,0,3,0,7,0,0,0,0,0,0,0,,,,0,0
L15751,Class,CloseDialog,org.gjt.sp.jedit.gui.CloseDialog,L15282,L103,8,5,4,0,1,0,0,0,0,2,2,0,5,1,0,0,0,1,0,0,3,0,1,0,0,0,0,0,0,0,,,,0,0
L15828,Class,ColorWellButton,org.gjt.sp.jedit.gui.ColorWellButton,L15282,L103,0,3,3,1,1,0,0,0,0,1,1,0,0,0,0,0,0,0,4,0,0,0,3,0,0,0,0,0,0,0,,,,0,0
L1600,Class,BSHWhileStatement,bsh.BSHWhileStatement,L104,L103,1,2,1,0,0,0,1,0,0,1,1,0,19,2,0,0,0,0,0,0,0,0,3,0,0,0,0,0,0,0,,,,0,0
L16305,Class,DirectoryMenu,org.gjt.sp.jedit.gui.DirectoryMenu,L15282,L103,1,4,4,0,0,0,0,0,0,2,2,0,5,2,0,0,0,0,0,0,1,0,5,0,0,0,0,0,0,0,,,,0,0
L16307,Class,EnhancedMenu,org.gjt.sp.jedit.gui.EnhancedMenu,L15282,L103,2,5,5,0,0,0,1,5,5,1,1,1,0,0,0,0,0,0,0,0,1,0,4,0,0,0,0,0,0,0,,,,0,0
L16347,Interface,DockableWindowContainer,org.gjt.sp.jedit.gui.DockableWindowContainer,L15282,L103,,6,,,,,,,0,0,,,,,,,,,,1,,0,6,,,,,,,0,0,2,0,0,0
L1643,Class,Capabilities,bsh.Capabilities,L104,L103,2,5,5,1,0,0,0,0,0,0,0,0,0,0,0,0,0,0,0,0,1,0,1,0,0,0,0,0,0,0,,,,0,0
L1670,Class,CommandLineReader,bsh.CommandLineReader,L104,L103,4,4,4,0,0,0,0,0,0,1,1,0,0,0,0,0,0,0,0,0,0,0,2,0,0,0,0,0,0,0,,,,0,0
L16878,Class,EnhancedButton,org.gjt.sp.jedit.gui.EnhancedButton,L15282,L103,0,2,2,0,1,0,0,0,0,2,2,0,5,1,0,0,0,1,0,0,0,1,3,0,0,0,0,0,0,0,,,,0,0
L16911,Class,EnhancedCheckBoxMenuItem,org.gjt.sp.jedit.gui.EnhancedCheckBoxMenuItem,L15282,L103,5,5,4,0,3,0,0,0,0,1,1,0,0,0,0,0,0,1,0,0,3,0,6,0,0,0,0,0,0,0,,,,0,0
L17084,Class,EnhancedMenuItem,org.gjt.sp.jedit.gui.EnhancedMenuItem,L15282,L103,5,4,3,0,2,0,0,0,0,1,1,0,0,0,0,0,0,1,0,0,3,0,5,0,0,0,0,0,0,0,,,,0,0
L1713,Class,dir,bsh.commands.dir,L1710,L103,1,4,4,0,0,0,0,0,0,0,0,0,0,0,0,0,0,0,0,0,1,0,8,0,0,0,0,0,0,0,,,,0,0
L17159,Class,ErrorListDialog,org.gjt.sp.jedit.gui.ErrorListDialog,L15282,L103,2,3,3,0,0,0,0,0,0,2,2,0,5,1,0,0,0,0,0,0,1,0,4,0,0,0,0,0,0,0,,,,0,0
L17299,Class,FontSelectorDialog,org.gjt.sp.jedit.gui.FontSelectorDialog,L15282,L103,11,9,5,0,2,0,0,0,0,2,2,0,5,1,0,0,0,0,0,0,5,0,11,0,0,0,0,0,0,0,,,,0,0
L1782,Interface,ConsoleInterface,bsh.ConsoleInterface,L104,L103,,6,,,,,,,0,0,,,,,,,,,,0,,3,6,,,,,,,0,1,1,0,0,0
L17954,Class,IOProgressMonitor,org.gjt.sp.jedit.gui.IOProgressMonitor,L15282,L103,3,4,3,0,0,0,0,0,0,1,1,0,0,0,0,0,0,0,0,0,3,0,0,0,0,0,0,0,0,0,,,,0,0
L18046,Class,JCheckBoxList,org.gjt.sp.jedit.gui.JCheckBoxList,L15282,L103,1,10,9,2,4,0,0,0,0,1,1,0,0,0,0,0,0,0,1,0,1,0,8,0,0,0,0,0,0,0,,,,0,0
L18073,Class,CheckBoxListModel,org.gjt.sp.jedit.gui.CheckBoxListModel,L15282,L103,1,10,7,1,6,0,0,0,0,1,1,0,0,0,0,0,0,0,0,0,1,0,8,0,0,0,0,0,0,0,,,,0,0
L18242,Class,JEditMetalTheme,org.gjt.sp.jedit.gui.JEditMetalTheme,L15282,L103,2,7,7,0,6,0,0,0,0,1,1,0,0,0,0,0,0,1,0,0,1,0,6,0,0,0,0,0,0,0,,,,0,0
L18389,Class,MacrosMenu,org.gjt.sp.jedit.gui.MacrosMenu,L15282,L103,0,7,5,0,0,0,1,0,0,2,2,0,5,2,0,0,0,0,0,0,0,0,3,0,0,0,0,0,0,0,,,,0,0
L18399,Class,MacrosChanged,org.gjt.sp.jedit.msg.MacrosChanged,L23289,L103,0,1,1,0,0,0,0,0,0,1,1,0,6,0,0,0,0,0,0,0,0,0,1,0,0,0,0,0,0,0,,,,0,0
L18423,Class,MarkersMenu,org.gjt.sp.jedit.gui.MarkersMenu,L15282,L103,0,4,4,0,0,0,0,0,0,2,2,0,5,2,0,0,0,0,0,0,0,0,3,0,0,0,0,0,0,0,,,,0,0
L18497,Class,OptionGroup,org.gjt.sp.jedit.OptionGroup,L10077,L103,2,9,9,0,5,0,0,0,0,0,0,0,0,0,0,0,0,1,0,1,2,8,6,0,0,0,0,0,0,0,,,,0,0
L185,Class,ASCII_UCodeESC_CharStream,bsh.ASCII_UCodeESC_CharStream,L104,L103,17,27,21,0,6,0,0,0,0,0,0,0,0,0,0,0,2,2,0,0,1,5,9,0,0,0,0,0,0,0,,,,0,0
L1863,Class,Parser,bsh.Parser,L104,L103,19,413,87,1,2,0,2,0,0,0,0,0,0,0,0,0,5,5,0,0,2,0,16,0,0,0,0,0,0,0,,,,0,0
L19119,Class,PastePrevious,org.gjt.sp.jedit.gui.PastePrevious,L15282,L103,3,11,10,0,0,0,3,0,0,2,2,0,5,1,0,0,1,2,0,0,2,0,8,0,0,0,0,0,0,0,,,,0,0
L19177,Class,RecentDirectoriesMenu,org.gjt.sp.jedit.gui.RecentDirectoriesMenu,L15282,L103,0,4,4,0,0,0,0,0,0,2,2,0,5,2,0,0,0,0,0,0,0,0,3,0,0,0,0,0,0,0,,,,0,0
L19204,Class,RecentFilesMenu,org.gjt.sp.jedit.gui.RecentFilesMenu,L15282,L103,0,4,4,0,0,0,0,0,0,2,2,0,5,2,0,0,0,0,0,0,0,0,3,0,0,0,0,0,0,0,,,,0,0
L19277,Class,SelectLineRange,org.gjt.sp.jedit.gui.SelectLineRange,L15282,L103,4,5,4,0,0,0,1,0,0,2,2,0,5,1,0,0,0,1,0,0,2,0,3,0,0,0,0,0,0,0,,,,0,0
L19625,Class,TipOfTheDay,org.gjt.sp.jedit.gui.TipOfTheDay,L15282,L103,5,4,3,0,0,0,0,0,0,2,2,0,5,1,0,0,0,0,0,0,3,0,1,0,0,0,0,0,0,0,,,,0,0
L19673,Class,ToolBarManager,org.gjt.sp.jedit.gui.ToolBarManager,L15282,L103,4,5,3,0,0,0,0,0,0,0,0,0,0,0,0,0,0,1,0,0,2,0,10,0,0,0,0,0,0,0,,,,0,0
L19732,Class,VariableGridLayout,org.gjt.sp.jedit.gui.VariableGridLayout,L15282,L103,10,17,16,0,5,0,2,0,0,0,0,0,0,0,0,0,0,0,0,0,0,0,18,0,0,0,0,0,0,0,,,,0,0
L19802,Class,ViewRegisters,org.gjt.sp.jedit.gui.ViewRegisters,L15282,L103,3,3,3,0,0,0,0,0,0,2,2,0,5,1,0,0,0,0,0,0,3,0,1,0,0,0,0,0,0,0,,,,0,0
L20076,Class,SyntaxStyle,org.gjt.sp.jedit.syntax.SyntaxStyle,L27718,L103,3,4,4,0,3,0,0,0,0,0,0,0,0,0,0,0,2,2,2,1,2,15,6,0,0,0,0,0,0,0,,,,0,0
L2018,Class,ParseException,bsh.ParseException,L104,L103,5,11,10,1,5,0,0,0,0,2,2,0,15,1,0,0,1,1,0,0,1,1,11,0,0,0,0,0,0,0,,,,0,0
L2030,Class,TokenMgrError,bsh.TokenMgrError,L104,L103,5,6,4,0,1,0,0,0,0,1,1,0,0,0,0,0,0,0,0,0,0,0,7,0,0,0,0,0,0,0,,,,0,0
L20414,Class,HelpSearchPanel,org.gjt.sp.jedit.help.HelpSearchPanel,L20280,L103,1,2,1,0,1,0,0,0,0,1,1,0,0,0,0,0,2,2,1,0,1,0,2,0,0,0,0,0,0,0,,,,0,0
L20419,Class,HelpViewer,org.gjt.sp.jedit.help.HelpViewer,L20280,L103,8,6,6,0,1,0,0,0,0,1,1,0,0,0,0,0,2,2,0,0,5,2,4,0,0,0,0,0,0,0,,,,0,0
L20537,Class,HelpTOCPanel,org.gjt.sp.jedit.help.HelpTOCPanel,L20280,L103,4,5,2,0,0,0,0,0,0,1,1,0,0,0,0,0,1,1,0,0,4,0,7,0,0,0,0,0,0,0,,,,0,0
L20835,Class,FavoritesVFS,org.gjt.sp.jedit.io.FavoritesVFS,L20827,L103,3,9,9,0,2,0,0,0,0,1,1,0,30,11,0,0,0,0,0,0,3,0,15,0,0,0,0,0,0,0,,,,0,0
L21080,Class,UrlVFS,org.gjt.sp.jedit.io.UrlVFS,L20827,L103,0,4,4,0,0,0,0,0,0,1,1,0,30,11,0,0,0,0,0,0,0,0,11,0,0,0,0,0,0,0,,,,0,0
L2180,Class,JJTParserState,bsh.JJTParserState,L104,L103,5,12,0,0,0,0,0,0,0,0,0,0,0,0,0,0,1,1,0,0,1,1,8,0,0,0,0,0,0,0,,,,0,0
L22353,Class,EditorExitRequested,org.gjt.sp.jedit.msg.EditorExitRequested,L23289,L103,0,2,2,0,1,0,0,0,0,1,1,0,6,0,0,0,0,0,0,0,0,0,2,0,0,0,0,0,0,0,,,,0,0
L22363,Class,EditorExiting,org.gjt.sp.jedit.msg.EditorExiting,L23289,L103,0,1,1,0,0,0,0,0,0,1,1,0,6,0,0,0,0,0,0,0,0,0,1,0,0,0,0,0,0,0,,,,0,0
L22551,Class,EditorStarted,org.gjt.sp.jedit.msg.EditorStarted,L23289,L103,0,1,1,0,0,0,0,0,0,1,1,0,6,0,0,0,0,0,0,0,0,0,1,0,0,0,0,0,0,0,,,,0,0
L22600,Class,ModeCatalogHandler,org.gjt.sp.jedit.ModeCatalogHandler,L10077,L103,6,5,4,0,0,0,0,0,0,1,1,0,13,0,0,0,0,0,0,0,1,0,10,0,0,0,0,0,0,0,,,,0,0
L2292,Class,JThis,bsh.JThis,L104,L103,0,86,84,0,0,0,33,0,0,1,1,0,10,0,0,0,0,0,0,0,0,0,88,0,0,0,0,0,0,0,,,,0,0
L23370,Class,SearchSettingsChanged,org.gjt.sp.jedit.msg.SearchSettingsChanged,L23289,L103,0,1,1,0,0,0,0,0,0,1,1,0,6,0,0,0,0,0,0,0,0,0,1,0,0,0,0,0,0,0,,,,0,0
L23519,Class,AbbrevsModel,org.gjt.sp.jedit.options.AbbrevsModel,L23484,L103,1,12,7,1,5,0,0,0,0,1,1,0,0,0,0,0,1,1,0,0,1,0,7,0,0,0,0,0,0,0,,,,0,0
L23656,Class,Abbrev,org.gjt.sp.jedit.options.Abbrev,L23484,L103,2,2,0,0,0,0,0,0,0,0,0,0,0,0,0,0,0,0,0,0,1,0,2,0,0,0,0,0,0,0,,,,0,0
L23722,Class,AppearanceOptionPane,org.gjt.sp.jedit.options.AppearanceOptionPane,L23484,L103,5,4,1,0,0,0,0,0,0,2,2,0,14,4,0,0,0,0,1,0,3,0,0,0,0,0,0,0,0,0,,,,0,0
L23772,Class,BrowserColorsOptionPane,org.gjt.sp.jedit.options.BrowserColorsOptionPane,L23484,L103,3,4,1,0,0,0,0,0,0,2,2,0,14,4,0,0,1,1,0,0,2,0,0,0,0,0,0,0,0,0,,,,0,0
L23784,Class,BrowserColorsModel,org.gjt.sp.jedit.options.BrowserColorsModel,L23484,L103,1,11,7,1,6,0,0,0,0,1,1,0,0,0,0,0,1,1,0,0,1,0,4,0,0,0,0,0,0,0,,,,0,0
L23933,Class,BrowserOptionPane,org.gjt.sp.jedit.options.BrowserOptionPane,L23484,L103,8,3,3,0,0,0,0,0,0,2,2,0,14,4,0,0,0,0,0,0,2,0,0,0,0,0,0,0,0,0,,,,0,0
L24016,Class,ContextAddDialog,org.gjt.sp.jedit.options.ContextAddDialog,L23484,L103,7,5,4,0,1,0,0,0,0,2,2,0,5,1,0,0,0,0,0,0,4,0,2,0,0,0,0,0,0,0,,,,0,0
L24111,Class,WindowTableModel,org.gjt.sp.jedit.options.WindowTableModel,L23484,L103,1,10,9,1,6,0,0,0,0,1,1,0,0,0,0,0,1,1,0,0,1,1,4,0,0,0,0,0,0,0,,,,0,0
L24349,Class,FirewallOptionPane,org.gjt.sp.jedit.options.FirewallOptionPane,L23484,L103,9,3,3,0,0,0,0,0,0,2,2,0,14,4,0,0,0,0,0,0,3,0,0,0,0,0,0,0,0,0,,,,0,0
L24399,Class,GeneralOptionPane,org.gjt.sp.jedit.options.GeneralOptionPane,L23484,L103,12,3,1,0,0,0,0,0,0,2,2,0,14,4,0,0,0,0,0,0,2,0,0,0,0,0,0,0,0,0,,,,0,0
L24479,Class,GutterOptionPane,org.gjt.sp.jedit.options.GutterOptionPane,L23484,L103,10,3,3,0,0,0,0,0,0,2,2,0,14,4,0,0,0,0,2,0,4,0,0,0,0,0,0,0,0,0,,,,0,0
L24484,Class,LoadSaveOptionPane,org.gjt.sp.jedit.options.LoadSaveOptionPane,L23484,L103,14,3,3,0,0,0,0,0,0,2,2,0,14,4,0,0,0,0,0,0,3,0,0,0,0,0,0,0,0,0,,,,0,0
L24489,Class,PrintOptionPane,org.gjt.sp.jedit.options.PrintOptionPane,L23484,L103,5,3,1,0,0,0,0,0,0,2,2,0,14,4,0,0,0,0,1,0,2,0,0,0,0,0,0,0,0,0,,,,0,0
L24502,Class,StatusBarOptionPane,org.gjt.sp.jedit.options.StatusBarOptionPane,L23484,L103,10,4,1,0,0,0,0,0,0,2,2,0,14,4,0,0,0,0,1,0,1,0,0,0,0,0,0,0,0,0,,,,0,0
L24507,Class,SyntaxHiliteOptionPane,org.gjt.sp.jedit.options.SyntaxHiliteOptionPane,L23484,L103,2,5,1,0,0,0,0,0,0,2,2,0,14,4,0,0,1,1,0,0,2,0,2,0,0,0,0,0,0,0,,,,0,0
L24512,Class,TextAreaOptionPane,org.gjt.sp.jedit.options.TextAreaOptionPane,L23484,L103,11,3,3,0,0,0,0,0,0,2,2,0,14,4,0,0,0,0,2,0,1,0,0,0,0,0,0,0,0,0,,,,0,0
L24829,Class,StyleTableModel,org.gjt.sp.jedit.options.StyleTableModel,L23484,L103,1,8,6,1,4,0,0,0,0,1,1,0,0,0,0,0,1,1,0,0,1,1,5,0,0,0,0,0,0,0,,,,0,0
L24858,Class,StyleEditor,org.gjt.sp.jedit.options.StyleEditor,L23484,L103,7,5,4,0,1,0,1,0,0,2,2,0,5,1,0,0,0,0,1,0,2,0,4,0,0,0,0,0,0,0,,,,0,0
L25141,Class,ToolBarEditDialog,org.gjt.sp.jedit.options.ToolBarEditDialog,L23484,L103,12,6,4,0,1,0,0,0,0,2,2,0,5,1,0,0,0,0,0,0,5,0,4,0,0,0,0,0,0,0,,,,0,0
L25238,Class,InstallPluginsDialog,org.gjt.sp.jedit.pluginmgr.InstallPluginsDialog,L25229,L103,18,7,2,0,0,0,0,0,0,2,2,0,5,1,0,0,0,0,1,0,6,0,5,0,0,0,0,0,0,0,,,,0,0
L25320,Class,PluginList,org.gjt.sp.jedit.pluginmgr.PluginList,L25229,L103,3,5,0,0,0,0,0,0,0,0,0,0,0,0,0,0,3,3,0,0,2,3,2,0,0,0,0,0,0,0,,,,0,0
L25400,Class,PluginListHandler,org.gjt.sp.jedit.pluginmgr.PluginListHandler,L25229,L103,22,12,8,0,0,0,0,0,0,1,1,0,13,0,0,0,1,1,0,0,5,0,16,0,0,0,0,0,0,0,,,,0,0
L25483,Class,PluginListDownloadProgress,org.gjt.sp.jedit.pluginmgr.PluginListDownloadProgress,L25229,L103,1,2,0,0,1,0,0,0,0,1,1,0,0,0,0,0,2,2,0,0,1,0,2,0,0,0,0,0,0,0,,,,0,0
L25707,Class,PluginManagerProgress,org.gjt.sp.jedit.pluginmgr.PluginManagerProgress,L25229,L103,9,8,7,1,1,0,0,0,0,1,1,0,0,0,0,0,1,1,0,0,5,7,7,0,0,0,0,0,0,0,,,,0,0
L25993,Class,SoftWrapTokenHandler,org.gjt.sp.jedit.syntax.SoftWrapTokenHandler,L27718,L103,7,3,3,0,1,0,0,0,0,2,2,0,10,5,0,0,1,1,2,0,1,0,7,0,0,0,0,0,0,0,,,,0,0
L26082,Class,Chunk,org.gjt.sp.jedit.syntax.Chunk,L27718,L103,8,9,9,0,1,0,0,0,0,1,1,0,3,21,0,0,1,1,0,1,1,2,9,0,0,0,0,0,0,0,,,,0,0
L26129,Class,BufferPrinter1_3,org.gjt.sp.jedit.print.BufferPrinter1_3,L25943,L103,2,4,3,0,2,0,0,0,0,0,0,0,0,0,0,0,0,0,0,0,2,0,5,0,0,0,0,0,0,0,,,,0,0
L26200,Class,BufferPrinter1_4,org.gjt.sp.jedit.print.BufferPrinter1_4,L25943,L103,2,5,3,0,2,0,0,0,0,0,0,0,0,0,0,0,0,0,0,0,2,0,6,0,0,0,0,0,0,0,,,,0,0
L26323,Class,Handler,org.gjt.sp.jedit.proto.jeditresource.Handler,L26318,L103,0,1,1,0,0,0,0,0,0,1,1,0,0,0,0,0,0,0,0,0,0,0,2,0,0,0,0,0,0,0,,,,0,0
L26332,Class,PluginResURLConnection,org.gjt.sp.jedit.proto.jeditresource.PluginResURLConnection,L26318,L103,3,4,4,0,2,0,0,0,0,1,1,0,0,0,0,0,0,0,0,0,2,0,4,0,0,0,0,0,0,0,,,,0,0
L26515,Class,AllBufferSet,org.gjt.sp.jedit.search.AllBufferSet,L26498,L103,1,4,3,0,2,0,0,0,0,1,1,0,7,1,0,0,0,0,0,0,1,0,5,0,0,0,0,0,0,0,,,,0,0
L26546,Interface,SearchMatcher,org.gjt.sp.jedit.search.SearchMatcher,L26498,L103,,2,,,,,,,0,0,,,,,,,,,,0,,4,3,,,,,,,0,2,2,0,0,0
L26626,Interface,SearchFileSet,org.gjt.sp.jedit.search.SearchFileSet,L26498,L103,,5,,,,,,,0,0,,,,,,,,,,0,,2,9,,,,,,,0,1,2,0,0,0
L26658,Class,CharIndexedSegment,org.gjt.sp.jedit.search.CharIndexedSegment,L26498,L103,3,6,6,0,1,0,2,0,0,0,0,0,0,0,0,0,0,0,0,0,1,0,2,0,0,0,0,0,0,0,,,,0,0
L26694,Class,CurrentBufferSet,org.gjt.sp.jedit.search.CurrentBufferSet,L26498,L103,0,5,5,0,5,0,1,0,0,0,0,0,0,0,0,0,0,0,0,0,0,0,9,0,0,0,0,0,0,0,,,,0,0
L26750,Class,HyperSearchRequest,org.gjt.sp.jedit.search.HyperSearchRequest,L26498,L103,2,6,2,0,0,0,0,0,0,1,1,0,4,0,0,0,2,3,1,0,2,0,9,0,0,0,0,0,0,0,,,,0,0
L26834,Class,HyperSearchResult,org.gjt.sp.jedit.search.HyperSearchResult,L26498,L103,7,5,5,0,1,0,0,0,0,0,0,0,0,0,0,0,0,1,0,0,2,3,4,0,0,0,0,0,0,0,,,,0,0
L27077,Class,RESearchMatcher,org.gjt.sp.jedit.search.RESearchMatcher,L26498,L103,3,3,3,0,0,0,1,0,0,0,0,0,0,0,0,0,0,0,4,0,1,0,6,0,0,0,0,0,0,0,,,,0,0
L27891,Class,DisplayTokenHandler,org.gjt.sp.jedit.syntax.DisplayTokenHandler,L27718,L103,5,4,3,1,1,0,0,1,1,1,1,1,6,0,0,0,1,1,1,0,3,0,7,0,0,0,0,0,0,0,,,,0,0
L27936,Class,DummyTokenHandler,org.gjt.sp.jedit.syntax.DummyTokenHandler,L27718,L103,0,1,1,0,0,0,1,0,0,0,0,0,0,0,0,0,0,0,0,0,0,0,1,0,0,0,0,0,0,0,,,,0,0
L2863,Interface,NameSource,bsh.NameSource,L104,L103,,2,,,,,,,0,0,,,,,,,,,,0,,1,2,,,,,,,0,0,1,0,0,0
L28904,Class,TextAreaExtension,org.gjt.sp.jedit.textarea.TextAreaExtension,L28739,L103,0,3,3,0,1,0,0,5,5,0,0,1,0,0,0,0,0,0,0,1,0,12,3,0,0,0,0,0,0,0,,,,0,0
L29709,Interface,ScrollListener,org.gjt.sp.jedit.textarea.ScrollListener,L28739,L103,,2,,,,,,,0,1,,,,,,,,,,0,,2,2,,,,,,,0,0,1,0,0,0
L3131,Class,Token,bsh.Token,L104,L103,6,2,2,0,0,0,1,0,0,0,0,0,0,0,0,0,3,3,0,1,1,6,1,0,0,0,0,0,0,0,,,,0,0
L31520,Class,TextUtilities,org.gjt.sp.jedit.TextUtilities,L10077,L103,7,14,13,0,2,0,0,0,0,0,0,0,0,0,0,0,0,0,0,0,0,0,24,0,0,0,0,0,0,0,,,,0,0
L3191,Interface,ParserTreeConstants,bsh.ParserTreeConstants,L104,L103,,0,,,,,,,0,0,,,,,,,,,,0,,0,0,,,,,,,0,0,1,0,0,0
L32106,Class,Log,org.gjt.sp.util.Log,L32075,L103,13,10,6,1,1,0,0,0,0,0,0,0,0,0,0,0,0,0,0,0,5,0,11,0,0,0,0,0,0,0,,,,0,0
L354,Class,BlockNameSpace,bsh.BlockNameSpace,L104,L103,1,8,6,2,2,0,0,0,0,1,1,0,54,8,0,0,0,0,0,0,0,0,9,0,0,0,0,0,0,0,,,,0,0
L362,Class,EvalError,bsh.EvalError,L104,L103,1,15,11,2,5,0,0,3,3,1,1,1,0,0,0,0,1,1,0,0,1,0,16,0,0,0,0,0,0,0,,,,0,0
L393,Class,This,bsh.This,L104,L103,0,10,7,0,3,0,2,2,2,0,0,1,0,0,0,0,2,2,0,0,0,2,20,0,0,0,0,0,0,0,,,,0,0
L412,Class,BSHAllocationExpression,bsh.BSHAllocationExpression,L104,L103,0,8,1,0,0,0,0,0,0,1,1,0,19,2,0,0,0,0,0,0,0,0,30,0,0,0,0,0,0,0,,,,0,0
L414,Class,SimpleNode,bsh.SimpleNode,L104,L103,2,19,19,1,4,0,1,36,36,0,0,1,0,0,0,0,5,5,0,0,1,19,16,0,0,0,0,0,0,0,,,,0,0
L423,Class,CallStack,bsh.CallStack,L104,L103,1,10,10,1,1,0,0,0,0,0,0,0,0,0,0,0,0,0,0,0,1,59,9,0,0,0,0,0,0,0,,,,0,0
L429,Class,BSHAmbiguousName,bsh.BSHAmbiguousName,L104,L103,1,7,6,0,1,0,0,0,0,1,1,0,19,2,0,0,0,0,0,0,1,2,14,0,0,0,0,0,0,0,,,,0,0
L432,Class,BSHArguments,bsh.BSHArguments,L104,L103,0,2,1,0,1,0,0,0,0,1,1,0,19,2,0,0,0,0,0,0,0,1,3,0,0,0,0,0,0,0,,,,0,0
L4360,Class,ParserTokenManager,bsh.ParserTokenManager,L104,L103,23,49,6,0,1,0,1,0,0,0,0,0,0,0,0,0,2,2,0,0,1,2,6,0,0,0,0,0,0,0,,,,0,0
L439,Class,BSHArrayDimensions,bsh.BSHArrayDimensions,L104,L103,3,4,3,0,0,0,0,0,0,1,1,0,19,2,0,0,0,0,0,0,1,3,7,0,0,0,0,0,0,0,,,,0,0
L444,Class,BSHPrimitiveType,bsh.BSHPrimitiveType,L104,L103,1,2,1,0,1,0,0,0,0,1,1,0,19,2,0,0,0,0,0,0,1,1,1,0,0,0,0,0,0,0,,,,0,0
L465,Class,BSHBlock,bsh.BSHBlock,L104,L103,0,3,2,0,0,0,0,0,0,1,1,0,19,2,0,0,1,1,0,0,0,1,6,0,0,0,0,0,0,0,,,,0,0
L476,Class,ReflectError,bsh.ReflectError,L104,L103,0,2,2,0,0,0,0,0,0,1,1,0,0,0,0,0,0,0,0,0,0,0,1,0,0,0,0,0,0,0,,,,0,0
L4858,Class,Reflect,bsh.Reflect,L104,L103,0,36,14,2,15,0,0,0,0,0,0,0,0,0,0,0,0,0,0,0,0,0,100,0,0,0,0,0,0,0,,,,0,0
L486,Class,TargetError,bsh.TargetError,L104,L103,2,11,11,0,1,0,0,0,0,2,2,0,15,1,0,0,0,0,0,0,1,0,15,0,0,0,0,0,0,0,,,,0,0
L5088,Class,ReflectManagerImpl,bsh.reflect.ReflectManagerImpl,L5085,L103,0,1,1,1,0,0,0,0,0,1,1,0,3,0,0,0,0,0,0,0,0,0,1,0,0,0,0,0,0,0,,,,0,0
L5090,Class,ReflectManager,bsh.ReflectManager,L104,L103,0,3,3,1,1,0,0,1,1,0,0,1,0,0,0,0,0,0,0,0,0,0,2,0,0,0,0,0,0,0,,,,0,0
L5176,Class,StringUtil,bsh.StringUtil,L104,L103,0,4,4,0,0,0,0,0,0,0,0,0,0,0,0,0,0,0,0,0,0,0,11,0,0,0,0,0,0,0,,,,0,0
L5317,Class,XThis,bsh.XThis,L104,L103,2,4,2,0,1,0,0,0,0,1,1,0,10,0,0,0,0,0,0,0,2,0,7,0,0,0,0,0,0,0,,,,0,0
L5369,Class,HandlerBase,com.microstar.xml.HandlerBase,L5361,L103,0,13,13,0,0,0,1,7,7,0,0,1,0,0,0,0,0,0,0,0,0,0,16,0,0,0,0,0,0,0,,,,0,0
L5371,Interface,XmlHandler,com.microstar.xml.XmlHandler,L5361,L103,,13,,,,,,,0,0,,,,,,,,,,0,,0,16,,,,,,,0,0,1,0,0,0
L5421,Class,XmlException,com.microstar.xml.XmlException,L5361,L103,4,5,5,0,4,0,0,0,0,1,1,0,0,0,0,0,0,0,0,0,1,0,4,0,0,0,0,0,0,0,,,,0,0
L545,Class,Name,bsh.Name,L104,L103,6,18,9,0,1,0,1,0,0,0,0,0,0,0,0,0,1,1,0,0,2,2,43,0,0,0,0,0,0,0,,,,0,0
L561,Class,LHS,bsh.LHS,L104,L103,10,8,3,0,1,0,2,0,0,0,0,0,0,0,0,0,1,1,0,0,3,10,12,0,0,0,0,0,0,0,,,,0,0
L572,Class,InterpreterError,bsh.InterpreterError,L104,L103,0,1,1,0,0,0,0,0,0,1,1,0,0,0,0,0,0,0,0,0,0,0,1,0,0,0,0,0,0,0,,,,0,0
L5944,Interface,CharIndexed,gnu.regexp.CharIndexed,L5914,L103,,3,,,,,,,0,0,,,,,,,,,,0,,28,0,,,,,,,0,1,6,0,0,0
L5956,Class,CharIndexedCharArray,gnu.regexp.CharIndexedCharArray,L5914,L103,2,4,3,0,1,0,2,0,0,0,0,0,0,0,0,0,0,0,0,0,0,0,0,0,0,0,0,0,0,0,,,,0,0
L5972,Class,CharIndexedInputStream,gnu.regexp.CharIndexedInputStream,L5914,L103,8,5,3,0,1,0,1,0,0,0,0,0,0,0,0,0,1,1,0,0,1,0,1,0,0,0,0,0,0,0,,,,0,0
L6017,Class,CharIndexedReader,gnu.regexp.CharIndexedReader,L5914,L103,8,5,3,0,1,0,1,0,0,0,0,0,0,0,0,0,1,1,0,0,1,0,1,0,0,0,0,0,0,0,,,,0,0
L605,Class,BSHArrayInitializer,bsh.BSHArrayInitializer,L104,L103,0,4,2,0,0,0,0,0,0,1,1,0,19,2,0,0,0,0,0,0,0,0,9,0,0,0,0,0,0,0,,,,0,0
L6060,Class,CharIndexedString,gnu.regexp.CharIndexedString,L5914,L103,3,4,3,0,1,0,2,0,0,0,0,0,0,0,0,0,0,0,0,0,1,0,1,0,0,0,0,0,0,0,,,,0,0
L6075,Class,CharIndexedStringBuffer,gnu.regexp.CharIndexedStringBuffer,L5914,L103,2,4,3,0,1,0,2,0,0,0,0,0,0,0,0,0,0,0,0,0,1,0,1,0,0,0,0,0,0,0,,,,0,0
L6092,Class,IntPair,gnu.regexp.IntPair,L5914,L103,2,0,0,0,0,0,1,0,0,0,0,0,0,0,0,0,0,0,0,0,0,1,0,0,0,0,0,0,0,0,,,,0,0
L6096,Class,CharUnit,gnu.regexp.CharUnit,L5914,L103,2,0,0,0,0,0,1,0,0,0,0,0,0,0,0,0,0,0,0,0,0,1,0,0,0,0,0,0,0,0,,,,0,0
L6100,Class,RE,gnu.regexp.RE,L5914,L103,11,46,26,2,22,0,0,1,1,1,1,1,8,1,0,0,4,4,5,2,2,9,82,0,0,0,0,0,0,0,,,,0,0
L6102,Class,REToken,gnu.regexp.REToken,L5914,L103,1,8,0,1,1,0,1,13,14,0,0,2,0,0,0,0,3,3,0,0,0,10,6,0,0,0,0,0,0,0,,,,0,0
L6150,Class,REException,gnu.regexp.REException,L5914,L103,15,4,3,0,3,0,0,0,0,1,1,0,0,0,0,0,0,0,0,0,0,0,2,0,0,0,0,0,0,0,,,,0,0
L6167,Class,RESyntax,gnu.regexp.RESyntax,L5914,L103,31,8,8,2,2,0,1,0,0,0,0,0,0,0,0,0,0,0,1,0,2,6,2,0,0,0,0,0,0,0,,,,0,0
L6185,Class,RETokenEndSub,gnu.regexp.RETokenEndSub,L5914,L103,0,3,0,0,0,0,0,0,0,1,1,0,8,1,0,0,0,0,0,0,0,0,3,0,0,0,0,0,0,0,,,,0,0
L620,Class,Primitive,bsh.Primitive,L104,L103,1,43,28,0,4,0,2,0,0,0,0,0,0,0,0,0,0,0,0,0,1,2,50,0,0,0,0,0,0,0,,,,0,0
L6244,Class,RETokenRepeated,gnu.regexp.RETokenRepeated,L5914,L103,3,7,0,0,2,0,0,0,0,1,1,0,8,1,0,0,1,1,0,0,0,0,7,0,0,0,0,0,0,0,,,,0,0
L6247,Class,RETokenWordBoundary,gnu.regexp.RETokenWordBoundary,L5914,L103,4,3,0,0,0,0,0,0,0,1,1,0,8,1,0,0,0,0,0,0,0,0,3,0,0,0,0,0,0,0,,,,0,0
L6254,Class,RETokenChar,gnu.regexp.RETokenChar,L5914,L103,2,5,0,0,1,0,0,0,0,1,1,0,8,1,0,0,0,0,0,0,0,0,4,0,0,0,0,0,0,0,,,,0,0
L6261,Class,RETokenRange,gnu.regexp.RETokenRange,L5914,L103,3,4,0,0,1,0,0,0,0,1,1,0,8,1,0,0,0,0,0,0,0,0,3,0,0,0,0,0,0,0,,,,0,0
L6278,Class,RETokenPOSIX,gnu.regexp.RETokenPOSIX,L5914,L103,16,5,0,0,1,0,0,0,0,1,1,0,8,1,0,0,0,0,0,0,1,0,4,0,0,0,0,0,0,0,,,,0,0
L6291,Class,RETokenOneOf,gnu.regexp.RETokenOneOf,L5914,L103,2,5,0,0,1,0,0,0,0,1,1,0,8,1,0,0,0,0,0,0,1,0,5,0,0,0,0,0,0,0,,,,0,0
L6310,Class,RETokenLookAhead,gnu.regexp.RETokenLookAhead,L5914,L103,1,3,0,0,0,0,0,0,0,1,1,0,8,1,0,0,1,1,0,0,0,0,4,0,0,0,0,0,0,0,,,,0,0
L6319,Class,RETokenStart,gnu.regexp.RETokenStart,L5914,L103,1,3,0,0,0,0,0,0,0,1,1,0,8,1,0,0,0,0,0,0,1,0,4,0,0,0,0,0,0,0,,,,0,0
L6327,Class,RETokenEnd,gnu.regexp.RETokenEnd,L5914,L103,1,3,0,0,0,0,0,0,0,1,1,0,8,1,0,0,0,0,0,0,1,0,4,0,0,0,0,0,0,0,,,,0,0
L6332,Class,RETokenAny,gnu.regexp.RETokenAny,L5914,L103,2,4,0,0,1,0,0,0,0,1,1,0,8,1,0,0,0,0,0,0,0,0,3,0,0,0,0,0,0,0,,,,0,0
L6352,Class,RETokenBackRef,gnu.regexp.RETokenBackRef,L5914,L103,2,3,0,0,0,0,0,0,0,1,1,0,8,1,0,0,0,0,0,0,0,0,3,0,0,0,0,0,0,0,,,,0,0
L6395,Class,REMatch,gnu.regexp.REMatch,L5914,L103,7,14,10,0,6,0,2,0,0,0,0,0,0,0,0,0,1,1,0,0,1,27,6,0,0,0,0,0,0,0,,,,0,0
L6487,Class,REMatchEnumeration,gnu.regexp.REMatchEnumeration,L5914,L103,6,6,5,0,3,0,2,0,0,0,0,0,0,0,0,0,3,3,0,0,0,3,5,0,0,0,0,0,0,0,,,,0,0
L654,Class,BSHAssignment,bsh.BSHAssignment,L104,L103,1,3,1,0,0,0,1,0,0,1,1,0,19,2,0,0,0,0,0,0,0,0,6,0,0,0,0,0,0,0,,,,0,0
L655,Interface,ParserConstants,bsh.ParserConstants,L104,L103,,0,,,,,,,0,0,,,,,,,,,,0,,0,0,,,,,,,0,0,12,0,0,0
L6631,Class,REFilterInputStream,gnu.regexp.REFilterInputStream,L5914,L103,4,5,5,0,0,0,0,0,0,1,1,0,0,0,0,0,2,2,0,0,1,0,3,0,0,0,0,0,0,0,,,,0,0
L664,Class,BSHLHSPrimaryExpression,bsh.BSHLHSPrimaryExpression,L104,L103,0,2,1,0,0,0,0,0,0,1,1,0,19,2,0,0,0,0,0,0,0,0,3,0,0,0,0,0,0,0,,,,0,0
L6668,Class,REFilterReader,gnu.regexp.REFilterReader,L5914,L103,4,5,5,0,0,0,0,0,0,1,1,0,0,0,0,0,2,2,0,0,1,0,3,0,0,0,0,0,0,0,,,,0,0
L7183,Class,UncheckedRE,gnu.regexp.UncheckedRE,L5914,L103,0,3,3,0,0,0,0,0,0,2,2,0,54,12,0,0,0,0,0,0,0,0,4,0,0,0,0,0,0,0,,,,0,0
L752,Class,BSHBinaryExpression,bsh.BSHBinaryExpression,L104,L103,1,4,1,0,2,0,1,0,0,1,1,0,19,2,0,0,0,0,0,0,0,0,5,0,0,0,0,0,0,0,,,,0,0
L767,Class,BSHType,bsh.BSHType,L104,L103,3,6,5,0,3,0,1,0,0,1,1,0,19,2,0,0,0,0,0,0,1,1,3,0,0,0,0,0,0,0,,,,0,0
L810,Class,ReturnControl,bsh.ReturnControl,L104,L103,2,1,1,0,0,0,1,0,0,0,0,0,0,0,0,0,0,0,0,0,1,0,1,0,0,0,0,0,0,0,,,,0,0
L813,Class,BSHCastExpression,bsh.BSHCastExpression,L104,L103,0,6,6,0,0,0,0,0,0,1,1,0,19,2,0,0,0,0,0,0,0,0,13,0,0,0,0,0,0,0,,,,0,0
L905,Class,BshClassManager,bsh.BshClassManager,L104,L103,5,24,22,2,6,0,0,0,0,0,0,0,0,0,0,0,0,0,0,0,3,0,25,0,0,0,0,0,0,0,,,,0,0
L9076,Class,EditPlugin,org.gjt.sp.jedit.EditPlugin,L10077,L103,1,6,6,0,2,0,0,4,5,0,0,2,0,0,0,0,0,0,0,0,1,2,4,0,0,0,0,0,0,0,,,,0,0
L9125,Interface,EBComponent,org.gjt.sp.jedit.EBComponent,L10077,L103,,1,,,,,,,0,0,,,,,,,,,,0,,11,1,,,,,,,0,2,11,0,0,0
L9199,Class,EBMessage,org.gjt.sp.jedit.EBMessage,L10077,L103,0,6,6,0,2,0,0,11,11,0,0,1,0,0,0,0,1,1,0,0,0,14,4,0,0,0,0,0,0,0,,,,0,0
L9202,Class,PropertiesChanged,org.gjt.sp.jedit.msg.PropertiesChanged,L23289,L103,0,1,1,0,0,0,0,0,0,1,1,0,6,0,0,0,0,0,0,0,0,0,1,0,0,0,0,0,0,0,,,,0,0
L9306,Class,AbstractOptionPane,org.gjt.sp.jedit.AbstractOptionPane,L10077,L103,4,14,12,0,2,0,1,19,19,1,1,1,0,0,0,0,0,0,0,0,2,0,13,0,0,0,0,0,0,0,,,,0,0
L9312,Class,FontSelector,org.gjt.sp.jedit.gui.FontSelector,L15282,L103,0,2,1,0,0,0,0,0,0,1,1,0,0,0,0,0,0,1,4,0,0,0,1,0,0,0,0,0,0,0,,,,0,0
L9547,Class,ViewUpdate,org.gjt.sp.jedit.msg.ViewUpdate,L23289,L103,4,4,4,0,2,0,0,0,0,1,1,0,6,0,0,0,0,0,0,0,1,2,5,0,0,0,0,0,0,0,,,,0,0
L9553,Class,BufferUpdate,org.gjt.sp.jedit.msg.BufferUpdate,L23289,L103,11,5,5,0,3,0,0,0,0,1,1,0,6,0,0,0,0,1,0,0,1,4,7,0,0,0,0,0,0,0,,,,0,0
L9618,Class,GlobalOptions,org.gjt.sp.jedit.options.GlobalOptions,L23484,L103,0,6,4,0,1,0,0,0,0,3,3,0,23,11,0,0,0,1,0,0,0,0,8,0,0,0,0,0,0,0,,,,0,0
L9716,Class,EBPlugin,org.gjt.sp.jedit.EBPlugin,L10077,L103,0,2,1,0,0,0,1,1,1,1,1,1,6,1,0,0,0,0,0,0,0,0,1,0,0,0,0,0,0,0,,,,0,0
L10026,Class,Macros,org.gjt.sp.jedit.Macros,L10077,L103,6,23,21,0,6,0,0,0,0,0,0,0,0,0,0,0,1,1,0,0,5,0,38,0,0,0,0,0,0,0,,,,1,1
L10706,Class,VFS,org.gjt.sp.jedit.io.VFS,L20827,L103,11,30,28,0,7,0,0,4,4,0,0,1,0,0,0,0,1,2,3,0,3,10,80,0,0,0,0,0,0,0,,,,1,1
L10813,Class,JARClassLoader,org.gjt.sp.jedit.JARClassLoader,L10077,L103,9,14,8,0,4,0,0,0,0,1,1,0,0,0,0,0,0,0,0,1,6,2,19,0,0,0,0,0,0,0,,,,1,1
L11401,Class,FileCellRenderer,org.gjt.sp.jedit.browser.FileCellRenderer,L10876,L103,10,5,4,0,2,0,0,0,0,1,1,0,0,0,0,0,1,1,0,0,2,0,6,0,0,0,0,0,0,0,,,,1,1
L12300,Class,VFSFileChooserDialog,org.gjt.sp.jedit.browser.VFSFileChooserDialog,L10876,L103,6,6,5,0,1,0,0,0,0,2,2,0,5,1,0,0,1,1,0,0,4,0,4,0,0,0,0,0,0,0,,,,1,1
L12450,Class,WorkThreadPool,org.gjt.sp.util.WorkThreadPool,L32075,L103,13,17,9,0,5,0,0,0,0,0,0,0,0,0,0,0,1,1,1,0,4,10,10,0,0,0,0,0,0,0,,,,1,1
L13023,Class,FoldHandler,org.gjt.sp.jedit.buffer.FoldHandler,L13722,L103,2,9,8,0,5,0,0,3,3,0,0,1,0,0,0,0,0,1,0,0,2,1,7,0,0,0,0,0,0,0,,,,1,1
L13112,Class,ParserRuleSet,org.gjt.sp.jedit.syntax.ParserRuleSet,L27718,L103,10,26,26,9,14,0,0,0,0,0,0,0,0,0,0,0,5,6,1,1,2,11,17,0,0,0,0,0,0,0,,,,1,1
L13137,Class,KeywordMap,org.gjt.sp.jedit.syntax.KeywordMap,L27718,L103,5,10,8,1,5,0,0,0,0,0,0,0,0,0,0,0,3,3,0,0,3,5,6,0,0,0,0,0,0,0,,,,1,1
L13590,Class,OffsetManager,org.gjt.sp.jedit.buffer.OffsetManager,L13722,L103,17,26,19,5,10,0,0,0,0,0,0,0,0,0,0,0,0,1,1,0,2,1,7,0,0,0,0,0,0,0,,,,1,1
L13597,Class,UndoManager,org.gjt.sp.jedit.buffer.UndoManager,L13722,L103,7,13,11,1,1,0,0,0,0,0,0,0,0,0,0,0,0,1,0,0,3,0,7,0,0,0,0,0,0,0,,,,1,1
L14033,Class,ExplicitFoldHandler,org.gjt.sp.jedit.buffer.ExplicitFoldHandler,L13722,L103,0,2,2,0,1,0,0,0,0,1,1,0,9,2,0,0,0,0,0,0,0,0,2,0,0,0,0,0,0,0,,,,1,1
L16133,Class,InputHandler,org.gjt.sp.jedit.gui.InputHandler,L15282,L103,5,18,16,2,5,0,0,1,1,1,1,1,0,0,0,0,0,3,0,0,1,3,10,0,0,0,0,0,0,0,,,,1,1
L16642,Class,FloatingWindowContainer,org.gjt.sp.jedit.gui.FloatingWindowContainer,L15282,L103,1,9,9,0,2,0,1,0,0,1,1,0,0,0,0,0,1,1,0,0,1,0,8,0,0,0,0,0,0,0,,,,1,1
L16822,Class,EditAbbrevDialog,org.gjt.sp.jedit.gui.EditAbbrevDialog,L15282,L103,3,5,4,0,2,0,0,0,0,1,1,0,0,0,0,0,1,1,0,0,1,0,10,0,0,0,0,0,0,0,,,,1,1
L17133,Class,ErrorListCellRenderer,org.gjt.sp.jedit.gui.ErrorListCellRenderer,L15282,L103,6,4,3,0,2,0,1,0,0,1,1,0,0,0,0,0,0,0,0,0,3,0,5,0,0,0,0,0,0,0,,,,1,1
L18344,Class,LogViewer,org.gjt.sp.jedit.gui.LogViewer,L15282,L103,3,2,2,0,0,0,0,0,0,1,1,0,0,0,0,0,0,0,0,0,2,0,0,0,0,0,0,0,0,0,,,,1,1
L19816,Class,Registers,org.gjt.sp.jedit.Registers,L10077,L103,1,13,12,2,2,0,0,0,0,0,0,0,0,0,0,0,0,0,0,0,1,0,13,0,0,0,0,0,0,0,,,,1,1
L20286,Class,HelpIndex,org.gjt.sp.jedit.help.HelpIndex,L20280,L103,4,10,7,0,1,0,0,0,0,0,0,0,0,0,0,0,1,1,0,0,4,1,10,0,0,0,0,0,0,0,,,,1,1
L21339,Class,VFSManager,org.gjt.sp.jedit.io.VFSManager,L20827,L103,7,19,18,0,8,0,0,0,0,0,0,0,0,0,0,0,1,1,1,0,3,0,23,0,0,0,0,0,0,0,,,,1,1
L22387,Class,XModeHandler,org.gjt.sp.jedit.syntax.XModeHandler,L27718,L103,27,16,8,0,0,0,0,0,0,1,1,0,13,0,0,0,3,4,0,0,4,0,24,0,0,0,0,0,0,0,,,,1,1
L22458,Class,SettingsReloader,org.gjt.sp.jedit.SettingsReloader,L10077,L103,0,2,1,0,0,0,1,0,0,0,0,0,0,0,0,0,0,0,0,0,0,0,2,0,0,0,0,0,0,0,,,,1,1
L23405,Class,OperatingSystem,org.gjt.sp.jedit.OperatingSystem,L10077,L103,8,10,10,0,10,0,0,0,0,0,0,0,0,0,0,0,0,0,0,0,0,0,1,0,0,0,0,0,0,0,,,,1,1
L23962,Class,ContextOptionPane,org.gjt.sp.jedit.options.ContextOptionPane,L23484,L103,6,4,1,0,0,0,0,0,0,2,2,0,14,4,0,0,0,0,0,0,3,0,0,0,0,0,0,0,0,0,,,,1,1
L24071,Class,DockingOptionPane,org.gjt.sp.jedit.options.DockingOptionPane,L23484,L103,8,5,3,0,0,0,0,0,0,2,2,0,14,4,0,0,1,1,0,0,4,0,2,0,0,0,0,0,0,0,,,,1,1
L24225,Class,EditingOptionPane,org.gjt.sp.jedit.options.EditingOptionPane,L23484,L103,17,6,1,0,0,0,0,0,0,2,2,0,14,4,0,0,0,0,0,0,4,0,0,0,0,0,0,0,0,0,,,,1,1
L24497,Class,ShortcutsOptionPane,org.gjt.sp.jedit.options.ShortcutsOptionPane,L23484,L103,5,7,1,0,0,0,0,0,0,2,2,0,14,4,0,0,0,0,0,0,4,0,10,0,0,0,0,0,0,0,,,,1,1
L24517,Class,ToolBarOptionPane,org.gjt.sp.jedit.options.ToolBarOptionPane,L23484,L103,4,4,1,0,0,0,0,0,0,2,2,0,14,4,0,0,0,0,1,0,4,0,0,0,0,0,0,0,0,0,,,,1,1
L25313,Class,Roster,org.gjt.sp.jedit.pluginmgr.Roster,L25229,L103,1,6,1,0,3,0,0,0,0,0,0,0,0,0,0,0,1,1,0,0,1,5,3,0,0,0,0,0,0,0,,,,1,1
L25948,Class,BufferPrintable,org.gjt.sp.jedit.print.BufferPrintable,L25943,L103,18,6,2,0,0,0,1,0,0,1,1,0,4,0,0,0,0,2,2,0,6,0,11,0,0,0,0,0,0,0,,,,1,1
L26518,Class,BufferListSet,org.gjt.sp.jedit.search.BufferListSet,L26498,L103,1,7,6,0,5,0,1,2,2,0,0,1,0,0,0,0,0,0,0,0,1,0,11,0,0,0,0,0,0,0,,,,1,1
L26543,Class,BoyerMooreSearchMatcher,org.gjt.sp.jedit.search.BoyerMooreSearchMatcher,L26498,L103,10,7,4,0,1,0,1,0,0,0,0,0,0,0,0,0,0,0,2,0,1,0,7,0,0,0,0,0,0,0,,,,1,1
L27349,Class,SearchBar,org.gjt.sp.jedit.search.SearchBar,L26498,L103,7,7,4,1,1,0,0,0,0,1,1,0,0,0,0,0,0,1,2,0,2,1,2,0,0,0,0,0,0,0,,,,1,1
L28898,Class,ExtensionManager,org.gjt.sp.jedit.textarea.ExtensionManager,L28739,L103,1,6,0,0,2,0,0,0,0,0,0,0,0,0,0,0,2,2,0,0,1,0,6,0,0,0,0,0,0,0,,,,1,1
L356,Class,NameSpace,bsh.NameSpace,L104,L103,8,54,39,6,25,0,3,1,1,0,0,1,0,0,0,0,6,6,3,1,3,44,77,0,0,0,0,0,0,0,,,,1,1
L397,Class,Interpreter,bsh.Interpreter,L104,L103,12,54,45,16,12,0,3,0,0,0,0,0,0,0,0,0,4,4,1,0,3,71,75,0,0,0,0,0,0,0,,,,1,1
L9608,Class,AboutDialog,org.gjt.sp.jedit.gui.AboutDialog,L15282,L103,1,3,3,0,0,0,0,0,0,2,2,0,5,1,0,0,0,0,0,0,1,0,1,0,0,0,0,0,0,0,,,,1,1
L10622,Class,BeanShell,org.gjt.sp.jedit.BeanShell,L10077,L103,2,19,15,0,2,0,0,0,0,0,0,0,0,0,0,0,0,0,2,0,1,0,44,0,0,0,0,0,0,0,,,,2,1
L10665,Class,Selection,org.gjt.sp.jedit.textarea.Selection,L28739,L103,4,14,9,1,7,0,1,2,2,0,0,1,0,0,0,0,0,0,1,0,0,16,8,0,0,0,0,0,0,0,,,,2,1
L10833,Class,BeanShellErrorDialog,org.gjt.sp.jedit.gui.BeanShellErrorDialog,L15282,L103,0,3,3,0,0,0,0,0,0,2,2,0,5,1,0,0,0,0,0,0,0,0,2,0,0,0,0,0,0,0,,,,2,1
L11047,Class,BrowserIORequest,org.gjt.sp.jedit.browser.BrowserIORequest,L10876,L103,10,7,3,0,0,0,0,0,0,1,1,0,4,0,0,0,1,1,1,0,3,0,7,0,0,0,0,0,0,0,,,,2,1
L12977,Interface,BufferChangeListener,org.gjt.sp.jedit.buffer.BufferChangeListener,L13722,L103,,4,,,,,,,0,0,,,,,,,,,,0,,3,4,,,,,,,0,0,2,0,2,1
L13217,Class,TokenMarker,org.gjt.sp.jedit.syntax.TokenMarker,L27718,L103,12,12,7,1,3,0,0,0,0,0,0,0,0,0,0,0,4,6,0,0,4,5,15,0,0,0,0,0,0,0,,,,2,1
L13736,Class,BufferChangeAdapter,org.gjt.sp.jedit.buffer.BufferChangeAdapter,L13722,L103,0,4,4,0,0,0,1,0,0,0,0,0,0,0,0,0,0,0,0,0,0,0,4,0,0,0,0,0,0,0,,,,2,1
L15629,Class,BufferOptions,org.gjt.sp.jedit.gui.BufferOptions,L15282,L103,12,3,3,0,0,0,0,0,0,2,2,0,5,1,0,0,0,3,0,0,3,0,2,0,0,0,0,0,0,0,,,,2,1
L16576,Class,PanelWindowContainer,org.gjt.sp.jedit.gui.PanelWindowContainer,L15282,L103,12,14,10,1,5,0,1,0,0,0,0,0,0,0,0,0,1,1,0,0,8,4,12,0,0,0,0,0,0,0,,,,2,1
L19317,Class,SplashScreen,org.gjt.sp.jedit.gui.SplashScreen,L15282,L103,7,5,5,0,0,0,0,0,0,1,1,0,0,0,0,0,0,1,0,0,4,0,2,0,0,0,0,0,0,0,,,,2,1
L23504,Class,AbbrevsOptionPane,org.gjt.sp.jedit.options.AbbrevsOptionPane,L23484,L103,7,5,1,0,0,0,0,0,0,2,2,0,14,4,0,0,1,1,0,0,5,0,0,0,0,0,0,0,0,0,,,,2,1
L9369,Class,OptionsDialog,org.gjt.sp.jedit.gui.OptionsDialog,L15282,L103,10,18,10,0,1,0,2,1,1,2,2,1,5,1,0,0,0,0,0,0,6,3,23,0,0,0,0,0,0,0,,,,2,1
L9915,Class,HistoryModel,org.gjt.sp.jedit.gui.HistoryModel,L15282,L103,5,8,8,0,4,0,0,0,0,0,0,0,0,0,0,0,2,2,0,0,3,1,7,0,0,0,0,0,0,0,,,,2,1
L10464,Class,ActionSet,org.gjt.sp.jedit.ActionSet,L10077,L103,2,13,12,1,5,0,0,0,0,0,0,0,0,0,0,0,3,3,0,2,2,11,11,0,0,0,0,0,0,0,,,,3,1
L10591,Class,Autosave,org.gjt.sp.jedit.Autosave,L10077,L103,1,4,3,1,0,0,1,0,0,0,0,0,0,0,0,0,0,0,0,0,1,0,1,0,0,0,0,0,0,0,,,,3,1
L15016,Class,Gutter,org.gjt.sp.jedit.textarea.Gutter,L28739,L103,22,37,36,14,15,0,1,0,0,1,1,0,0,0,0,0,2,3,0,0,4,1,27,0,0,0,0,0,0,0,,,,3,1
L15086,Class,StatusBar,org.gjt.sp.jedit.gui.StatusBar,L15282,L103,26,12,12,3,0,0,1,0,0,1,1,0,0,0,0,0,0,1,0,0,10,1,6,0,0,0,0,0,0,0,,,,3,1
L16130,Class,DefaultInputHandler,org.gjt.sp.jedit.gui.DefaultInputHandler,L15282,L103,7,14,13,2,4,0,0,0,0,2,2,0,18,5,0,0,0,0,0,0,2,0,14,0,0,0,0,0,0,0,,,,3,1
L19855,Class,GUIUtilities,org.gjt.sp.jedit.GUIUtilities,L10077,L103,6,45,41,0,10,0,0,0,0,0,0,0,0,0,0,0,0,1,0,0,2,0,92,0,0,0,0,0,0,0,,,,3,1
L20891,Class,FileRootsVFS,org.gjt.sp.jedit.io.FileRootsVFS,L20827,L103,7,5,4,0,1,0,0,0,0,1,1,0,30,11,0,0,0,0,0,0,3,0,11,0,0,0,0,0,0,0,,,,3,1
L26757,Class,HyperSearchResults,org.gjt.sp.jedit.search.HyperSearchResults,L26498,L103,6,11,10,0,2,0,1,0,0,1,1,0,0,0,0,0,1,2,0,0,6,1,5,0,0,0,0,0,0,0,,,,3,1
L27120,Class,SearchAndReplace,org.gjt.sp.jedit.search.SearchAndReplace,L26498,L103,7,30,28,9,9,0,0,0,0,0,0,0,0,0,0,0,2,2,0,0,1,0,24,0,0,0,0,0,0,0,,,,3,1
L9969,Class,BufferHistory,org.gjt.sp.jedit.BufferHistory,L10077,L103,3,9,5,1,2,0,0,0,0,0,0,0,0,0,0,0,0,0,0,0,1,0,14,0,0,0,0,0,0,0,,,,3,1
L10723,Class,EditPane,org.gjt.sp.jedit.EditPane,L10077,L103,1,19,14,1,5,0,1,0,0,1,1,0,0,0,0,0,2,4,0,0,0,11,10,0,0,0,0,0,0,0,,,,4,1
L11163,Class,BrowserView,org.gjt.sp.jedit.browser.BrowserView,L10876,L103,10,17,12,1,3,0,0,0,0,1,1,0,0,0,0,0,3,3,0,0,8,1,19,0,0,0,0,0,0,0,,,,4,1
L12631,Class,BufferIORequest,org.gjt.sp.jedit.buffer.BufferIORequest,L13722,L103,18,11,3,0,0,0,0,0,0,1,1,0,4,0,0,0,0,2,1,0,2,0,14,0,0,0,0,0,0,0,,,,4,1
L13635,Class,FileVFS,org.gjt.sp.jedit.io.FileVFS,L20827,L103,1,19,19,1,3,0,0,0,0,1,1,0,30,11,0,0,0,0,0,0,1,0,53,0,0,0,0,0,0,0,,,,4,1
L17405,Class,GrabKeyDialog,org.gjt.sp.jedit.gui.GrabKeyDialog,L15282,L103,9,11,6,0,6,0,0,0,0,1,1,0,0,0,0,0,0,1,0,0,5,0,17,0,0,0,0,0,0,0,,,,4,1
L18264,Class,KeyEventWorkaround,org.gjt.sp.jedit.gui.KeyEventWorkaround,L15282,L103,7,3,2,0,0,0,0,0,0,0,0,0,0,0,0,0,0,0,0,0,0,0,3,0,0,0,0,0,0,0,,,,4,1
L28750,Class,ChunkCache,org.gjt.sp.jedit.textarea.ChunkCache,L28739,L103,7,15,1,1,5,0,0,0,0,0,0,0,0,0,0,0,1,1,2,0,2,0,6,0,0,0,0,0,0,0,,,,4,1
L14971,Class,TextAreaPainter,org.gjt.sp.jedit.textarea.TextAreaPainter,L28739,L103,27,49,46,17,23,0,1,0,0,1,1,0,0,0,0,0,2,2,1,0,5,1,34,0,0,0,0,0,0,0,,,,5,1
L15931,Class,CompleteWord,org.gjt.sp.jedit.gui.CompleteWord,L15282,L103,3,8,3,0,3,0,0,0,0,1,1,0,0,0,0,0,0,2,1,0,2,0,20,0,0,0,0,0,0,0,,,,5,1
L9284,Class,DockableWindowManager,org.gjt.sp.jedit.gui.DockableWindowManager,L15282,L103,8,23,23,0,11,0,0,0,0,1,1,0,0,0,0,0,2,3,0,0,3,3,27,0,0,0,0,0,0,0,,,,5,1
L9088,Class,View,org.gjt.sp.jedit.View,L10077,L103,25,57,45,6,21,0,1,0,0,1,1,0,0,0,0,0,2,23,0,1,5,169,43,0,0,0,0,0,0,0,,,,6,1
L12012,Class,SearchDialog,org.gjt.sp.jedit.search.SearchDialog,L26498,L103,23,16,9,1,1,0,1,0,0,2,2,0,5,1,0,0,0,1,1,0,4,0,13,0,0,0,0,0,0,0,,,,7,1
L12081,Class,MiscUtilities,org.gjt.sp.jedit.MiscUtilities,L10077,L103,0,39,37,0,15,0,0,0,0,0,0,0,0,0,0,0,0,0,0,0,0,0,72,0,0,0,0,0,0,0,,,,7,1
L10894,Class,VFSBrowser,org.gjt.sp.jedit.browser.VFSBrowser,L10876,L103,32,41,29,3,9,0,1,0,0,1,1,0,0,0,0,0,4,5,2,0,6,7,28,0,0,0,0,0,0,0,,,,8,1
L21671,Class,Java14,org.gjt.sp.jedit.Java14,L10077,L103,0,1,1,0,0,0,0,0,0,0,0,0,0,0,0,0,0,0,0,0,0,0,0,0,0,0,0,0,0,0,,,,9,1
L9574,Class,Buffer,org.gjt.sp.jedit.Buffer,L10077,L103,37,137,118,14,60,0,1,0,0,0,0,0,0,0,0,0,4,20,3,1,5,114,86,0,0,0,0,0,0,0,,,,10,1
L10134,Class,JEditTextArea,org.gjt.sp.jedit.textarea.JEditTextArea,L28739,L103,52,213,195,19,58,0,0,0,0,1,1,0,0,0,0,0,4,7,1,0,12,28,43,0,0,0,0,0,0,0,,,,15,1
L14602,Class,jEdit,org.gjt.sp.jedit.jEdit,L10077,L103,18,112,81,8,40,0,0,0,0,0,0,0,0,0,0,0,4,6,0,0,4,0,158,0,0,0,0,0,0,0,,,,17,1
