ID,Type,Name,LongName,Parent,Component,NumAttr,NumOps,NumPubOps,Setters,Getters,Nesting,IFImpl,NOC,NumDesc,NumAnc,DIT,CLD,OpsInh,AttrInh,Dep_Out,Dep_In,NumAssEl_ssc,NumAssEl_sb,NumAssEl_nsb,EC_Attr,IC_Attr,EC_Par,IC_Par,Connectors,InstSpec,LLInst,MsgSent,MsgRecv,MsgSelf,Diags,Assoc,NumDirClients,NumIndClients,BugNo,label
L9070,Class,UncheckedRE,gnu.regexp.UncheckedRE,L7805,L103,0,3,3,0,0,0,0,0,0,2,2,0,54,12,0,0,0,0,0,0,0,0,4,0,0,0,0,0,0,0,,,,0,0
L8555,Class,REFilterReader,gnu.regexp.REFilterReader,L7805,L103,4,5,5,0,0,0,0,0,0,1,1,0,0,0,0,0,2,2,0,0,1,0,3,0,0,0,0,0,0,0,,,,0,0
L8518,Class,REFilterInputStream,gnu.regexp.REFilterInputStream,L7805,L103,4,5,5,0,0,0,0,0,0,1,1,0,0,0,0,0,2,2,0,0,1,0,3,0,0,0,0,0,0,0,,,,0,0
L8376,Class,REMatchEnumeration,gnu.regexp.REMatchEnumeration,L7805,L103,6,6,5,0,3,0,2,0,0,0,0,0,0,0,0,0,3,3,0,0,0,3,5,0,0,0,0,0,0,0,,,,0,0
L8284,Class,REMatch,gnu.regexp.REMatch,L7805,L103,7,14,10,0,6,0,2,0,0,0,0,0,0,0,0,0,1,1,0,0,1,28,6,0,0,0,0,0,0,0,,,,0,0
L8241,Class,RETokenBackRef,gnu.regexp.RETokenBackRef,L7805,L103,2,3,0,0,0,0,0,0,0,1,1,0,8,1,0,0,0,0,0,0,0,0,3,0,0,0,0,0,0,0,,,,0,0
L8221,Class,RETokenAny,gnu.regexp.RETokenAny,L7805,L103,2,4,0,0,1,0,0,0,0,1,1,0,8,1,0,0,0,0,0,0,0,0,3,0,0,0,0,0,0,0,,,,0,0
L822,Class,BshClassManager,bsh.BshClassManager,L104,L103,8,32,19,2,7,0,0,1,1,0,0,1,0,0,0,0,2,2,0,0,3,12,42,0,0,0,0,0,0,0,,,,0,0
L8216,Class,RETokenEnd,gnu.regexp.RETokenEnd,L7805,L103,1,3,0,0,0,0,0,0,0,1,1,0,8,1,0,0,0,0,0,0,1,0,4,0,0,0,0,0,0,0,,,,0,0
L8208,Class,RETokenStart,gnu.regexp.RETokenStart,L7805,L103,1,3,0,0,0,0,0,0,0,1,1,0,8,1,0,0,0,0,0,0,1,0,4,0,0,0,0,0,0,0,,,,0,0
L8199,Class,RETokenLookAhead,gnu.regexp.RETokenLookAhead,L7805,L103,1,3,0,0,0,0,0,0,0,1,1,0,8,1,0,0,1,1,0,0,0,0,4,0,0,0,0,0,0,0,,,,0,0
L8180,Class,RETokenOneOf,gnu.regexp.RETokenOneOf,L7805,L103,2,5,0,0,1,0,0,0,0,1,1,0,8,1,0,0,0,0,0,0,1,0,5,0,0,0,0,0,0,0,,,,0,0
L8167,Class,RETokenPOSIX,gnu.regexp.RETokenPOSIX,L7805,L103,16,5,0,0,1,0,0,0,0,1,1,0,8,1,0,0,0,0,0,0,1,0,4,0,0,0,0,0,0,0,,,,0,0
L8152,Class,RETokenRange,gnu.regexp.RETokenRange,L7805,L103,3,4,0,0,1,0,0,0,0,1,1,0,8,1,0,0,0,0,0,0,0,0,3,0,0,0,0,0,0,0,,,,0,0
L8145,Class,RETokenChar,gnu.regexp.RETokenChar,L7805,L103,2,5,0,0,1,0,0,0,0,1,1,0,8,1,0,0,0,0,0,0,0,0,4,0,0,0,0,0,0,0,,,,0,0
L8138,Class,RETokenWordBoundary,gnu.regexp.RETokenWordBoundary,L7805,L103,4,3,0,0,0,0,0,0,0,1,1,0,8,1,0,0,0,0,0,0,0,0,3,0,0,0,0,0,0,0,,,,0,0
L8135,Class,RETokenRepeated,gnu.regexp.RETokenRepeated,L7805,L103,3,7,0,0,2,0,0,0,0,1,1,0,8,1,0,0,1,1,0,0,0,0,7,0,0,0,0,0,0,0,,,,0,0
L8076,Class,RETokenEndSub,gnu.regexp.RETokenEndSub,L7805,L103,0,3,0,0,0,0,0,0,0,1,1,0,8,1,0,0,0,0,0,0,0,0,3,0,0,0,0,0,0,0,,,,0,0
L8058,Class,RESyntax,gnu.regexp.RESyntax,L7805,L103,31,8,8,2,2,0,1,0,0,0,0,0,0,0,0,0,0,0,2,0,2,6,2,0,0,0,0,0,0,0,,,,0,0
L8041,Class,REException,gnu.regexp.REException,L7805,L103,15,4,3,0,3,0,0,0,0,1,1,0,0,0,0,0,0,0,0,0,0,0,2,0,0,0,0,0,0,0,,,,0,0
L7993,Class,REToken,gnu.regexp.REToken,L7805,L103,1,8,0,1,1,0,1,13,14,0,0,2,0,0,0,0,3,3,0,0,0,10,6,0,0,0,0,0,0,0,,,,0,0
L7991,Class,RE,gnu.regexp.RE,L7805,L103,11,46,26,2,22,0,0,1,1,1,1,1,8,1,0,0,4,4,5,2,2,9,82,0,0,0,0,0,0,0,,,,0,0
L7987,Class,CharUnit,gnu.regexp.CharUnit,L7805,L103,2,0,0,0,0,0,1,0,0,0,0,0,0,0,0,0,0,0,0,0,0,1,0,0,0,0,0,0,0,0,,,,0,0
L7983,Class,IntPair,gnu.regexp.IntPair,L7805,L103,2,0,0,0,0,0,1,0,0,0,0,0,0,0,0,0,0,0,0,0,0,1,0,0,0,0,0,0,0,0,,,,0,0
L7966,Class,CharIndexedStringBuffer,gnu.regexp.CharIndexedStringBuffer,L7805,L103,2,4,3,0,1,0,2,0,0,0,0,0,0,0,0,0,0,0,0,0,1,0,1,0,0,0,0,0,0,0,,,,0,0
L7951,Class,CharIndexedString,gnu.regexp.CharIndexedString,L7805,L103,3,4,3,0,1,0,2,0,0,0,0,0,0,0,0,0,0,0,0,0,1,0,1,0,0,0,0,0,0,0,,,,0,0
L7908,Class,CharIndexedReader,gnu.regexp.CharIndexedReader,L7805,L103,8,5,3,0,1,0,1,0,0,0,0,0,0,0,0,0,1,1,0,0,1,0,1,0,0,0,0,0,0,0,,,,0,0
L788,Class,BSHCastExpression,bsh.BSHCastExpression,L104,L103,0,2,2,0,0,0,0,0,0,1,1,0,18,2,0,0,0,0,0,0,0,0,3,0,0,0,0,0,0,0,,,,0,0
L7863,Class,CharIndexedInputStream,gnu.regexp.CharIndexedInputStream,L7805,L103,8,5,3,0,1,0,1,0,0,0,0,0,0,0,0,0,1,1,0,0,1,0,1,0,0,0,0,0,0,0,,,,0,0
L7847,Class,CharIndexedCharArray,gnu.regexp.CharIndexedCharArray,L7805,L103,2,4,3,0,1,0,2,0,0,0,0,0,0,0,0,0,0,0,0,0,0,0,0,0,0,0,0,0,0,0,,,,0,0
L784,Class,ReturnControl,bsh.ReturnControl,L104,L103,2,1,1,0,0,0,1,0,0,0,0,0,0,0,0,0,1,1,0,0,1,0,2,0,0,0,0,0,0,0,,,,0,0
L7835,Interface,CharIndexed,gnu.regexp.CharIndexed,L7805,L103,,3,,,,,,,0,0,,,,,,,,,,0,,28,0,,,,,,,0,1,6,0,0,0
L781,Class,BSHClassDeclaration,bsh.BSHClassDeclaration,L104,L103,5,3,2,0,0,0,0,0,0,1,1,0,18,2,0,0,1,1,0,0,1,0,4,0,0,0,0,0,0,0,,,,0,0
L727,Class,BSHType,bsh.BSHType,L104,L103,4,9,7,0,6,0,1,0,0,1,1,0,18,2,0,0,0,0,0,0,2,3,11,0,0,0,0,0,0,0,,,,0,0
L712,Class,BSHBinaryExpression,bsh.BSHBinaryExpression,L104,L103,1,4,1,0,2,0,1,0,0,1,1,0,18,2,0,0,0,0,0,0,0,0,5,0,0,0,0,0,0,0,,,,0,0
L6878,Class,XmlParser,com.microstar.xml.XmlParser,L6736,L103,91,117,27,8,20,0,0,0,0,0,0,0,0,0,0,0,1,1,0,0,7,0,116,0,0,0,0,0,0,0,,,,0,0
L6796,Class,XmlException,com.microstar.xml.XmlException,L6736,L103,4,5,5,0,4,0,0,0,0,1,1,0,0,0,0,0,0,0,0,0,1,0,4,0,0,0,0,0,0,0,,,,0,0
L6746,Interface,XmlHandler,com.microstar.xml.XmlHandler,L6736,L103,,13,,,,,,,0,0,,,,,,,,,,0,,1,16,,,,,,,0,1,1,0,0,0
L6744,Class,HandlerBase,com.microstar.xml.HandlerBase,L6736,L103,0,13,13,0,0,0,1,12,12,0,0,1,0,0,0,0,0,0,0,0,0,0,16,0,0,0,0,0,0,0,,,,0,0
L6695,Class,XThis,bsh.XThis,L104,L103,2,4,3,0,2,0,0,0,0,1,1,0,11,0,0,0,0,0,0,0,2,0,7,0,0,0,0,0,0,0,,,,0,0
L6589,Class,Types,bsh.Types,L104,L103,2,10,3,0,5,0,0,0,0,0,0,0,0,0,0,0,1,1,0,0,0,0,26,0,0,0,0,0,0,0,,,,0,0
L6443,Class,StringUtil,bsh.StringUtil,L104,L103,0,5,5,0,0,0,0,0,0,0,0,0,0,0,0,0,0,0,0,0,0,0,13,0,0,0,0,0,0,0,,,,0,0
L6295,Class,Remote,bsh.Remote,L104,L103,0,6,2,0,1,0,0,0,0,0,0,0,0,0,0,0,0,0,0,0,0,0,14,0,0,0,0,0,0,0,,,,0,0
L6264,Class,ReflectManager,bsh.ReflectManager,L104,L103,0,3,3,1,1,0,0,1,1,0,0,1,0,0,0,0,0,0,0,0,0,0,2,0,0,0,0,0,0,0,,,,0,0
L6262,Class,ReflectManagerImpl,bsh.reflect.ReflectManagerImpl,L6259,L103,0,1,1,1,0,0,0,0,0,1,1,0,3,0,0,0,0,0,0,0,0,0,1,0,0,0,0,0,0,0,,,,0,0
L622,Class,BSHPrimaryExpression,bsh.BSHPrimaryExpression,L104,L103,0,4,2,0,0,0,0,0,0,1,1,0,18,2,0,0,0,0,0,0,0,0,9,0,0,0,0,0,0,0,,,,0,0
L613,Interface,ParserConstants,bsh.ParserConstants,L104,L103,,0,,,,,,,0,0,,,,,,,,,,0,,0,0,,,,,,,0,0,13,0,0,0
L612,Class,BSHAssignment,bsh.BSHAssignment,L104,L103,1,3,1,0,0,0,1,0,0,1,1,0,18,2,0,0,0,0,0,0,0,0,6,0,0,0,0,0,0,0,,,,0,0
L6059,Class,Reflect,bsh.Reflect,L104,L103,0,31,14,2,11,0,0,0,0,0,0,0,0,0,0,0,0,0,0,0,0,0,103,0,0,0,0,0,0,0,,,,0,0
L571,Class,Primitive,bsh.Primitive,L104,L103,3,44,29,0,6,0,2,0,0,0,0,0,0,0,0,0,1,1,0,0,2,0,59,0,0,0,0,0,0,0,,,,0,0
L558,Class,BSHArrayInitializer,bsh.BSHArrayInitializer,L104,L103,0,4,2,0,0,0,0,0,0,1,1,0,18,2,0,0,0,0,0,0,0,0,10,0,0,0,0,0,0,0,,,,0,0
L5510,Class,ParserTokenManager,bsh.ParserTokenManager,L104,L103,24,50,7,1,1,0,1,0,0,0,0,0,0,0,0,0,2,2,0,0,2,2,7,0,0,0,0,0,0,0,,,,0,0
L521,Class,InterpreterError,bsh.InterpreterError,L104,L103,0,1,1,0,0,0,0,0,0,1,1,0,0,0,0,0,0,0,0,0,0,0,1,0,0,0,0,0,0,0,,,,0,0
L510,Class,LHS,bsh.LHS,L104,L103,12,9,3,0,1,0,2,0,0,0,0,0,0,0,0,0,2,2,0,0,3,7,14,0,0,0,0,0,0,0,,,,0,0
L488,Class,Name,bsh.Name,L104,L103,8,19,8,0,2,0,1,0,0,0,0,0,0,0,0,0,1,1,0,0,3,2,47,0,0,0,0,0,0,0,,,,0,0
L4423,Interface,ParserTreeConstants,bsh.ParserTreeConstants,L104,L103,,0,,,,,,,0,0,,,,,,,,,,0,,0,0,,,,,,,0,0,1,0,0,0
L4366,Class,Token,bsh.Token,L104,L103,6,2,2,0,0,0,1,0,0,0,0,0,0,0,0,0,3,3,0,0,1,6,1,0,0,0,0,0,0,0,,,,0,0
L414,Class,Modifiers,bsh.Modifiers,L104,L103,4,7,3,0,1,0,1,0,0,0,0,0,0,0,0,0,6,6,0,0,1,15,5,0,0,0,0,0,0,0,,,,0,0
L4012,Interface,NameSource,bsh.NameSource,L104,L103,,2,,,,,,,0,0,,,,,,,,,,0,,1,2,,,,,,,0,0,1,0,0,0
L39848,Class,Edge,org.objectweb.asm.Edge,L39323,L103,1,0,0,0,0,0,0,0,0,0,0,0,0,0,0,0,2,2,0,0,0,0,0,0,0,0,0,0,0,0,,,,0,0
L39469,Class,CodeWriter,org.objectweb.asm.CodeWriter,L39323,L103,14,31,17,0,5,0,1,0,0,0,0,0,0,0,0,0,5,5,0,0,0,2,31,0,0,0,0,0,0,0,,,,0,0
L39443,Class,Item,org.objectweb.asm.Item,L39323,L103,10,8,0,5,1,0,0,0,0,0,0,0,0,0,0,0,2,2,0,0,1,15,3,0,0,0,0,0,0,0,,,,0,0
L39383,Interface,ClassVisitor,org.objectweb.asm.ClassVisitor,L39323,L103,,5,,,,,,,0,0,,,,,,,,,,0,,0,14,,,,,,,0,0,1,0,0,0
L39336,Class,ByteVector,org.objectweb.asm.ByteVector,L39323,L103,2,11,10,0,0,0,0,0,0,0,0,0,0,0,0,0,2,2,0,0,0,2,1,0,0,0,0,0,0,0,,,,0,0
L38901,Class,Log,org.gjt.sp.util.Log,L38831,L103,16,10,6,1,1,0,0,0,0,0,0,0,0,0,0,0,0,0,0,0,5,0,11,0,0,0,0,0,0,0,,,,0,0
L387,Class,TargetError,bsh.TargetError,L104,L103,2,10,10,0,1,0,0,0,0,2,2,0,12,1,0,0,0,0,0,0,1,0,15,0,0,0,0,0,0,0,,,,0,0
L3833,Class,UtilTargetError,bsh.UtilTargetError,L104,L103,1,3,3,0,0,0,0,0,0,2,2,0,4,0,0,0,0,0,0,0,1,0,7,0,0,0,0,0,0,0,,,,0,0
L375,Class,ReflectError,bsh.ReflectError,L104,L103,0,2,2,0,0,0,0,0,0,1,1,0,0,0,0,0,0,0,0,0,0,0,1,0,0,0,0,0,0,0,,,,0,0
L36218,Interface,ScrollListener,org.gjt.sp.jedit.textarea.ScrollListener,L34864,L103,,2,,,,,,,0,1,,,,,,,,,,0,,2,2,,,,,,,0,0,1,0,0,0
L359,Class,BSHBlock,bsh.BSHBlock,L104,L103,1,4,2,0,0,0,0,0,0,1,1,0,18,2,0,0,2,2,0,0,0,9,10,0,0,0,0,0,0,0,,,,0,0
L35828,Class,MouseActions,org.gjt.sp.jedit.textarea.MouseActions,L34864,L103,1,2,0,0,1,0,0,0,0,0,0,0,0,0,0,0,0,0,0,1,1,0,4,0,0,0,0,0,0,0,,,,0,0
L35811,Interface,StructureMatcher,org.gjt.sp.jedit.textarea.StructureMatcher,L34864,L103,,2,,,,,,,0,0,,,,,,,,,,1,,4,3,,,,,,,0,0,1,0,0,0
L35506,Class,TextAreaExtension,org.gjt.sp.jedit.textarea.TextAreaExtension,L34864,L103,0,4,4,0,1,0,0,7,7,0,0,1,0,0,0,0,0,0,0,1,0,12,4,0,0,0,0,0,0,0,,,,0,0
L35500,Class,ExtensionManager,org.gjt.sp.jedit.textarea.ExtensionManager,L34864,L103,1,6,0,0,2,0,0,0,0,0,0,0,0,0,0,0,2,2,0,0,1,0,7,0,0,0,0,0,0,0,,,,0,0
L350,Class,ClassIdentifier,bsh.ClassIdentifier,L104,L103,1,3,3,0,1,0,0,0,0,0,0,0,0,0,0,0,0,0,0,0,1,1,3,0,0,0,0,0,0,0,,,,0,0
L34458,Class,SyntaxUtilities,org.gjt.sp.jedit.syntax.SyntaxUtilities,L33721,L103,0,1,1,0,0,0,0,0,0,0,0,0,0,0,0,0,0,0,0,0,0,0,1,0,0,0,0,0,0,0,,,,0,0
L34000,Class,DummyTokenHandler,org.gjt.sp.jedit.syntax.DummyTokenHandler,L33721,L103,0,2,2,1,0,0,1,0,0,0,0,0,0,0,0,0,0,0,0,0,0,0,3,0,0,0,0,0,0,0,,,,0,0
L3384,Class,JThis,bsh.JThis,L104,L103,0,86,84,0,0,0,33,0,0,1,1,0,11,0,0,0,0,0,0,0,0,0,88,0,0,0,0,0,0,0,,,,0,0
L33554,Class,ServiceListHandler,org.gjt.sp.jedit.ServiceListHandler,L11942,L103,6,12,8,0,1,0,0,0,0,1,1,0,13,0,0,0,1,1,0,0,4,0,17,0,0,0,0,0,0,0,,,,0,0
L33308,Class,SearchDialog,org.gjt.sp.jedit.search.SearchDialog,L32246,L103,25,18,8,1,1,0,1,0,0,2,2,0,5,1,0,0,0,1,1,0,4,0,11,0,0,0,0,0,0,0,,,,0,0
L330,Class,BSHPrimitiveType,bsh.BSHPrimitiveType,L104,L103,1,2,1,0,1,0,0,0,0,1,1,0,18,2,0,0,0,0,0,0,1,1,1,0,0,0,0,0,0,0,,,,0,0
L32868,Class,RESearchMatcher,org.gjt.sp.jedit.search.RESearchMatcher,L32246,L103,0,2,2,0,0,0,0,0,0,1,1,0,2,1,0,0,0,0,2,0,0,0,3,0,0,0,0,0,0,0,,,,0,0
L32565,Class,CharIndexedSegment,org.gjt.sp.util.CharIndexedSegment,L38831,L103,3,6,6,0,1,0,2,0,0,0,0,0,0,0,0,0,0,0,0,0,1,0,2,0,0,0,0,0,0,0,,,,0,0
L32560,Class,HyperSearchResult,org.gjt.sp.jedit.search.HyperSearchResult,L32246,L103,5,9,4,0,2,0,0,0,0,0,0,0,0,0,0,0,0,1,0,0,2,3,7,0,0,0,0,0,0,0,,,,0,0
L325,Class,BSHArrayDimensions,bsh.BSHArrayDimensions,L104,L103,4,5,4,0,0,0,0,0,0,1,1,0,18,2,0,0,0,0,0,0,1,4,7,0,0,0,0,0,0,0,,,,0,0
L32399,Class,CurrentBufferSet,org.gjt.sp.jedit.search.CurrentBufferSet,L32246,L103,0,5,5,0,5,0,1,0,0,0,0,0,0,0,0,0,0,0,0,0,0,0,9,0,0,0,0,0,0,0,,,,0,0
L32366,Interface,SearchFileSet,org.gjt.sp.jedit.search.SearchFileSet,L32246,L103,,5,,,,,,,0,0,,,,,,,,,,0,,2,9,,,,,,,0,1,2,0,0,0
L32290,Class,BoyerMooreSearchMatcher,org.gjt.sp.jedit.search.BoyerMooreSearchMatcher,L32246,L103,7,6,3,0,1,0,0,0,0,1,1,0,2,1,0,0,0,0,0,0,0,0,4,0,0,0,0,0,0,0,,,,0,0
L32265,Class,BufferListSet,org.gjt.sp.jedit.search.BufferListSet,L32246,L103,1,7,6,0,5,0,1,2,2,0,0,1,0,0,0,0,0,0,0,0,1,0,11,0,0,0,0,0,0,0,,,,0,0
L32029,Class,PluginResURLConnection,org.gjt.sp.jedit.proto.jeditresource.PluginResURLConnection,L32015,L103,3,4,4,0,2,0,0,0,0,1,1,0,0,0,0,0,0,0,0,0,2,0,4,0,0,0,0,0,0,0,,,,0,0
L32020,Class,Handler,org.gjt.sp.jedit.proto.jeditresource.Handler,L32015,L103,0,1,1,0,0,0,0,0,0,1,1,0,0,0,0,0,0,0,0,0,0,0,2,0,0,0,0,0,0,0,,,,0,0
L31833,Class,BufferPrinter1_4,org.gjt.sp.jedit.print.BufferPrinter1_4,L31563,L103,2,5,3,0,2,0,0,0,0,0,0,0,0,0,0,0,0,0,0,0,2,0,6,0,0,0,0,0,0,0,,,,0,0
L318,Class,BSHArguments,bsh.BSHArguments,L104,L103,0,2,1,0,1,0,0,0,0,1,1,0,18,2,0,0,0,0,0,0,0,2,3,0,0,0,0,0,0,0,,,,0,0
L31761,Class,BufferPrinter1_3,org.gjt.sp.jedit.print.BufferPrinter1_3,L31563,L103,2,4,3,0,2,0,0,0,0,0,0,0,0,0,0,0,0,0,0,0,2,0,5,0,0,0,0,0,0,0,,,,0,0
L31619,Class,DisplayTokenHandler,org.gjt.sp.jedit.syntax.DisplayTokenHandler,L33721,L103,9,7,3,0,1,0,0,0,0,1,1,0,8,1,0,0,2,2,2,0,3,0,17,0,0,0,0,0,0,0,,,,0,0
L31568,Class,BufferPrintable,org.gjt.sp.jedit.print.BufferPrintable,L31563,L103,19,6,2,0,0,0,1,0,0,0,0,0,0,0,0,0,0,2,2,0,7,0,11,0,0,0,0,0,0,0,,,,0,0
L315,Class,BSHAmbiguousName,bsh.BSHAmbiguousName,L104,L103,1,8,6,0,1,0,0,0,0,1,1,0,18,2,0,0,0,0,0,0,1,3,18,0,0,0,0,0,0,0,,,,0,0
L3143,Class,JavaCharStream,bsh.JavaCharStream,L104,L103,17,31,25,0,6,0,0,0,0,0,0,0,0,0,0,0,2,2,0,0,1,5,13,0,0,0,0,0,0,0,,,,0,0
L3137,Class,JJTParserState,bsh.JJTParserState,L104,L103,5,12,0,0,0,0,0,0,0,0,0,0,0,0,0,0,1,1,0,0,1,1,8,0,0,0,0,0,0,0,,,,0,0
L31054,Class,PluginListHandler,org.gjt.sp.jedit.pluginmgr.PluginListHandler,L30356,L103,22,12,8,0,0,0,0,0,0,1,1,0,13,0,0,0,1,1,0,0,5,0,16,0,0,0,0,0,0,0,,,,0,0
L30945,Class,MirrorListHandler,org.gjt.sp.jedit.pluginmgr.MirrorListHandler,L30356,L103,8,12,8,0,0,0,0,0,0,1,1,0,13,0,0,0,1,1,0,0,3,0,16,0,0,0,0,0,0,0,,,,0,0
L309,Class,CallStack,bsh.CallStack,L104,L103,1,13,13,1,1,0,0,0,0,0,0,0,0,0,0,0,2,2,0,0,1,99,10,0,0,0,0,0,0,0,,,,0,0
L30669,Class,PluginManagerProgress,org.gjt.sp.jedit.pluginmgr.PluginManagerProgress,L30356,L103,6,3,3,1,0,0,0,0,0,1,1,0,0,0,0,0,1,1,0,0,3,5,2,0,0,0,0,0,0,0,,,,0,0
L30550,Class,PluginList,org.gjt.sp.jedit.pluginmgr.PluginList,L30356,L103,5,5,0,0,0,0,0,0,0,0,0,0,0,0,0,0,2,2,0,0,2,2,2,0,0,0,0,0,0,0,,,,0,0
L30367,Class,InstallPanel,org.gjt.sp.jedit.pluginmgr.InstallPanel,L30356,L103,4,3,1,0,0,0,0,0,0,1,1,0,0,0,0,0,1,1,0,0,3,0,2,0,0,0,0,0,0,0,,,,0,0
L30247,Class,ServiceManager,org.gjt.sp.jedit.ServiceManager,L11942,L103,1,8,7,0,3,0,0,0,0,0,0,0,0,0,0,0,0,0,0,0,1,0,17,0,0,0,0,0,0,0,,,,0,0
L2997,Class,TokenMgrError,bsh.TokenMgrError,L104,L103,5,6,4,0,1,0,0,0,0,1,1,0,0,0,0,0,0,0,0,0,0,0,7,0,0,0,0,0,0,0,,,,0,0
L29944,Class,ViewOptionPane,org.gjt.sp.jedit.options.ViewOptionPane,L28073,L103,11,3,1,0,0,0,0,0,0,2,2,0,15,4,0,0,0,0,0,0,4,0,0,0,0,0,0,0,0,0,,,,0,0
L2987,Class,ParseException,bsh.ParseException,L104,L103,5,11,10,1,5,0,0,0,0,2,2,0,12,1,0,0,1,1,0,0,1,2,11,0,0,0,0,0,0,0,,,,0,0
L29857,Class,ToolBarEditDialog,org.gjt.sp.jedit.options.ToolBarEditDialog,L28073,L103,12,6,4,0,1,0,0,0,0,2,2,0,5,1,0,0,0,0,0,0,5,0,4,0,0,0,0,0,0,0,,,,0,0
L29730,Class,ToolBarOptionPane,org.gjt.sp.jedit.options.ToolBarOptionPane,L28073,L103,4,4,1,0,0,0,0,0,0,2,2,0,15,4,0,0,0,0,1,0,4,0,0,0,0,0,0,0,0,0,,,,0,0
L29674,Class,TextAreaOptionPane,org.gjt.sp.jedit.options.TextAreaOptionPane,L28073,L103,9,3,3,0,0,0,0,0,0,2,2,0,15,4,0,0,0,0,2,0,1,0,0,0,0,0,0,0,0,0,,,,0,0
L296,Class,SimpleNode,bsh.SimpleNode,L104,L103,2,18,18,1,4,0,1,37,37,0,0,1,0,0,0,0,6,6,0,0,1,27,14,0,0,0,0,0,0,0,,,,0,0
L29563,Class,StyleEditor,org.gjt.sp.jedit.options.StyleEditor,L28073,L103,7,5,4,0,1,0,1,0,0,2,2,0,5,1,0,0,0,0,1,0,2,0,4,0,0,0,0,0,0,0,,,,0,0
L29534,Class,StyleTableModel,org.gjt.sp.jedit.options.StyleTableModel,L28073,L103,1,8,6,1,4,0,0,0,0,1,1,0,0,0,0,0,1,1,0,0,1,1,5,0,0,0,0,0,0,0,,,,0,0
L29512,Class,SyntaxHiliteOptionPane,org.gjt.sp.jedit.options.SyntaxHiliteOptionPane,L28073,L103,2,5,1,0,0,0,0,0,0,2,2,0,15,4,0,0,1,1,0,0,2,0,2,0,0,0,0,0,0,0,,,,0,0
L29457,Class,StatusBarOptionPane,org.gjt.sp.jedit.options.StatusBarOptionPane,L28073,L103,12,4,1,0,0,0,0,0,0,2,2,0,15,4,0,0,0,0,1,0,1,0,0,0,0,0,0,0,0,0,,,,0,0
L294,Class,BSHAllocationExpression,bsh.BSHAllocationExpression,L104,L103,1,10,1,0,0,0,0,0,0,1,1,0,18,2,0,0,0,0,0,0,0,0,43,0,0,0,0,0,0,0,,,,0,0
L29321,Class,PrintOptionPane,org.gjt.sp.jedit.options.PrintOptionPane,L28073,L103,7,3,1,0,0,0,0,0,0,2,2,0,15,4,0,0,0,0,1,0,2,0,0,0,0,0,0,0,0,0,,,,0,0
L29282,Class,PluginOptions,org.gjt.sp.jedit.options.PluginOptions,L28073,L103,0,6,4,0,1,0,0,0,0,3,3,0,22,9,0,0,0,1,0,0,0,0,8,0,0,0,0,0,0,0,,,,0,0
L29226,Class,MirrorList,org.gjt.sp.jedit.pluginmgr.MirrorList,L30356,L103,1,3,1,0,0,0,0,0,0,0,0,0,0,0,0,0,1,1,0,0,1,1,1,0,0,0,0,0,0,0,,,,0,0
L29168,Class,PluginManagerOptionPane,org.gjt.sp.jedit.options.PluginManagerOptionPane,L28073,L103,9,3,1,0,0,0,0,0,0,2,2,0,15,4,0,0,0,0,0,0,6,0,0,0,0,0,0,0,0,0,,,,0,0
L29142,Class,MouseOptionPane,org.gjt.sp.jedit.options.MouseOptionPane,L28073,L103,6,3,2,0,0,0,0,0,0,2,2,0,15,4,0,0,0,0,0,0,3,0,0,0,0,0,0,0,0,0,,,,0,0
L29094,Class,GutterOptionPane,org.gjt.sp.jedit.options.GutterOptionPane,L28073,L103,5,3,3,0,0,0,0,0,0,2,2,0,15,4,0,0,0,0,2,0,2,0,0,0,0,0,0,0,0,0,,,,0,0
L29010,Class,GeneralOptionPane,org.gjt.sp.jedit.options.GeneralOptionPane,L28073,L103,15,3,1,0,0,0,0,0,0,2,2,0,15,4,0,0,0,0,0,0,3,0,0,0,0,0,0,0,0,0,,,,0,0
L28960,Class,FirewallOptionPane,org.gjt.sp.jedit.options.FirewallOptionPane,L28073,L103,9,3,3,0,0,0,0,0,0,2,2,0,15,4,0,0,0,0,0,0,3,0,0,0,0,0,0,0,0,0,,,,0,0
L289,Class,BshMethod,bsh.BshMethod,L104,L103,7,15,10,0,6,0,1,1,1,0,0,1,0,0,0,0,3,3,2,0,4,10,41,0,0,0,0,0,0,0,,,,0,0
L28831,Class,EditingOptionPane,org.gjt.sp.jedit.options.EditingOptionPane,L28073,L103,19,6,1,0,0,0,0,0,0,2,2,0,15,4,0,0,0,0,0,0,5,0,0,0,0,0,0,0,0,0,,,,0,0
L28726,Class,WindowTableModel,org.gjt.sp.jedit.options.WindowTableModel,L28073,L103,1,10,9,1,6,0,0,0,0,1,1,0,0,0,0,0,1,1,0,0,1,1,4,0,0,0,0,0,0,0,,,,0,0
L28705,Class,DockingOptionPane,org.gjt.sp.jedit.options.DockingOptionPane,L28073,L103,1,5,3,0,0,0,0,0,0,2,2,0,15,4,0,0,1,1,0,0,1,0,2,0,0,0,0,0,0,0,,,,0,0
L28651,Class,ContextAddDialog,org.gjt.sp.jedit.options.ContextAddDialog,L28073,L103,7,5,4,0,1,0,0,0,0,2,2,0,5,1,0,0,0,0,0,0,4,0,2,0,0,0,0,0,0,0,,,,0,0
L28597,Class,ContextOptionPane,org.gjt.sp.jedit.options.ContextOptionPane,L28073,L103,6,4,1,0,0,0,0,0,0,2,2,0,15,4,0,0,0,0,0,0,3,0,0,0,0,0,0,0,0,0,,,,0,0
L28566,Class,BrowserOptionPane,org.gjt.sp.jedit.options.BrowserOptionPane,L28073,L103,9,3,3,0,0,0,0,0,0,2,2,0,15,4,0,0,0,0,0,0,2,0,0,0,0,0,0,0,0,0,,,,0,0
L28401,Class,BrowserColorsModel,org.gjt.sp.jedit.options.BrowserColorsModel,L28073,L103,1,13,9,1,6,0,0,0,0,1,1,0,0,0,0,0,1,1,0,0,1,0,4,0,0,0,0,0,0,0,,,,0,0
L28389,Class,BrowserColorsOptionPane,org.gjt.sp.jedit.options.BrowserColorsOptionPane,L28073,L103,5,5,1,1,0,0,0,0,0,2,2,0,15,4,0,0,1,1,0,0,2,0,0,0,0,0,0,0,0,0,,,,0,0
L28365,Class,AutosaveBackupOptionPane,org.gjt.sp.jedit.options.AutosaveBackupOptionPane,L28073,L103,6,3,1,0,0,0,0,0,0,2,2,0,15,4,0,0,0,0,0,0,2,0,0,0,0,0,0,0,0,0,,,,0,0
L28305,Class,AppearanceOptionPane,org.gjt.sp.jedit.options.AppearanceOptionPane,L28073,L103,9,4,1,0,0,0,0,0,0,2,2,0,15,4,0,0,0,0,1,0,4,0,0,0,0,0,0,0,0,0,,,,0,0
L2826,Class,Parser,bsh.Parser,L104,L103,6,351,88,1,3,0,2,0,0,0,0,0,0,0,0,0,5,5,0,0,1,0,19,0,0,0,0,0,0,0,,,,0,0
L28239,Class,Abbrev,org.gjt.sp.jedit.options.Abbrev,L28073,L103,2,2,0,0,0,0,0,0,0,0,0,0,0,0,0,0,0,0,0,0,1,0,2,0,0,0,0,0,0,0,,,,0,0
L28112,Class,AbbrevsModel,org.gjt.sp.jedit.options.AbbrevsModel,L28073,L103,2,11,7,1,5,0,0,0,0,1,1,0,0,0,0,0,1,1,0,0,1,1,7,0,0,0,0,0,0,0,,,,0,0
L28097,Class,AbbrevsOptionPane,org.gjt.sp.jedit.options.AbbrevsOptionPane,L28073,L103,7,6,1,0,0,0,0,0,0,2,2,0,15,4,0,0,1,1,0,0,5,0,3,0,0,0,0,0,0,0,,,,0,0
L27881,Class,SearchSettingsChanged,org.gjt.sp.jedit.msg.SearchSettingsChanged,L27726,L103,0,1,1,0,0,0,0,0,0,1,1,0,7,1,0,0,0,0,0,0,0,0,1,0,0,0,0,0,0,0,,,,0,0
L27289,Class,RecentFilesProvider,org.gjt.sp.jedit.menu.RecentFilesProvider,L26930,L103,0,2,2,0,0,0,1,0,0,0,0,0,0,0,0,0,0,0,0,0,0,0,1,0,0,0,0,0,0,0,,,,0,0
L27266,Class,RecentDirectoriesProvider,org.gjt.sp.jedit.menu.RecentDirectoriesProvider,L26930,L103,0,2,2,0,0,0,1,0,0,0,0,0,0,0,0,0,0,0,0,0,0,0,1,0,0,0,0,0,0,0,,,,0,0
L27243,Class,PluginsProvider,org.gjt.sp.jedit.menu.PluginsProvider,L26930,L103,0,3,2,0,0,0,1,0,0,0,0,0,0,0,0,0,0,0,0,0,0,0,3,0,0,0,0,0,0,0,,,,0,0
L27195,Class,MarkersProvider,org.gjt.sp.jedit.menu.MarkersProvider,L26930,L103,0,2,2,0,0,0,1,0,0,0,0,0,0,0,0,0,0,0,0,0,0,0,1,0,0,0,0,0,0,0,,,,0,0
L2719,Interface,ConsoleInterface,bsh.ConsoleInterface,L104,L103,,6,,,,,,,0,0,,,,,,,,,,0,,3,6,,,,,,,0,1,1,0,0,0
L27179,Class,MacrosProvider,org.gjt.sp.jedit.menu.MacrosProvider,L26930,L103,0,3,2,0,0,0,1,0,0,0,0,0,0,0,0,0,0,0,0,0,0,0,3,0,0,0,0,0,0,0,,,,0,0
L27160,Class,FavoritesProvider,org.gjt.sp.jedit.menu.FavoritesProvider,L26930,L103,0,2,2,0,0,0,1,0,0,0,0,0,0,0,0,0,0,0,0,0,0,0,1,0,0,0,0,0,0,0,,,,0,0
L26943,Class,DirectoryProvider,org.gjt.sp.jedit.menu.DirectoryProvider,L26930,L103,1,3,3,0,0,0,1,0,0,0,0,0,0,0,0,0,0,0,0,0,1,0,2,0,0,0,0,0,0,0,,,,0,0
L266,Class,Interpreter,bsh.Interpreter,L104,L103,14,56,45,14,14,0,3,0,0,0,0,0,0,0,0,0,6,6,1,0,3,106,74,0,0,0,0,0,0,0,,,,0,0
L26572,Class,ModeCatalogHandler,org.gjt.sp.jedit.ModeCatalogHandler,L11942,L103,6,5,4,0,0,0,0,0,0,1,1,0,13,0,0,0,0,0,0,0,1,0,10,0,0,0,0,0,0,0,,,,0,0
L26519,Class,EditorStarted,org.gjt.sp.jedit.msg.EditorStarted,L27726,L103,0,1,1,0,0,0,0,0,0,1,1,0,7,1,0,0,0,0,0,0,0,0,1,0,0,0,0,0,0,0,,,,0,0
L2651,Class,dir,bsh.commands.dir,L2648,L103,1,3,3,0,0,0,0,0,0,0,0,0,0,0,0,0,0,0,0,0,1,0,6,0,0,0,0,0,0,0,,,,0,0
L26414,Class,SettingsReloader,org.gjt.sp.jedit.SettingsReloader,L11942,L103,0,2,1,0,0,0,1,0,0,0,0,0,0,0,0,0,0,0,0,0,0,0,2,0,0,0,0,0,0,0,,,,0,0
L26372,Class,PropertyManager,org.gjt.sp.jedit.PropertyManager,L11942,L103,4,15,2,2,3,0,0,0,0,0,0,0,0,0,0,0,1,1,0,0,2,0,21,0,0,0,0,0,0,0,,,,0,0
L26282,Class,EditorExiting,org.gjt.sp.jedit.msg.EditorExiting,L27726,L103,0,1,1,0,0,0,0,0,0,1,1,0,7,1,0,0,0,0,0,0,0,0,1,0,0,0,0,0,0,0,,,,0,0
L26272,Class,EditorExitRequested,org.gjt.sp.jedit.msg.EditorExitRequested,L27726,L103,0,2,2,0,1,0,0,0,0,1,1,0,7,1,0,0,0,0,0,0,0,0,2,0,0,0,0,0,0,0,,,,0,0
L262,Class,This,bsh.This,L104,L103,0,11,8,0,5,0,2,2,2,0,0,1,0,0,0,0,2,2,0,0,0,8,22,0,0,0,0,0,0,0,,,,0,0
L2606,Class,CommandLineReader,bsh.CommandLineReader,L104,L103,4,4,4,0,0,0,0,0,0,1,1,0,0,0,0,0,0,0,0,0,0,0,2,0,0,0,0,0,0,0,,,,0,0
L2528,Class,CollectionManagerImpl,bsh.collection.CollectionManagerImpl,L2490,L103,0,4,4,0,3,0,0,0,0,1,1,0,6,0,0,0,0,0,0,0,0,0,10,0,0,0,0,0,0,0,,,,0,0
L25030,Class,VFSManager,org.gjt.sp.jedit.io.VFSManager,L24432,L103,8,20,19,0,9,0,0,0,0,0,0,0,0,0,0,0,1,1,1,0,5,0,24,0,0,0,0,0,0,0,,,,0,0
L2494,Class,CollectionIterator,bsh.collection.CollectionIterator,L2490,L103,1,4,3,0,1,0,1,0,0,0,0,0,0,0,0,0,0,0,0,0,1,0,4,0,0,0,0,0,0,0,,,,0,0
L2487,Class,ClassPathException,bsh.ClassPathException,L104,L103,0,1,1,0,0,0,0,0,0,2,2,0,4,0,0,0,0,0,0,0,0,0,1,0,0,0,0,0,0,0,,,,0,0
L24725,Class,UrlVFS,org.gjt.sp.jedit.io.UrlVFS,L24432,L103,0,4,4,0,0,0,0,0,0,1,1,0,32,17,0,0,0,0,0,0,0,0,11,0,0,0,0,0,0,0,,,,0,0
L24505,Class,FileRootsVFS,org.gjt.sp.jedit.io.FileRootsVFS,L24432,L103,7,5,4,0,1,0,0,0,0,1,1,0,32,17,0,0,0,0,0,0,3,0,11,0,0,0,0,0,0,0,,,,0,0
L24440,Class,FavoritesVFS,org.gjt.sp.jedit.io.FavoritesVFS,L24432,L103,3,9,9,0,2,0,0,0,0,1,1,0,32,17,0,0,0,0,0,0,3,0,15,0,0,0,0,0,0,0,,,,0,0
L24087,Class,HelpTOCPanel,org.gjt.sp.jedit.help.HelpTOCPanel,L23821,L103,4,6,0,0,0,0,0,0,0,1,1,0,0,0,0,0,1,1,0,0,4,0,7,0,0,0,0,0,0,0,,,,0,0
L23967,Class,HelpSearchPanel,org.gjt.sp.jedit.help.HelpSearchPanel,L23821,L103,1,2,1,0,1,0,0,0,0,1,1,0,0,0,0,0,2,2,1,0,1,0,2,0,0,0,0,0,0,0,,,,0,0
L23827,Class,HelpIndex,org.gjt.sp.jedit.help.HelpIndex,L23821,L103,3,10,7,0,1,0,0,0,0,0,0,0,0,0,0,0,1,1,0,0,3,1,10,0,0,0,0,0,0,0,,,,0,0
L23399,Class,EnhancedMenuItem,org.gjt.sp.jedit.menu.EnhancedMenuItem,L26930,L103,5,4,3,0,2,0,0,0,0,1,1,0,0,0,0,0,0,0,0,0,3,0,6,0,0,0,0,0,0,0,,,,0,0
L23394,Class,EnhancedCheckBoxMenuItem,org.gjt.sp.jedit.menu.EnhancedCheckBoxMenuItem,L26930,L103,2,4,3,0,2,0,0,0,0,1,1,0,0,0,0,0,0,1,0,0,1,0,6,0,0,0,0,0,0,0,,,,0,0
L23238,Class,ViewRegisters,org.gjt.sp.jedit.gui.ViewRegisters,L18210,L103,3,3,3,0,0,0,0,0,0,2,2,0,5,1,0,0,0,0,0,0,3,0,1,0,0,0,0,0,0,0,,,,0,0
L23167,Class,VariableGridLayout,org.gjt.sp.jedit.gui.VariableGridLayout,L18210,L103,10,16,14,0,3,0,2,0,0,0,0,0,0,0,0,0,0,0,0,0,0,0,19,0,0,0,0,0,0,0,,,,0,0
L23104,Class,ToolBarManager,org.gjt.sp.jedit.gui.ToolBarManager,L18210,L103,4,5,3,0,0,0,0,0,0,0,0,0,0,0,0,0,0,1,0,0,2,0,10,0,0,0,0,0,0,0,,,,0,0
L23053,Class,TipOfTheDay,org.gjt.sp.jedit.gui.TipOfTheDay,L18210,L103,5,4,3,0,0,0,0,0,0,2,2,0,5,1,0,0,0,0,0,0,3,0,1,0,0,0,0,0,0,0,,,,0,0
L2281,Class,Label,org.objectweb.asm.Label,L39323,L103,7,4,1,0,0,0,0,0,0,0,0,0,0,0,0,0,2,2,0,0,0,27,3,0,0,0,0,0,0,0,,,,0,0
L22666,Class,SplashScreen,org.gjt.sp.jedit.gui.SplashScreen,L18210,L103,5,4,4,0,0,0,0,0,0,1,1,0,0,0,0,0,0,1,0,0,3,0,1,0,0,0,0,0,0,0,,,,0,0
L22622,Class,SelectLineRange,org.gjt.sp.jedit.gui.SelectLineRange,L18210,L103,4,5,4,0,0,0,1,0,0,2,2,0,5,1,0,0,0,1,0,0,2,0,3,0,0,0,0,0,0,0,,,,0,0
L2256,Class,Type,org.objectweb.asm.Type,L39323,L103,15,23,18,0,21,0,0,0,0,0,0,0,0,0,0,0,0,0,0,0,0,0,19,0,0,0,0,0,0,0,,,,0,0
L22451,Class,PasteFromListDialog,org.gjt.sp.jedit.gui.PasteFromListDialog,L18210,L103,4,6,3,0,1,0,0,0,0,2,2,0,5,1,0,0,0,1,0,0,3,0,4,0,0,0,0,0,0,0,,,,0,0
L2223,Interface,CodeVisitor,org.objectweb.asm.CodeVisitor,L39323,L103,,17,,,,,,,0,0,,,,,,,,,,0,,7,24,,,,,,,0,0,1,0,0,0
L220,Class,UtilEvalError,bsh.UtilEvalError,L104,L103,0,4,3,0,0,0,0,3,3,1,1,1,0,0,0,0,0,0,0,0,0,3,8,0,0,0,0,0,0,0,,,,0,0
L21824,Class,OptionGroup,org.gjt.sp.jedit.OptionGroup,L11942,L103,4,13,12,1,6,0,0,0,0,0,0,0,0,0,0,0,0,2,0,1,2,6,13,0,0,0,0,0,0,0,,,,0,0
L21715,Class,LogViewer,org.gjt.sp.jedit.gui.LogViewer,L18210,L103,4,6,5,0,0,0,2,0,0,1,1,0,0,0,0,0,0,0,0,0,3,0,1,0,0,0,0,0,0,0,,,,0,0
L2158,Class,ClassWriter,org.objectweb.asm.ClassWriter,L39323,L103,39,22,7,0,1,0,1,0,0,0,0,0,0,0,0,0,3,3,0,0,0,5,44,0,0,0,0,0,0,0,,,,0,0
L21437,Class,CheckBoxListModel,org.gjt.sp.jedit.gui.CheckBoxListModel,L18210,L103,1,10,7,1,6,0,0,0,0,1,1,0,0,0,0,0,0,0,0,0,1,0,8,0,0,0,0,0,0,0,,,,0,0
L21321,Class,IOProgressMonitor,org.gjt.sp.jedit.gui.IOProgressMonitor,L18210,L103,3,4,3,0,0,0,0,0,0,1,1,0,0,0,0,0,0,0,0,0,3,0,0,0,0,0,0,0,0,0,,,,0,0
L2091,Interface,Constants,org.objectweb.asm.Constants,L39323,L103,,0,,,,,,,0,0,,,,,,,,,,0,,0,0,,,,,,,0,0,1,0,0,0
L20757,Class,GrabKeyDialog,org.gjt.sp.jedit.gui.GrabKeyDialog,L18210,L103,9,12,7,0,6,0,0,0,0,1,1,0,0,0,0,0,0,1,0,0,5,0,19,0,0,0,0,0,0,0,,,,0,0
L20633,Class,FontSelectorDialog,org.gjt.sp.jedit.gui.FontSelectorDialog,L18210,L103,11,11,7,0,2,0,0,0,0,2,2,0,5,1,0,0,1,1,0,0,5,0,17,0,0,0,0,0,0,0,,,,0,0
L206,Class,EvalError,bsh.EvalError,L104,L103,1,12,9,2,6,0,0,2,2,1,1,1,0,0,0,0,2,2,0,0,1,3,13,0,0,0,0,0,0,0,,,,0,0
L20331,Class,FilesChangedDialog,org.gjt.sp.jedit.gui.FilesChangedDialog,L18210,L103,7,6,3,0,0,0,0,0,0,2,2,0,5,1,0,0,0,1,0,0,4,0,1,0,0,0,0,0,0,0,,,,0,0
L20236,Class,ErrorListCellRenderer,org.gjt.sp.jedit.gui.ErrorListCellRenderer,L18210,L103,6,4,3,0,2,0,1,0,0,1,1,0,0,0,0,0,0,0,0,0,3,0,5,0,0,0,0,0,0,0,,,,0,0
L20130,Class,EnhancedButton,org.gjt.sp.jedit.gui.EnhancedButton,L18210,L103,1,2,2,0,1,0,0,0,0,2,2,0,8,3,0,0,0,0,0,0,1,2,4,0,0,0,0,0,0,0,,,,0,0
L20062,Class,EditAbbrevDialog,org.gjt.sp.jedit.gui.EditAbbrevDialog,L18210,L103,5,6,4,0,2,0,0,0,0,1,1,0,0,0,0,0,1,1,0,0,3,0,13,0,0,0,0,0,0,0,,,,0,0
L1995,Class,ClassGeneratorUtil,bsh.ClassGeneratorUtil,L104,L103,14,22,6,0,8,0,1,0,0,0,0,0,0,0,0,0,4,4,0,0,3,0,64,0,0,0,0,0,0,0,,,,0,0
L199,Class,BlockNameSpace,bsh.BlockNameSpace,L104,L103,0,10,7,3,3,0,0,0,0,1,1,0,73,16,0,0,0,0,0,0,0,0,15,0,0,0,0,0,0,0,,,,0,0
L1989,Class,DelayedEvalBshMethod,bsh.DelayedEvalBshMethod,L104,L103,2,5,4,0,4,0,0,0,0,1,1,0,15,7,0,0,5,5,0,0,1,2,15,0,0,0,0,0,0,0,,,,0,0
L19866,Class,DockableWindowUpdate,org.gjt.sp.jedit.msg.DockableWindowUpdate,L27726,L103,5,4,4,0,2,0,0,0,0,1,1,0,7,1,0,0,0,0,0,0,2,0,6,0,0,0,0,0,0,0,,,,0,0
L1983,Class,Variable,bsh.Variable,L104,L103,6,12,7,1,6,0,1,0,0,0,0,0,0,0,0,0,3,3,0,0,3,6,22,0,0,0,0,0,0,0,,,,0,0
L19417,Interface,DockableWindowContainer,org.gjt.sp.jedit.gui.DockableWindowContainer,L18210,L103,,5,,,,,,,0,0,,,,,,,,,,1,,1,5,,,,,,,0,0,2,0,0,0
L1935,Class,ClassGeneratorImpl,bsh.ClassGeneratorImpl,L104,L103,0,7,5,1,2,0,0,0,0,1,1,0,4,0,0,0,0,0,0,0,0,0,39,0,0,0,0,0,0,0,,,,0,0
L19289,Class,KeyEventTranslator,org.gjt.sp.jedit.gui.KeyEventTranslator,L18210,L103,5,7,7,1,2,0,0,0,0,0,0,0,0,0,0,0,0,0,0,0,1,0,9,0,0,0,0,0,0,0,,,,0,0
L19246,Class,DefaultInputHandler,org.gjt.sp.jedit.gui.DefaultInputHandler,L18210,L103,3,14,13,1,4,0,0,0,0,1,1,0,19,4,0,0,0,0,0,0,2,0,17,0,0,0,0,0,0,0,,,,0,0
L1910,Class,ClassGenerator,bsh.ClassGenerator,L104,L103,0,4,4,1,1,0,0,1,1,0,0,1,0,0,0,0,0,0,0,0,0,0,16,0,0,0,0,0,0,0,,,,0,0
L19061,Class,CompleteWord,org.gjt.sp.jedit.gui.CompleteWord,L18210,L103,3,9,3,0,4,0,0,0,0,1,1,0,0,0,0,0,0,2,1,0,2,0,23,0,0,0,0,0,0,0,,,,0,0
L18959,Class,ColorWellButton,org.gjt.sp.jedit.gui.ColorWellButton,L18210,L103,0,3,3,1,1,0,0,0,0,1,1,0,0,0,0,0,0,0,4,0,0,0,3,0,0,0,0,0,0,0,,,,0,0
L18878,Class,CloseDialog,org.gjt.sp.jedit.gui.CloseDialog,L18210,L103,8,5,4,0,1,0,0,0,0,2,2,0,5,1,0,0,0,1,0,0,3,0,1,0,0,0,0,0,0,0,,,,0,0
L18762,Class,BufferOptions,org.gjt.sp.jedit.gui.BufferOptions,L18210,L103,12,3,3,0,0,0,0,0,0,2,2,0,5,1,0,0,0,3,0,0,3,0,2,0,0,0,0,0,0,0,,,,0,0
L18747,Class,TextAreaDialog,org.gjt.sp.jedit.gui.TextAreaDialog,L18210,L103,0,7,6,0,0,0,0,1,1,2,2,1,5,1,0,0,0,0,0,0,0,0,19,0,0,0,0,0,0,0,,,,0,0
L18678,Class,AnimatedIcon,org.gjt.sp.jedit.gui.AnimatedIcon,L18210,L103,6,9,9,3,3,0,0,0,0,1,1,0,0,0,0,0,0,0,0,0,3,0,7,0,0,0,0,0,0,0,,,,0,0
L1846,Class,BSHWhileStatement,bsh.BSHWhileStatement,L104,L103,1,2,1,0,0,0,1,0,0,1,1,0,18,2,0,0,0,0,0,0,0,0,3,0,0,0,0,0,0,0,,,,0,0
L18407,Class,ActionBar,org.gjt.sp.jedit.gui.ActionBar,L18210,L103,3,6,3,0,2,0,0,0,0,1,1,0,0,0,0,0,2,3,1,0,1,1,4,0,0,0,0,0,0,0,,,,0,0
L18256,Class,AbbrevEditor,org.gjt.sp.jedit.gui.AbbrevEditor,L18210,L103,3,8,8,2,5,0,0,0,0,1,1,0,0,0,0,0,2,2,0,0,2,0,7,0,0,0,0,0,0,0,,,,0,0
L18091,Class,EditServer,org.gjt.sp.jedit.EditServer,L11942,L103,5,8,4,0,2,0,0,0,0,1,1,0,0,0,0,0,1,1,0,0,2,1,8,0,0,0,0,0,0,0,,,,0,0
L18049,Class,OptionsDialog,org.gjt.sp.jedit.gui.OptionsDialog,L18210,L103,8,17,10,0,1,0,2,2,2,2,2,1,5,1,0,0,0,1,0,0,6,1,20,0,0,0,0,0,0,0,,,,0,0
L18029,Class,EnhancedMenu,org.gjt.sp.jedit.menu.EnhancedMenu,L26930,L103,3,8,7,0,0,0,1,0,0,1,1,0,0,0,0,0,1,2,0,0,2,0,9,0,0,0,0,0,0,0,,,,0,0
L17995,Class,StatusBar,org.gjt.sp.jedit.gui.StatusBar,L18210,L103,25,12,12,3,0,0,1,0,0,1,1,0,0,0,0,0,0,1,0,0,9,1,6,0,0,0,0,0,0,0,,,,0,0
L17919,Class,SyntaxStyle,org.gjt.sp.jedit.syntax.SyntaxStyle,L33721,L103,4,6,6,1,4,0,0,0,0,0,0,0,0,0,0,0,2,2,2,1,2,14,6,0,0,0,0,0,0,0,,,,0,0
L17870,Class,Java14,org.gjt.sp.jedit.Java14,L11942,L103,0,4,3,0,0,0,0,0,0,0,0,0,0,0,0,0,0,0,0,0,0,0,5,0,0,0,0,0,0,0,,,,0,0
L17802,Class,BufferSwitcher,org.gjt.sp.jedit.gui.BufferSwitcher,L18210,L103,1,2,2,0,0,0,0,0,0,1,1,0,0,0,0,0,0,1,0,0,0,2,1,0,0,0,0,0,0,0,,,,0,0
L17750,Class,EditPaneUpdate,org.gjt.sp.jedit.msg.EditPaneUpdate,L27726,L103,4,4,4,0,2,0,0,0,0,1,1,0,7,1,0,0,0,0,0,0,1,1,5,0,0,0,0,0,0,0,,,,0,0
L17686,Class,EditBus,org.gjt.sp.jedit.EditBus,L11942,L103,1,5,4,0,1,0,0,0,0,0,0,0,0,0,0,0,1,1,0,0,1,0,4,0,0,0,0,0,0,0,,,,0,0
L1760,Class,BSHUnaryExpression,bsh.BSHUnaryExpression,L104,L103,2,5,1,0,0,0,1,0,0,1,1,0,18,2,0,0,0,0,0,0,0,0,9,0,0,0,0,0,0,0,,,,0,0
L17516,Class,Debug,org.gjt.sp.jedit.Debug,L11942,L103,22,0,0,0,0,0,0,0,0,0,0,0,0,0,0,0,0,0,0,0,0,0,0,0,0,0,0,0,0,0,,,,0,0
L17406,Class,DynamicMenuChanged,org.gjt.sp.jedit.msg.DynamicMenuChanged,L27726,L103,1,3,3,0,1,0,0,0,0,1,1,0,7,1,0,0,0,0,0,0,1,0,3,0,0,0,0,0,0,0,,,,0,0
L1740,Class,BSHVariableDeclarator,bsh.BSHVariableDeclarator,L104,L103,1,3,2,0,0,0,0,0,0,1,1,0,18,2,0,0,0,0,0,0,1,1,5,0,0,0,0,0,0,0,,,,0,0
L1730,Class,BSHTypedVariableDeclaration,bsh.BSHTypedVariableDeclaration,L104,L103,0,6,2,0,3,0,0,0,0,1,1,0,18,2,0,0,1,1,0,0,0,0,12,0,0,0,0,0,0,0,,,,0,0
L16817,Class,IndentFoldHandler,org.gjt.sp.jedit.buffer.IndentFoldHandler,L16379,L103,0,2,2,0,1,0,0,0,0,1,1,0,11,3,0,0,0,0,0,0,0,0,2,0,0,0,0,0,0,0,,,,0,0
L16732,Class,ExplicitFoldHandler,org.gjt.sp.jedit.buffer.ExplicitFoldHandler,L16379,L103,0,2,2,0,1,0,0,0,0,1,1,0,11,3,0,0,0,0,0,0,0,0,2,0,0,0,0,0,0,0,,,,0,0
L1662,Interface,Node,bsh.Node,L104,L103,,7,,,,,,,0,1,,,,,,,,,,0,,18,4,,,,,,,0,1,1,0,0,0
L16595,Class,SegmentBuffer,org.gjt.sp.util.SegmentBuffer,L38831,L103,0,4,3,0,0,0,0,0,0,1,1,0,0,0,0,0,0,0,0,0,0,1,0,0,0,0,0,0,0,0,,,,0,0
L1651,Class,BSHTryStatement,bsh.BSHTryStatement,L104,L103,0,2,1,0,0,0,0,0,0,1,1,0,18,2,0,0,0,0,0,0,0,0,3,0,0,0,0,0,0,0,,,,0,0
L1645,Class,BSHThrowStatement,bsh.BSHThrowStatement,L104,L103,0,2,1,0,0,0,0,0,0,1,1,0,18,2,0,0,0,0,0,0,0,0,3,0,0,0,0,0,0,0,,,,0,0
L16395,Class,BufferChangeAdapter,org.gjt.sp.jedit.buffer.BufferChangeAdapter,L16379,L103,0,6,6,0,0,0,1,1,1,0,0,1,0,0,0,0,0,0,0,0,0,0,6,0,0,0,0,0,0,0,,,,0,0
L1638,Class,BSHTernaryExpression,bsh.BSHTernaryExpression,L104,L103,0,2,1,0,0,0,0,0,0,1,1,0,18,2,0,0,0,0,0,0,0,0,3,0,0,0,0,0,0,0,,,,0,0
L16230,Class,UndoManager,org.gjt.sp.jedit.buffer.UndoManager,L16379,L103,10,14,11,1,2,0,0,0,0,0,0,0,0,0,0,0,0,1,0,0,2,0,6,0,0,0,0,0,0,0,,,,0,0
L16225,Class,PositionManager,org.gjt.sp.jedit.buffer.PositionManager,L16379,L103,2,3,3,0,0,0,0,0,0,0,0,0,0,0,0,0,0,1,0,0,1,0,1,0,0,0,0,0,0,0,,,,0,0
L16218,Class,ContentManager,org.gjt.sp.jedit.buffer.ContentManager,L16379,L103,4,10,7,0,3,0,0,0,0,0,0,0,0,0,0,0,0,1,0,0,0,0,4,0,0,0,0,0,0,0,,,,0,0
L16213,Class,ReadWriteLock,org.gjt.sp.util.ReadWriteLock,L38831,L103,7,8,5,0,1,0,0,0,0,0,0,0,0,0,0,0,0,0,1,0,2,0,0,0,0,0,0,0,0,0,,,,0,0
L16201,Class,LineManager,org.gjt.sp.jedit.buffer.LineManager,L16379,L103,12,21,19,6,9,0,0,0,0,0,0,0,0,0,0,0,0,1,1,0,1,1,5,0,0,0,0,0,0,0,,,,0,0
L1618,Class,BSHSwitchStatement,bsh.BSHSwitchStatement,L104,L103,0,3,2,0,0,0,1,0,0,1,1,0,18,2,0,0,0,0,0,0,0,0,7,0,0,0,0,0,0,0,,,,0,0
L16109,Class,Marker,org.gjt.sp.jedit.Marker,L11942,L103,3,7,2,2,2,0,0,0,0,0,0,0,0,0,0,0,1,1,0,0,1,3,1,0,0,0,0,0,0,0,,,,0,0
L1610,Class,BSHSwitchLabel,bsh.BSHSwitchLabel,L104,L103,1,2,2,0,0,0,0,0,0,1,1,0,18,2,0,0,0,0,0,0,0,0,3,0,0,0,0,0,0,0,,,,0,0
L1604,Class,BSHStatementExpressionList,bsh.BSHStatementExpressionList,L104,L103,0,2,1,0,0,0,0,0,0,1,1,0,18,2,0,0,0,0,0,0,0,0,3,0,0,0,0,0,0,0,,,,0,0
L15997,Class,RootElement,org.gjt.sp.jedit.buffer.RootElement,L16379,L103,0,11,11,0,10,0,1,0,0,0,0,0,0,0,0,0,0,1,0,0,0,0,6,0,0,0,0,0,0,0,,,,0,0
L15989,Class,LineElement,org.gjt.sp.jedit.buffer.LineElement,L16379,L103,1,11,11,0,10,0,1,0,0,0,0,0,0,0,0,0,0,1,0,0,0,0,6,0,0,0,0,0,0,0,,,,0,0
L1583,Class,BSHReturnStatement,bsh.BSHReturnStatement,L104,L103,1,2,1,0,0,0,1,0,0,1,1,0,18,2,0,0,0,0,0,0,0,0,3,0,0,0,0,0,0,0,,,,0,0
L15800,Interface,TokenHandler,org.gjt.sp.jedit.syntax.TokenHandler,L33721,L103,,2,,,,,,,0,0,,,,,,,,,,0,,3,3,,,,,,,0,1,2,0,0,0
L15722,Class,KeywordMap,org.gjt.sp.jedit.syntax.KeywordMap,L33721,L103,4,12,10,1,5,0,0,0,0,0,0,0,0,0,0,0,3,3,0,0,2,5,5,0,0,0,0,0,0,0,,,,0,0
L15702,Class,DefaultTokenHandler,org.gjt.sp.jedit.syntax.DefaultTokenHandler,L33721,L103,1,8,5,1,3,0,1,2,2,0,0,1,0,0,0,0,1,1,0,0,1,0,11,0,0,0,0,0,0,0,,,,0,0
L15697,Class,ParserRuleSet,org.gjt.sp.jedit.syntax.ParserRuleSet,L33721,L103,13,30,30,9,16,0,0,0,0,0,0,0,0,0,0,0,5,5,1,1,3,17,18,0,0,0,0,0,0,0,,,,0,0
L15604,Class,DummyFoldHandler,org.gjt.sp.jedit.buffer.DummyFoldHandler,L16379,L103,0,2,2,0,1,0,0,0,0,1,1,0,11,3,0,0,0,0,0,0,0,0,2,0,0,0,0,0,0,0,,,,0,0
L15597,Class,FoldHandler,org.gjt.sp.jedit.buffer.FoldHandler,L16379,L103,3,11,10,0,6,0,0,3,3,0,0,1,0,0,0,0,0,1,0,0,2,2,8,0,0,0,0,0,0,0,,,,0,0
L15553,Interface,BufferChangeListener,org.gjt.sp.jedit.buffer.BufferChangeListener,L16379,L103,,6,,,,,,,0,0,,,,,,,,,,1,,6,6,,,,,,,0,0,1,0,0,0
L15211,Class,BufferIORequest,org.gjt.sp.jedit.buffer.BufferIORequest,L16379,L103,22,12,3,0,0,0,0,0,0,1,1,0,4,0,0,0,0,2,1,0,2,0,16,0,0,0,0,0,0,0,,,,0,0
L15132,Class,IntegerArray,org.gjt.sp.util.IntegerArray,L38831,L103,2,8,8,1,3,0,0,0,0,0,0,0,0,0,0,0,0,0,1,0,0,3,0,0,0,0,0,0,0,0,,,,0,0
L1506,Class,BSHPrimarySuffix,bsh.BSHPrimarySuffix,L104,L103,7,6,1,0,1,0,0,0,0,1,1,0,18,2,0,0,0,0,0,0,2,0,20,0,0,0,0,0,0,0,,,,0,0
L14922,Class,WorkThreadPool,org.gjt.sp.util.WorkThreadPool,L38831,L103,13,17,9,0,5,0,0,0,0,0,0,0,0,0,0,0,1,1,1,0,4,10,10,0,0,0,0,0,0,0,,,,0,0
L14916,Interface,WorkThreadProgressListener,org.gjt.sp.util.WorkThreadProgressListener,L38831,L103,,2,,,,,,,0,1,,,,,,,,,,0,,2,2,,,,,,,0,0,3,0,0,0
L1481,Class,BSHPackageDeclaration,bsh.BSHPackageDeclaration,L104,L103,0,2,2,0,0,0,0,0,0,1,1,0,18,2,0,0,0,0,0,0,0,0,3,0,0,0,0,0,0,0,,,,0,0
L14802,Class,VFSFileNameField,org.gjt.sp.jedit.browser.VFSFileNameField,L13044,L103,0,6,3,0,2,0,0,0,0,2,2,0,23,6,0,0,2,2,0,0,0,0,4,0,0,0,0,0,0,0,,,,0,0
L14779,Class,EnhancedDialog,org.gjt.sp.jedit.gui.EnhancedDialog,L18210,L103,1,5,4,0,0,0,0,18,21,1,1,2,0,0,0,0,0,0,0,0,1,0,4,0,0,0,0,0,0,0,,,,0,0
L1463,Class,BSHMethodInvocation,bsh.BSHMethodInvocation,L104,L103,0,4,1,0,2,0,0,0,0,1,1,0,18,2,0,0,0,0,0,0,0,0,5,0,0,0,0,0,0,0,,,,0,0
L1418,Class,BSHReturnType,bsh.BSHReturnType,L104,L103,1,4,2,0,2,0,0,0,0,1,1,0,18,2,0,0,2,2,0,0,0,2,8,0,0,0,0,0,0,0,,,,0,0
L14147,Class,DirectoryListSet,org.gjt.sp.jedit.search.DirectoryListSet,L32246,L103,3,9,8,3,4,0,0,0,0,1,1,0,7,1,0,0,0,0,0,0,1,0,9,0,0,0,0,0,0,0,,,,0,0
L14031,Class,VFSUpdate,org.gjt.sp.jedit.msg.VFSUpdate,L27726,L103,1,3,3,0,1,0,0,0,0,1,1,0,7,1,0,0,0,0,0,0,1,0,3,0,0,0,0,0,0,0,,,,0,0
L14018,Class,PluginUpdate,org.gjt.sp.jedit.msg.PluginUpdate,L27726,L103,6,5,5,0,3,0,0,0,0,1,1,0,7,1,0,0,0,0,0,0,1,0,5,0,0,0,0,0,0,0,,,,0,0
L13961,Class,HistoryTextField,org.gjt.sp.jedit.gui.HistoryTextField,L18210,L103,6,23,15,7,2,0,0,2,2,1,1,1,0,0,0,0,2,2,4,0,2,3,9,0,0,0,0,0,0,0,,,,0,0
L13685,Class,FileCellRenderer,org.gjt.sp.jedit.browser.FileCellRenderer,L13044,L103,12,7,5,0,4,0,0,0,0,1,1,0,0,0,0,0,1,1,0,0,3,0,11,0,0,0,0,0,0,0,,,,0,0
L13286,Interface,BrowserListener,org.gjt.sp.jedit.browser.BrowserListener,L13044,L103,,2,,,,,,,0,1,,,,,,,,,,0,,2,4,,,,,,,0,0,1,0,0,0
L13263,Class,WorkThread,org.gjt.sp.util.WorkThread,L38831,L103,7,13,11,4,4,0,0,0,0,1,1,0,0,0,0,0,1,1,0,0,2,3,6,0,0,0,0,0,0,0,,,,0,0
L13190,Class,WorkRequest,org.gjt.sp.util.WorkRequest,L38831,L103,0,4,4,4,0,0,1,4,4,0,0,1,0,0,0,0,0,0,0,0,0,0,1,0,0,0,0,0,0,0,,,,0,0
L13187,Class,BrowserIORequest,org.gjt.sp.jedit.browser.BrowserIORequest,L13044,L103,9,7,2,0,0,0,0,0,0,1,1,0,4,0,0,0,1,1,1,0,2,0,7,0,0,0,0,0,0,0,,,,0,0
L13056,Class,BrowserCommandsMenu,org.gjt.sp.jedit.browser.BrowserCommandsMenu,L13044,L103,3,4,2,0,0,0,0,0,0,1,1,0,0,0,0,0,2,2,0,1,3,0,5,0,0,0,0,0,0,0,,,,0,0
L1303,Class,BSHMethodDeclaration,bsh.BSHMethodDeclaration,L104,L103,4,8,2,0,2,0,0,0,0,1,1,0,18,2,0,0,4,4,0,0,2,1,14,0,0,0,0,0,0,0,,,,0,0
L12944,Class,BeanShellErrorDialog,org.gjt.sp.jedit.gui.BeanShellErrorDialog,L18210,L103,0,2,2,0,0,0,0,0,0,3,3,0,12,1,0,0,0,0,0,0,0,0,4,0,0,0,0,0,0,0,,,,0,0
L12924,Class,EditPane,org.gjt.sp.jedit.EditPane,L11942,L103,2,20,15,1,5,0,1,0,0,1,1,0,0,0,0,0,2,4,0,0,1,12,11,0,0,0,0,0,0,0,,,,0,0
L12737,Class,Selection,org.gjt.sp.jedit.textarea.Selection,L34864,L103,4,16,9,1,7,0,1,2,2,0,0,1,0,0,0,0,0,0,1,0,0,20,10,0,0,0,0,0,0,0,,,,0,0
L12691,Class,BeanShell,org.gjt.sp.jedit.BeanShell,L11942,L103,4,24,17,1,2,0,0,0,0,0,0,0,0,0,0,0,0,0,2,0,3,0,55,0,0,0,0,0,0,0,,,,0,0
L12649,Class,Autosave,org.gjt.sp.jedit.Autosave,L11942,L103,1,4,3,1,0,0,1,0,0,0,0,0,0,0,0,0,0,0,0,0,1,0,1,0,0,0,0,0,0,0,,,,0,0
L12611,Class,InputHandler,org.gjt.sp.jedit.gui.InputHandler,L18210,L103,4,19,17,1,4,0,0,1,1,0,0,1,0,0,0,0,0,3,0,0,1,3,13,0,0,0,0,0,0,0,,,,0,0
L12477,Class,BeanShellAction,org.gjt.sp.jedit.BeanShellAction,L11942,L103,6,7,7,0,2,0,0,0,0,1,1,0,13,1,0,0,0,0,1,0,1,0,6,0,0,0,0,0,0,0,,,,0,0
L12413,Class,ActionListHandler,org.gjt.sp.jedit.ActionListHandler,L11942,L103,8,11,7,0,0,0,0,0,0,1,1,0,13,0,0,0,1,1,0,0,2,0,16,0,0,0,0,0,0,0,,,,0,0
L1237,Class,BSHLiteral,bsh.BSHLiteral,L104,L103,1,5,2,0,1,0,0,0,0,1,1,0,18,2,0,0,0,0,0,0,1,0,5,0,0,0,0,0,0,0,,,,0,0
L12354,Class,ActionSet,org.gjt.sp.jedit.ActionSet,L11942,L103,5,20,19,1,8,0,0,0,0,0,0,0,0,0,0,0,5,5,0,0,4,15,17,0,0,0,0,0,0,0,,,,0,0
L12346,Class,EditAction,org.gjt.sp.jedit.EditAction,L11942,L103,1,13,13,0,7,0,0,5,5,0,0,1,0,0,0,0,0,1,0,0,1,13,10,0,0,0,0,0,0,0,,,,0,0
L12335,Class,ActionContext,org.gjt.sp.jedit.ActionContext,L11942,L103,3,7,7,0,4,0,0,1,1,0,0,1,0,0,0,0,2,5,0,1,3,13,10,0,0,0,0,0,0,0,,,,0,0
L1220,Class,BSHImportDeclaration,bsh.BSHImportDeclaration,L104,L103,3,2,1,0,0,0,0,0,0,1,1,0,18,2,0,0,0,0,0,0,0,0,3,0,0,0,0,0,0,0,,,,0,0
L12191,Interface,OptionPane,org.gjt.sp.jedit.OptionPane,L11942,L103,,4,,,,,,,0,0,,,,,,,,,,0,,2,2,,,,,,,0,1,1,0,0,0
L1211,Class,BSHIfStatement,bsh.BSHIfStatement,L104,L103,0,3,2,0,0,0,0,0,0,1,1,0,18,2,0,0,0,0,0,0,0,0,6,0,0,0,0,0,0,0,,,,0,0
L12039,Class,AddAbbrevDialog,org.gjt.sp.jedit.gui.AddAbbrevDialog,L18210,L103,3,1,1,0,0,0,0,0,0,1,1,0,0,0,0,0,1,2,0,0,1,0,2,0,0,0,0,0,0,0,,,,0,0
L11987,Class,Abbrevs,org.gjt.sp.jedit.Abbrevs,L11942,L103,8,17,9,3,3,0,0,0,0,0,0,0,0,0,0,0,0,0,0,0,3,0,19,0,0,0,0,0,0,0,,,,0,0
L1187,Class,BSHForStatement,bsh.BSHForStatement,L104,L103,4,2,1,0,0,0,1,0,0,1,1,0,18,2,0,0,1,1,0,0,0,0,3,0,0,0,0,0,0,0,,,,0,0
L11693,Interface,DynamicMenuProvider,org.gjt.sp.jedit.menu.DynamicMenuProvider,L26930,L103,,2,,,,,,,0,0,,,,,,,,,,0,,0,1,,,,,,,0,1,8,0,0,0
L11644,Class,EBPlugin,org.gjt.sp.jedit.EBPlugin,L11942,L103,1,2,1,0,0,0,1,1,1,1,1,1,9,1,0,0,0,0,0,0,0,0,1,0,0,0,0,0,0,0,,,,0,0
L1158,Class,BSHFormalParameters,bsh.BSHFormalParameters,L104,L103,4,5,3,0,2,0,0,0,0,1,1,0,18,2,0,0,2,2,0,0,2,1,8,0,0,0,0,0,0,0,,,,0,0
L11556,Class,HistoryModel,org.gjt.sp.jedit.gui.HistoryModel,L18210,L103,8,11,11,0,5,0,0,0,0,1,1,0,0,0,0,0,1,1,0,0,4,1,6,0,0,0,0,0,0,0,,,,0,0
L11549,Class,BufferHistory,org.gjt.sp.jedit.BufferHistory,L11942,L103,3,10,6,1,3,0,0,0,0,0,0,0,0,0,0,0,0,0,0,0,1,0,13,0,0,0,0,0,0,0,,,,0,0
L11528,Class,Macros,org.gjt.sp.jedit.Macros,L11942,L103,5,23,20,0,6,0,0,0,0,0,0,0,0,0,0,0,1,1,0,0,4,0,40,0,0,0,0,0,0,0,,,,0,0
L11392,Class,GlobalOptions,org.gjt.sp.jedit.options.GlobalOptions,L28073,L103,0,6,4,0,1,0,0,0,0,3,3,0,22,9,0,0,0,1,0,0,0,0,8,0,0,0,0,0,0,0,,,,0,0
L1138,Class,BSHFormalParameter,bsh.BSHFormalParameter,L104,L103,3,3,2,0,1,0,0,0,0,1,1,0,18,2,0,0,0,0,0,0,2,0,7,0,0,0,0,0,0,0,,,,0,0
L11372,Class,ViewUpdate,org.gjt.sp.jedit.msg.ViewUpdate,L27726,L103,4,4,4,0,2,0,0,0,0,1,1,0,7,1,0,0,0,0,0,0,1,1,5,0,0,0,0,0,0,0,,,,0,0
L1134,Class,BSHFormalComment,bsh.BSHFormalComment,L104,L103,1,1,1,0,0,0,0,0,0,1,1,0,18,2,0,0,0,0,0,0,1,0,0,0,0,0,0,0,0,0,,,,0,0
L11339,Class,BufferUpdate,org.gjt.sp.jedit.msg.BufferUpdate,L27726,L103,11,5,5,0,3,0,0,0,0,1,1,0,7,1,0,0,0,1,0,0,1,3,7,0,0,0,0,0,0,0,,,,0,0
L11328,Class,AboutDialog,org.gjt.sp.jedit.gui.AboutDialog,L18210,L103,1,3,3,0,0,0,0,0,0,2,2,0,5,1,0,0,0,0,0,0,1,0,1,0,0,0,0,0,0,0,,,,0,0
L11228,Class,RolloverButton,org.gjt.sp.jedit.gui.RolloverButton,L18210,L103,3,8,8,2,1,0,0,1,1,1,1,1,0,0,0,0,1,1,3,0,2,0,2,0,0,0,0,0,0,0,,,,0,0
L11123,Class,FontSelector,org.gjt.sp.jedit.gui.FontSelector,L18210,L103,1,7,5,2,1,0,0,0,0,1,1,0,0,0,0,0,1,2,4,0,0,2,4,0,0,0,0,0,0,0,,,,0,0
L11117,Class,AbstractOptionPane,org.gjt.sp.jedit.AbstractOptionPane,L11942,L103,4,15,13,0,2,0,1,23,23,1,1,1,0,0,0,0,0,0,0,0,2,0,14,0,0,0,0,0,0,0,,,,0,0
L1110,Interface,BshIterator,bsh.BshIterator,L104,L103,,2,,,,,,,0,0,,,,,,,,,,0,,2,1,,,,,,,0,0,2,0,0,0
L11033,Class,PropertiesChanged,org.gjt.sp.jedit.msg.PropertiesChanged,L27726,L103,0,1,1,0,0,0,0,0,0,1,1,0,7,1,0,0,0,0,0,0,0,0,1,0,0,0,0,0,0,0,,,,0,0
L11030,Class,EBMessage,org.gjt.sp.jedit.EBMessage,L11942,L103,1,7,7,0,2,0,0,13,13,0,0,1,0,0,0,0,0,0,0,0,1,17,5,0,0,0,0,0,0,0,,,,0,0
L1103,Class,CollectionManager,bsh.CollectionManager,L104,L103,0,6,6,0,5,0,0,1,1,0,0,1,0,0,0,0,0,0,0,0,0,0,11,0,0,0,0,0,0,0,,,,0,0
L10963,Interface,DefaultFocusComponent,org.gjt.sp.jedit.gui.DefaultFocusComponent,L18210,L103,,1,,,,,,,0,0,,,,,,,,,,0,,0,0,,,,,,,0,0,4,0,0,0
L10957,Interface,EBComponent,org.gjt.sp.jedit.EBComponent,L11942,L103,,1,,,,,,,0,0,,,,,,,,,,0,,9,1,,,,,,,0,1,14,0,0,0
L1095,Class,BSHEnhancedForStatement,bsh.BSHEnhancedForStatement,L104,L103,1,2,1,0,0,0,1,0,0,1,1,0,18,2,0,0,0,0,0,0,1,0,3,0,0,0,0,0,0,0,,,,0,0
L10912,Class,EditPlugin,org.gjt.sp.jedit.EditPlugin,L11942,L103,1,9,9,0,3,0,0,5,6,0,0,2,0,0,0,0,1,1,0,0,1,4,7,0,0,0,0,0,0,0,,,,0,0
L1067,Class,Capabilities,bsh.Capabilities,L104,L103,2,5,5,1,0,0,0,0,0,0,0,0,0,0,0,0,0,0,0,0,1,0,1,0,0,0,0,0,0,0,,,,0,0
L34877,Class,ChunkCache,org.gjt.sp.jedit.textarea.ChunkCache,L34864,L103,6,26,0,1,11,0,0,0,0,0,0,0,0,0,0,0,1,2,1,0,2,0,9,0,0,0,0,0,0,0,,,,1,1
L34112,Class,ParserRule,org.gjt.sp.jedit.syntax.ParserRule,L33721,L103,23,10,9,0,0,0,0,0,0,0,0,0,0,0,0,0,1,1,2,1,0,6,19,0,0,0,0,0,0,0,,,,1,1
L33192,Class,SearchBar,org.gjt.sp.jedit.search.SearchBar,L32246,L103,7,8,5,1,1,0,0,0,0,1,1,0,0,0,0,0,0,1,2,0,2,1,2,0,0,0,0,0,0,0,,,,1,1
L32293,Class,SearchMatcher,org.gjt.sp.jedit.search.SearchMatcher,L32246,L103,1,2,2,0,0,0,0,2,2,0,0,1,0,0,0,0,2,2,0,0,1,5,2,0,0,0,0,0,0,0,,,,1,1
L32262,Class,AllBufferSet,org.gjt.sp.jedit.search.AllBufferSet,L32246,L103,1,4,3,0,2,0,0,0,0,1,1,0,7,1,0,0,0,0,0,0,1,0,5,0,0,0,0,0,0,0,,,,1,1
L31712,Class,Chunk,org.gjt.sp.jedit.syntax.Chunk,L33721,L103,10,10,10,0,1,0,0,0,0,1,1,0,4,25,0,0,1,1,0,1,3,6,8,0,0,0,0,0,0,0,,,,1,1
L30708,Class,ManagePanel,org.gjt.sp.jedit.pluginmgr.ManagePanel,L30356,L103,3,3,2,0,0,0,0,0,0,1,1,0,0,0,0,0,1,1,0,0,3,0,4,0,0,0,0,0,0,0,,,,1,1
L30654,Class,Roster,org.gjt.sp.jedit.pluginmgr.Roster,L30356,L103,3,10,1,0,4,0,0,0,0,0,0,0,0,0,0,0,1,1,0,0,2,4,9,0,0,0,0,0,0,0,,,,1,1
L29349,Class,ShortcutsOptionPane,org.gjt.sp.jedit.options.ShortcutsOptionPane,L28073,L103,5,7,1,0,0,0,0,0,0,2,2,0,15,4,0,0,0,0,0,0,4,0,10,0,0,0,0,0,0,0,,,,1,1
L27916,Class,OperatingSystem,org.gjt.sp.jedit.OperatingSystem,L11942,L103,11,15,15,0,15,0,0,0,0,0,0,0,0,0,0,0,0,0,0,0,0,0,3,0,0,0,0,0,0,0,,,,1,1
L26311,Class,XModeHandler,org.gjt.sp.jedit.syntax.XModeHandler,L33721,L103,28,18,11,0,3,0,0,0,0,1,1,0,13,0,0,0,3,3,0,0,3,0,22,0,0,0,0,0,0,0,,,,1,1
L23972,Class,HelpViewer,org.gjt.sp.jedit.help.HelpViewer,L23821,L103,10,9,8,0,2,0,1,0,0,1,1,0,0,0,0,0,2,2,0,0,5,2,6,0,0,0,0,0,0,0,,,,1,1
L23252,Class,Registers,org.gjt.sp.jedit.Registers,L11942,L103,5,17,15,2,4,0,0,0,0,0,0,0,0,0,0,0,0,0,0,0,1,0,16,0,0,0,0,0,0,0,,,,1,1
L21648,Class,KeyEventWorkaround,org.gjt.sp.jedit.gui.KeyEventWorkaround,L18210,L103,6,2,2,0,0,0,0,0,0,0,0,0,0,0,0,0,0,0,0,0,0,0,2,0,0,0,0,0,0,0,,,,1,1
L21413,Class,JCheckBoxList,org.gjt.sp.jedit.gui.JCheckBoxList,L18210,L103,1,10,9,2,4,0,0,0,0,1,1,0,0,0,0,0,0,0,0,0,1,0,8,0,0,0,0,0,0,0,,,,1,1
L20262,Class,ErrorListDialog,org.gjt.sp.jedit.gui.ErrorListDialog,L18210,L103,2,3,3,0,0,0,0,0,0,2,2,0,5,1,0,0,0,0,0,0,1,0,4,0,0,0,0,0,0,0,,,,1,1
L202,Class,NameSpace,bsh.NameSpace,L104,L103,16,73,48,14,31,0,3,1,1,0,0,1,0,0,0,0,8,8,3,0,5,48,120,0,0,0,0,0,0,0,,,,1,1
L19696,Class,PanelWindowContainer,org.gjt.sp.jedit.gui.PanelWindowContainer,L18210,L103,14,14,10,1,5,0,1,0,0,0,0,0,0,0,0,0,1,1,0,0,9,5,9,0,0,0,0,0,0,0,,,,1,1
L17927,Class,Gutter,org.gjt.sp.jedit.textarea.Gutter,L34864,L103,22,37,36,14,15,0,1,0,0,1,1,0,0,0,0,0,2,3,0,0,4,1,27,0,0,0,0,0,0,0,,,,1,1
L17876,Class,TextAreaPainter,org.gjt.sp.jedit.textarea.TextAreaPainter,L34864,L103,32,51,48,18,26,0,1,0,0,1,1,0,0,0,0,0,2,2,1,0,6,1,33,0,0,0,0,0,0,0,,,,1,1
L15709,Class,Token,org.gjt.sp.jedit.syntax.Token,L33721,L103,25,4,4,0,0,0,0,1,1,0,0,1,0,0,0,0,3,3,0,0,1,6,4,0,0,0,0,0,0,0,,,,1,1
L14776,Class,VFSFileChooserDialog,org.gjt.sp.jedit.browser.VFSFileChooserDialog,L13044,L103,5,6,5,0,1,0,0,0,0,2,2,0,5,1,0,0,2,2,0,0,3,0,4,0,0,0,0,0,0,0,,,,1,1
L13638,Class,VFSDirectoryEntryTableModel,org.gjt.sp.jedit.browser.VFSDirectoryEntryTableModel,L13044,L103,2,12,10,1,6,0,0,0,0,1,1,0,0,0,0,0,0,0,0,0,2,0,12,0,0,0,0,0,0,0,,,,1,1
L13347,Class,VFSDirectoryEntryTable,org.gjt.sp.jedit.browser.VFSDirectoryEntryTable,L13044,L103,2,14,12,2,2,0,0,0,0,1,1,0,0,0,0,0,2,2,0,0,2,1,13,0,0,0,0,0,0,0,,,,1,1
L13299,Class,BrowserView,org.gjt.sp.jedit.browser.BrowserView,L13044,L103,4,16,15,0,4,0,0,0,0,1,1,0,0,0,0,0,3,3,0,0,3,2,14,0,0,0,0,0,0,0,,,,1,1
L13065,Class,VFSBrowser,org.gjt.sp.jedit.browser.VFSBrowser,L13044,L103,28,45,34,3,11,0,2,0,0,1,1,0,0,0,0,0,5,7,2,0,6,9,32,0,0,0,0,0,0,0,,,,1,1
L12905,Class,JARClassLoader,org.gjt.sp.jedit.JARClassLoader,L11942,L103,5,13,8,0,4,0,0,0,0,1,1,0,0,0,0,0,1,1,0,0,2,1,13,0,0,0,0,0,0,0,,,,1,1
L38213,Class,TextUtilities,org.gjt.sp.jedit.TextUtilities,L11942,L103,8,14,13,0,2,0,0,0,0,0,0,0,0,0,0,0,0,0,0,0,0,0,26,0,0,0,0,0,0,0,,,,2,1
L35091,Class,DisplayManager,org.gjt.sp.jedit.textarea.DisplayManager,L34864,L103,13,31,14,1,8,0,0,0,0,0,0,0,0,0,0,0,1,2,1,0,4,1,6,0,0,0,0,0,0,0,,,,2,1
L32478,Class,HyperSearchResults,org.gjt.sp.jedit.search.HyperSearchResults,L32246,L103,6,13,10,0,2,0,2,0,0,1,1,0,0,0,0,0,1,2,1,0,5,1,7,0,0,0,0,0,0,0,,,,2,1
L30372,Class,PluginManager,org.gjt.sp.jedit.pluginmgr.PluginManager,L30356,L103,6,9,7,0,2,0,1,0,0,1,1,0,0,0,0,0,3,3,0,0,2,3,3,0,0,0,0,0,0,0,,,,2,1
L29990,Class,PerspectiveManager,org.gjt.sp.jedit.PerspectiveManager,L11942,L103,1,4,4,1,1,0,0,0,0,0,0,0,0,0,0,0,0,0,0,0,0,0,1,0,0,0,0,0,0,0,,,,2,1
L19754,Class,FloatingWindowContainer,org.gjt.sp.jedit.gui.FloatingWindowContainer,L18210,L103,3,9,9,0,3,0,1,0,0,1,1,0,0,0,0,0,1,1,0,0,2,0,8,0,0,0,0,0,0,0,,,,2,1
L16826,Class,KillRing,org.gjt.sp.jedit.buffer.KillRing,L16379,L103,4,8,4,0,1,0,0,0,0,0,0,0,0,0,0,0,0,0,0,0,1,0,3,0,0,0,0,0,0,0,,,,2,1
L14869,Class,FileVFS,org.gjt.sp.jedit.io.FileVFS,L24432,L103,1,18,18,1,3,0,0,0,0,1,1,0,32,17,0,0,0,0,0,0,1,0,50,0,0,0,0,0,0,0,,,,2,1
L12512,Class,PluginJAR,org.gjt.sp.jedit.PluginJAR,L11942,L103,11,29,17,1,14,0,0,1,1,0,0,1,0,0,0,0,4,4,0,3,6,25,19,0,0,0,0,0,0,0,,,,2,1
L32896,Class,SearchAndReplace,org.gjt.sp.jedit.search.SearchAndReplace,L32246,L103,7,40,29,9,11,0,0,0,0,0,0,0,0,0,0,0,2,2,2,0,1,0,43,0,0,0,0,0,0,0,,,,3,1
L15764,Class,Mode,org.gjt.sp.jedit.Mode,L11942,L103,2,13,13,3,4,0,0,0,0,0,0,0,0,0,0,0,1,3,1,1,2,7,14,0,0,0,0,0,0,0,,,,3,1
L12787,Class,VFS,org.gjt.sp.jedit.io.VFS,L24432,L103,17,32,30,0,8,0,0,4,4,0,0,1,0,0,0,0,1,1,2,1,3,19,83,0,0,0,0,0,0,0,,,,3,1
L12406,Class,MiscUtilities,org.gjt.sp.jedit.MiscUtilities,L11942,L103,3,51,49,0,20,0,0,0,0,0,0,0,0,0,0,0,0,0,0,0,2,0,92,0,0,0,0,0,0,0,,,,3,1
L11103,Class,DockableWindowManager,org.gjt.sp.jedit.gui.DockableWindowManager,L18210,L103,11,33,28,1,12,0,1,0,0,1,1,0,0,0,0,0,2,3,0,0,5,5,41,0,0,0,0,0,0,0,,,,3,1
L23291,Class,GUIUtilities,org.gjt.sp.jedit.GUIUtilities,L11942,L103,8,56,52,2,12,0,0,0,0,0,0,0,0,0,0,0,0,1,0,0,3,0,114,0,0,0,0,0,0,0,,,,4,1
L15816,Class,TokenMarker,org.gjt.sp.jedit.syntax.TokenMarker,L33721,L103,10,12,6,0,3,0,0,0,0,0,0,0,0,0,0,0,4,6,0,0,3,5,14,0,0,0,0,0,0,0,,,,4,1
L32471,Class,HyperSearchRequest,org.gjt.sp.jedit.search.HyperSearchRequest,L32246,L103,2,6,2,0,0,0,0,0,0,1,1,0,4,0,0,0,2,3,1,0,2,0,9,0,0,0,0,0,0,0,,,,6,1
L14267,Class,jEdit,org.gjt.sp.jedit.jEdit,L11942,L103,18,124,91,8,48,0,0,0,0,0,0,0,0,0,0,0,6,7,0,0,5,0,171,0,0,0,0,0,0,0,,,,6,1
L11342,Class,Buffer,org.gjt.sp.jedit.Buffer,L11942,L103,42,152,126,16,68,0,0,0,0,0,0,0,0,0,0,0,4,21,2,2,7,133,98,0,0,0,0,0,0,0,,,,7,1
L12007,Class,JEditTextArea,org.gjt.sp.jedit.textarea.JEditTextArea,L34864,L103,54,239,214,27,63,0,0,0,0,1,1,0,0,0,0,0,4,7,1,4,15,36,58,0,0,0,0,0,0,0,,,,9,1
L10920,Class,View,org.gjt.sp.jedit.View,L11942,L103,30,60,46,6,21,0,1,0,0,1,1,0,0,0,0,0,2,25,0,2,7,172,50,0,0,0,0,0,0,0,,,,10,1
