ID,Type,Name,LongName,Parent,Component,NumAttr,NumOps,NumPubOps,Setters,Getters,Nesting,IFImpl,NOC,NumDesc,NumAnc,DIT,CLD,OpsInh,AttrInh,Dep_Out,Dep_In,NumAssEl_ssc,NumAssEl_sb,NumAssEl_nsb,EC_Attr,IC_Attr,EC_Par,IC_Par,Connectors,InstSpec,LLInst,MsgSent,MsgRecv,MsgSelf,Diags,Assoc,NumDirClients,NumIndClients,BugNo,Label
L1089,Interface,BeanFactory<T extends Object>,net.sourceforge.pbeans.BeanFactory,,,,1,,,,,,,0,0,,,,,,,,,,1,,3,1,,,,,,,0,0,1,0,0,0
L1098,Interface,Operator,net.sourceforge.pbeans.Operator,,,,2,,,,,,,0,0,,,,,,,,,,0,,10,4,,,,,,,0,1,1,0,0,0
L1121,Class,SimpleLogicalOperator,net.sourceforge.pbeans.SimpleLogicalOperator,,,1,4,4,0,0,0,1,0,0,0,0,0,0,0,0,0,0,0,0,0,1,0,6,0,0,0,0,0,0,0,,,,0,0
L1272,Class,ConnectionPool$ConnectionWrapper,net.sourceforge.pbeans.data.ConnectionPool$ConnectionWrapper,,,2,9,9,0,3,1,0,0,0,0,0,0,0,0,0,0,0,0,0,0,1,3,6,0,0,0,0,0,0,0,,,,0,0
L1313,Class,AbstractDatabase$TypeInfo,net.sourceforge.pbeans.data.AbstractDatabase$TypeInfo,,,3,2,2,0,1,1,0,0,0,0,0,0,0,0,0,0,0,0,0,0,1,0,2,0,0,0,0,0,0,0,,,,0,0
L1399,Class,IndexDescriptor,net.sourceforge.pbeans.data.IndexDescriptor,,,4,10,10,0,5,0,0,0,0,0,0,0,0,0,0,0,0,0,0,0,2,7,10,0,0,0,0,0,0,0,,,,0,0
L154,Annotation,PersistentClass,net.sourceforge.pbeans.annotations.PersistentClass,,,,0,,,,,,,0,0,,,,,,,,,,0,,0,0,,,,,,,0,1,0,0,0,0
L1591,Class,AbstractDatabase$LockInfo,net.sourceforge.pbeans.data.AbstractDatabase$LockInfo,,,2,5,5,0,2,1,0,0,0,0,0,0,0,0,0,0,0,0,0,0,1,0,2,0,0,0,0,0,0,0,,,,0,0
L1620,Class,AbstractDatabase$LockEntry,net.sourceforge.pbeans.data.AbstractDatabase$LockEntry,,,2,1,1,0,0,1,0,0,0,0,0,0,0,0,0,0,0,0,0,0,1,0,1,0,0,0,0,0,0,0,,,,0,0
L1651,Interface,ResultsIterator<T extends Object>,net.sourceforge.pbeans.data.ResultsIterator,,,,1,,,,,,,0,1,,,,,,,,,,0,,9,0,,,,,,,0,0,0,0,0,0
L1652,Class,BeanWrapper,net.sourceforge.pbeans.data.BeanWrapper,,,2,1,1,0,0,0,0,0,0,0,0,0,0,0,0,0,0,0,0,0,2,1,2,0,0,0,0,0,0,0,,,,0,0
L1663,Interface,BeanUnmarshaller,net.sourceforge.pbeans.data.BeanUnmarshaller,,,,3,,,,,,,0,0,,,,,,,,,,0,,4,6,,,,,,,0,0,1,0,0,0
L1956,Interface,DatabaseFactory,net.sourceforge.pbeans.data.DatabaseFactory,,,,1,,,,,,,0,0,,,,,,,,,,0,,1,2,,,,,,,0,1,1,0,0,0
L1961,Class,DefaultDatabaseFactory,net.sourceforge.pbeans.data.DefaultDatabaseFactory,,,3,4,4,2,1,0,1,0,0,0,0,0,0,0,0,0,0,0,0,0,1,0,3,0,0,0,0,0,0,0,,,,0,0
L2047,Class,GenericDatabase,net.sourceforge.pbeans.data.GenericDatabase,,,1,6,3,0,4,0,0,0,0,1,1,0,50,8,0,0,0,0,0,0,1,0,13,0,0,0,0,0,0,0,,,,0,0
L2088,Class,GenericDataSource,net.sourceforge.pbeans.data.GenericDataSource,,,4,12,11,5,5,0,1,0,0,0,0,0,0,0,0,0,0,0,0,0,4,0,13,0,0,0,0,0,0,0,,,,0,0
L2140,Class,DatabaseImpl,net.sourceforge.pbeans.data.hsqldb.DatabaseImpl,,,1,12,4,0,7,0,0,0,0,1,1,0,50,8,0,0,0,0,0,0,1,0,28,0,0,0,0,0,0,0,,,,0,0
L2189,Class,DatabaseImpl$UpperCaseMap,net.sourceforge.pbeans.data.hsqldb.DatabaseImpl$UpperCaseMap,,,0,2,2,0,1,1,0,0,0,1,1,0,0,0,0,0,0,0,0,0,0,0,3,0,0,0,0,0,0,0,,,,0,0
L223,Annotation,PersistentProperty,net.sourceforge.pbeans.annotations.PersistentProperty,,,,0,,,,,,,0,0,,,,,,,,,,0,,0,0,,,,,,,0,0,0,0,0,0
L2233,Class,DatabaseImpl,net.sourceforge.pbeans.data.mysql.DatabaseImpl,,,0,15,5,1,9,0,0,0,0,1,1,0,50,8,0,0,0,0,0,0,0,0,29,0,0,0,0,0,0,0,,,,0,0
L2287,Class,DatabaseImpl,net.sourceforge.pbeans.data.postgresql.DatabaseImpl,,,2,19,4,1,11,0,0,0,0,1,1,0,50,8,0,0,0,0,0,0,2,0,37,0,0,0,0,0,0,0,,,,0,0
L2364,Class,DatabaseImpl$LowerCaseMap,net.sourceforge.pbeans.data.postgresql.DatabaseImpl$LowerCaseMap,,,0,2,2,0,1,1,0,0,0,1,1,0,0,0,0,0,0,0,0,0,0,0,3,0,0,0,0,0,0,0,,,,0,0
L2385,Class,DatabaseImpl,net.sourceforge.pbeans.data.sqlserver.DatabaseImpl,,,0,10,3,1,7,0,0,0,0,1,1,0,50,8,0,0,0,0,0,0,0,0,19,0,0,0,0,0,0,0,,,,0,0
L2422,Class,DefaultStoreInfo,net.sourceforge.pbeans.DefaultStoreInfo,,,11,20,16,0,14,0,1,0,0,0,0,0,0,0,0,0,3,3,0,0,5,0,31,0,0,0,0,0,0,0,,,,0,0
L2618,Interface,IMultiValueContainer,net.sourceforge.pbeans.IMultiValueContainer,,,,3,,,,,,,0,0,,,,,,,,,,0,,0,2,,,,,,,0,0,1,0,0,0
L2663,Class,MissingEntryException,net.sourceforge.pbeans.MissingEntryException,,,2,2,2,0,0,0,0,0,0,0,0,0,0,0,0,0,0,0,0,0,1,0,3,0,0,0,0,0,0,0,,,,0,0
L2673,Class,MultiValueContainer,net.sourceforge.pbeans.MultiValueContainer,,,1,4,4,0,0,0,1,0,0,0,0,0,0,0,0,0,0,0,0,0,1,0,2,0,0,0,0,0,0,0,,,,0,0
L2702,Class,SimpleOperator,net.sourceforge.pbeans.SimpleOperator,,,1,5,5,0,0,0,1,0,0,0,0,0,0,0,0,0,0,0,0,0,1,0,7,0,0,0,0,0,0,0,,,,0,0
L2774,Class,PersistentMapEntry<TValue extends Object>,net.sourceforge.pbeans.PersistentMapEntry,,,1,8,8,4,4,0,0,0,0,0,0,0,0,0,0,0,2,2,0,0,1,0,10,0,0,0,0,0,0,0,,,,0,0
L2841,Class,ConversionException,net.sourceforge.pbeans.servlet.ConversionException,,,2,3,3,0,2,0,0,0,0,1,1,0,0,0,0,0,0,0,0,0,2,0,5,0,0,0,0,0,0,0,,,,0,0
L2854,Class,InitServlet,net.sourceforge.pbeans.servlet.InitServlet,,,0,2,2,0,1,0,0,0,0,1,1,0,0,0,0,0,0,0,0,0,0,0,4,0,0,0,0,0,0,0,,,,0,0
L2891,Class,MissingEntryException,net.sourceforge.pbeans.servlet.MissingEntryException,,,2,3,3,0,2,0,0,0,0,1,1,0,0,0,0,0,0,0,0,0,1,0,4,0,0,0,0,0,0,0,,,,0,0
L2901,Class,RequestHelper,net.sourceforge.pbeans.servlet.RequestHelper,,,3,7,7,0,1,0,0,0,0,0,0,0,0,0,0,0,0,0,0,0,2,0,23,0,0,0,0,0,0,0,,,,0,0
L2916,Class,UpdateResult,net.sourceforge.pbeans.servlet.UpdateResult,,,1,3,2,0,1,0,0,0,0,0,0,0,0,0,0,0,0,0,0,0,1,5,2,0,0,0,0,0,0,0,,,,0,0
L2963,Class,ServletAccess,net.sourceforge.pbeans.servlet.ServletAccess,,,7,4,3,0,4,0,0,0,0,0,0,0,0,0,0,0,0,0,0,0,2,0,15,0,0,0,0,0,0,0,,,,0,0
L3044,Class,ServletMapper,net.sourceforge.pbeans.servlet.ServletMapper,,,0,5,4,0,0,0,0,0,0,0,0,0,0,0,0,0,0,0,0,0,0,0,15,0,0,0,0,0,0,0,,,,0,0
L3123,Class,Store$ObjectInfo,net.sourceforge.pbeans.Store$ObjectInfo,,,5,9,0,0,5,1,0,0,0,1,1,0,0,0,0,0,0,0,0,0,5,3,10,0,0,0,0,0,0,0,,,,0,0
L3337,Class,Store$SimpleBeanFactory,net.sourceforge.pbeans.Store$SimpleBeanFactory,,,1,2,2,0,0,1,1,0,0,0,0,0,0,0,0,0,0,0,0,0,1,0,2,0,0,0,0,0,0,0,,,,0,0
L3539,Class,NameValueArray,net.sourceforge.pbeans.util.NameValueArray,,,3,2,2,1,0,0,0,0,0,0,0,0,0,0,0,0,0,0,0,1,2,5,2,0,0,0,0,0,0,0,,,,0,0
L3546,Class,Store$InsertionEntry,net.sourceforge.pbeans.Store$InsertionEntry,,,3,6,6,0,2,1,0,0,0,0,0,0,0,0,0,0,0,0,0,0,2,6,6,0,0,0,0,0,0,0,,,,0,0
L3639,Class,Store$LateUpdate,net.sourceforge.pbeans.Store$LateUpdate,,,7,5,5,1,0,1,0,0,0,0,0,0,0,0,0,0,0,0,0,0,5,2,11,0,0,0,0,0,0,0,,,,0,0
L3790,Class,Store$LocalBeanUnmarshaller,net.sourceforge.pbeans.Store$LocalBeanUnmarshaller,,,2,4,4,1,1,1,1,0,0,0,0,0,0,0,0,0,0,0,0,0,2,0,8,0,0,0,0,0,0,0,,,,0,0
L4125,Class,BeanMapper,net.sourceforge.pbeans.util.BeanMapper,,,1,3,3,0,0,0,0,0,0,0,0,0,0,0,0,0,0,0,0,0,1,0,6,0,0,0,0,0,0,0,,,,0,0
L413,Class,StoreException,net.sourceforge.pbeans.StoreException,,,0,3,3,0,0,0,0,1,1,1,1,1,0,0,0,0,0,0,0,0,0,0,4,0,0,0,0,0,0,0,,,,0,0
L4144,Class,Hash,net.sourceforge.pbeans.util.Hash,,,2,2,2,0,0,0,0,0,0,0,0,0,0,0,0,0,0,0,0,0,1,0,2,0,0,0,0,0,0,0,,,,0,0
L427,Class,DuplicateEntryException,net.sourceforge.pbeans.DuplicateEntryException,,,0,3,3,0,0,0,0,0,0,2,2,0,3,0,0,0,0,0,0,0,0,0,4,0,0,0,0,0,0,0,,,,0,0
L479,Annotation,PropertyIndex,net.sourceforge.pbeans.annotations.PropertyIndex,,,,0,,,,,,,0,0,,,,,,,,,,0,,0,0,,,,,,,0,1,0,0,0,0
L490,Annotation,TransientProperty,net.sourceforge.pbeans.annotations.TransientProperty,,,,0,,,,,,,0,0,,,,,,,,,,0,,0,0,,,,,,,0,0,0,0,0,0
L497,Interface,Persistent,net.sourceforge.pbeans.Persistent,,,,0,,,,,,,0,0,,,,,,,,,,0,,0,0,,,,,,,0,0,2,0,0,0
L645,Class,FieldDescriptor,net.sourceforge.pbeans.data.FieldDescriptor,,,6,14,13,0,6,0,0,0,0,0,0,0,0,0,0,0,0,0,0,0,1,30,13,0,0,0,0,0,0,0,,,,0,0
L660,Class,Index,net.sourceforge.pbeans.Index,,,3,9,9,0,4,0,0,0,0,0,0,0,0,0,0,0,1,1,0,0,1,5,6,0,0,0,0,0,0,0,,,,0,0
L796,Interface,StoreInfo,net.sourceforge.pbeans.StoreInfo,,,,15,,,,,,,0,0,,,,,,,,,,3,,19,23,,,,,,,0,0,2,0,0,0
L1094,Class,Criteria,net.sourceforge.pbeans.Criteria,,,2,20,20,0,6,0,0,0,0,1,1,0,0,0,0,0,2,2,0,0,1,0,45,0,0,0,0,0,0,0,,,,1,1
L1103,Interface,LogicalOperator,net.sourceforge.pbeans.LogicalOperator,,,,1,,,,,,,0,0,,,,,,,,,,0,,10,1,,,,,,,0,1,1,0,1,1
L2731,Class,"PersistentMap<TKey extends Object, TValue extends Object>",net.sourceforge.pbeans.PersistentMap,,,1,14,11,2,6,0,0,0,0,0,0,0,0,0,0,0,2,2,0,0,1,2,22,0,0,0,0,0,0,0,,,,1,1
L521,Class,AbstractStoreInfo,net.sourceforge.pbeans.AbstractStoreInfo,,,4,16,15,0,12,0,1,2,2,0,0,1,0,0,0,0,0,0,0,0,4,0,24,0,0,0,0,0,0,0,,,,1,1
L947,Class,GlobalPersistentID,net.sourceforge.pbeans.GlobalPersistentID,,,1,8,8,0,3,0,0,0,0,0,0,0,0,0,0,0,2,2,0,0,1,9,9,0,0,0,0,0,0,0,,,,1,1
L1220,Interface,Database,net.sourceforge.pbeans.data.Database,,,,16,,,,,,,0,0,,,,,,,,,,0,,2,23,,,,,,,0,1,1,0,2,1
L1242,Class,ConnectionPool,net.sourceforge.pbeans.data.ConnectionPool,,,7,5,4,2,1,0,0,0,0,0,0,0,0,0,0,0,1,1,0,0,5,0,2,0,0,0,0,0,0,0,,,,2,1
L504,Class,PersistentID,net.sourceforge.pbeans.PersistentID,,,1,6,4,0,1,0,0,0,0,0,0,0,0,0,0,0,1,3,0,2,0,20,4,0,0,0,0,0,0,0,,,,2,1
L295,Class,Store,net.sourceforge.pbeans.Store,,,11,80,45,0,24,0,0,0,0,0,0,0,0,0,0,0,3,8,0,0,8,29,191,0,0,0,0,0,0,0,,,,3,1
L1218,Class,AbstractDatabase,net.sourceforge.pbeans.data.AbstractDatabase,,,8,50,22,4,23,0,1,5,5,0,0,1,0,0,0,0,1,1,0,0,3,1,82,0,0,0,0,0,0,0,,,,5,1
