ID,Type,Name,LongName,Parent,Component,NumAttr,NumOps,NumPubOps,Setters,Getters,Nesting,IFImpl,NOC,NumDesc,NumAnc,DIT,CLD,OpsInh,AttrInh,Dep_Out,Dep_In,NumAssEl_ssc,NumAssEl_sb,NumAssEl_nsb,EC_Attr,IC_Attr,EC_Par,IC_Par,Connectors,InstSpec,LLInst,MsgSent,MsgRecv,MsgSelf,Diags,Assoc,NumDirClients,NumIndClients,BugNo,Label
L10030,Class,HTMLInputElementImpl,org.apache.html.dom.HTMLInputElementImpl,L8960,L103,0,38,38,16,17,0,2,0,0,5,5,0,150,22,0,0,0,0,0,0,0,0,23,0,0,0,0,0,0,0,,,,0,0
L10032,Interface,HTMLInputElement,org.w3c.dom.html.HTMLInputElement,L32293,L103,,38,,,,,,,0,3,,,,,,,,,,0,,0,22,,,,,,,0,0,1,0,0,0
L10092,Class,HTMLIsIndexElementImpl,org.apache.html.dom.HTMLIsIndexElementImpl,L8960,L103,0,3,3,1,1,0,1,0,0,5,5,0,150,22,0,0,0,0,0,0,0,0,4,0,0,0,0,0,0,0,,,,0,0
L10094,Interface,HTMLIsIndexElement,org.w3c.dom.html.HTMLIsIndexElement,L32293,L103,,3,,,,,,,0,3,,,,,,,,,,0,,0,3,,,,,,,0,0,1,0,0,0
L10104,Class,HTMLLabelElementImpl,org.apache.html.dom.HTMLLabelElementImpl,L8960,L103,0,5,5,2,2,0,2,0,0,5,5,0,150,22,0,0,0,0,0,0,0,0,6,0,0,0,0,0,0,0,,,,0,0
L10106,Interface,HTMLLabelElement,org.w3c.dom.html.HTMLLabelElement,L32293,L103,,5,,,,,,,0,3,,,,,,,,,,0,,0,5,,,,,,,0,0,1,0,0,0
L10119,Class,HTMLLegendElementImpl,org.apache.html.dom.HTMLLegendElementImpl,L8960,L103,0,5,5,2,2,0,1,0,0,5,5,0,150,22,0,0,0,0,0,0,0,0,6,0,0,0,0,0,0,0,,,,0,0
L10121,Interface,HTMLLegendElement,org.w3c.dom.html.HTMLLegendElement,L32293,L103,,5,,,,,,,0,3,,,,,,,,,,0,,0,5,,,,,,,0,0,1,0,0,0
L10134,Class,HTMLLIElementImpl,org.apache.html.dom.HTMLLIElementImpl,L8960,L103,0,5,5,2,2,0,1,0,0,5,5,0,150,22,0,0,0,0,0,0,0,0,4,0,0,0,0,0,0,0,,,,0,0
L10136,Interface,HTMLLIElement,org.w3c.dom.html.HTMLLIElement,L32293,L103,,4,,,,,,,0,3,,,,,,,,,,0,,0,2,,,,,,,0,0,1,0,0,0
L10149,Class,HTMLLinkElementImpl,org.apache.html.dom.HTMLLinkElementImpl,L8960,L103,0,19,19,9,9,0,1,0,0,5,5,0,150,22,0,0,0,0,0,0,0,0,18,0,0,0,0,0,0,0,,,,0,0
L10151,Interface,HTMLLinkElement,org.w3c.dom.html.HTMLLinkElement,L32293,L103,,18,,,,,,,0,3,,,,,,,,,,0,,0,16,,,,,,,0,0,1,0,0,0
L10185,Class,HTMLMapElementImpl,org.apache.html.dom.HTMLMapElementImpl,L8960,L103,0,4,4,1,2,0,1,0,0,5,5,0,150,22,0,0,0,0,1,0,0,0,5,0,0,0,0,0,0,0,,,,0,0
L10187,Interface,HTMLMapElement,org.w3c.dom.html.HTMLMapElement,L32293,L103,,3,,,,,,,0,3,,,,,,,,,,0,,0,3,,,,,,,0,0,1,0,0,0
L1019,Interface,ErrorHandler,org.xml.sax.ErrorHandler,L33790,L103,,3,,,,,,,0,0,,,,,,,,,,0,,12,3,,,,,,,0,3,9,0,0,0
L10200,Class,HTMLMenuElementImpl,org.apache.html.dom.HTMLMenuElementImpl,L8960,L103,0,3,3,1,1,0,1,0,0,5,5,0,150,22,0,0,0,0,0,0,0,0,2,0,0,0,0,0,0,0,,,,0,0
L10202,Interface,HTMLMenuElement,org.w3c.dom.html.HTMLMenuElement,L32293,L103,,2,,,,,,,0,3,,,,,,,,,,0,,0,0,,,,,,,0,0,1,0,0,0
L10212,Class,HTMLMetaElementImpl,org.apache.html.dom.HTMLMetaElementImpl,L8960,L103,0,9,9,4,4,0,1,0,0,5,5,0,150,22,0,0,0,0,0,0,0,0,10,0,0,0,0,0,0,0,,,,0,0
L10214,Interface,HTMLMetaElement,org.w3c.dom.html.HTMLMetaElement,L32293,L103,,8,,,,,,,0,3,,,,,,,,,,0,,0,8,,,,,,,0,0,1,0,0,0
L10233,Class,HTMLModElementImpl,org.apache.html.dom.HTMLModElementImpl,L8960,L103,0,5,5,2,2,0,1,0,0,5,5,0,150,22,0,0,0,0,0,0,0,0,6,0,0,0,0,0,0,0,,,,0,0
L10235,Interface,HTMLModElement,org.w3c.dom.html.HTMLModElement,L32293,L103,,4,,,,,,,0,3,,,,,,,,,,0,,0,4,,,,,,,0,0,1,0,0,0
L10248,Class,HTMLObjectElementImpl,org.apache.html.dom.HTMLObjectElementImpl,L8960,L103,0,35,35,17,17,0,2,0,0,5,5,0,150,22,0,0,0,0,0,0,0,0,32,0,0,0,0,0,0,0,,,,0,0
L10305,Class,HTMLOListElementImpl,org.apache.html.dom.HTMLOListElementImpl,L8960,L103,0,7,7,3,3,0,1,0,0,5,5,0,150,22,0,0,0,0,0,0,0,0,4,0,0,0,0,0,0,0,,,,0,0
L10307,Interface,HTMLOListElement,org.w3c.dom.html.HTMLOListElement,L32293,L103,,6,,,,,,,0,3,,,,,,,,,,0,,0,2,,,,,,,0,0,1,0,0,0
L10323,Class,HTMLOptGroupElementImpl,org.apache.html.dom.HTMLOptGroupElementImpl,L8960,L103,0,5,5,2,2,0,1,0,0,5,5,0,150,22,0,0,0,0,0,0,0,0,4,0,0,0,0,0,0,0,,,,0,0
L10325,Interface,HTMLOptGroupElement,org.w3c.dom.html.HTMLOptGroupElement,L32293,L103,,4,,,,,,,0,3,,,,,,,,,,0,,0,2,,,,,,,0,0,1,0,0,0
L10338,Class,HTMLOptionElementImpl,org.apache.html.dom.HTMLOptionElementImpl,L8960,L103,0,15,15,7,7,0,1,0,0,5,5,0,150,22,0,0,0,0,0,0,0,0,8,0,0,0,0,0,0,0,,,,0,0
L10358,Interface,HTMLSelectElement,org.w3c.dom.html.HTMLSelectElement,L32293,L103,,22,,,,,,,0,3,,,,,,,,,,0,,0,9,,,,,,,0,0,1,0,0,0
L10379,Class,HTMLParagraphElementImpl,org.apache.html.dom.HTMLParagraphElementImpl,L8960,L103,0,3,3,1,1,0,1,0,0,5,5,0,150,22,0,0,0,0,0,0,0,0,4,0,0,0,0,0,0,0,,,,0,0
L10381,Interface,HTMLParagraphElement,org.w3c.dom.html.HTMLParagraphElement,L32293,L103,,2,,,,,,,0,3,,,,,,,,,,0,,0,2,,,,,,,0,0,1,0,0,0
L10391,Class,HTMLParamElementImpl,org.apache.html.dom.HTMLParamElementImpl,L8960,L103,0,9,9,4,4,0,1,0,0,5,5,0,150,22,0,0,0,0,0,0,0,0,10,0,0,0,0,0,0,0,,,,0,0
L10393,Interface,HTMLParamElement,org.w3c.dom.html.HTMLParamElement,L32293,L103,,8,,,,,,,0,3,,,,,,,,,,0,,0,8,,,,,,,0,0,1,0,0,0
L10412,Class,HTMLPreElementImpl,org.apache.html.dom.HTMLPreElementImpl,L8960,L103,0,3,3,1,1,0,1,0,0,5,5,0,150,22,0,0,0,0,0,0,0,0,2,0,0,0,0,0,0,0,,,,0,0
L10414,Interface,HTMLPreElement,org.w3c.dom.html.HTMLPreElement,L32293,L103,,2,,,,,,,0,3,,,,,,,,,,0,,0,0,,,,,,,0,0,1,0,0,0
L10424,Class,HTMLQuoteElementImpl,org.apache.html.dom.HTMLQuoteElementImpl,L8960,L103,0,3,3,1,1,0,1,0,0,5,5,0,150,22,0,0,0,0,0,0,0,0,4,0,0,0,0,0,0,0,,,,0,0
L10426,Interface,HTMLQuoteElement,org.w3c.dom.html.HTMLQuoteElement,L32293,L103,,2,,,,,,,0,3,,,,,,,,,,0,,0,2,,,,,,,0,0,1,0,0,0
L10436,Class,HTMLScriptElementImpl,org.apache.html.dom.HTMLScriptElementImpl,L8960,L103,0,15,15,7,7,0,1,0,0,5,5,0,150,22,0,0,0,0,0,0,0,0,14,0,0,0,0,0,0,0,,,,0,0
L10438,Interface,HTMLScriptElement,org.w3c.dom.html.HTMLScriptElement,L32293,L103,,14,,,,,,,0,3,,,,,,,,,,0,,0,12,,,,,,,0,0,1,0,0,0
L10466,Class,HTMLSelectElementImpl,org.apache.html.dom.HTMLSelectElementImpl,L8960,L103,0,22,22,7,10,0,2,0,0,5,5,0,150,22,0,0,0,0,1,0,0,0,10,0,0,0,0,0,0,0,,,,0,0
L10512,Class,HTMLStyleElementImpl,org.apache.html.dom.HTMLStyleElementImpl,L8960,L103,0,7,7,3,3,0,1,0,0,5,5,0,150,22,0,0,0,0,0,0,0,0,6,0,0,0,0,0,0,0,,,,0,0
L10514,Interface,HTMLStyleElement,org.w3c.dom.html.HTMLStyleElement,L32293,L103,,6,,,,,,,0,3,,,,,,,,,,0,,0,4,,,,,,,0,0,1,0,0,0
L10530,Class,HTMLTableCaptionElementImpl,org.apache.html.dom.HTMLTableCaptionElementImpl,L8960,L103,0,3,3,1,1,0,1,0,0,5,5,0,150,22,0,0,0,0,0,0,0,0,4,0,0,0,0,0,0,0,,,,0,0
L10532,Interface,HTMLTableCaptionElement,org.w3c.dom.html.HTMLTableCaptionElement,L32293,L103,,2,,,,,,,0,3,,,,,,,,,,0,,4,2,,,,,,,0,0,1,0,0,0
L10542,Class,HTMLTableCellElementImpl,org.apache.html.dom.HTMLTableCellElementImpl,L8960,L103,0,31,31,15,15,0,1,0,0,5,5,0,150,22,0,0,0,0,0,0,0,0,24,0,0,0,0,0,0,0,,,,0,0
L10593,Class,HTMLTableColElementImpl,org.apache.html.dom.HTMLTableColElementImpl,L8960,L103,0,13,13,6,6,0,1,0,0,5,5,0,150,22,0,0,0,0,0,0,0,0,12,0,0,0,0,0,0,0,,,,0,0
L10595,Interface,HTMLTableColElement,org.w3c.dom.html.HTMLTableColElement,L32293,L103,,12,,,,,,,0,3,,,,,,,,,,0,,0,10,,,,,,,0,0,1,0,0,0
L10620,Class,HTMLTableElementImpl,org.apache.html.dom.HTMLTableElementImpl,L8960,L103,0,36,35,12,14,0,1,0,0,5,5,0,150,22,0,0,1,1,0,0,0,0,33,0,0,0,0,0,0,0,,,,0,0
L10622,Interface,HTMLTableElement,org.w3c.dom.html.HTMLTableElement,L32293,L103,,34,,,,,,,0,3,,,,,,,,,,0,,0,30,,,,,,,0,0,1,0,0,0
L10642,Class,HTMLTableSectionElementImpl,org.apache.html.dom.HTMLTableSectionElementImpl,L8960,L103,0,14,12,4,5,0,1,0,0,5,5,0,150,22,0,0,1,1,0,0,0,0,13,0,0,0,0,0,0,0,,,,0,0
L10689,Class,HTMLTableRowElementImpl,org.apache.html.dom.HTMLTableRowElementImpl,L8960,L103,0,20,19,8,9,0,1,0,0,5,5,0,150,22,0,0,0,0,1,0,0,2,16,0,0,0,0,0,0,0,,,,0,0
L10779,Class,HTMLTextAreaElementImpl,org.apache.html.dom.HTMLTextAreaElementImpl,L8960,L103,0,23,23,9,10,0,2,0,0,5,5,0,150,22,0,0,0,0,0,0,0,0,11,0,0,0,0,0,0,0,,,,0,0
L10781,Interface,HTMLTextAreaElement,org.w3c.dom.html.HTMLTextAreaElement,L32293,L103,,23,,,,,,,0,3,,,,,,,,,,0,,0,10,,,,,,,0,0,1,0,0,0
L10826,Class,HTMLUListElementImpl,org.apache.html.dom.HTMLUListElementImpl,L8960,L103,0,5,5,2,2,0,1,0,0,5,5,0,150,22,0,0,0,0,0,0,0,0,4,0,0,0,0,0,0,0,,,,0,0
L10828,Interface,HTMLUListElement,org.w3c.dom.html.HTMLUListElement,L32293,L103,,4,,,,,,,0,3,,,,,,,,,,0,,0,2,,,,,,,0,0,1,0,0,0
L10842,Class,DeepNodeListImpl,org.apache.xerces.dom.DeepNodeListImpl,L12246,L103,5,5,4,0,1,0,1,1,1,0,0,1,0,0,0,0,1,1,0,0,2,0,8,0,0,0,0,0,0,0,,,,0,0
L10939,Class,WMLAccessElementImpl,org.apache.wml.dom.WMLAccessElementImpl,L10899,L103,0,9,9,4,4,0,1,0,0,5,5,0,138,22,0,0,0,0,0,0,0,0,10,0,0,0,0,0,0,0,,,,0,0
L10941,Class,WMLElementImpl,org.apache.wml.dom.WMLElementImpl,L10899,L103,0,11,7,5,5,0,1,35,35,4,4,1,127,22,0,0,0,0,0,0,0,0,12,0,0,0,0,0,0,0,,,,0,0
L10944,Interface,WMLAccessElement,org.apache.wml.WMLAccessElement,L10859,L103,,4,,,,,,,0,3,,,,,,,,,,0,,0,4,,,,,,,0,0,1,0,0,0
L10949,Class,WMLDocumentImpl,org.apache.wml.dom.WMLDocumentImpl,L10899,L103,2,2,2,0,0,0,1,0,0,3,3,0,153,30,0,0,0,0,0,0,2,36,3,0,0,0,0,0,0,0,,,,0,0
L10967,Class,WMLAElementImpl,org.apache.wml.dom.WMLAElementImpl,L10899,L103,0,11,11,5,5,0,1,0,0,5,5,0,138,22,0,0,0,0,0,0,0,0,12,0,0,0,0,0,0,0,,,,0,0
L10969,Interface,WMLAElement,org.apache.wml.WMLAElement,L10859,L103,,8,,,,,,,0,3,,,,,,,,,,0,,0,8,,,,,,,0,0,1,0,0,0
L10990,Class,WMLAnchorElementImpl,org.apache.wml.dom.WMLAnchorElementImpl,L10899,L103,0,9,9,4,4,0,1,0,0,5,5,0,138,22,0,0,0,0,0,0,0,0,10,0,0,0,0,0,0,0,,,,0,0
L10992,Interface,WMLAnchorElement,org.apache.wml.WMLAnchorElement,L10859,L103,,4,,,,,,,0,3,,,,,,,,,,0,,0,4,,,,,,,0,0,1,0,0,0
L11010,Class,WMLBElementImpl,org.apache.wml.dom.WMLBElementImpl,L10899,L103,0,7,7,3,3,0,1,0,0,5,5,0,138,22,0,0,0,0,0,0,0,0,8,0,0,0,0,0,0,0,,,,0,0
L11012,Interface,WMLBElement,org.apache.wml.WMLBElement,L10859,L103,,2,,,,,,,0,3,,,,,,,,,,0,,0,2,,,,,,,0,0,1,0,0,0
L11027,Class,WMLBigElementImpl,org.apache.wml.dom.WMLBigElementImpl,L10899,L103,0,7,7,3,3,0,1,0,0,5,5,0,138,22,0,0,0,0,0,0,0,0,8,0,0,0,0,0,0,0,,,,0,0
L11029,Interface,WMLBigElement,org.apache.wml.WMLBigElement,L10859,L103,,2,,,,,,,0,3,,,,,,,,,,0,,0,2,,,,,,,0,0,1,0,0,0
L11044,Class,WMLBrElementImpl,org.apache.wml.dom.WMLBrElementImpl,L10899,L103,0,7,7,3,3,0,1,0,0,5,5,0,138,22,0,0,0,0,0,0,0,0,8,0,0,0,0,0,0,0,,,,0,0
L11046,Interface,WMLBrElement,org.apache.wml.WMLBrElement,L10859,L103,,2,,,,,,,0,3,,,,,,,,,,0,,0,2,,,,,,,0,0,1,0,0,0
L11061,Class,WMLCardElementImpl,org.apache.wml.dom.WMLCardElementImpl,L10899,L103,0,19,19,9,9,0,1,0,0,5,5,0,138,22,0,0,0,0,0,0,0,0,16,0,0,0,0,0,0,0,,,,0,0
L11063,Interface,WMLCardElement,org.apache.wml.WMLCardElement,L10859,L103,,14,,,,,,,0,3,,,,,,,,,,0,,0,10,,,,,,,0,0,1,0,0,0
L11101,Interface,WMLDocument,org.apache.wml.WMLDocument,L10859,L103,,0,,,,,,,0,2,,,,,,,,,,0,,0,0,,,,,,,0,0,1,0,0,0
L11119,Class,WMLNoopElementImpl,org.apache.wml.dom.WMLNoopElementImpl,L10899,L103,0,5,5,2,2,0,1,0,0,5,5,0,138,22,0,0,0,0,0,0,0,0,6,0,0,0,0,0,0,0,,,,0,0
L11124,Class,WMLSetvarElementImpl,org.apache.wml.dom.WMLSetvarElementImpl,L10899,L103,0,9,9,4,4,0,1,0,0,5,5,0,138,22,0,0,0,0,0,0,0,0,10,0,0,0,0,0,0,0,,,,0,0
L11129,Class,WMLStrongElementImpl,org.apache.wml.dom.WMLStrongElementImpl,L10899,L103,0,7,7,3,3,0,1,0,0,5,5,0,138,22,0,0,0,0,0,0,0,0,8,0,0,0,0,0,0,0,,,,0,0
L11132,Class,WMLPostfieldElementImpl,org.apache.wml.dom.WMLPostfieldElementImpl,L10899,L103,0,9,9,4,4,0,1,0,0,5,5,0,138,22,0,0,0,0,0,0,0,0,10,0,0,0,0,0,0,0,,,,0,0
L11135,Class,WMLDoElementImpl,org.apache.wml.dom.WMLDoElementImpl,L10899,L103,0,15,15,7,7,0,1,0,0,5,5,0,138,22,0,0,0,0,0,0,0,0,16,0,0,0,0,0,0,0,,,,0,0
L11138,Class,WMLWmlElementImpl,org.apache.wml.dom.WMLWmlElementImpl,L10899,L103,0,7,7,3,3,0,1,0,0,5,5,0,138,22,0,0,0,0,0,0,0,0,8,0,0,0,0,0,0,0,,,,0,0
L11141,Class,WMLTrElementImpl,org.apache.wml.dom.WMLTrElementImpl,L10899,L103,0,5,5,2,2,0,1,0,0,5,5,0,138,22,0,0,0,0,0,0,0,0,6,0,0,0,0,0,0,0,,,,0,0
L11144,Class,WMLGoElementImpl,org.apache.wml.dom.WMLGoElementImpl,L10899,L103,0,13,13,6,6,0,1,0,0,5,5,0,138,22,0,0,0,0,0,0,0,0,14,0,0,0,0,0,0,0,,,,0,0
L11151,Class,WMLTimerElementImpl,org.apache.wml.dom.WMLTimerElementImpl,L10899,L103,0,9,9,4,4,0,1,0,0,5,5,0,138,22,0,0,0,0,0,0,0,0,10,0,0,0,0,0,0,0,,,,0,0
L11154,Class,WMLSmallElementImpl,org.apache.wml.dom.WMLSmallElementImpl,L10899,L103,0,7,7,3,3,0,1,0,0,5,5,0,138,22,0,0,0,0,0,0,0,0,8,0,0,0,0,0,0,0,,,,0,0
L11157,Class,WMLOptgroupElementImpl,org.apache.wml.dom.WMLOptgroupElementImpl,L10899,L103,0,9,9,4,4,0,1,0,0,5,5,0,138,22,0,0,0,0,0,0,0,0,10,0,0,0,0,0,0,0,,,,0,0
L11160,Class,WMLHeadElementImpl,org.apache.wml.dom.WMLHeadElementImpl,L10899,L103,0,5,5,2,2,0,1,0,0,5,5,0,138,22,0,0,0,0,0,0,0,0,6,0,0,0,0,0,0,0,,,,0,0
L11163,Class,WMLTdElementImpl,org.apache.wml.dom.WMLTdElementImpl,L10899,L103,0,7,7,3,3,0,1,0,0,5,5,0,138,22,0,0,0,0,0,0,0,0,8,0,0,0,0,0,0,0,,,,0,0
L11166,Class,WMLFieldsetElementImpl,org.apache.wml.dom.WMLFieldsetElementImpl,L10899,L103,0,9,9,4,4,0,1,0,0,5,5,0,138,22,0,0,0,0,0,0,0,0,10,0,0,0,0,0,0,0,,,,0,0
L11169,Class,WMLImgElementImpl,org.apache.wml.dom.WMLImgElementImpl,L10899,L103,0,23,23,11,11,0,1,0,0,5,5,0,138,22,0,0,0,0,0,0,0,0,24,0,0,0,0,0,0,0,,,,0,0
L11172,Class,WMLRefreshElementImpl,org.apache.wml.dom.WMLRefreshElementImpl,L10899,L103,0,5,5,2,2,0,1,0,0,5,5,0,138,22,0,0,0,0,0,0,0,0,6,0,0,0,0,0,0,0,,,,0,0
L11175,Class,WMLOneventElementImpl,org.apache.wml.dom.WMLOneventElementImpl,L10899,L103,0,7,7,3,3,0,1,0,0,5,5,0,138,22,0,0,0,0,0,0,0,0,8,0,0,0,0,0,0,0,,,,0,0
L11178,Class,WMLInputElementImpl,org.apache.wml.dom.WMLInputElementImpl,L10899,L103,0,25,25,12,12,0,1,0,0,5,5,0,138,22,0,0,0,0,0,0,0,0,18,0,0,0,0,0,0,0,,,,0,0
L11181,Class,WMLPrevElementImpl,org.apache.wml.dom.WMLPrevElementImpl,L10899,L103,0,5,5,2,2,0,1,0,0,5,5,0,138,22,0,0,0,0,0,0,0,0,6,0,0,0,0,0,0,0,,,,0,0
L11184,Class,WMLTableElementImpl,org.apache.wml.dom.WMLTableElementImpl,L10899,L103,0,13,13,6,6,0,1,0,0,5,5,0,138,22,0,0,0,0,0,0,0,0,12,0,0,0,0,0,0,0,,,,0,0
L11187,Class,WMLMetaElementImpl,org.apache.wml.dom.WMLMetaElementImpl,L10899,L103,0,15,15,7,7,0,1,0,0,5,5,0,138,22,0,0,0,0,0,0,0,0,14,0,0,0,0,0,0,0,,,,0,0
L11190,Class,WMLTemplateElementImpl,org.apache.wml.dom.WMLTemplateElementImpl,L10899,L103,0,11,11,5,5,0,1,0,0,5,5,0,138,22,0,0,0,0,0,0,0,0,12,0,0,0,0,0,0,0,,,,0,0
L11195,Class,WMLOptionElementImpl,org.apache.wml.dom.WMLOptionElementImpl,L10899,L103,0,13,13,6,6,0,1,0,0,5,5,0,138,22,0,0,0,0,0,0,0,0,14,0,0,0,0,0,0,0,,,,0,0
L11198,Class,WMLUElementImpl,org.apache.wml.dom.WMLUElementImpl,L10899,L103,0,7,7,3,3,0,1,0,0,5,5,0,138,22,0,0,0,0,0,0,0,0,8,0,0,0,0,0,0,0,,,,0,0
L11201,Class,WMLPElementImpl,org.apache.wml.dom.WMLPElementImpl,L10899,L103,0,11,11,5,5,0,1,0,0,5,5,0,138,22,0,0,0,0,0,0,0,0,12,0,0,0,0,0,0,0,,,,0,0
L11204,Class,WMLSelectElementImpl,org.apache.wml.dom.WMLSelectElementImpl,L10899,L103,0,21,21,10,10,0,1,0,0,5,5,0,138,22,0,0,0,0,0,0,0,0,18,0,0,0,0,0,0,0,,,,0,0
L11207,Class,WMLEmElementImpl,org.apache.wml.dom.WMLEmElementImpl,L10899,L103,0,7,7,3,3,0,1,0,0,5,5,0,138,22,0,0,0,0,0,0,0,0,8,0,0,0,0,0,0,0,,,,0,0
L11210,Class,WMLIElementImpl,org.apache.wml.dom.WMLIElementImpl,L10899,L103,0,7,7,3,3,0,1,0,0,5,5,0,138,22,0,0,0,0,0,0,0,0,8,0,0,0,0,0,0,0,,,,0,0
L11224,Interface,WMLDoElement,org.apache.wml.WMLDoElement,L10859,L103,,10,,,,,,,0,3,,,,,,,,,,0,,0,10,,,,,,,0,0,1,0,0,0
L11251,Class,WMLDOMImplementationImpl,org.apache.wml.dom.WMLDOMImplementationImpl,L10899,L103,0,2,2,0,1,0,1,0,0,1,1,0,4,0,0,0,0,0,1,0,0,0,5,0,0,0,0,0,0,0,,,,0,0
L11253,Interface,WMLDOMImplementation,org.apache.wml.WMLDOMImplementation,L10859,L103,,0,,,,,,,0,1,,,,,,,,,,0,,0,0,,,,,,,0,0,1,0,0,0
L11273,Interface,WMLElement,org.apache.wml.WMLElement,L10859,L103,,4,,,,,,,35,2,,,,,,,,,,0,,0,4,,,,,,,0,0,1,35,0,0
L11298,Interface,WMLEmElement,org.apache.wml.WMLEmElement,L10859,L103,,2,,,,,,,0,3,,,,,,,,,,0,,0,2,,,,,,,0,0,1,0,0,0
L11314,Interface,WMLFieldsetElement,org.apache.wml.WMLFieldsetElement,L10859,L103,,4,,,,,,,0,3,,,,,,,,,,0,,0,4,,,,,,,0,0,1,0,0,0
L11333,Interface,WMLGoElement,org.apache.wml.WMLGoElement,L10859,L103,,8,,,,,,,0,3,,,,,,,,,,0,,0,8,,,,,,,0,0,1,0,0,0
L11358,Interface,WMLHeadElement,org.apache.wml.WMLHeadElement,L10859,L103,,0,,,,,,,0,3,,,,,,,,,,0,,0,0,,,,,,,0,0,1,0,0,0
L11371,Interface,WMLIElement,org.apache.wml.WMLIElement,L10859,L103,,2,,,,,,,0,3,,,,,,,,,,0,,0,2,,,,,,,0,0,1,0,0,0
L11387,Interface,WMLImgElement,org.apache.wml.WMLImgElement,L10859,L103,,18,,,,,,,0,3,,,,,,,,,,0,,0,18,,,,,,,0,0,1,0,0,0
L11427,Interface,WMLInputElement,org.apache.wml.WMLInputElement,L10859,L103,,20,,,,,,,0,3,,,,,,,,,,0,,0,12,,,,,,,0,0,1,0,0,0
L11472,Interface,WMLMetaElement,org.apache.wml.WMLMetaElement,L10859,L103,,10,,,,,,,0,3,,,,,,,,,,0,,0,8,,,,,,,0,0,1,0,0,0
L11500,Interface,WMLNoopElement,org.apache.wml.WMLNoopElement,L10859,L103,,0,,,,,,,0,3,,,,,,,,,,0,,0,0,,,,,,,0,0,1,0,0,0
L11513,Interface,WMLOneventElement,org.apache.wml.WMLOneventElement,L10859,L103,,2,,,,,,,0,3,,,,,,,,,,0,,0,2,,,,,,,0,0,1,0,0,0
L11529,Interface,WMLOptgroupElement,org.apache.wml.WMLOptgroupElement,L10859,L103,,4,,,,,,,0,3,,,,,,,,,,0,,0,4,,,,,,,0,0,1,0,0,0
L11548,Interface,WMLOptionElement,org.apache.wml.WMLOptionElement,L10859,L103,,8,,,,,,,0,3,,,,,,,,,,0,,0,8,,,,,,,0,0,1,0,0,0
L11573,Interface,WMLPElement,org.apache.wml.WMLPElement,L10859,L103,,6,,,,,,,0,3,,,,,,,,,,0,,0,6,,,,,,,0,0,1,0,0,0
L11595,Interface,WMLPostfieldElement,org.apache.wml.WMLPostfieldElement,L10859,L103,,4,,,,,,,0,3,,,,,,,,,,0,,0,4,,,,,,,0,0,1,0,0,0
L11614,Interface,WMLPrevElement,org.apache.wml.WMLPrevElement,L10859,L103,,0,,,,,,,0,3,,,,,,,,,,0,,0,0,,,,,,,0,0,1,0,0,0
L11627,Interface,WMLRefreshElement,org.apache.wml.WMLRefreshElement,L10859,L103,,0,,,,,,,0,3,,,,,,,,,,0,,0,0,,,,,,,0,0,1,0,0,0
L11640,Interface,WMLSelectElement,org.apache.wml.WMLSelectElement,L10859,L103,,16,,,,,,,0,3,,,,,,,,,,0,,0,12,,,,,,,0,0,1,0,0,0
L11677,Interface,WMLSetvarElement,org.apache.wml.WMLSetvarElement,L10859,L103,,4,,,,,,,0,3,,,,,,,,,,0,,0,4,,,,,,,0,0,1,0,0,0
L11696,Interface,WMLSmallElement,org.apache.wml.WMLSmallElement,L10859,L103,,2,,,,,,,0,3,,,,,,,,,,0,,0,2,,,,,,,0,0,1,0,0,0
L11712,Interface,WMLStrongElement,org.apache.wml.WMLStrongElement,L10859,L103,,2,,,,,,,0,3,,,,,,,,,,0,,0,2,,,,,,,0,0,1,0,0,0
L11728,Interface,WMLTableElement,org.apache.wml.WMLTableElement,L10859,L103,,8,,,,,,,0,3,,,,,,,,,,0,,0,6,,,,,,,0,0,1,0,0,0
L11753,Interface,WMLTdElement,org.apache.wml.WMLTdElement,L10859,L103,,2,,,,,,,0,3,,,,,,,,,,0,,0,2,,,,,,,0,0,1,0,0,0
L11769,Interface,WMLTemplateElement,org.apache.wml.WMLTemplateElement,L10859,L103,,6,,,,,,,0,3,,,,,,,,,,0,,0,6,,,,,,,0,0,1,0,0,0
L11791,Interface,WMLTimerElement,org.apache.wml.WMLTimerElement,L10859,L103,,4,,,,,,,0,3,,,,,,,,,,0,,0,4,,,,,,,0,0,1,0,0,0
L11810,Interface,WMLTrElement,org.apache.wml.WMLTrElement,L10859,L103,,0,,,,,,,0,3,,,,,,,,,,0,,0,0,,,,,,,0,0,1,0,0,0
L11823,Interface,WMLUElement,org.apache.wml.WMLUElement,L10859,L103,,2,,,,,,,0,3,,,,,,,,,,0,,0,2,,,,,,,0,0,1,0,0,0
L11839,Interface,WMLWmlElement,org.apache.wml.WMLWmlElement,L10859,L103,,2,,,,,,,0,3,,,,,,,,,,0,,0,2,,,,,,,0,0,1,0,0,0
L122,Class,DOMParser,org.apache.xerces.parsers.DOMParser,L19554,L103,23,61,42,7,18,0,1,3,3,1,1,1,48,11,0,0,0,0,10,0,1,0,40,0,0,0,0,0,0,0,,,,0,0
L12413,Class,LCount,org.apache.xerces.dom.LCount,L12246,L103,4,1,0,0,0,0,0,0,0,0,0,0,0,0,0,0,0,0,0,0,1,0,1,0,0,0,0,0,0,0,,,,0,0
L12541,Class,ChildNode,org.apache.xerces.dom.ChildNode,L12246,L103,1,8,5,0,3,0,0,2,107,1,1,4,65,16,0,0,2,2,0,0,0,5,6,0,0,0,0,0,0,0,,,,0,0
L12626,Class,CDATASectionImpl,org.apache.xerces.dom.CDATASectionImpl,L12246,L103,1,3,3,0,2,0,1,1,1,4,4,1,92,20,0,0,0,0,0,0,0,0,3,0,0,0,0,0,0,0,,,,0,0
L1289,Interface,AttributeList,org.xml.sax.AttributeList,L33790,L103,,6,,,,,,,0,0,,,,,,,,,,1,,16,7,,,,,,,0,0,4,0,0,0
L12920,Class,DeferredDocumentImpl,org.apache.xerces.dom.DeferredDocumentImpl,L12246,L103,20,61,48,4,26,0,1,0,0,3,3,0,153,30,0,0,0,0,2,0,0,14,13,0,0,0,0,0,0,0,,,,0,0
L12985,Class,CommentImpl,org.apache.xerces.dom.CommentImpl,L12246,L103,1,3,3,0,2,0,2,1,1,3,3,1,86,19,0,0,0,0,0,0,0,0,3,0,0,0,0,0,0,0,,,,0,0
L13063,Class,DeferredAttrImpl,org.apache.xerces.dom.DeferredAttrImpl,L12246,L103,2,4,1,0,1,0,1,0,0,3,3,0,106,21,0,0,0,0,0,0,0,0,1,0,0,0,0,0,0,0,,,,0,0
L13065,Interface,DeferredNode,org.apache.xerces.dom.DeferredNode,L12246,L103,,1,,,,,,,0,1,,,,,,,,,,0,,1,0,,,,,,,0,0,14,0,0,0
L13101,Class,StringPool,org.apache.xerces.utils.StringPool,L23264,L103,23,30,26,0,3,0,0,0,0,0,0,0,0,0,0,0,4,4,16,2,2,58,12,0,0,0,0,0,0,0,,,,0,0
L13113,Class,DeferredAttrNSImpl,org.apache.xerces.dom.DeferredAttrNSImpl,L12246,L103,2,4,1,0,1,0,1,0,0,4,4,0,112,24,0,0,0,0,0,0,0,0,1,0,0,0,0,0,0,0,,,,0,0
L13152,Class,DeferredCDATASectionImpl,org.apache.xerces.dom.DeferredCDATASectionImpl,L12246,L103,2,3,1,0,1,0,1,0,0,5,5,0,95,21,0,0,0,0,0,0,0,0,1,0,0,0,0,0,0,0,,,,0,0
L13190,Class,DeferredCommentImpl,org.apache.xerces.dom.DeferredCommentImpl,L12246,L103,2,3,1,0,1,0,1,0,0,4,4,0,89,20,0,0,0,0,0,0,0,0,1,0,0,0,0,0,0,0,,,,0,0
L13496,Class,DeferredDocumentTypeImpl,org.apache.xerces.dom.DeferredDocumentTypeImpl,L12246,L103,2,4,1,0,1,0,1,0,0,4,4,0,113,25,0,0,0,0,0,0,0,0,1,0,0,0,0,0,0,0,,,,0,0
L13503,Class,DocumentTypeImpl,org.apache.xerces.dom.DocumentTypeImpl,L12246,L103,5,15,14,3,9,0,1,1,1,3,3,1,98,20,0,0,2,2,0,0,1,0,17,0,0,0,0,0,0,0,,,,0,0
L13507,Class,DeferredElementNSImpl,org.apache.xerces.dom.DeferredElementNSImpl,L12246,L103,2,4,1,0,1,0,1,0,0,5,5,0,133,25,0,0,0,0,0,0,0,0,1,0,0,0,0,0,0,0,,,,0,0
L13512,Class,DeferredElementImpl,org.apache.xerces.dom.DeferredElementImpl,L12246,L103,2,4,1,0,1,0,1,0,0,4,4,0,127,22,0,0,0,0,0,0,0,0,1,0,0,0,0,0,0,0,,,,0,0
L13526,Class,DeferredEntityImpl,org.apache.xerces.dom.DeferredEntityImpl,L12246,L103,2,4,1,0,1,0,1,0,0,3,3,0,100,24,0,0,0,0,0,0,0,0,1,0,0,0,0,0,0,0,,,,0,0
L13531,Class,DeferredEntityReferenceImpl,org.apache.xerces.dom.DeferredEntityReferenceImpl,L12246,L103,2,5,1,0,1,0,1,0,0,4,4,0,108,22,0,0,0,0,0,0,0,0,1,0,0,0,0,0,0,0,,,,0,0
L13536,Class,DeferredNotationImpl,org.apache.xerces.dom.DeferredNotationImpl,L12246,L103,2,3,1,0,1,0,1,0,0,2,2,0,72,20,0,0,0,0,0,0,0,0,1,0,0,0,0,0,0,0,,,,0,0
L13541,Class,DeferredProcessingInstructionImpl,org.apache.xerces.dom.DeferredProcessingInstructionImpl,L12246,L103,2,3,1,0,1,0,1,0,0,4,4,0,92,21,0,0,0,0,0,0,0,0,1,0,0,0,0,0,0,0,,,,0,0
L13546,Class,DeferredTextImpl,org.apache.xerces.dom.DeferredTextImpl,L12246,L103,2,3,1,0,1,0,1,0,0,4,4,0,92,20,0,0,0,0,0,0,0,0,1,0,0,0,0,0,0,0,,,,0,0
L13551,Class,DeferredElementDefinitionImpl,org.apache.xerces.dom.DeferredElementDefinitionImpl,L12246,L103,2,4,1,0,1,0,1,0,0,3,3,0,95,21,0,0,0,0,0,0,0,0,1,0,0,0,0,0,0,0,,,,0,0
L13805,Class,ElementDefinitionImpl,org.apache.xerces.dom.ElementDefinitionImpl,L12246,L103,2,5,5,0,3,0,0,1,1,2,2,1,90,19,0,0,1,1,0,0,1,1,5,0,0,0,0,0,0,0,,,,0,0
L13927,Class,EntityImpl,org.apache.xerces.dom.EntityImpl,L12246,L103,5,10,10,3,5,0,1,1,1,2,2,1,90,19,0,0,0,0,0,0,1,0,10,0,0,0,0,0,0,0,,,,0,0
L13976,Class,EntityReferenceImpl,org.apache.xerces.dom.EntityReferenceImpl,L12246,L103,2,10,9,0,7,0,1,1,1,3,3,1,98,20,0,0,0,0,0,0,1,0,7,0,0,0,0,0,0,0,,,,0,0
L1403,Interface,Attributes,org.xml.sax.Attributes,L33790,L103,,12,,,,,,,0,0,,,,,,,,,,1,,14,18,,,,,,,0,0,3,0,0,0
L14132,Class,DocumentFragmentImpl,org.apache.xerces.dom.DocumentFragmentImpl,L12246,L103,1,4,4,0,2,0,1,0,0,2,2,0,90,19,0,0,0,0,0,0,0,0,2,0,0,0,0,0,0,0,,,,0,0
L14161,Interface,DocumentRange,org.w3c.dom.range.DocumentRange,L33646,L103,,1,,,,,,,0,0,,,,,,,,,,0,,0,1,,,,,,,0,0,1,0,0,0
L14459,Class,TreeWalkerImpl,org.apache.xerces.dom.TreeWalkerImpl,L12246,L103,2,20,14,1,10,0,1,0,0,0,0,0,0,0,0,0,0,0,2,0,0,0,24,0,0,0,0,0,0,0,,,,0,0
L14475,Interface,Range,org.w3c.dom.range.Range,L33646,L103,,24,,,,,,,0,0,,,,,,,,,,0,,7,18,,,,,,,0,0,1,0,0,0
L15703,Class,RangeException,org.w3c.dom.range.RangeException,L33646,L103,3,1,1,0,0,0,0,1,1,1,1,1,0,0,0,0,0,0,0,0,0,0,1,0,0,0,0,0,0,0,,,,0,0
L1589,Class,DefaultHandler,org.xml.sax.helpers.DefaultHandler,L34045,L103,0,17,17,1,0,0,4,2,2,0,0,1,0,0,0,0,0,0,0,0,0,0,27,0,0,0,0,0,0,0,,,,0,0
L16038,Class,XGrammarWriter,org.apache.xerces.domx.XGrammarWriter,L16028,L103,8,45,27,3,8,0,0,0,0,0,0,0,0,0,0,0,0,0,0,0,3,0,51,0,0,0,0,0,0,0,,,,0,0
L162,Class,SAXException,org.xml.sax.SAXException,L33790,L103,1,6,6,0,2,0,0,3,3,1,1,1,0,0,0,0,0,0,0,0,1,0,7,0,0,0,0,0,0,0,,,,0,0
L1626,Interface,XMLReader,org.xml.sax.XMLReader,L33790,L103,,14,,,,,,,1,0,,,,,,,,,,0,,9,16,,,,,,,0,2,2,1,0,0
L16556,Class,XMLContentSpec,org.apache.xerces.framework.XMLContentSpec,L16369,L103,18,12,11,3,1,0,0,0,0,0,0,0,0,0,0,0,0,0,2,0,0,9,9,0,0,0,0,0,0,0,,,,0,0
L16694,Interface,XMLDocumentHandler,org.apache.xerces.framework.XMLDocumentHandler,L16369,L103,,18,,,,,,,0,0,,,,,,,,,,0,,2,3,,,,,,,0,1,2,0,0,0
L16830,Class,XMLDocumentScanner,org.apache.xerces.framework.XMLDocumentScanner,L16369,L103,47,41,16,6,3,0,0,0,0,0,0,0,0,0,0,0,4,4,5,0,6,1,30,0,0,0,0,0,0,0,,,,0,0
L16900,Interface,GrammarResolver,org.apache.xerces.validators.common.GrammarResolver,L26129,L103,,8,,,,,,,0,0,,,,,,,,,,0,,8,9,,,,,,,0,6,1,0,0,0
L16904,Class,XMLDTDScanner,org.apache.xerces.framework.XMLDTDScanner,L16369,L103,65,69,22,7,3,0,0,0,0,0,0,0,0,0,0,0,2,2,7,0,4,0,40,0,0,0,0,0,0,0,,,,0,0
L16927,Interface,XMLErrorReporter,org.apache.xerces.framework.XMLErrorReporter,L16369,L103,,2,,,,,,,0,0,,,,,,,,,,1,,31,4,,,,,,,0,7,1,0,0,0
L16931,Interface,XMLEntityHandler,org.apache.xerces.readers.XMLEntityHandler,L20438,L103,,10,,,,,,,0,1,,,,,,,,,,0,,27,7,,,,,,,0,3,1,0,0,0
L17718,Class,ChunkyCharArray,org.apache.xerces.utils.ChunkyCharArray,L23264,L103,5,8,8,0,0,0,1,0,0,0,0,0,0,0,0,0,2,2,1,0,0,0,2,0,0,0,0,0,0,0,,,,0,0
L17847,Class,DTDGrammar,org.apache.xerces.validators.dtd.DTDGrammar,L29609,L103,9,41,35,2,6,0,1,0,0,1,1,0,37,24,0,0,0,0,8,0,0,0,12,0,0,0,0,0,0,0,,,,0,0
L17854,Class,XMLElementDecl,org.apache.xerces.validators.common.XMLElementDecl,L26129,L103,9,6,6,1,1,0,0,0,0,0,0,0,0,0,0,0,1,1,6,0,0,4,1,0,0,0,0,0,0,0,,,,0,0
L17858,Class,XMLAttributeDecl,org.apache.xerces.validators.common.XMLAttributeDecl,L26129,L103,24,6,6,1,1,0,0,0,0,0,0,0,0,0,0,0,1,1,6,0,1,9,1,0,0,0,0,0,0,0,,,,0,0
L1844,Class,HandlerBase,org.xml.sax.HandlerBase,L33790,L103,0,14,14,1,0,0,4,2,2,0,0,1,0,0,0,0,0,0,0,0,0,4,19,0,0,0,0,0,0,0,,,,0,0
L1881,Interface,Parser,org.xml.sax.Parser,L33790,L103,,7,,,,,,,0,0,,,,,,,,,,0,,6,7,,,,,,,0,2,2,0,0,0
L18972,Class,XMLParser,org.apache.xerces.framework.XMLParser,L16369,L103,11,48,22,17,21,0,2,2,6,0,0,2,0,0,0,0,2,2,6,0,2,0,27,0,0,0,0,0,0,0,,,,0,0
L19011,Interface,XMLMessageProvider,org.apache.xerces.utils.XMLMessageProvider,L23264,L103,,3,,,,,,,0,0,,,,,,,,,,0,,0,5,,,,,,,0,1,4,0,0,0
L19014,Class,XMLMessages,org.apache.xerces.utils.XMLMessages,L23264,L103,323,3,3,1,1,0,1,0,0,0,0,0,0,0,0,0,0,0,0,0,3,0,5,0,0,0,0,0,0,0,,,,0,0
L19018,Class,ImplementationMessages,org.apache.xerces.utils.ImplementationMessages,L23264,L103,22,3,3,1,1,0,1,0,0,0,0,0,0,0,0,0,0,0,0,0,3,0,5,0,0,0,0,0,0,0,,,,0,0
L19022,Class,SchemaMessageProvider,org.apache.xerces.validators.schema.SchemaMessageProvider,L29853,L103,31,3,3,1,1,0,1,0,0,0,0,0,0,0,0,0,0,0,0,0,3,0,5,0,0,0,0,0,0,0,,,,0,0
L19026,Class,DatatypeMessageProvider,org.apache.xerces.validators.datatype.DatatypeMessageProvider,L28240,L103,25,3,3,1,1,0,1,0,0,0,0,0,0,0,0,0,8,8,0,0,3,0,5,0,0,0,0,0,0,0,,,,0,0
L19056,Class,GrammarResolverImpl,org.apache.xerces.validators.common.GrammarResolverImpl,L26129,L103,1,10,10,0,2,0,1,0,0,0,0,0,0,0,0,0,0,0,0,0,1,0,10,0,0,0,0,0,0,0,,,,0,0
L19122,Interface,XMLEntityReaderFactory,org.apache.xerces.readers.XMLEntityReaderFactory,L20438,L103,,8,,,,,,,0,0,,,,,,,,,,0,,6,21,,,,,,,0,1,1,0,0,0
L19130,Class,XMLDeclRecognizer,org.apache.xerces.readers.XMLDeclRecognizer,L20438,L103,3,3,2,0,0,0,0,3,3,0,0,1,0,0,0,0,0,0,0,0,0,4,8,0,0,0,0,0,0,0,,,,0,0
L19392,Class,DocumentBuilderImpl,org.apache.xerces.jaxp.DocumentBuilderImpl,L19379,L103,2,8,6,2,2,0,0,0,0,1,1,0,10,0,0,0,0,0,1,0,0,0,5,0,0,0,0,0,0,0,,,,0,0
L19485,Class,DatatypeMessages,org.apache.xerces.msg.DatatypeMessages,L19477,L103,1,1,1,0,1,0,0,0,0,1,1,0,0,0,0,0,0,0,0,0,1,0,1,0,0,0,0,0,0,0,,,,0,0
L19499,Class,ExceptionMessages,org.apache.xerces.msg.ExceptionMessages,L19477,L103,1,1,1,0,1,0,0,0,0,1,1,0,0,0,0,0,0,0,0,0,1,0,1,0,0,0,0,0,0,0,,,,0,0
L19507,Class,ExceptionMessagesLocalizer,org.apache.xerces.msg.ExceptionMessagesLocalizer,L19477,L103,1,1,1,0,0,0,0,0,0,0,0,0,0,0,0,0,0,0,0,0,1,0,3,0,0,0,0,0,0,0,,,,0,0
L19530,Class,ImplementationMessages,org.apache.xerces.msg.ImplementationMessages,L19477,L103,1,1,1,0,1,0,0,0,0,1,1,0,0,0,0,0,0,0,0,0,1,0,1,0,0,0,0,0,0,0,,,,0,0
L19538,Class,SchemaMessages,org.apache.xerces.msg.SchemaMessages,L19477,L103,1,1,1,0,1,0,0,0,0,1,1,0,0,0,0,0,0,0,0,0,1,0,1,0,0,0,0,0,0,0,,,,0,0
L19546,Class,XMLMessages,org.apache.xerces.msg.XMLMessages,L19477,L103,1,1,1,0,1,0,0,0,0,1,1,0,0,0,0,0,0,0,0,0,1,0,1,0,0,0,0,0,0,0,,,,0,0
L20107,Interface,DTDHandler,org.xml.sax.DTDHandler,L33790,L103,,2,,,,,,,0,0,,,,,,,,,,0,,10,7,,,,,,,0,3,4,0,0,0
L20113,Interface,ContentHandler,org.xml.sax.ContentHandler,L33790,L103,,11,,,,,,,0,0,,,,,,,,,,0,,10,14,,,,,,,0,3,4,0,0,0
L20129,Class,AttributesImpl,org.xml.sax.helpers.AttributesImpl,L34045,L103,2,26,24,7,12,0,1,0,0,0,0,0,0,0,0,0,1,1,1,0,1,0,35,0,0,0,0,0,0,0,,,,0,0
L20461,Class,XMLEntityReader,org.apache.xerces.readers.XMLEntityReader,L20438,L103,8,9,5,1,3,0,1,6,8,0,0,2,0,0,0,0,1,1,1,0,1,0,7,0,0,0,0,0,0,0,,,,0,0
L20482,Class,CharDataChunk,org.apache.xerces.utils.CharDataChunk,L23264,L103,6,18,13,2,0,0,1,0,0,0,0,0,0,0,0,0,2,2,2,0,0,0,3,0,0,0,0,0,0,0,,,,0,0
L20746,Class,CharReader,org.apache.xerces.readers.CharReader,L20438,L103,7,4,0,0,0,0,0,0,0,2,2,0,41,16,0,0,0,0,0,0,1,0,4,0,0,0,0,0,0,0,,,,0,0
L20890,Class,DefaultReaderFactory,org.apache.xerces.readers.DefaultReaderFactory,L20438,L103,5,9,9,2,1,0,1,0,0,0,0,0,0,0,0,0,0,0,0,0,1,0,21,0,0,0,0,0,0,0,,,,0,0
L21049,Class,URI,org.apache.xerces.utils.URI,L23264,L103,12,41,29,7,19,0,1,0,0,0,0,0,0,0,0,0,0,0,0,0,1,0,39,0,0,0,0,0,0,0,,,,0,0
L21415,Class,LocatorImpl,org.xml.sax.helpers.LocatorImpl,L34045,L103,4,10,10,4,4,0,1,0,0,0,0,0,0,0,0,0,0,0,1,1,1,2,5,0,0,0,0,0,0,0,,,,0,0
L21476,Class,ChunkyByteArray,org.apache.xerces.utils.ChunkyByteArray,L23264,L103,8,8,7,0,0,0,0,0,0,1,1,0,0,0,0,0,0,0,1,1,1,6,1,0,0,0,0,0,0,0,,,,0,0
L21507,Class,UTF8CharReader,org.apache.xerces.readers.UTF8CharReader,L20438,L103,11,9,0,0,0,0,0,0,0,2,2,0,41,16,0,0,0,0,0,0,1,0,4,0,0,0,0,0,0,0,,,,0,0
L21524,Class,EBCDICRecognizer,org.apache.xerces.readers.EBCDICRecognizer,L20438,L103,0,1,1,0,0,0,0,0,0,1,1,0,3,3,0,0,0,0,0,0,0,0,6,0,0,0,0,0,0,0,,,,0,0
L21551,Class,MIME2Java,org.apache.xerces.readers.MIME2Java,L20438,L103,2,3,2,0,0,0,0,0,0,0,0,0,0,0,0,0,0,0,0,0,1,0,4,0,0,0,0,0,0,0,,,,0,0
L21563,Class,StreamingCharReader,org.apache.xerces.readers.StreamingCharReader,L20438,L103,13,33,21,0,0,0,0,0,0,1,1,0,9,8,0,0,0,0,2,0,2,0,10,0,0,0,0,0,0,0,,,,0,0
L21769,Class,StringReader,org.apache.xerces.readers.StringReader,L20438,L103,8,28,22,0,0,0,0,0,0,1,1,0,9,8,0,0,0,0,1,0,1,0,14,0,0,0,0,0,0,0,,,,0,0
L21986,Class,UCSReader,org.apache.xerces.readers.UCSReader,L20438,L103,14,30,24,0,2,0,1,0,0,1,1,0,9,8,0,0,0,0,3,0,0,0,9,0,0,0,0,0,0,0,,,,0,0
L22211,Class,UCSRecognizer,org.apache.xerces.readers.UCSRecognizer,L20438,L103,0,1,1,0,0,0,0,0,0,1,1,0,3,3,0,0,0,0,0,0,0,0,6,0,0,0,0,0,0,0,,,,0,0
L22438,Class,UTF8DataChunk,org.apache.xerces.utils.UTF8DataChunk,L23264,L103,8,20,12,2,1,0,1,0,0,0,0,0,0,0,0,0,1,1,1,0,1,0,5,0,0,0,0,0,0,0,,,,0,0
L22551,Class,SymbolCache,org.apache.xerces.utils.SymbolCache,L23264,L103,9,6,6,0,1,0,0,0,0,0,0,0,0,0,0,0,1,1,0,0,0,1,2,0,0,0,0,0,0,0,,,,0,0
L22630,Class,UTF8Recognizer,org.apache.xerces.readers.UTF8Recognizer,L20438,L103,1,1,1,0,0,0,0,0,0,1,1,0,3,3,0,0,0,0,0,0,0,0,6,0,0,0,0,0,0,0,,,,0,0
L22726,Class,XCatalog,org.apache.xerces.readers.XCatalog,L20438,L103,14,8,7,0,3,0,0,0,0,1,1,0,10,2,0,0,0,0,0,0,3,0,9,0,0,0,0,0,0,0,,,,0,0
L22728,Class,XMLCatalogHandler,org.apache.xerces.readers.XMLCatalogHandler,L20438,L103,2,10,10,0,4,0,1,1,1,0,0,1,0,0,0,0,0,0,0,0,1,0,16,0,0,0,0,0,0,0,,,,0,0
L23284,Class,Base64,org.apache.xerces.utils.Base64,L23264,L103,12,5,5,0,3,0,0,0,0,0,0,0,0,0,0,0,0,0,0,0,0,0,1,0,0,0,0,0,0,0,,,,0,0
L23524,Class,Hash2intTable,org.apache.xerces.utils.Hash2intTable,L23264,L103,3,2,2,0,1,0,0,0,0,0,0,0,0,0,0,0,0,0,1,0,0,0,0,0,0,0,0,0,0,0,,,,0,0
L23608,Class,ISO8601Format,org.apache.xerces.utils.ISO8601Format,L23264,L103,0,1,1,0,0,0,0,0,0,0,0,0,0,0,0,0,0,0,0,0,0,0,1,0,0,0,0,0,0,0,,,,0,0
L23614,Class,NamespacesScope,org.apache.xerces.utils.NamespacesScope,L23264,L103,3,5,5,1,1,0,0,0,0,0,0,0,0,0,0,0,0,0,3,0,1,2,1,0,0,0,0,0,0,0,,,,0,0
L23714,Class,BMPattern,org.apache.xerces.utils.regex.BMPattern,L23702,L103,3,8,5,0,0,0,0,0,0,0,0,0,0,0,0,0,1,1,0,0,0,0,6,0,0,0,0,0,0,0,,,,0,0
L23762,Class,Match,org.apache.xerces.utils.regex.Match,L23702,L103,6,12,6,6,4,0,1,0,0,0,0,0,0,0,0,0,0,0,0,1,2,5,4,0,0,0,0,0,0,0,,,,0,0
L23823,Class,Op,org.apache.xerces.utils.regex.Op,L23702,L103,23,23,0,0,5,0,0,6,7,0,0,2,0,0,0,0,1,1,0,0,0,5,18,0,0,0,0,0,0,0,,,,0,0
L23904,Class,Token,org.apache.xerces.utils.regex.Token,L23702,L103,40,48,2,3,14,0,1,9,9,0,0,1,0,0,0,0,1,1,0,1,2,80,25,0,0,0,0,0,0,0,,,,0,0
L23960,Class,RangeToken,org.apache.xerces.utils.regex.RangeToken,L23702,L103,6,18,1,2,3,0,1,0,0,1,1,0,48,40,0,0,1,1,0,0,0,15,7,0,0,0,0,0,0,0,,,,0,0
L24022,Class,ParseException,org.apache.xerces.utils.regex.ParseException,L23702,L103,1,2,2,0,1,0,0,0,0,1,1,0,0,0,0,0,0,0,0,0,0,1,1,0,0,0,0,0,0,0,,,,0,0
L24033,Class,ParserForXMLSchema,org.apache.xerces.utils.regex.ParserForXMLSchema,L23702,L103,6,38,2,1,2,0,0,0,0,1,1,0,50,39,0,0,0,0,0,0,2,0,40,0,0,0,0,0,0,0,,,,0,0
L24035,Class,RegexParser,org.apache.xerces.utils.regex.RegexParser,L23702,L103,39,50,3,2,2,0,0,1,1,0,0,1,0,0,0,0,0,0,0,0,3,0,47,0,0,0,0,0,0,0,,,,0,0
L24518,Class,RegularExpression,org.apache.xerces.utils.regex.RegularExpression,L23702,L103,28,52,20,3,14,0,1,0,0,0,0,0,0,0,0,0,5,5,7,0,2,1,53,0,0,0,0,0,0,0,,,,0,0
L25071,Class,REUtil,org.apache.xerces.utils.regex.REUtil,L23702,L103,1,16,5,0,3,0,0,0,0,0,0,0,0,0,0,0,1,1,0,0,0,0,19,0,0,0,0,0,0,0,,,,0,0
L25417,Class,StringHasher,org.apache.xerces.utils.StringHasher,L23264,L103,0,4,4,0,3,0,0,0,0,0,0,0,0,0,0,0,0,0,0,0,0,0,1,0,0,0,0,0,0,0,,,,0,0
L255,Class,QName,org.apache.xerces.utils.QName,L23264,L103,4,11,11,3,1,0,0,0,0,0,0,0,0,0,0,0,0,0,14,1,0,140,2,0,0,0,0,0,0,0,,,,0,0
L259,Class,XMLAttrList,org.apache.xerces.framework.XMLAttrList,L16369,L103,17,29,28,2,19,0,1,0,0,0,0,0,0,0,0,0,1,1,4,0,0,10,14,0,0,0,0,0,0,0,,,,0,0
L25996,Class,XMLCharacterProperties,org.apache.xerces.utils.XMLCharacterProperties,L23264,L103,17,8,7,1,0,0,0,0,0,0,0,0,0,0,0,0,0,0,0,0,0,0,6,0,0,0,0,0,0,0,,,,0,0
L26151,Class,CMAny,org.apache.xerces.validators.common.CMAny,L26129,L103,3,9,1,1,4,0,0,0,0,1,1,0,9,2,0,0,0,0,0,0,0,0,4,0,0,0,0,0,0,0,,,,0,0
L26153,Class,CMNode,org.apache.xerces.validators.common.CMNode,L26129,L103,2,9,0,2,1,0,0,4,4,0,0,1,0,0,0,0,4,4,0,0,0,14,5,0,0,0,0,0,0,0,,,,0,0
L26170,Class,CMException,org.apache.xerces.validators.common.CMException,L26129,L103,2,2,2,0,1,0,0,0,0,1,1,0,0,0,0,0,0,0,0,0,0,0,0,0,0,0,0,0,0,0,,,,0,0
L26201,Class,CMStateSet,org.apache.xerces.validators.common.CMStateSet,L26129,L103,5,10,1,2,3,0,0,0,0,0,0,0,0,0,0,0,2,2,0,0,0,13,1,0,0,0,0,0,0,0,,,,0,0
L26210,Class,CMBinOp,org.apache.xerces.validators.common.CMBinOp,L26129,L103,0,6,1,0,3,0,0,0,0,1,1,0,9,2,0,0,1,1,0,0,0,0,6,0,0,0,0,0,0,0,,,,0,0
L26283,Class,CMLeaf,org.apache.xerces.validators.common.CMLeaf,L26129,L103,1,9,2,1,3,0,0,0,0,1,1,0,9,2,0,0,1,1,1,0,0,0,7,0,0,0,0,0,0,0,,,,0,0
L26441,Class,CMUniOp,org.apache.xerces.validators.common.CMUniOp,L26129,L103,0,5,1,0,2,0,0,0,0,1,1,0,9,2,0,0,1,1,0,0,0,0,4,0,0,0,0,0,0,0,,,,0,0
L26474,Class,ContentLeafNameTypeVector,org.apache.xerces.validators.common.ContentLeafNameTypeVector,L26129,L103,2,4,4,1,0,0,0,0,0,0,0,0,0,0,0,0,2,2,1,0,0,4,2,0,0,0,0,0,0,0,,,,0,0
L26510,Interface,XMLContentModel,org.apache.xerces.validators.common.XMLContentModel,L26129,L103,,5,,,,,,,0,0,,,,,,,,,,0,,7,5,,,,,,,0,1,3,0,0,0
L26531,Class,EquivClassComparator,org.apache.xerces.validators.schema.EquivClassComparator,L29853,L103,1,3,2,0,1,0,0,0,0,0,0,0,0,0,0,0,0,0,5,0,0,4,4,0,0,0,0,0,0,0,,,,0,0
L26631,Class,InsertableElementsInfo,org.apache.xerces.validators.common.InsertableElementsInfo,L26129,L103,6,0,0,0,0,0,0,0,0,0,0,0,0,0,0,0,0,0,1,0,0,5,0,0,0,0,0,0,0,0,,,,0,0
L26705,Class,Grammar,org.apache.xerces.validators.common.Grammar,L26129,L103,24,37,12,5,11,0,1,2,2,0,0,1,0,0,0,0,2,2,4,0,1,8,27,0,0,0,0,0,0,0,,,,0,0
L26733,Interface,DatatypeValidator,org.apache.xerces.validators.datatype.DatatypeValidator,L28240,L103,,3,,,,,,,0,0,,,,,,,,,,2,,43,6,,,,,,,0,18,1,0,0,0
L26820,Class,MixedContentModel,org.apache.xerces.validators.common.MixedContentModel,L26129,L103,4,8,8,1,1,0,1,0,0,0,0,0,0,0,0,0,0,0,2,0,0,0,8,0,0,0,0,0,0,0,,,,0,0
L26917,Class,SimpleContentModel,org.apache.xerces.validators.common.SimpleContentModel,L26129,L103,2,7,7,1,1,0,1,0,0,0,0,0,0,0,0,0,0,0,2,0,0,0,9,0,0,0,0,0,0,0,,,,0,0
L27284,Interface,StateMessageDatatype,org.apache.xerces.validators.datatype.StateMessageDatatype,L28240,L103,,3,,,,,,,0,0,,,,,,,,,,0,,0,2,,,,,,,0,1,0,0,0,0
L27459,Class,DatatypeValidatorFactoryImpl,org.apache.xerces.validators.datatype.DatatypeValidatorFactoryImpl,L28240,L103,2,9,5,0,2,0,1,0,0,0,0,0,0,0,0,0,0,0,3,0,1,2,12,0,0,0,0,0,0,0,,,,0,0
L27740,Class,InvalidDatatypeValueException,org.apache.xerces.validators.datatype.InvalidDatatypeValueException,L28240,L103,2,8,8,2,2,0,0,0,0,2,2,0,5,0,0,0,0,0,0,0,0,0,4,0,0,0,0,0,0,0,,,,0,0
L27978,Class,SchemaGrammar,org.apache.xerces.validators.schema.SchemaGrammar,L29853,L103,19,44,15,16,15,0,0,0,0,1,1,0,37,24,0,0,1,1,5,0,3,3,37,0,0,0,0,0,0,0,,,,0,0
L28265,Class,AbstractDatatypeValidator,org.apache.xerces.validators.datatype.AbstractDatatypeValidator,L28240,L103,1,4,4,0,1,0,2,14,14,0,0,1,0,0,0,0,0,0,0,0,1,0,7,0,0,0,0,0,0,0,,,,0,0
L28293,Class,BinaryDatatypeValidator,org.apache.xerces.validators.datatype.BinaryDatatypeValidator,L28240,L103,8,7,6,1,1,0,0,0,0,1,1,0,4,1,0,0,1,1,0,0,2,0,10,0,0,0,0,0,0,0,,,,0,0
L28309,Class,InvalidDatatypeFacetException,org.apache.xerces.validators.datatype.InvalidDatatypeFacetException,L28240,L103,2,8,8,2,2,0,0,0,0,2,2,0,5,0,0,0,0,0,0,0,0,0,4,0,0,0,0,0,0,0,,,,0,0
L28380,Class,BooleanDatatypeValidator,org.apache.xerces.validators.datatype.BooleanDatatypeValidator,L28240,L103,5,9,6,1,2,0,0,0,0,1,1,0,4,1,0,0,2,2,1,0,2,0,13,0,0,0,0,0,0,0,,,,0,0
L28502,Interface,DatatypeValidatorFactory,org.apache.xerces.validators.datatype.DatatypeValidatorFactory,L28240,L103,,1,,,,,,,0,0,,,,,,,,,,0,,0,4,,,,,,,0,0,1,0,0,0
L28520,Class,StringDatatypeValidator,org.apache.xerces.validators.datatype.StringDatatypeValidator,L28240,L103,16,10,7,2,1,0,0,0,0,1,1,0,4,1,0,0,1,1,1,0,3,0,15,0,0,0,0,0,0,0,,,,0,0
L28528,Class,FloatDatatypeValidator,org.apache.xerces.validators.datatype.FloatDatatypeValidator,L28240,L103,13,12,7,2,2,0,0,0,0,1,1,0,4,1,0,0,2,2,1,0,2,0,14,0,0,0,0,0,0,0,,,,0,0
L28533,Class,DoubleDatatypeValidator,org.apache.xerces.validators.datatype.DoubleDatatypeValidator,L28240,L103,13,10,6,1,2,0,0,0,0,1,1,0,4,1,0,0,2,2,1,0,2,0,12,0,0,0,0,0,0,0,,,,0,0
L28543,Class,TimeDurationDatatypeValidator,org.apache.xerces.validators.datatype.TimeDurationDatatypeValidator,L28240,L103,15,18,10,2,2,0,0,0,0,1,1,0,4,1,0,0,2,2,0,0,2,0,16,0,0,0,0,0,0,0,,,,0,0
L28548,Class,RecurringDurationDatatypeValidator,org.apache.xerces.validators.datatype.RecurringDurationDatatypeValidator,L28240,L103,18,18,9,2,2,0,0,0,0,1,1,0,4,1,0,0,2,2,0,0,3,0,16,0,0,0,0,0,0,0,,,,0,0
L28556,Class,URIReferenceDatatypeValidator,org.apache.xerces.validators.datatype.URIReferenceDatatypeValidator,L28240,L103,7,7,6,1,1,0,0,0,0,1,1,0,4,1,0,0,1,1,1,0,2,0,10,0,0,0,0,0,0,0,,,,0,0
L28561,Class,IDDatatypeValidator,org.apache.xerces.validators.datatype.IDDatatypeValidator,L28240,L103,6,10,7,2,2,0,0,0,0,1,1,0,4,1,0,0,2,2,0,0,3,0,15,0,0,0,0,0,0,0,,,,0,0
L28566,Class,IDREFDatatypeValidator,org.apache.xerces.validators.datatype.IDREFDatatypeValidator,L28240,L103,8,11,7,2,2,0,0,0,0,1,1,0,4,1,0,0,2,2,0,0,3,0,15,0,0,0,0,0,0,0,,,,0,0
L28571,Class,ENTITYDatatypeValidator,org.apache.xerces.validators.datatype.ENTITYDatatypeValidator,L28240,L103,2,7,6,1,1,0,0,0,0,1,1,0,4,1,0,0,1,1,2,0,0,0,10,0,0,0,0,0,0,0,,,,0,0
L28576,Class,NOTATIONDatatypeValidator,org.apache.xerces.validators.datatype.NOTATIONDatatypeValidator,L28240,L103,1,8,7,2,1,0,0,0,0,1,1,0,4,1,0,0,1,1,0,0,0,0,11,0,0,0,0,0,0,0,,,,0,0
L28581,Class,QNameDatatypeValidator,org.apache.xerces.validators.datatype.QNameDatatypeValidator,L28240,L103,16,10,7,2,1,0,0,0,0,1,1,0,4,1,0,0,1,1,1,0,3,0,13,0,0,0,0,0,0,0,,,,0,0
L29064,Class,XMLException,org.apache.xerces.validators.datatype.XMLException,L28240,L103,0,5,5,0,1,0,0,2,2,1,1,1,0,0,0,0,0,0,0,0,0,0,5,0,0,0,0,0,0,0,,,,0,0
L2936,Class,InputSource,org.xml.sax.InputSource,L33790,L103,5,14,14,5,5,0,0,0,0,0,0,0,0,0,0,0,0,0,1,1,3,26,13,0,0,0,0,0,0,0,,,,0,0
L2962,Interface,EntityResolver,org.xml.sax.EntityResolver,L33790,L103,,1,,,,,,,0,0,,,,,,,,,,0,,14,3,,,,,,,0,3,7,0,0,0
L30134,Class,SchemaSymbols,org.apache.xerces.validators.schema.SchemaSymbols,L29853,L103,117,0,0,0,0,0,0,0,0,0,0,0,0,0,0,0,0,0,0,0,1,0,0,0,0,0,0,0,0,0,,,,0,0
L30750,Class,XUtil,org.apache.xerces.validators.schema.XUtil,L29853,L103,0,14,13,0,12,0,0,0,0,0,0,0,0,0,0,0,0,0,0,0,0,0,41,0,0,0,0,0,0,0,,,,0,0
L30837,Class,BaseMarkupSerializer,org.apache.xml.serialize.BaseMarkupSerializer,L30817,L103,11,55,37,4,4,0,7,3,4,0,0,2,0,0,0,0,3,3,0,0,5,0,58,0,0,0,0,0,0,0,,,,0,0
L30839,Interface,DOMSerializer,org.apache.xml.serialize.DOMSerializer,L30817,L103,,3,,,,,,,0,0,,,,,,,,,,0,,2,3,,,,,,,0,0,1,0,0,0
L30842,Interface,Serializer,org.apache.xml.serialize.Serializer,L30817,L103,,6,,,,,,,0,0,,,,,,,,,,0,,7,6,,,,,,,0,0,1,0,0,0
L30849,Class,ElementState,org.apache.xml.serialize.ElementState,L30817,L103,10,0,0,0,0,0,0,0,0,0,0,0,0,0,0,0,1,1,0,0,2,5,0,0,0,0,0,0,0,0,,,,0,0
L30871,Class,Printer,org.apache.xml.serialize.Printer,L30817,L103,7,18,18,2,2,0,0,1,1,0,0,1,0,0,0,0,2,2,0,0,3,0,6,0,0,0,0,0,0,0,,,,0,0
L30921,Class,IndentPrinter,org.apache.xml.serialize.IndentPrinter,L30817,L103,5,17,16,2,1,0,0,0,0,1,1,0,18,7,0,0,0,0,0,0,1,0,5,0,0,0,0,0,0,0,,,,0,0
L31190,Class,Encodings,org.apache.xml.serialize.Encodings,L30817,L103,2,3,0,0,3,0,0,0,0,0,0,0,0,0,0,0,0,0,0,0,1,0,4,0,0,0,0,0,0,0,,,,0,0
L31223,Class,HTMLdtd,org.apache.xml.serialize.HTMLdtd,L30817,L103,16,16,10,0,9,0,0,0,0,0,0,0,0,0,0,0,0,0,0,0,2,0,20,0,0,0,0,0,0,0,,,,0,0
L31342,Class,HTMLSerializer,org.apache.xml.serialize.HTMLSerializer,L30817,L103,2,16,10,1,1,0,0,1,1,1,1,1,55,11,0,0,0,0,0,0,1,0,23,0,0,0,0,0,0,0,,,,0,0
L31538,Class,LineSeparator,org.apache.xml.serialize.LineSeparator,L30817,L103,4,0,0,0,0,0,0,0,0,0,0,0,0,0,0,0,0,0,0,0,1,0,0,0,0,0,0,0,0,0,,,,0,0
L31549,Class,Method,org.apache.xml.serialize.Method,L30817,L103,5,0,0,0,0,0,0,0,0,0,0,0,0,0,0,0,0,0,0,0,1,0,0,0,0,0,0,0,0,0,,,,0,0
L31807,Class,SerializerFactory,org.apache.xml.serialize.SerializerFactory,L30817,L103,2,6,5,0,2,0,0,1,1,0,0,1,0,0,0,0,0,0,0,0,2,0,10,0,0,0,0,0,0,0,,,,0,0
L31815,Class,SerializerFactoryImpl,org.apache.xml.serialize.SerializerFactoryImpl,L30817,L103,1,6,3,0,2,0,0,0,0,1,1,0,6,2,0,0,0,0,0,0,1,0,12,0,0,0,0,0,0,0,,,,0,0
L31867,Class,XHTMLSerializer,org.apache.xml.serialize.XHTMLSerializer,L30817,L103,0,5,5,1,0,0,0,0,0,2,2,0,71,13,0,0,0,0,0,0,0,0,6,0,0,0,0,0,0,0,,,,0,0
L31872,Class,TextSerializer,org.apache.xml.serialize.TextSerializer,L30817,L103,0,16,10,1,1,0,0,0,0,1,1,0,55,11,0,0,0,0,0,0,0,0,20,0,0,0,0,0,0,0,,,,0,0
L34057,Class,AttributeListImpl,org.xml.sax.helpers.AttributeListImpl,L34045,L103,3,12,12,1,6,0,1,0,0,0,0,0,0,0,0,0,0,0,0,0,1,0,13,0,0,0,0,0,0,0,,,,0,0
L34348,Class,NamespaceSupport,org.xml.sax.helpers.NamespaceSupport,L34045,L103,5,11,11,0,5,0,0,0,0,0,0,0,0,0,0,0,1,1,0,0,3,0,13,0,0,0,0,0,0,0,,,,0,0
L34484,Class,ParserAdapter,org.xml.sax.helpers.ParserAdapter,L34045,L103,11,29,24,9,6,0,2,0,0,0,0,0,0,0,0,0,2,8,0,0,2,0,29,0,0,0,0,0,0,0,,,,0,0
L34714,Class,ParserFactory,org.xml.sax.helpers.ParserFactory,L34045,L103,0,3,2,0,0,0,0,0,0,0,0,0,0,0,0,0,0,0,0,0,0,0,3,0,0,0,0,0,0,0,,,,0,0
L34721,Class,XMLFilterImpl,org.xml.sax.helpers.XMLFilterImpl,L34045,L103,0,36,35,9,7,0,5,0,0,0,0,0,0,0,0,0,0,6,0,0,0,0,46,0,0,0,0,0,0,0,,,,0,0
L34723,Interface,XMLFilter,org.xml.sax.XMLFilter,L33790,L103,,2,,,,,,,0,1,,,,,,,,,,0,,0,2,,,,,,,0,0,1,0,0,0
L34899,Class,XMLReaderAdapter,org.xml.sax.helpers.XMLReaderAdapter,L34045,L103,1,22,20,8,0,0,2,0,0,0,0,0,0,0,0,0,0,2,0,0,1,0,23,0,0,0,0,0,0,0,,,,0,0
L35031,Class,XMLReaderFactory,org.xml.sax.helpers.XMLReaderFactory,L34045,L103,0,3,2,0,0,0,0,0,0,0,0,0,0,0,0,0,0,0,0,0,0,0,3,0,0,0,0,0,0,0,,,,0,0
L376,Class,SAXParseException,org.xml.sax.SAXParseException,L33790,L103,4,9,8,0,4,0,0,0,0,2,2,0,6,1,0,0,0,0,0,0,1,52,16,0,0,0,0,0,0,0,,,,0,0
L379,Class,SAXNotRecognizedException,org.xml.sax.SAXNotRecognizedException,L33790,L103,0,1,1,0,0,0,0,0,0,2,2,0,6,1,0,0,0,0,0,0,0,0,1,0,0,0,0,0,0,0,,,,0,0
L382,Class,SAXNotSupportedException,org.xml.sax.SAXNotSupportedException,L33790,L103,0,1,1,0,0,0,0,0,0,2,2,0,6,1,0,0,0,0,0,0,0,0,1,0,0,0,0,0,0,0,,,,0,0
L547,Class,XMLSerializer,org.apache.xml.serialize.XMLSerializer,L30817,L103,0,12,9,1,1,0,0,0,0,1,1,0,55,11,0,0,0,0,0,0,0,0,19,0,0,0,0,0,0,0,,,,0,0
L9024,Class,HTMLAnchorElementImpl,org.apache.html.dom.HTMLAnchorElementImpl,L8960,L103,0,27,27,12,12,0,1,0,0,5,5,0,150,22,0,0,0,0,0,0,0,0,24,0,0,0,0,0,0,0,,,,0,0
L9026,Class,HTMLElementImpl,org.apache.html.dom.HTMLElementImpl,L8960,L103,0,23,17,6,15,0,1,52,52,4,4,1,127,22,0,0,0,0,0,0,0,0,35,0,0,0,0,0,0,0,,,,0,0
L9029,Interface,HTMLAnchorElement,org.w3c.dom.html.HTMLAnchorElement,L32293,L103,,26,,,,,,,0,3,,,,,,,,,,0,,0,22,,,,,,,0,0,1,0,0,0
L9083,Class,HTMLDocumentImpl,org.apache.html.dom.HTMLDocumentImpl,L8960,L103,3,32,29,3,18,0,1,0,0,3,3,0,153,30,0,0,2,2,0,0,3,53,40,0,0,0,0,0,0,0,,,,0,0
L9089,Class,HTMLAppletElementImpl,org.apache.html.dom.HTMLAppletElementImpl,L8960,L103,0,23,23,11,11,0,1,0,0,5,5,0,150,22,0,0,0,0,0,0,0,0,24,0,0,0,0,0,0,0,,,,0,0
L9091,Interface,HTMLAppletElement,org.w3c.dom.html.HTMLAppletElement,L32293,L103,,22,,,,,,,0,3,,,,,,,,,,0,,0,22,,,,,,,0,0,1,0,0,0
L9131,Class,HTMLAreaElementImpl,org.apache.html.dom.HTMLAreaElementImpl,L8960,L103,0,17,17,8,8,0,1,0,0,5,5,0,150,22,0,0,0,0,0,0,0,0,14,0,0,0,0,0,0,0,,,,0,0
L9133,Interface,HTMLAreaElement,org.w3c.dom.html.HTMLAreaElement,L32293,L103,,16,,,,,,,0,3,,,,,,,,,,0,,0,12,,,,,,,0,0,1,0,0,0
L9168,Class,HTMLBaseElementImpl,org.apache.html.dom.HTMLBaseElementImpl,L8960,L103,0,5,5,2,2,0,1,0,0,5,5,0,150,22,0,0,0,0,0,0,0,0,6,0,0,0,0,0,0,0,,,,0,0
L9170,Interface,HTMLBaseElement,org.w3c.dom.html.HTMLBaseElement,L32293,L103,,4,,,,,,,0,3,,,,,,,,,,0,,0,4,,,,,,,0,0,1,0,0,0
L9183,Class,HTMLBaseFontElementImpl,org.apache.html.dom.HTMLBaseFontElementImpl,L8960,L103,0,7,7,3,3,0,1,0,0,5,5,0,150,22,0,0,0,0,0,0,0,0,8,0,0,0,0,0,0,0,,,,0,0
L9185,Interface,HTMLBaseFontElement,org.w3c.dom.html.HTMLBaseFontElement,L32293,L103,,6,,,,,,,0,3,,,,,,,,,,0,,0,6,,,,,,,0,0,1,0,0,0
L9201,Class,HTMLBodyElementImpl,org.apache.html.dom.HTMLBodyElementImpl,L8960,L103,0,13,13,6,6,0,1,0,0,5,5,0,150,22,0,0,0,0,0,0,0,0,14,0,0,0,0,0,0,0,,,,0,0
L9203,Interface,HTMLBodyElement,org.w3c.dom.html.HTMLBodyElement,L32293,L103,,12,,,,,,,0,3,,,,,,,,,,0,,0,12,,,,,,,0,0,1,0,0,0
L9228,Class,HTMLBRElementImpl,org.apache.html.dom.HTMLBRElementImpl,L8960,L103,0,3,3,1,1,0,1,0,0,5,5,0,150,22,0,0,0,0,0,0,0,0,4,0,0,0,0,0,0,0,,,,0,0
L9230,Interface,HTMLBRElement,org.w3c.dom.html.HTMLBRElement,L32293,L103,,2,,,,,,,0,3,,,,,,,,,,0,,0,2,,,,,,,0,0,1,0,0,0
L9240,Class,HTMLBuilder,org.apache.html.dom.HTMLBuilder,L8960,L103,3,10,10,1,1,0,1,0,0,0,0,0,0,0,0,0,1,1,2,0,1,0,8,0,0,0,0,0,0,0,,,,0,0
L9242,Interface,DocumentHandler,org.xml.sax.DocumentHandler,L33790,L103,,8,,,,,,,0,0,,,,,,,,,,0,,5,6,,,,,,,0,2,5,0,0,0
L9255,Interface,Locator,org.xml.sax.Locator,L33790,L103,,4,,,,,,,1,0,,,,,,,,,,0,,21,2,,,,,,,0,3,1,1,0,0
L9309,Class,ProcessingInstructionImpl,org.apache.xerces.dom.ProcessingInstructionImpl,L12246,L103,2,6,6,1,4,0,1,1,1,3,3,1,86,19,0,0,0,0,0,0,1,0,7,0,0,0,0,0,0,0,,,,0,0
L9315,Interface,HTMLDocument,org.w3c.dom.html.HTMLDocument,L32293,L103,,19,,,,,,,0,2,,,,,,,,,,0,,3,18,,,,,,,0,0,1,0,0,0
L9321,Class,HTMLButtonElementImpl,org.apache.html.dom.HTMLButtonElementImpl,L8960,L103,0,12,12,5,6,0,2,0,0,5,5,0,150,22,0,0,0,0,0,0,0,0,9,0,0,0,0,0,0,0,,,,0,0
L9323,Interface,HTMLButtonElement,org.w3c.dom.html.HTMLButtonElement,L32293,L103,,12,,,,,,,0,3,,,,,,,,,,0,,0,8,,,,,,,0,0,1,0,0,0
L9326,Interface,HTMLFormControl,org.apache.html.dom.HTMLFormControl,L8960,L103,,0,,,,,,,0,0,,,,,,,,,,0,,0,0,,,,,,,0,0,7,0,0,0
L9354,Class,HTMLCollectionImpl,org.apache.html.dom.HTMLCollectionImpl,L8960,L103,12,9,3,0,2,0,1,0,0,0,0,0,0,0,0,0,4,4,1,0,0,0,13,0,0,0,0,0,0,0,,,,0,0
L9356,Interface,HTMLCollection,org.w3c.dom.html.HTMLCollection,L32293,L103,,3,,,,,,,0,0,,,,,,,,,,0,,25,3,,,,,,,0,3,1,0,0,0
L9388,Interface,HTMLElement,org.w3c.dom.html.HTMLElement,L32293,L103,,10,,,,,,,52,2,,,,,,,,,,0,,22,10,,,,,,,0,0,1,52,0,0
L9410,Class,CollectionIndex,org.apache.html.dom.CollectionIndex,L8960,L103,1,4,0,0,2,0,0,0,0,0,0,0,0,0,0,0,0,0,0,0,0,1,0,0,0,0,0,0,0,0,,,,0,0
L9447,Interface,HTMLFormElement,org.w3c.dom.html.HTMLFormElement,L32293,L103,,16,,,,,,,0,3,,,,,,,,,,0,,11,13,,,,,,,0,0,1,0,0,0
L9451,Interface,HTMLImageElement,org.w3c.dom.html.HTMLImageElement,L32293,L103,,26,,,,,,,0,3,,,,,,,,,,0,,0,24,,,,,,,0,0,1,0,0,0
L9455,Interface,HTMLObjectElement,org.w3c.dom.html.HTMLObjectElement,L32293,L103,,35,,,,,,,0,3,,,,,,,,,,0,,0,31,,,,,,,0,0,1,0,0,0
L9462,Interface,HTMLOptionElement,org.w3c.dom.html.HTMLOptionElement,L32293,L103,,13,,,,,,,0,3,,,,,,,,,,0,,0,6,,,,,,,0,0,1,0,0,0
L9466,Interface,HTMLTableRowElement,org.w3c.dom.html.HTMLTableRowElement,L32293,L103,,15,,,,,,,0,3,,,,,,,,,,0,,0,12,,,,,,,0,0,1,0,0,0
L9470,Interface,HTMLTableSectionElement,org.w3c.dom.html.HTMLTableSectionElement,L32293,L103,,11,,,,,,,0,3,,,,,,,,,,0,,8,10,,,,,,,0,0,1,0,0,0
L9476,Interface,HTMLTableCellElement,org.w3c.dom.html.HTMLTableCellElement,L32293,L103,,29,,,,,,,0,3,,,,,,,,,,0,,0,22,,,,,,,0,0,1,0,0,0
L9490,Class,HTMLDirectoryElementImpl,org.apache.html.dom.HTMLDirectoryElementImpl,L8960,L103,0,3,3,1,1,0,1,0,0,5,5,0,150,22,0,0,0,0,0,0,0,0,2,0,0,0,0,0,0,0,,,,0,0
L9492,Interface,HTMLDirectoryElement,org.w3c.dom.html.HTMLDirectoryElement,L32293,L103,,2,,,,,,,0,3,,,,,,,,,,0,,0,0,,,,,,,0,0,1,0,0,0
L9502,Class,HTMLDivElementImpl,org.apache.html.dom.HTMLDivElementImpl,L8960,L103,0,3,3,1,1,0,1,0,0,5,5,0,150,22,0,0,0,0,0,0,0,0,4,0,0,0,0,0,0,0,,,,0,0
L9504,Interface,HTMLDivElement,org.w3c.dom.html.HTMLDivElement,L32293,L103,,2,,,,,,,0,3,,,,,,,,,,0,,0,2,,,,,,,0,0,1,0,0,0
L9514,Class,HTMLDListElementImpl,org.apache.html.dom.HTMLDListElementImpl,L8960,L103,0,3,3,1,1,0,1,0,0,5,5,0,150,22,0,0,0,0,0,0,0,0,2,0,0,0,0,0,0,0,,,,0,0
L9516,Interface,HTMLDListElement,org.w3c.dom.html.HTMLDListElement,L32293,L103,,2,,,,,,,0,3,,,,,,,,,,0,,0,0,,,,,,,0,0,1,0,0,0
L9551,Interface,HTMLHtmlElement,org.w3c.dom.html.HTMLHtmlElement,L32293,L103,,2,,,,,,,0,3,,,,,,,,,,0,,0,2,,,,,,,0,0,1,0,0,0
L9554,Class,HTMLHtmlElementImpl,org.apache.html.dom.HTMLHtmlElementImpl,L8960,L103,0,3,3,1,1,0,1,0,0,5,5,0,150,22,0,0,0,0,0,0,0,0,4,0,0,0,0,0,0,0,,,,0,0
L9561,Interface,HTMLHeadElement,org.w3c.dom.html.HTMLHeadElement,L32293,L103,,2,,,,,,,0,3,,,,,,,,,,0,,0,2,,,,,,,0,0,1,0,0,0
L9566,Class,HTMLHeadElementImpl,org.apache.html.dom.HTMLHeadElementImpl,L8960,L103,0,3,3,1,1,0,1,0,0,5,5,0,150,22,0,0,0,0,0,0,0,0,4,0,0,0,0,0,0,0,,,,0,0
L9577,Interface,HTMLTitleElement,org.w3c.dom.html.HTMLTitleElement,L32293,L103,,2,,,,,,,0,3,,,,,,,,,,0,,0,2,,,,,,,0,0,1,0,0,0
L9584,Class,HTMLTitleElementImpl,org.apache.html.dom.HTMLTitleElementImpl,L8960,L103,0,3,3,1,1,0,1,0,0,5,5,0,150,22,0,0,0,0,0,0,0,0,4,0,0,0,0,0,0,0,,,,0,0
L9590,Interface,HTMLFrameSetElement,org.w3c.dom.html.HTMLFrameSetElement,L32293,L103,,4,,,,,,,0,3,,,,,,,,,,0,,0,4,,,,,,,0,0,1,0,0,0
L9608,Class,NameNodeListImpl,org.apache.html.dom.NameNodeListImpl,L8960,L103,0,2,1,0,0,0,1,0,0,1,1,0,5,5,0,0,0,0,0,0,0,0,4,0,0,0,0,0,0,0,,,,0,0
L9698,Class,HTMLDOMImplementationImpl,org.apache.html.dom.HTMLDOMImplementationImpl,L8960,L103,0,3,2,0,1,0,1,0,0,1,1,0,4,0,0,0,0,0,1,0,0,0,3,0,0,0,0,0,0,0,,,,0,0
L9703,Interface,HTMLDOMImplementation,org.w3c.dom.html.HTMLDOMImplementation,L32293,L103,,1,,,,,,,0,1,,,,,,,,,,0,,1,2,,,,,,,0,1,1,0,0,0
L9792,Class,HTMLFieldSetElementImpl,org.apache.html.dom.HTMLFieldSetElementImpl,L8960,L103,0,1,1,0,0,0,2,0,0,5,5,0,150,22,0,0,0,0,0,0,0,0,2,0,0,0,0,0,0,0,,,,0,0
L9794,Interface,HTMLFieldSetElement,org.w3c.dom.html.HTMLFieldSetElement,L32293,L103,,1,,,,,,,0,3,,,,,,,,,,0,,0,1,,,,,,,0,0,1,0,0,0
L9801,Class,HTMLFontElementImpl,org.apache.html.dom.HTMLFontElementImpl,L8960,L103,0,7,7,3,3,0,1,0,0,5,5,0,150,22,0,0,0,0,0,0,0,0,8,0,0,0,0,0,0,0,,,,0,0
L9803,Interface,HTMLFontElement,org.w3c.dom.html.HTMLFontElement,L32293,L103,,6,,,,,,,0,3,,,,,,,,,,0,,0,6,,,,,,,0,0,1,0,0,0
L9819,Class,HTMLFormElementImpl,org.apache.html.dom.HTMLFormElementImpl,L8960,L103,0,17,17,6,8,0,1,0,0,5,5,0,150,22,0,0,1,1,0,0,0,0,15,0,0,0,0,0,0,0,,,,0,0
L9853,Class,HTMLFrameElementImpl,org.apache.html.dom.HTMLFrameElementImpl,L8960,L103,0,17,17,8,8,0,1,0,0,5,5,0,150,22,0,0,0,0,0,0,0,0,16,0,0,0,0,0,0,0,,,,0,0
L9855,Interface,HTMLFrameElement,org.w3c.dom.html.HTMLFrameElement,L32293,L103,,16,,,,,,,0,3,,,,,,,,,,0,,0,14,,,,,,,0,0,1,0,0,0
L9886,Class,HTMLFrameSetElementImpl,org.apache.html.dom.HTMLFrameSetElementImpl,L8960,L103,0,5,5,2,2,0,1,0,0,5,5,0,150,22,0,0,0,0,0,0,0,0,6,0,0,0,0,0,0,0,,,,0,0
L9905,Class,HTMLHeadingElementImpl,org.apache.html.dom.HTMLHeadingElementImpl,L8960,L103,0,3,3,1,1,0,1,0,0,5,5,0,150,22,0,0,0,0,0,0,0,0,4,0,0,0,0,0,0,0,,,,0,0
L9907,Interface,HTMLHeadingElement,org.w3c.dom.html.HTMLHeadingElement,L32293,L103,,2,,,,,,,0,3,,,,,,,,,,0,,0,2,,,,,,,0,0,1,0,0,0
L9918,Class,HTMLHRElementImpl,org.apache.html.dom.HTMLHRElementImpl,L8960,L103,0,9,9,4,4,0,1,0,0,5,5,0,150,22,0,0,0,0,0,0,0,0,8,0,0,0,0,0,0,0,,,,0,0
L9920,Interface,HTMLHRElement,org.w3c.dom.html.HTMLHRElement,L32293,L103,,8,,,,,,,0,3,,,,,,,,,,0,,0,6,,,,,,,0,0,1,0,0,0
L9946,Class,HTMLIFrameElementImpl,org.apache.html.dom.HTMLIFrameElementImpl,L8960,L103,0,21,21,10,10,0,1,0,0,5,5,0,150,22,0,0,0,0,0,0,0,0,22,0,0,0,0,0,0,0,,,,0,0
L9948,Interface,HTMLIFrameElement,org.w3c.dom.html.HTMLIFrameElement,L32293,L103,,20,,,,,,,0,3,,,,,,,,,,0,,0,20,,,,,,,0,0,1,0,0,0
L9985,Class,HTMLImageElementImpl,org.apache.html.dom.HTMLImageElementImpl,L8960,L103,0,27,27,13,13,0,1,0,0,5,5,0,150,22,0,0,0,0,0,0,0,0,26,0,0,0,0,0,0,0,,,,0,0
L12296,Class,NamedNodeMapImpl,org.apache.xerces.dom.NamedNodeMapImpl,L12246,L103,6,22,9,4,8,0,2,1,1,0,0,1,0,0,0,0,3,3,0,0,1,3,21,0,0,0,0,0,0,0,,,,1,1
L12319,Class,DOMExceptionImpl,org.apache.xerces.dom.DOMExceptionImpl,L12246,L103,0,1,1,0,0,0,0,0,0,3,3,0,2,18,0,0,0,0,0,0,0,0,1,0,0,0,0,0,0,0,,,,1,1
L12358,Class,AttrImpl,org.apache.xerces.dom.AttrImpl,L12246,L103,2,16,14,3,8,0,1,2,3,2,2,2,90,19,0,0,0,0,0,1,1,1,12,0,0,0,0,0,0,0,,,,1,1
L12578,Class,AttrNSImpl,org.apache.xerces.dom.AttrNSImpl,L12246,L103,3,6,4,1,3,0,0,1,1,3,3,1,106,21,0,0,0,0,0,0,1,0,9,0,0,0,0,0,0,0,,,,1,1
L13886,Class,ElementNSImpl,org.apache.xerces.dom.ElementNSImpl,L12246,L103,3,6,4,1,3,0,0,1,1,4,4,1,127,22,0,0,0,0,0,0,1,0,9,0,0,0,0,0,0,0,,,,1,1
L14033,Class,NotationImpl,org.apache.xerces.dom.NotationImpl,L12246,L103,4,7,7,2,4,0,1,1,1,1,1,1,65,16,0,0,0,0,0,0,1,0,7,0,0,0,0,0,0,0,,,,1,1
L14442,Class,NodeIteratorImpl,org.apache.xerces.dom.NodeIteratorImpl,L12246,L103,4,13,9,0,4,0,1,0,0,0,0,0,0,0,0,0,1,1,2,0,0,0,15,0,0,0,0,0,0,0,,,,1,1
L14526,Class,EventImpl,org.apache.xerces.dom.events.EventImpl,L15015,L103,8,10,10,0,7,0,1,1,1,0,0,1,0,0,0,0,0,0,2,0,1,0,4,0,0,0,0,0,0,0,,,,1,1
L14667,Class,DOMException,org.apache.xerces.domx.DOMException,L16028,L103,2,1,1,0,0,0,0,1,1,2,2,1,1,16,0,0,0,0,0,0,0,0,1,0,0,0,0,0,0,0,,,,1,1
L15702,Class,RangeExceptionImpl,org.apache.xerces.dom.RangeExceptionImpl,L12246,L103,0,1,1,0,0,0,0,0,0,2,2,0,1,3,0,0,0,0,0,0,0,0,1,0,0,0,0,0,0,0,,,,1,1
L17739,Class,DefaultEntityHandler,org.apache.xerces.readers.DefaultEntityHandler,L20438,L103,24,62,39,7,20,0,2,0,0,0,0,0,0,0,0,0,1,1,7,1,8,2,31,0,0,0,0,0,0,0,,,,1,1
L19385,Class,DocumentBuilderFactoryImpl,org.apache.xerces.jaxp.DocumentBuilderFactoryImpl,L19379,L103,0,2,2,0,0,0,0,0,0,1,1,0,7,4,0,0,0,0,0,0,0,0,1,0,0,0,0,0,0,0,,,,1,1
L19433,Class,SAXParserFactoryImpl,org.apache.xerces.jaxp.SAXParserFactoryImpl,L19379,L103,0,2,2,0,0,0,0,0,0,1,1,0,7,4,0,0,0,0,0,0,0,0,1,0,0,0,0,0,0,0,,,,1,1
L19440,Class,SAXParserImpl,org.apache.xerces.jaxp.SAXParserImpl,L19379,L103,2,5,3,0,3,0,0,0,0,1,1,0,8,0,0,0,0,0,1,0,0,0,1,0,0,0,0,0,0,0,,,,1,1
L19461,Class,SAXParser,org.apache.xerces.parsers.SAXParser,L19554,L103,4,47,41,8,9,0,4,1,1,1,1,1,48,11,0,0,0,0,6,0,1,0,26,0,0,0,0,0,0,0,,,,1,1
L20118,Interface,DeclHandler,org.xml.sax.ext.DeclHandler,L33943,L103,,4,,,,,,,0,0,,,,,,,,,,0,,2,12,,,,,,,0,1,1,0,1,1
L20123,Interface,LexicalHandler,org.xml.sax.ext.LexicalHandler,L33943,L103,,7,,,,,,,0,0,,,,,,,,,,0,,2,5,,,,,,,0,1,1,0,1,1
L20459,Class,AbstractCharReader,org.apache.xerces.readers.AbstractCharReader,L20438,L103,8,32,20,0,0,0,0,2,2,1,1,1,9,8,0,0,0,0,2,0,1,0,9,0,0,0,0,0,0,0,,,,1,1
L21502,Class,UTF8Reader,org.apache.xerces.readers.UTF8Reader,L20438,L103,15,40,22,0,1,0,0,0,0,1,1,0,9,8,0,0,0,0,2,0,2,0,10,0,0,0,0,0,0,0,,,,1,1
L23542,Class,HexBin,org.apache.xerces.utils.HexBin,L23264,L103,4,5,3,0,3,0,0,0,0,0,0,0,0,0,0,0,0,0,0,0,0,0,1,0,0,0,0,0,0,0,,,,1,1
L28538,Class,DecimalDatatypeValidator,org.apache.xerces.validators.datatype.DecimalDatatypeValidator,L28240,L103,18,13,8,2,2,0,0,0,0,1,1,0,4,1,0,0,2,2,1,0,4,0,20,0,0,0,0,0,0,0,,,,1,1
L2922,Class,DocumentBuilder,javax.xml.parsers.DocumentBuilder,L2911,L103,0,10,9,2,2,0,0,1,1,0,0,1,0,0,0,0,0,0,0,0,0,2,11,0,0,0,0,0,0,0,,,,1,1
L2968,Class,DocumentBuilderFactory,javax.xml.parsers.DocumentBuilderFactory,L2911,L103,4,7,6,2,2,0,0,1,1,0,0,1,0,0,0,0,0,0,0,0,1,0,1,0,0,0,0,0,0,0,,,,1,1
L2991,Class,FactoryConfigurationError,javax.xml.parsers.FactoryConfigurationError,L2911,L103,1,5,5,0,1,0,0,0,0,1,1,0,0,0,0,0,0,0,0,0,1,0,5,0,0,0,0,0,0,0,,,,1,1
L3009,Class,ParserConfigurationException,javax.xml.parsers.ParserConfigurationException,L2911,L103,0,2,2,0,0,0,0,0,0,1,1,0,0,0,0,0,0,0,0,0,0,0,1,0,0,0,0,0,0,0,,,,1,1
L3057,Class,SAXParser,javax.xml.parsers.SAXParser,L2911,L103,0,8,7,0,3,0,0,1,1,0,0,1,0,0,0,0,0,0,0,0,0,2,9,0,0,0,0,0,0,0,,,,1,1
L3103,Class,SAXParserFactory,javax.xml.parsers.SAXParserFactory,L2911,L103,4,7,6,2,2,0,0,1,1,0,0,1,0,0,0,0,0,0,0,0,1,0,1,0,0,0,0,0,0,0,,,,1,1
L399,Class,TextImpl,org.apache.xerces.dom.TextImpl,L12246,L103,1,6,6,1,3,0,2,2,3,3,3,2,86,19,0,0,0,0,0,0,0,0,4,0,0,0,0,0,0,0,,,,1,1
L537,Class,OutputFormat,org.apache.xml.serialize.OutputFormat,L30817,L103,17,44,44,16,20,0,0,0,0,0,0,0,0,0,0,0,2,2,0,0,1,26,33,0,0,0,0,0,0,0,,,,1,1
L9250,Class,ElementImpl,org.apache.xerces.dom.ElementImpl,L12246,L103,2,29,24,7,14,0,1,4,92,3,3,2,98,20,0,0,2,2,1,0,1,1,40,0,0,0,0,0,0,0,,,,1,1
L9700,Class,DOMImplementationImpl,org.apache.xerces.dom.DOMImplementationImpl,L12246,L103,0,4,4,0,2,0,1,2,2,0,0,1,0,0,0,0,0,0,1,0,0,0,11,0,0,0,0,0,0,0,,,,1,1
L10346,Interface,Text,org.w3c.dom.Text,L32028,L103,,1,,,,,,,1,2,,,,,,,,,,0,,5,1,,,,,,,0,0,1,1,2,1
L1048,Interface,NodeFilter,org.w3c.dom.traversal.NodeFilter,L33724,L103,,1,,,,,,,0,0,,,,,,,,,,0,,12,1,,,,,,,0,2,1,0,2,1
L1079,Interface,TreeWalker,org.w3c.dom.traversal.TreeWalker,L33724,L103,,13,,,,,,,0,0,,,,,,,,,,0,,3,11,,,,,,,0,1,1,0,2,1
L11218,Interface,DocumentType,org.w3c.dom.DocumentType,L32028,L103,,6,,,,,,,0,1,,,,,,,,,,0,,12,6,,,,,,,0,1,1,0,2,1
L11262,Interface,DOMImplementation,org.w3c.dom.DOMImplementation,L32028,L103,,3,,,,,,,2,0,,,,,,,,,,0,,4,10,,,,,,,0,0,1,2,2,1
L12294,Class,AttributeMap,org.apache.xerces.dom.AttributeMap,L12246,L103,0,10,5,2,0,0,0,0,0,1,1,0,22,6,0,0,1,1,0,0,0,0,23,0,0,0,0,0,0,0,,,,2,1
L12430,Interface,MutationEvent,org.w3c.dom.events.MutationEvent,L32211,L103,,5,,,,,,,0,1,,,,,,,,,,0,,0,9,,,,,,,0,0,1,0,2,1
L12433,Class,MutationEventImpl,org.apache.xerces.dom.events.MutationEventImpl,L15015,L103,10,5,5,0,4,0,1,0,0,1,1,0,10,8,0,0,0,0,1,0,1,0,9,0,0,0,0,0,0,0,,,,2,1
L12453,Class,ParentNode,org.apache.xerces.dom.ParentNode,L12246,L103,3,25,14,2,6,0,0,5,13,1,1,3,65,16,0,0,2,2,0,0,0,0,26,0,0,0,0,0,0,0,,,,2,1
L12628,Interface,CDATASection,org.w3c.dom.CDATASection,L32028,L103,,0,,,,,,,0,3,,,,,,,,,,0,,2,0,,,,,,,0,0,1,0,2,1
L12650,Class,CharacterDataImpl,org.apache.xerces.dom.CharacterDataImpl,L12246,L103,2,13,11,3,4,0,0,3,8,2,2,3,73,17,0,0,0,0,1,0,1,0,12,0,0,0,0,0,0,0,,,,2,1
L12761,Class,ChildAndParentNode,org.apache.xerces.dom.ChildAndParentNode,L12246,L103,3,25,14,2,6,0,0,3,97,2,2,3,73,17,0,0,2,2,0,0,0,0,26,0,0,0,0,0,0,0,,,,2,1
L12909,Interface,EntityReference,org.w3c.dom.EntityReference,L32028,L103,,0,,,,,,,0,1,,,,,,,,,,0,,2,0,,,,,,,0,0,1,0,2,1
L12989,Interface,CharacterData,org.w3c.dom.CharacterData,L32028,L103,,8,,,,,,,3,1,,,,,,,,,,0,,2,6,,,,,,,0,0,2,3,2,1
L12992,Interface,Comment,org.w3c.dom.Comment,L32028,L103,,0,,,,,,,0,2,,,,,,,,,,0,,2,0,,,,,,,0,0,1,0,2,1
L14018,Interface,Entity,org.w3c.dom.Entity,L32028,L103,,3,,,,,,,0,1,,,,,,,,,,0,,1,3,,,,,,,0,0,1,0,2,1
L14134,Interface,DocumentFragment,org.w3c.dom.DocumentFragment,L32028,L103,,0,,,,,,,0,1,,,,,,,,,,0,,9,0,,,,,,,0,0,1,0,2,1
L14158,Interface,DocumentEvent,org.w3c.dom.events.DocumentEvent,L32211,L103,,1,,,,,,,0,0,,,,,,,,,,0,,0,2,,,,,,,0,0,1,0,2,1
L14273,Interface,ProcessingInstruction,org.w3c.dom.ProcessingInstruction,L32028,L103,,3,,,,,,,0,1,,,,,,,,,,0,,2,3,,,,,,,0,0,1,0,2,1
L14478,Class,RangeImpl,org.apache.xerces.dom.RangeImpl,L12246,L103,9,41,26,6,8,0,1,0,0,0,0,0,0,0,0,0,1,1,1,0,0,0,43,0,0,0,0,0,0,0,,,,2,1
L14522,Interface,Event,org.w3c.dom.events.Event,L32211,L103,,10,,,,,,,1,0,,,,,,,,,,0,,6,4,,,,,,,0,0,1,1,2,1
L15022,Interface,EventTarget,org.w3c.dom.events.EventTarget,L32211,L103,,3,,,,,,,0,0,,,,,,,,,,0,,2,5,,,,,,,0,1,1,0,2,1
L15312,Interface,EventListener,org.w3c.dom.events.EventListener,L32211,L103,,1,,,,,,,0,0,,,,,,,,,,1,,5,1,,,,,,,0,0,0,0,2,1
L172,Interface,Node,org.w3c.dom.Node,L32028,L103,,25,,,,,,,105,0,,,,,,,,,,1,,305,28,,,,,,,0,6,1,119,2,1
L177,Class,NodeImpl,org.apache.xerces.dom.NodeImpl,L12246,L103,16,65,36,7,29,0,5,3,124,0,0,5,0,0,0,0,2,2,0,0,0,11,48,0,0,0,0,0,0,0,,,,2,1
L190,Interface,Document,org.w3c.dom.Document,L32028,L103,,17,,,,,,,2,1,,,,,,,,,,1,,34,34,,,,,,,0,5,1,2,2,1
L19036,Class,XMLValidator,org.apache.xerces.validators.common.XMLValidator,L26129,L103,83,86,51,9,16,0,4,0,0,0,0,0,0,0,0,0,5,5,13,0,5,0,57,0,0,0,0,0,0,0,,,,2,1
L202,Interface,Attr,org.w3c.dom.Attr,L32028,L103,,5,,,,,,,0,1,,,,,,,,,,0,,27,4,,,,,,,0,0,1,0,2,1
L214,Interface,NodeList,org.w3c.dom.NodeList,L32028,L103,,2,,,,,,,0,0,,,,,,,,,,0,,21,1,,,,,,,0,1,3,0,2,1
L2367,Interface,Notation,org.w3c.dom.Notation,L32028,L103,,2,,,,,,,0,1,,,,,,,,,,0,,1,2,,,,,,,0,0,1,0,2,1
L238,Interface,NamedNodeMap,org.w3c.dom.NamedNodeMap,L32028,L103,,8,,,,,,,0,0,,,,,,,,,,0,,13,15,,,,,,,0,0,1,0,2,1
L26507,Class,DFAContentModel,org.apache.xerces.validators.common.DFAContentModel,L26129,L103,15,13,7,1,2,0,1,0,0,0,0,0,0,0,0,0,4,4,2,0,0,0,13,0,0,0,0,0,0,0,,,,2,1
L32248,Class,EventException,org.w3c.dom.events.EventException,L32211,L103,2,1,1,0,0,0,0,0,0,1,1,0,0,0,0,0,0,0,0,0,0,0,1,0,0,0,0,0,0,0,,,,2,1
L477,Interface,Element,org.w3c.dom.Element,L32028,L103,,16,,,,,,,89,1,,,,,,,,,,0,,91,33,,,,,,,0,3,1,89,2,1
L526,Class,DocumentImpl,org.apache.xerces.dom.DocumentImpl,L12246,L103,11,63,49,4,17,0,4,3,3,2,2,1,90,19,0,0,6,6,1,0,2,34,99,0,0,0,0,0,0,0,,,,2,1
L696,Interface,NodeIterator,org.w3c.dom.traversal.NodeIterator,L33724,L103,,7,,,,,,,0,0,,,,,,,,,,0,,4,4,,,,,,,0,1,1,0,2,1
L923,Interface,DocumentTraversal,org.w3c.dom.traversal.DocumentTraversal,L33724,L103,,2,,,,,,,0,0,,,,,,,,,,0,,0,6,,,,,,,0,0,1,0,2,1
L969,Class,DOMException,org.w3c.dom.DOMException,L32028,L103,16,1,1,0,0,0,0,1,2,1,1,2,0,0,0,0,0,0,0,0,0,0,1,0,0,0,0,0,0,0,,,,2,1
L16379,Class,Version,org.apache.xerces.framework.Version,L16369,L103,1,1,1,0,0,0,0,0,0,0,0,0,0,0,0,0,0,0,0,0,1,0,1,0,0,0,0,0,0,0,,,,4,1
L28029,Class,TraverseSchema,org.apache.xerces.validators.schema.TraverseSchema,L29853,L103,18,65,8,1,11,0,1,0,0,0,0,0,0,0,0,0,1,1,8,0,4,0,99,0,0,0,0,0,0,0,,,,4,1
