ID,Column1,Name,LongName,Parent,Component,NumAttr,NumOps,NumPubOps,Setters,Getters,Nesting,IFImpl,NOC,NumDesc,NumAnc,DIT,CLD,OpsInh,AttrInh,Dep_Out,Dep_In,NumAssEl_ssc,NumAssEl_sb,NumAssEl_nsb,EC_Attr,IC_Attr,EC_Par,IC_Par,Connectors,InstSpec,LLInst,MsgSent,MsgRecv,MsgSelf,Diags,Assoc,NumDirClients,NumIndClients,BugNo,Label
L142,class,Base64.java,org.apache.commons.codec.binary.Base64,L141,,12,12,9,0,2,0,2,0,0,0,0,0,0,0,0,0,0,0,0,0,0,0,4,0,0,0,0,0,0,0,,,,13,1
L8256,class,QueryRunner.java,org.apache.commons.dbutils.QueryRunner,L8250,,1,26,18,1,1,0,0,0,0,0,0,0,0,0,0,0,0,0,0,0,1,0,60,0,0,0,0,0,0,0,,,,11,1
L8251,class,BasicRowProcessor.java,org.apache.commons.dbutils.BasicRowProcessor,L8250,,0,7,7,0,0,0,1,0,0,0,0,0,0,0,0,0,1,1,0,0,0,0,11,0,0,0,0,0,0,0,,,,10,1
L8518,class,BeanListHandler.java,org.apache.commons.dbutils.handlers.BeanListHandler,L8514,,1,3,2,0,0,0,0,0,0,1,1,0,2,0,0,0,0,1,0,0,1,0,5,0,0,0,0,0,0,0,,,,10,1
L8516,class,ArrayListHandler.java,org.apache.commons.dbutils.handlers.ArrayListHandler,L8514,,0,3,2,0,0,0,0,0,0,1,1,0,2,0,0,0,0,1,0,0,0,0,3,0,0,0,0,0,0,0,,,,9,1
L8519,class,ColumnListHandler.java,org.apache.commons.dbutils.handlers.ColumnListHandler,L8514,,2,4,3,0,0,0,0,0,0,1,1,0,2,0,0,0,0,0,0,0,1,0,3,0,0,0,0,0,0,0,,,,9,1
L8523,class,MapListHandler.java,org.apache.commons.dbutils.handlers.MapListHandler,L8514,,0,3,2,0,0,0,0,0,0,1,1,0,2,0,0,0,0,1,0,0,0,0,3,0,0,0,0,0,0,0,,,,9,1
L9906,class,FileUtils.java,org.apache.commons.io.FileUtils,L9897,,4,57,51,0,6,0,0,0,0,0,0,0,0,0,0,0,0,0,0,0,1,0,112,0,0,0,0,0,0,0,,,,9,1
L8252,class,BeanProcessor.java,org.apache.commons.dbutils.BeanProcessor,L8250,,2,10,3,0,1,0,0,0,0,0,0,0,0,0,0,0,2,2,0,0,1,1,24,0,0,0,0,0,0,0,,,,8,1
L8520,class,GenericListHandler.java,org.apache.commons.dbutils.handlers.GenericListHandler,L8514,,0,2,1,0,0,0,1,4,4,0,0,1,0,0,0,0,0,0,0,0,0,0,4,0,0,0,0,0,0,0,,,,8,1
L19999,class,FTPTimestampParserImpl.java,org.apache.commons.net.ftp.parser.FTPTimestampParserImpl,L19992,,2,12,9,3,6,0,2,0,0,0,0,0,0,0,0,0,0,0,0,0,1,0,12,0,0,0,0,0,0,0,,,,7,1
L10547,class,PrefixFileFilter.java,org.apache.commons.io.filefilter.PrefixFileFilter,L10529,,1,5,5,0,0,0,0,0,0,1,1,0,2,0,0,0,0,0,0,0,1,0,6,0,0,0,0,0,0,0,,,,4,1
L10549,class,SuffixFileFilter.java,org.apache.commons.io.filefilter.SuffixFileFilter,L10529,,1,5,5,0,0,0,0,0,0,1,1,0,2,0,0,0,0,0,0,0,1,0,6,0,0,0,0,0,0,0,,,,4,1
L752,class,Metaphone.java,org.apache.commons.codec.language.Metaphone,L750,,4,12,7,1,6,0,1,0,0,0,0,0,0,0,0,0,1,1,0,0,1,2,13,0,0,0,0,0,0,0,,,,4,1
L10531,class,AgeFileFilter.java,org.apache.commons.io.filefilter.AgeFileFilter,L10529,,2,7,7,0,0,0,0,0,0,1,1,0,2,0,0,0,0,0,0,0,0,0,5,0,0,0,0,0,0,0,,,,3,1
L10536,class,DelegateFileFilter.java,org.apache.commons.io.filefilter.DelegateFileFilter,L10529,,2,4,4,0,0,0,0,0,0,1,1,0,2,0,0,0,0,0,0,0,2,0,5,0,0,0,0,0,0,0,,,,3,1
L10541,class,FileFilterUtils.java,org.apache.commons.io.filefilter.FileFilterUtils,L10529,,0,26,26,0,0,0,0,0,0,0,0,0,0,0,0,0,1,1,0,0,0,0,43,0,0,0,0,0,0,0,,,,3,1
L10544,class,NameFileFilter.java,org.apache.commons.io.filefilter.NameFileFilter,L10529,,1,8,8,0,0,0,0,0,0,1,1,0,2,0,0,0,0,1,0,0,1,0,12,0,0,0,0,0,0,0,,,,3,1
L10545,class,NotFileFilter.java,org.apache.commons.io.filefilter.NotFileFilter,L10529,,0,3,3,0,0,0,0,0,0,1,1,0,2,0,0,0,1,1,0,0,0,0,4,0,0,0,0,0,0,0,,,,3,1
L10548,class,SizeFileFilter.java,org.apache.commons.io.filefilter.SizeFileFilter,L10529,,2,3,3,0,0,0,0,0,0,1,1,0,2,0,0,0,0,0,0,0,0,0,1,0,0,0,0,0,0,0,,,,3,1
L10551,class,WildcardFileFilter.java,org.apache.commons.io.filefilter.WildcardFileFilter,L10529,,1,8,8,0,0,0,0,0,0,1,1,0,2,0,0,0,0,1,0,0,1,0,12,0,0,0,0,0,0,0,,,,3,1
L144,class,Hex.java,org.apache.commons.codec.binary.Hex,L141,,1,7,6,0,0,0,2,0,0,0,0,0,0,0,0,0,0,0,0,0,0,0,4,0,0,0,0,0,0,0,,,,3,1
L18576,class,FTPClient.java,org.apache.commons.net.ftp.FTPClient,L18572,,16,81,71,9,9,0,1,0,0,4,4,0,147,61,0,0,4,5,0,0,1,0,84,0,0,0,0,0,0,0,,,,3,1
L19995,class,DefaultFTPFileEntryParserFactory.java,org.apache.commons.net.ftp.parser.DefaultFTPFileEntryParserFactory,L19992,,0,8,8,0,0,0,1,0,0,0,0,0,0,0,0,0,0,1,0,0,0,0,10,0,0,0,0,0,0,0,,,,3,1
L24955,class,TFTPClient.java,org.apache.commons.net.tftp.TFTPClient,L24952,,2,11,11,1,1,0,0,0,0,2,2,0,22,15,0,0,0,0,0,0,0,0,24,0,0,0,0,0,0,0,,,,3,1
L667,class,DigestUtils.java,org.apache.commons.codec.digest.DigestUtils,L666,,0,11,8,0,3,0,0,0,0,0,0,0,0,0,0,0,0,0,0,0,0,0,12,0,0,0,0,0,0,0,,,,3,1
L753,class,RefinedSoundex.java,org.apache.commons.codec.language.RefinedSoundex,L750,,2,7,6,0,1,0,1,0,0,0,0,0,0,0,0,0,1,1,0,0,0,2,8,0,0,0,0,0,0,0,,,,3,1
L10532,class,AndFileFilter.java,org.apache.commons.io.filefilter.AndFileFilter,L10529,,1,9,9,1,1,0,1,0,0,1,1,0,2,0,0,0,0,0,0,0,1,0,10,0,0,0,0,0,0,0,,,,2,1
L10546,class,OrFileFilter.java,org.apache.commons.io.filefilter.OrFileFilter,L10529,,1,9,9,1,1,0,1,0,0,1,1,0,2,0,0,0,0,0,0,0,1,0,10,0,0,0,0,0,0,0,,,,2,1
L10552,class,WildcardFilter.java,org.apache.commons.io.filefilter.WildcardFilter,L10529,,1,5,5,0,0,0,0,0,0,1,1,0,2,0,0,0,0,0,0,0,1,0,6,0,0,0,0,0,0,0,,,,2,1
L13200,class,ThresholdingOutputStream.java,org.apache.commons.io.output.ThresholdingOutputStream,L13189,,3,12,9,0,4,0,0,1,1,1,1,1,0,0,0,0,0,0,0,0,0,0,1,0,0,0,0,0,0,0,,,,2,1
L15275,class,LogFactory.java,org.apache.commons.logging.LogFactory,L15272,,13,34,13,1,15,0,0,2,2,0,0,1,0,0,0,0,0,3,0,0,4,0,49,0,0,0,0,0,0,0,,,,2,1
L15300,class,LogFactoryImpl.java,org.apache.commons.logging.impl.LogFactoryImpl,L15295,,24,31,8,1,17,0,0,0,0,1,1,0,34,13,0,0,0,0,0,0,5,0,41,0,0,0,0,0,0,0,,,,2,1
L1555,class,URLCodec.java,org.apache.commons.codec.net.URLCodec,L1549,,3,14,14,0,2,0,4,0,0,0,0,0,0,0,0,0,0,0,0,0,2,1,18,0,0,0,0,0,0,0,,,,2,1
L18577,class,FTPClientConfig.java,org.apache.commons.net.ftp.FTPClientConfig,L18572,,13,18,17,5,8,0,0,0,0,0,0,0,0,0,0,0,2,4,0,0,2,19,25,0,0,0,0,0,0,0,,,,2,1
L2113,class,PoolingDataSource.java,org.apache.commons.dbcp.PoolingDataSource,L2093,,3,11,11,4,5,0,1,0,0,0,0,0,0,0,0,0,0,0,0,0,2,0,8,0,0,0,0,0,0,0,,,,2,1
L21428,class,NNTPClient.java,org.apache.commons.net.nntp.NNTPClient,L21422,,0,48,40,0,0,0,0,0,0,2,2,0,67,15,0,0,0,0,1,0,0,1,73,0,0,0,0,0,0,0,,,,2,1
L751,class,DoubleMetaphone.java,org.apache.commons.codec.language.DoubleMetaphone,L750,,6,44,9,1,6,0,1,0,0,0,0,0,0,0,0,0,1,1,0,0,1,2,87,0,0,0,0,0,0,0,,,,2,1
L754,class,Soundex.java,org.apache.commons.codec.language.Soundex,L750,,4,12,8,2,3,0,1,0,0,0,0,0,0,0,0,0,1,1,0,0,1,2,9,0,0,0,0,0,0,0,,,,2,1
L10530,class,AbstractFileFilter.java,org.apache.commons.io.filefilter.AbstractFileFilter,L10529,,0,2,2,0,0,0,1,17,17,0,0,1,0,0,0,0,0,0,0,0,0,0,3,0,0,0,0,0,0,0,,,,1,1
L10533,class,CanReadFileFilter.java,org.apache.commons.io.filefilter.CanReadFileFilter,L10529,,0,2,1,0,0,0,0,0,0,1,1,0,2,0,0,0,1,1,0,0,0,0,1,0,0,0,0,0,0,0,,,,1,1
L10534,class,CanWriteFileFilter.java,org.apache.commons.io.filefilter.CanWriteFileFilter,L10529,,0,2,1,0,0,0,0,0,0,1,1,0,2,0,0,0,1,1,0,0,0,0,1,0,0,0,0,0,0,0,,,,1,1
L10537,class,DirectoryFileFilter.java,org.apache.commons.io.filefilter.DirectoryFileFilter,L10529,,0,2,1,0,0,0,0,0,0,1,1,0,2,0,0,0,1,1,0,0,0,0,1,0,0,0,0,0,0,0,,,,1,1
L10538,class,EmptyFileFilter.java,org.apache.commons.io.filefilter.EmptyFileFilter,L10529,,0,2,1,0,0,0,0,0,0,1,1,0,2,0,0,0,1,1,0,0,0,0,1,0,0,0,0,0,0,0,,,,1,1
L10539,class,FalseFileFilter.java,org.apache.commons.io.filefilter.FalseFileFilter,L10529,,0,3,2,0,0,0,1,1,1,0,0,1,0,0,0,0,1,1,0,0,0,0,3,0,0,0,0,0,0,0,,,,1,1
L10540,class,FileFileFilter.java,org.apache.commons.io.filefilter.FileFileFilter,L10529,,0,2,1,0,0,0,0,0,0,1,1,0,2,0,0,0,1,1,0,0,0,0,1,0,0,0,0,0,0,0,,,,1,1
L10542,class,HiddenFileFilter.java,org.apache.commons.io.filefilter.HiddenFileFilter,L10529,,0,2,1,0,0,0,0,0,0,1,1,0,2,0,0,0,1,1,0,0,0,0,1,0,0,0,0,0,0,0,,,,1,1
L10550,class,TrueFileFilter.java,org.apache.commons.io.filefilter.TrueFileFilter,L10529,,0,3,2,0,0,0,1,1,1,0,0,1,0,0,0,0,1,1,0,0,0,0,3,0,0,0,0,0,0,0,,,,1,1
L123,interface,BinaryDecoder.java,org.apache.commons.codec.BinaryDecoder,L122,,,1,,,,,,,0,1,,,,,,,,,,0,,0,0,,,,,,,0,0,6,0,1,1
L124,interface,BinaryEncoder.java,org.apache.commons.codec.BinaryEncoder,L122,,,1,,,,,,,0,1,,,,,,,,,,0,,1,0,,,,,,,0,0,6,0,1,1
L125,interface,Decoder.java,org.apache.commons.codec.Decoder,L122,,,1,,,,,,,2,0,,,,,,,,,,0,,0,2,,,,,,,0,0,1,11,1,1
L126,class,DecoderException.java,org.apache.commons.codec.DecoderException,L122,,0,1,1,0,0,0,0,0,0,1,1,0,0,0,0,0,0,0,0,0,0,0,1,0,0,0,0,0,0,0,,,,1,1
L128,class,EncoderException.java,org.apache.commons.codec.EncoderException,L122,,0,1,1,0,0,0,0,0,0,1,1,0,0,0,0,0,0,0,0,0,0,0,1,0,0,0,0,0,0,0,,,,1,1
L130,interface,StringEncoder.java,org.apache.commons.codec.StringEncoder,L122,,,1,,,,,,,0,1,,,,,,,,,,0,,7,2,,,,,,,0,1,9,0,1,1
L131,class,StringEncoderComparator.java,org.apache.commons.codec.StringEncoderComparator,L122,,0,3,3,0,0,0,1,0,0,0,0,0,0,0,0,0,1,1,0,0,0,0,3,0,0,0,0,0,0,0,,,,1,1
L13190,class,ByteArrayOutputStream.java,org.apache.commons.io.output.ByteArrayOutputStream,L13189,,6,13,11,0,1,0,0,0,0,1,1,0,0,0,0,0,1,1,0,0,1,3,4,0,0,0,0,0,0,0,,,,1,1
L13192,class,DeferredFileOutputStream.java,org.apache.commons.io.output.DeferredFileOutputStream,L13189,,3,8,6,0,4,0,0,0,0,2,2,0,12,3,0,0,1,1,0,0,2,0,4,0,0,0,0,0,0,0,,,,1,1
L13195,class,NullOutputStream.java,org.apache.commons.io.output.NullOutputStream,L13189,,0,3,3,0,0,0,0,0,0,1,1,0,0,0,0,0,0,0,0,0,0,0,0,0,0,0,0,0,0,0,,,,1,1
L13196,class,NullWriter.java,org.apache.commons.io.output.NullWriter,L13189,,0,8,8,0,0,0,0,0,0,1,1,0,0,0,0,0,0,0,0,0,0,0,2,0,0,0,0,0,0,0,,,,1,1
L15299,class,Log4JLogger.java,org.apache.commons.logging.impl.Log4JLogger,L15295,,4,22,22,0,7,0,2,0,0,0,0,0,0,0,0,0,0,0,0,0,3,0,21,0,0,0,0,0,0,0,,,,1,1
L1552,class,QuotedPrintableCodec.java,org.apache.commons.codec.net.QuotedPrintableCodec,L1549,,5,14,13,0,1,0,4,0,0,0,0,0,0,0,0,0,0,0,0,0,2,0,18,0,0,0,0,0,0,0,,,,1,1
L1553,class,RFC1522Codec.java,org.apache.commons.codec.net.RFC1522Codec,L1549,,0,5,0,0,1,0,0,3,3,0,0,1,0,0,0,0,0,0,0,0,0,0,6,0,0,0,0,0,0,0,,,,1,1
L18575,class,FTP.java,org.apache.commons.net.ftp.FTP,L18572,,26,57,54,1,5,0,0,1,1,3,3,1,90,35,0,0,0,1,0,0,5,0,32,0,0,0,0,0,0,0,,,,1,1
L18582,class,FTPFileEntryParserImpl.java,org.apache.commons.net.ftp.FTPFileEntryParserImpl,L18572,,0,5,5,0,0,0,2,2,13,0,0,4,0,0,0,0,0,0,0,0,0,0,9,0,0,0,0,0,0,0,,,,1,1
L20006,class,UnixFTPEntryParser.java,org.apache.commons.net.ftp.parser.UnixFTPEntryParser,L19992,,5,4,3,0,1,0,0,1,1,3,3,1,14,3,0,0,0,1,0,0,1,0,4,0,0,0,0,0,0,0,,,,1,1
L20007,class,VMSFTPEntryParser.java,org.apache.commons.net.ftp.parser.VMSFTPEntryParser,L19992,,2,7,5,0,2,0,0,1,1,3,3,1,14,3,0,0,0,0,0,0,1,0,8,0,0,0,0,0,0,0,,,,1,1
L2103,class,DelegatingConnection.java,org.apache.commons.dbcp.DelegatingConnection,L2093,,2,47,43,9,12,0,1,4,4,1,1,1,14,5,0,0,4,5,0,0,1,3,43,0,0,0,0,0,0,0,,,,1,1
L2112,class,PoolingConnection.java,org.apache.commons.dbcp.PoolingConnection,L2093,,1,14,11,0,0,0,2,0,0,2,2,0,61,7,0,0,0,0,0,0,1,0,24,0,0,0,0,0,0,0,,,,1,1
L21426,class,NewsgroupInfo.java,org.apache.commons.net.nntp.NewsgroupInfo,L21422,,9,10,5,0,5,0,0,0,0,0,0,0,0,0,0,0,0,0,0,0,1,7,2,0,0,0,0,0,0,0,,,,1,1
L22281,class,NtpV3Impl.java,org.apache.commons.net.ntp.NtpV3Impl,L22278,,20,43,34,13,23,0,1,0,0,0,0,0,0,0,0,0,0,0,0,0,1,0,19,0,0,0,0,0,0,0,,,,1,1
L23797,class,Telnet.java,org.apache.commons.net.telnet.Telnet,L23792,,25,45,2,0,0,0,0,1,3,1,1,3,26,7,0,0,2,2,0,0,3,0,4,0,0,0,0,0,0,0,,,,1,1
L23800,class,TelnetInputStream.java,org.apache.commons.net.telnet.TelnetInputStream,L23792,,23,12,7,0,0,0,1,0,0,1,1,0,0,0,0,0,1,1,0,0,2,0,4,0,0,0,0,0,0,0,,,,1,1
L24961,class,TFTPRequestPacket.java,org.apache.commons.net.tftp.TFTPRequestPacket,L24952,,4,6,3,0,2,0,0,2,2,1,1,1,9,10,0,0,0,0,0,0,1,0,7,0,0,0,0,0,0,0,,,,1,1
L755,class,SoundexUtils.java,org.apache.commons.codec.language.SoundexUtils,L750,,0,3,0,0,0,0,0,0,0,0,0,0,0,0,0,0,0,0,0,0,0,0,7,0,0,0,0,0,0,0,,,,1,1
L8255,class,QueryLoader.java,org.apache.commons.dbutils.QueryLoader,L8250,,1,5,3,0,0,0,0,0,0,0,0,0,0,0,0,0,0,0,0,0,1,0,5,0,0,0,0,0,0,0,,,,1,1
L8258,class,ResultSetIterator.java,org.apache.commons.dbutils.ResultSetIterator,L8250,,1,6,5,0,1,0,1,0,0,0,0,0,0,0,0,0,1,1,0,0,1,0,5,0,0,0,0,0,0,0,,,,1,1
L8515,class,ArrayHandler.java,org.apache.commons.dbutils.handlers.ArrayHandler,L8514,,0,3,3,0,0,0,1,0,0,0,0,0,0,0,0,0,0,1,0,0,0,0,3,0,0,0,0,0,0,0,,,,1,1
L8517,class,BeanHandler.java,org.apache.commons.dbutils.handlers.BeanHandler,L8514,,1,3,3,0,0,0,1,0,0,0,0,0,0,0,0,0,0,1,0,0,1,0,5,0,0,0,0,0,0,0,,,,1,1
L8521,class,KeyedHandler.java,org.apache.commons.dbutils.handlers.KeyedHandler,L8514,,2,8,5,0,0,0,1,0,0,0,0,0,0,0,0,0,0,1,0,0,1,0,9,0,0,0,0,0,0,0,,,,1,1
L8522,class,MapHandler.java,org.apache.commons.dbutils.handlers.MapHandler,L8514,,0,3,3,0,0,0,1,0,0,0,0,0,0,0,0,0,0,1,0,0,0,0,3,0,0,0,0,0,0,0,,,,1,1
L8524,class,ScalarHandler.java,org.apache.commons.dbutils.handlers.ScalarHandler,L8514,,2,4,4,0,0,0,1,0,0,0,0,0,0,0,0,0,0,0,0,0,1,0,3,0,0,0,0,0,0,0,,,,1,1
L9904,class,FilenameUtils.java,org.apache.commons.io.FilenameUtils,L9897,,5,36,30,0,14,0,0,0,0,0,0,0,0,0,0,0,0,0,0,0,0,0,66,0,0,0,0,0,0,0,,,,1,1
L9907,class,HexDump.java,org.apache.commons.io.HexDump,L9897,,5,4,2,0,0,0,0,0,0,0,0,0,0,0,0,0,0,0,0,0,2,0,3,0,0,0,0,0,0,0,,,,1,1
L9908,class,IOCase.java,org.apache.commons.io.IOCase,L9897,,3,11,8,0,2,0,1,0,0,0,0,0,0,0,0,0,0,2,0,0,1,10,15,0,0,0,0,0,0,0,,,,1,1
L12244,class,CountingInputStream.java,org.apache.commons.io.input.CountingInputStream,L12242,,1,9,9,0,2,0,0,0,0,2,2,0,10,0,0,0,0,0,0,0,0,0,1,0,0,0,0,0,0,0,,,,0,0
L12246,class,NullInputStream.java,org.apache.commons.io.input.NullInputStream,L12242,,7,16,13,0,2,0,0,1,1,1,1,1,0,0,0,0,0,0,0,0,0,0,0,0,0,0,0,0,0,0,,,,0,0
L12247,class,NullReader.java,org.apache.commons.io.input.NullReader,L12242,,7,15,12,0,2,0,0,1,1,1,1,1,0,0,0,0,0,0,0,0,0,0,0,0,0,0,0,0,0,0,,,,0,0
L12248,class,ProxyInputStream.java,org.apache.commons.io.input.ProxyInputStream,L12242,,0,10,10,0,0,0,0,3,3,1,1,1,0,0,0,0,0,0,0,0,0,0,1,0,0,0,0,0,0,0,,,,0,0
L12249,class,ProxyReader.java,org.apache.commons.io.input.ProxyReader,L12242,,0,10,10,0,0,0,0,0,0,1,1,0,0,0,0,0,0,0,0,0,0,0,1,0,0,0,0,0,0,0,,,,0,0
L12250,class,SwappedDataInputStream.java,org.apache.commons.io.input.SwappedDataInputStream,L12242,,0,16,16,0,0,0,1,0,0,2,2,0,10,0,0,0,1,1,0,0,0,0,3,0,0,0,0,0,0,0,,,,0,0
L127,interface,Encoder.java,org.apache.commons.codec.Encoder,L122,,,1,,,,,,,2,0,,,,,,,,,,0,,0,2,,,,,,,0,0,1,15,0,0
L13194,class,LockableFileWriter.java,org.apache.commons.io.output.LockableFileWriter,L13189,,3,18,15,0,0,0,0,0,0,1,1,0,0,0,0,0,0,0,0,0,3,0,19,0,0,0,0,0,0,0,,,,0,0
L13197,class,ProxyOutputStream.java,org.apache.commons.io.output.ProxyOutputStream,L13189,,0,6,6,0,0,0,0,3,3,1,1,1,0,0,0,0,0,0,0,0,0,0,1,0,0,0,0,0,0,0,,,,0,0
L13198,class,ProxyWriter.java,org.apache.commons.io.output.ProxyWriter,L13189,,0,8,8,0,0,0,0,0,0,1,1,0,0,0,0,0,0,0,0,0,0,0,3,0,0,0,0,0,0,0,,,,0,0
L13199,class,TeeOutputStream.java,org.apache.commons.io.output.TeeOutputStream,L13189,,1,6,6,0,0,0,0,0,0,2,2,0,6,0,0,0,0,0,0,0,1,0,2,0,0,0,0,0,0,0,,,,0,0
L15296,class,AvalonLogger.java,org.apache.commons.logging.impl.AvalonLogger,L15295,,2,22,22,1,7,0,1,0,0,0,0,0,0,0,0,0,0,0,0,0,1,0,22,0,0,0,0,0,0,0,,,,0,0
L15297,class,Jdk13LumberjackLogger.java,org.apache.commons.logging.impl.Jdk13LumberjackLogger,L15295,,6,22,20,0,8,0,2,0,0,0,0,0,0,0,0,0,0,0,0,0,3,0,23,0,0,0,0,0,0,0,,,,0,0
L15298,class,Jdk14Logger.java,org.apache.commons.logging.impl.Jdk14Logger,L15295,,3,21,20,0,7,0,2,0,0,0,0,0,0,0,0,0,0,0,0,0,3,0,23,0,0,0,0,0,0,0,,,,0,0
L15301,class,LogKitLogger.java,org.apache.commons.logging.impl.LogKitLogger,L15295,,2,20,20,0,7,0,2,0,0,0,0,0,0,0,0,0,0,0,0,0,2,0,20,0,0,0,0,0,0,0,,,,0,0
L15302,class,NoOpLog.java,org.apache.commons.logging.impl.NoOpLog,L15295,,0,20,20,0,6,0,2,0,0,0,0,0,0,0,0,0,0,0,0,0,0,0,19,0,0,0,0,0,0,0,,,,0,0
L15303,class,ServletContextCleaner.java,org.apache.commons.logging.impl.ServletContextCleaner,L15295,,1,2,2,0,0,0,1,0,0,0,0,0,0,0,0,0,0,0,0,0,1,0,2,0,0,0,0,0,0,0,,,,0,0
L15305,class,WeakHashtable.java,org.apache.commons.logging.impl.WeakHashtable,L15295,,4,17,14,0,2,0,0,0,0,1,1,0,0,0,0,0,1,1,0,0,1,0,15,0,0,0,0,0,0,0,,,,0,0
L1550,class,BCodec.java,org.apache.commons.codec.net.BCodec,L1549,,1,11,8,0,2,0,2,0,0,1,1,0,5,0,0,0,0,0,0,0,1,0,14,0,0,0,0,0,0,0,,,,0,0
L1551,class,QCodec.java,org.apache.commons.codec.net.QCodec,L1549,,5,13,10,1,3,0,2,0,0,1,1,0,5,0,0,0,0,0,0,0,2,0,14,0,0,0,0,0,0,0,,,,0,0
L1554,interface,StringEncodings.java,org.apache.commons.codec.net.StringEncodings,L1549,,,0,,,,,,,0,0,,,,,,,,,,0,,0,0,,,,,,,0,0,1,0,0,0
L17970,class,CharGenTCPClient.java,org.apache.commons.net.CharGenTCPClient,L17969,,5,2,2,0,1,0,0,0,0,1,1,0,26,7,0,0,0,0,0,0,0,0,1,0,0,0,0,0,0,0,,,,0,0
L17971,class,CharGenUDPClient.java,org.apache.commons.net.CharGenUDPClient,L17969,,8,4,4,0,0,0,0,0,0,1,1,0,13,3,0,0,0,0,0,0,1,0,2,0,0,0,0,0,0,0,,,,0,0
L17973,interface,DatagramSocketFactory.java,org.apache.commons.net.DatagramSocketFactory,L17969,,,3,,,,,,,0,0,,,,,,,,,,0,,1,4,,,,,,,0,1,2,0,0,0
L17975,class,DaytimeUDPClient.java,org.apache.commons.net.DaytimeUDPClient,L17969,,3,2,2,0,2,0,0,0,0,1,1,0,13,3,0,0,0,0,0,0,0,0,4,0,0,0,0,0,0,0,,,,0,0
L17977,class,DefaultSocketFactory.java,org.apache.commons.net.DefaultSocketFactory,L17969,,0,7,7,0,0,0,1,0,0,0,0,0,0,0,0,0,0,0,0,0,0,0,14,0,0,0,0,0,0,0,,,,0,0
L17981,class,EchoUDPClient.java,org.apache.commons.net.EchoUDPClient,L17969,,2,4,4,0,0,0,0,0,0,2,2,0,17,5,0,0,0,0,0,0,1,0,2,0,0,0,0,0,0,0,,,,0,0
L17985,interface,ProtocolCommandListener.java,org.apache.commons.net.ProtocolCommandListener,L17969,,,2,,,,,,,0,1,,,,,,,,,,0,,10,2,,,,,,,0,0,2,0,0,0
L17986,class,ProtocolCommandSupport.java,org.apache.commons.net.ProtocolCommandSupport,L17969,,1,6,6,0,1,0,1,0,0,0,0,0,0,0,0,0,0,5,0,0,1,0,6,0,0,0,0,0,0,0,,,,0,0
L17987,class,SocketClient.java,org.apache.commons.net.SocketClient,L17969,,7,26,25,6,10,0,0,10,20,0,0,4,0,0,0,0,1,1,0,0,4,0,12,0,0,0,0,0,0,0,,,,0,0
L17988,interface,SocketFactory.java,org.apache.commons.net.SocketFactory,L17969,,,7,,,,,,,0,0,,,,,,,,,,0,,1,14,,,,,,,0,1,2,0,0,0
L17990,class,TimeUDPClient.java,org.apache.commons.net.TimeUDPClient,L17969,,4,4,4,0,4,0,0,0,0,1,1,0,13,3,0,0,0,0,0,0,0,0,6,0,0,0,0,0,0,0,,,,0,0
L17991,class,WhoisClient.java,org.apache.commons.net.WhoisClient,L17969,,2,3,3,0,1,0,0,0,0,2,2,0,31,11,0,0,0,0,0,0,1,0,4,0,0,0,0,0,0,0,,,,0,0
L17994,class,RCommandClient.java,org.apache.commons.net.bsd.RCommandClient,L17993,,3,10,9,0,0,0,0,1,1,2,2,1,36,10,0,0,0,0,0,0,0,0,17,0,0,0,0,0,0,0,,,,0,0
L17995,class,RExecClient.java,org.apache.commons.net.bsd.RExecClient,L17993,,3,10,9,1,4,0,0,1,2,1,1,2,26,7,0,0,0,0,0,0,1,0,10,0,0,0,0,0,0,0,,,,0,0
L17996,class,RLoginClient.java,org.apache.commons.net.bsd.RLoginClient,L17993,,1,3,3,0,0,0,0,0,0,3,3,0,46,13,0,0,0,0,0,0,0,0,6,0,0,0,0,0,0,0,,,,0,0
L18578,class,FTPCommand.java,org.apache.commons.net.ftp.FTPCommand,L18572,,64,2,1,0,1,0,0,0,0,0,0,0,0,0,0,0,0,0,0,0,1,0,1,0,0,0,0,0,0,0,,,,0,0
L18581,interface,FTPFileEntryParser.java,org.apache.commons.net.ftp.FTPFileEntryParser,L18572,,,3,,,,,,,0,0,,,,,,,,,,0,,30,6,,,,,,,0,6,2,0,0,0
L18584,class,FTPFileList.java,org.apache.commons.net.ftp.FTPFileList,L18572,,2,10,7,0,3,0,0,0,0,0,0,0,0,0,0,0,1,1,0,0,1,4,16,0,0,0,0,0,0,0,,,,0,0
L18585,interface,FTPFileListParser.java,org.apache.commons.net.ftp.FTPFileListParser,L18572,,,2,,,,,,,0,0,,,,,,,,,,0,,2,5,,,,,,,0,0,2,0,0,0
L18586,class,FTPFileListParserImpl.java,org.apache.commons.net.ftp.FTPFileListParserImpl,L18572,,0,1,1,0,0,0,0,0,0,2,2,0,10,3,0,0,0,0,0,0,0,0,1,0,0,0,0,0,0,0,,,,0,0
L18588,class,FTPReply.java,org.apache.commons.net.ftp.FTPReply,L18572,,79,6,5,0,5,0,0,0,0,0,0,0,0,0,0,0,0,0,0,0,0,0,0,0,0,0,0,0,0,0,,,,0,0
L19997,interface,FTPFileEntryParserFactory.java,org.apache.commons.net.ftp.parser.FTPFileEntryParserFactory,L19992,,,2,,,,,,,0,0,,,,,,,,,,0,,1,4,,,,,,,0,1,2,0,0,0
L19998,interface,FTPTimestampParser.java,org.apache.commons.net.ftp.parser.FTPTimestampParser,L19992,,,1,,,,,,,0,0,,,,,,,,,,0,,0,2,,,,,,,0,1,2,0,0,0
L2098,class,BasicDataSourceFactory.java,org.apache.commons.dbcp.BasicDataSourceFactory,L2093,,28,3,2,0,2,0,1,0,0,0,0,0,0,0,0,0,0,0,0,0,1,0,9,0,0,0,0,0,0,0,,,,0,0
L21016,class,CopyStreamAdapter.java,org.apache.commons.net.io.CopyStreamAdapter,L21015,,0,5,5,0,0,0,1,0,0,0,0,0,0,0,0,0,0,0,1,0,0,0,3,0,0,0,0,0,0,0,,,,0,0
L21019,interface,CopyStreamListener.java,org.apache.commons.net.io.CopyStreamListener,L21015,,,2,,,,,,,0,1,,,,,,,,,,0,,5,1,,,,,,,0,0,2,0,0,0
L2102,class,DelegatingCallableStatement.java,org.apache.commons.dbcp.DelegatingCallableStatement,L2093,,1,82,82,26,47,0,1,0,0,3,3,0,102,8,0,0,0,0,0,0,1,0,115,0,0,0,0,0,0,0,,,,0,0
L21021,class,DotTerminatedMessageWriter.java,org.apache.commons.net.io.DotTerminatedMessageWriter,L21015,,5,8,8,0,0,0,0,0,0,1,1,0,0,0,0,0,0,0,0,0,1,0,3,0,0,0,0,0,0,0,,,,0,0
L21023,class,FromNetASCIIOutputStream.java,org.apache.commons.net.io.FromNetASCIIOutputStream,L21015,,1,6,5,0,0,0,0,0,0,1,1,0,0,0,0,0,0,0,0,0,0,0,1,0,0,0,0,0,0,0,,,,0,0
L21024,class,SocketInputStream.java,org.apache.commons.net.io.SocketInputStream,L21015,,1,2,2,0,0,0,0,0,0,1,1,0,0,0,0,0,0,0,0,0,1,0,2,0,0,0,0,0,0,0,,,,0,0
L21025,class,SocketOutputStream.java,org.apache.commons.net.io.SocketOutputStream,L21015,,1,3,3,0,0,0,0,0,0,1,1,0,0,0,0,0,0,0,0,0,1,0,2,0,0,0,0,0,0,0,,,,0,0
L21027,class,ToNetASCIIOutputStream.java,org.apache.commons.net.io.ToNetASCIIOutputStream,L21015,,1,4,4,0,0,0,0,0,0,1,1,0,0,0,0,0,0,0,0,0,0,0,1,0,0,0,0,0,0,0,,,,0,0
L2104,class,DelegatingPreparedStatement.java,org.apache.commons.dbcp.DelegatingPreparedStatement,L2093,,1,40,40,31,2,0,1,2,3,2,2,2,62,7,0,0,1,1,0,0,1,0,31,0,0,0,0,0,0,0,,,,0,0
L2105,class,DelegatingResultSet.java,org.apache.commons.dbcp.DelegatingResultSet,L2093,,2,146,145,2,72,0,1,0,0,1,1,0,14,5,0,0,0,0,0,0,2,0,141,0,0,0,0,0,0,0,,,,0,0
L2106,class,DelegatingStatement.java,org.apache.commons.dbcp.DelegatingStatement,L2093,,2,48,43,8,19,0,1,1,4,1,1,3,14,5,0,0,2,2,0,0,1,0,25,0,0,0,0,0,0,0,,,,0,0
L2107,class,DriverConnectionFactory.java,org.apache.commons.dbcp.DriverConnectionFactory,L2093,,3,3,3,0,0,0,1,0,0,0,0,0,0,0,0,0,0,0,0,0,3,0,5,0,0,0,0,0,0,0,,,,0,0
L2109,class,PoolableConnection.java,org.apache.commons.dbcp.PoolableConnection,L2093,,1,4,4,0,0,0,0,0,0,2,2,0,61,7,0,0,0,0,0,0,1,0,5,0,0,0,0,0,0,0,,,,0,0
L2114,class,PoolingDriver.java,org.apache.commons.dbcp.PoolingDriver,L2093,,6,14,14,1,7,0,1,0,0,0,0,0,0,0,0,0,2,2,0,0,2,0,15,0,0,0,0,0,0,0,,,,0,0
L21427,class,NNTP.java,org.apache.commons.net.nntp.NNTP,L21422,,8,41,39,0,4,0,0,1,1,1,1,1,26,7,0,0,0,1,0,0,4,0,26,0,0,0,0,0,0,0,,,,0,0
L21429,class,NNTPCommand.java,org.apache.commons.net.nntp.NNTPCommand,L21422,,19,2,1,0,1,0,0,0,0,0,0,0,0,0,0,0,0,0,0,0,1,0,1,0,0,0,0,0,0,0,,,,0,0
L21431,class,NNTPReply.java,org.apache.commons.net.nntp.NNTPReply,L21422,,77,6,5,0,5,0,0,0,0,0,0,0,0,0,0,0,0,0,0,0,0,0,0,0,0,0,0,0,0,0,,,,0,0
L21432,class,SimpleNNTPHeader.java,org.apache.commons.net.nntp.SimpleNNTPHeader,L21422,,5,7,7,0,3,0,0,0,0,0,0,0,0,0,0,0,0,0,0,0,2,0,9,0,0,0,0,0,0,0,,,,0,0
L21433,interface,Threadable.java,org.apache.commons.net.nntp.Threadable,L21422,,,8,,,,,,,0,0,,,,,,,,,,0,,9,6,,,,,,,0,1,2,0,0,0
L22282,interface,NtpV3Packet.java,org.apache.commons.net.ntp.NtpV3Packet,L22278,,,31,,,,,,,0,0,,,,,,,,,,0,,7,13,,,,,,,0,1,2,0,0,0
L22815,class,POP3.java,org.apache.commons.net.pop3.POP3,L22814,,15,15,13,1,4,0,0,1,1,1,1,1,26,7,0,0,0,1,0,0,5,0,8,0,0,0,0,0,0,0,,,,0,0
L22817,class,POP3Command.java,org.apache.commons.net.pop3.POP3Command,L22814,,13,2,1,0,1,0,0,0,0,0,0,0,0,0,0,0,0,0,0,0,1,0,1,0,0,0,0,0,0,0,,,,0,0
L23267,class,RelayPath.java,org.apache.commons.net.smtp.RelayPath,L23266,,2,3,3,0,0,0,0,0,0,0,0,0,0,0,0,0,0,0,0,0,2,2,3,0,0,0,0,0,0,0,,,,0,0
L23268,class,SimpleSMTPHeader.java,org.apache.commons.net.smtp.SimpleSMTPHeader,L23266,,5,4,4,0,0,0,0,0,0,0,0,0,0,0,0,0,0,0,0,0,2,0,7,0,0,0,0,0,0,0,,,,0,0
L23269,class,SMTP.java,org.apache.commons.net.smtp.SMTP,L23266,,9,31,27,0,4,0,0,1,1,1,1,1,26,7,0,0,0,1,0,0,5,0,20,0,0,0,0,0,0,0,,,,0,0
L23270,class,SMTPClient.java,org.apache.commons.net.smtp.SMTPClient,L23266,,0,17,17,2,0,0,0,0,0,2,2,0,57,16,0,0,0,0,0,0,0,0,17,0,0,0,0,0,0,0,,,,0,0
L23271,class,SMTPCommand.java,org.apache.commons.net.smtp.SMTPCommand,L23266,,27,2,1,0,1,0,0,0,0,0,0,0,0,0,0,0,0,0,0,0,1,0,1,0,0,0,0,0,0,0,,,,0,0
L23273,class,SMTPReply.java,org.apache.commons.net.smtp.SMTPReply,L23266,,43,6,5,0,5,0,0,0,0,0,0,0,0,0,0,0,0,0,0,0,0,0,0,0,0,0,0,0,0,0,,,,0,0
L23793,class,EchoOptionHandler.java,org.apache.commons.net.telnet.EchoOptionHandler,L23792,,0,5,5,0,0,0,0,0,0,1,1,0,17,7,0,0,0,0,0,0,0,0,0,0,0,0,0,0,0,0,,,,0,0
L23795,class,SimpleOptionHandler.java,org.apache.commons.net.telnet.SimpleOptionHandler,L23792,,0,5,5,0,0,0,0,0,0,1,1,0,17,7,0,0,0,0,0,0,0,0,0,0,0,0,0,0,0,0,,,,0,0
L23796,class,SuppressGAOptionHandler.java,org.apache.commons.net.telnet.SuppressGAOptionHandler,L23792,,0,5,5,0,0,0,0,0,0,1,1,0,17,7,0,0,0,0,0,0,0,0,0,0,0,0,0,0,0,0,,,,0,0
L23798,class,TelnetClient.java,org.apache.commons.net.telnet.TelnetClient,L23792,,3,19,16,1,5,0,0,1,2,2,2,2,71,32,0,0,3,3,1,1,2,5,6,0,0,0,0,0,0,0,,,,0,0
L23801,interface,TelnetNotificationHandler.java,org.apache.commons.net.telnet.TelnetNotificationHandler,L23792,,,1,,,,,,,0,0,,,,,,,,,,0,,2,0,,,,,,,0,1,3,0,0,0
L23804,class,TelnetOutputStream.java,org.apache.commons.net.telnet.TelnetOutputStream,L23792,,2,6,5,0,0,0,0,0,0,1,1,0,0,0,0,0,1,1,0,0,0,0,1,0,0,0,0,0,0,0,,,,0,0
L23805,class,TerminalTypeOptionHandler.java,org.apache.commons.net.telnet.TerminalTypeOptionHandler,L23792,,4,5,5,0,0,0,0,0,0,1,1,0,17,7,0,0,0,0,0,0,1,0,2,0,0,0,0,0,0,0,,,,0,0
L24956,class,TFTPDataPacket.java,org.apache.commons.net.tftp.TFTPDataPacket,L24952,,6,11,9,2,4,0,0,0,0,1,1,0,9,10,0,0,0,0,0,0,0,0,6,0,0,0,0,0,0,0,,,,0,0
L25457,class,ListenerList.java,org.apache.commons.net.util.ListenerList,L25456,,1,5,5,0,2,0,1,0,0,0,0,0,0,0,0,0,0,1,1,0,1,0,3,0,0,0,0,0,0,0,,,,0,0
L2808,class,ConnectionImpl.java,org.apache.commons.dbcp.cpdsadapter.ConnectionImpl,L2807,,3,39,36,8,9,0,1,0,0,0,0,0,0,0,0,0,1,1,0,0,2,0,37,0,0,0,0,0,0,0,,,,0,0
L2809,class,DriverAdapterCPDS.java,org.apache.commons.dbcp.cpdsadapter.DriverAdapterCPDS,L2807,,15,32,31,13,17,0,4,0,0,0,0,0,0,0,0,0,0,0,1,0,2,0,22,0,0,0,0,0,0,0,,,,0,0
L2810,class,PoolablePreparedStatementStub.java,org.apache.commons.dbcp.cpdsadapter.PoolablePreparedStatementStub,L2807,,0,3,1,0,0,0,0,0,0,4,4,0,106,10,0,0,0,0,0,0,0,0,4,0,0,0,0,0,0,0,,,,0,0
L2811,class,PooledConnectionImpl.java,org.apache.commons.dbcp.cpdsadapter.PooledConnectionImpl,L2807,,6,18,9,0,1,0,2,0,0,0,0,0,0,0,0,0,1,2,0,0,4,1,25,0,0,0,0,0,0,0,,,,0,0
L3447,class,CPDSConnectionFactory.java,org.apache.commons.dbcp.datasources.CPDSConnectionFactory,L3446,,8,12,12,3,1,0,2,0,0,0,0,0,0,0,0,0,0,0,0,0,5,0,16,0,0,0,0,0,0,0,,,,0,0
L3448,class,InstanceKeyDataSource.java,org.apache.commons.dbcp.datasources.InstanceKeyDataSource,L3446,,25,46,40,17,23,0,3,2,2,0,0,1,0,0,0,0,0,0,0,0,4,5,28,0,0,0,0,0,0,0,,,,0,0
L3449,class,InstanceKeyObjectFactory.java,org.apache.commons.dbcp.datasources.InstanceKeyObjectFactory,L3446,,1,8,2,1,3,0,1,2,2,0,0,1,0,0,0,0,0,0,0,0,1,0,14,0,0,0,0,0,0,0,,,,0,0
L3450,class,KeyedCPDSConnectionFactory.java,org.apache.commons.dbcp.datasources.KeyedCPDSConnectionFactory,L3446,,6,12,12,3,1,0,2,0,0,0,0,0,0,0,0,0,0,0,0,0,5,0,19,0,0,0,0,0,0,0,,,,0,0
L3451,class,PerUserPoolDataSource.java,org.apache.commons.dbcp.datasources.PerUserPoolDataSource,L3446,,11,30,24,10,15,0,0,0,0,1,1,0,46,25,0,0,0,0,0,0,1,0,39,0,0,0,0,0,0,0,,,,0,0
L3452,class,PerUserPoolDataSourceFactory.java,org.apache.commons.dbcp.datasources.PerUserPoolDataSourceFactory,L3446,,1,2,0,0,2,0,0,0,0,1,1,0,8,1,0,0,0,0,0,0,1,0,3,0,0,0,0,0,0,0,,,,0,0
L3455,class,SharedPoolDataSource.java,org.apache.commons.dbcp.datasources.SharedPoolDataSource,L3446,,5,15,10,4,7,0,0,0,0,1,1,0,46,25,0,0,0,0,0,0,2,0,11,0,0,0,0,0,0,0,,,,0,0
L3456,class,SharedPoolDataSourceFactory.java,org.apache.commons.dbcp.datasources.SharedPoolDataSourceFactory,L3446,,1,2,0,0,2,0,0,0,0,1,1,0,8,1,0,0,0,0,0,0,1,0,3,0,0,0,0,0,0,0,,,,0,0
L7835,class,ConstructorUtil.java,org.apache.commons.jocl.ConstructorUtil,L7834,,0,2,2,0,1,0,0,0,0,0,0,0,0,0,0,0,0,0,0,0,0,0,7,0,0,0,0,0,0,0,,,,0,0
L7836,class,JOCLContentHandler.java,org.apache.commons.jocl.JOCLContentHandler,L7834,,23,25,21,1,7,0,1,0,0,1,1,0,0,0,0,0,1,1,0,0,4,0,37,0,0,0,0,0,0,0,,,,0,0
L8254,class,ProxyFactory.java,org.apache.commons.dbutils.ProxyFactory,L8250,,7,9,8,0,0,0,0,0,0,0,0,0,0,0,0,0,0,2,0,0,1,0,14,0,0,0,0,0,0,0,,,,0,0
L8259,interface,RowProcessor.java,org.apache.commons.dbutils.RowProcessor,L8250,,,4,,,,,,,0,0,,,,,,,,,,0,,8,10,,,,,,,0,9,2,0,0,0
L9113,class,SqlNullCheckedResultSet.java,org.apache.commons.dbutils.wrappers.SqlNullCheckedResultSet,L9112,,23,45,45,21,21,0,1,0,0,0,0,0,0,0,0,0,1,2,0,0,14,0,33,0,0,0,0,0,0,0,,,,0,0
L9114,class,StringTrimmedResultSet.java,org.apache.commons.dbutils.wrappers.StringTrimmedResultSet,L9112,,1,3,3,0,0,0,1,0,0,0,0,0,0,0,0,0,0,1,0,0,1,0,7,0,0,0,0,0,0,0,,,,0,0
L9898,class,CopyUtils.java,org.apache.commons.io.CopyUtils,L9897,,1,11,11,0,0,0,0,0,0,0,0,0,0,0,0,0,0,0,0,0,0,0,19,0,0,0,0,0,0,0,,,,0,0
L9899,class,DirectoryWalker.java,org.apache.commons.io.DirectoryWalker,L9897,,2,15,0,0,0,0,0,3,4,0,0,2,0,0,0,0,0,0,0,0,1,0,27,0,0,0,0,0,0,0,,,,0,0
L9901,class,FileCleaner.java,org.apache.commons.io.FileCleaner,L9897,,0,7,7,0,2,0,0,0,0,0,0,0,0,0,0,0,1,1,0,0,0,0,11,0,0,0,0,0,0,0,,,,0,0
L9902,class,FileCleaningTracker.java,org.apache.commons.io.FileCleaningTracker,L9897,,4,7,6,0,1,0,0,0,0,0,0,0,0,0,0,0,2,2,0,0,3,3,13,0,0,0,0,0,0,0,,,,0,0
L9903,class,FileDeleteStrategy.java,org.apache.commons.io.FileDeleteStrategy,L9897,,1,5,3,0,0,0,0,1,1,0,0,1,0,0,0,0,0,0,0,1,1,6,5,0,0,0,0,0,0,0,,,,0,0
L9909,class,IOUtils.java,org.apache.commons.io.IOUtils,L9897,,7,49,49,0,0,0,0,0,0,0,0,0,0,0,0,0,0,0,0,0,1,0,94,0,0,0,0,0,0,0,,,,0,0
L9910,class,LineIterator.java,org.apache.commons.io.LineIterator,L9897,,3,8,7,0,2,0,1,0,0,0,0,0,0,0,0,0,0,0,0,0,2,4,4,0,0,0,0,0,0,0,,,,0,0
