ID,Type,Name,LongName,Parent,Component,NumAttr,NumOps,NumPubOps,Setters,Getters,Nesting,IFImpl,NOC,NumDesc,NumAnc,DIT,CLD,OpsInh,AttrInh,Dep_Out,Dep_In,NumAssEl_ssc,NumAssEl_sb,NumAssEl_nsb,EC_Attr,IC_Attr,EC_Par,IC_Par,Connectors,InstSpec,LLInst,MsgSent,MsgRecv,MsgSelf,Diags,assoc,NumDirClients,NumIndClients,BugNo,Label
L514,Interface,BuildListener,org.apache.tools.ant.BuildListener,L443,L103,,7,,,,,,,1,1,,,,,,,,,,1,,5,7,,,,,,,0,1,17,4,0,0
L1248,Interface,BuildLogger,org.apache.tools.ant.BuildLogger,L443,L103,,4,,,,,,,0,2,,,,,,,,,,0,,1,2,,,,,,,0,0,4,0,0,0
L2262,Interface,DynamicConfigurator,org.apache.tools.ant.DynamicConfigurator,L443,L103,,2,,,,,,,0,0,,,,,,,,,,0,,0,4,,,,,,,0,0,5,0,0,0
L2445,Interface,ChainableReader,org.apache.tools.ant.filters.ChainableReader,L2321,L103,,1,,,,,,,0,0,,,,,,,,,,0,,1,2,,,,,,,0,0,18,0,0,0
L4758,Interface,InputHandler,org.apache.tools.ant.input.InputHandler,L4749,L103,,1,,,,,,,0,0,,,,,,,,,,1,,3,1,,,,,,,0,1,2,0,0,0
L131,Interface,TaskContainer,org.apache.tools.ant.TaskContainer,L443,L103,,1,,,,,,,0,0,,,,,,,,,,1,,1,1,,,,,,,0,0,9,0,0,0
L8567,Interface,CompilerAdapter,org.apache.tools.ant.taskdefs.compilers.CompilerAdapter,L8554,L103,,2,,,,,,,0,0,,,,,,,,,,0,,2,1,,,,,,,0,0,1,0,0,0
L7994,Interface,Condition,org.apache.tools.ant.taskdefs.condition.Condition,L9120,L103,,1,,,,,,,0,0,,,,,,,,,,0,,1,0,,,,,,,0,0,17,0,0,0
L7455,Interface,ExecuteStreamHandler,org.apache.tools.ant.taskdefs.ExecuteStreamHandler,L7223,L103,,5,,,,,,,1,0,,,,,,,,,,0,,16,3,,,,,,,0,2,6,1,0,0
L35904,Interface,RmicAdapter,org.apache.tools.ant.taskdefs.rmic.RmicAdapter,L35957,L103,,4,,,,,,,0,0,,,,,,,,,,0,,3,3,,,,,,,0,0,1,0,0,0
L34130,Interface,XSLTLiaison,org.apache.tools.ant.taskdefs.XSLTLiaison,L7223,L103,,3,,,,,,,1,0,,,,,,,,,,0,,5,5,,,,,,,0,2,2,1,0,0
L32937,Interface,XSLTLiaison2,org.apache.tools.ant.taskdefs.XSLTLiaison2,L7223,L103,,1,,,,,,,0,1,,,,,,,,,,0,,0,1,,,,,,,0,0,1,0,0,0
L32953,Interface,XSLTLogger,org.apache.tools.ant.taskdefs.XSLTLogger,L7223,L103,,1,,,,,,,0,0,,,,,,,,,,0,,2,1,,,,,,,0,1,2,0,0,0
L32943,Interface,XSLTLoggerAware,org.apache.tools.ant.taskdefs.XSLTLoggerAware,L7223,L103,,1,,,,,,,0,0,,,,,,,,,,0,,0,1,,,,,,,0,0,1,0,0,0
L1044,Interface,TypeAdapter,org.apache.tools.ant.TypeAdapter,L443,L103,,5,,,,,,,0,0,,,,,,,,,,0,,0,5,,,,,,,0,0,2,0,0,0
L2422,Interface,Parameterizable,org.apache.tools.ant.types.Parameterizable,L39850,L103,,1,,,,,,,1,0,,,,,,,,,,0,,0,1,,,,,,,0,0,1,1,0,0
L1915,Interface,ResourceFactory,org.apache.tools.ant.types.ResourceFactory,L39850,L103,,1,,,,,,,0,0,,,,,,,,,,0,,1,2,,,,,,,0,0,3,0,0,0
L41976,Interface,ExtendFileSelector,org.apache.tools.ant.types.selectors.ExtendFileSelector,L41908,L103,,0,,,,,,,0,2,,,,,,,,,,0,,0,0,,,,,,,0,0,1,0,0,0
L1937,Interface,FileSelector,org.apache.tools.ant.types.selectors.FileSelector,L41908,L103,,1,,,,,,,1,0,,,,,,,,,,0,,21,3,,,,,,,0,2,1,1,0,0
L42447,Interface,Algorithm,org.apache.tools.ant.types.selectors.modifiedselector.Algorithm,L42438,L103,,2,,,,,,,0,0,,,,,,,,,,0,,2,2,,,,,,,0,1,2,0,0,0
L42454,Interface,Cache,org.apache.tools.ant.types.selectors.modifiedselector.Cache,L42438,L103,,7,,,,,,,0,0,,,,,,,,,,0,,2,5,,,,,,,0,1,1,0,0,0
L15028,Interface,SelectorContainer,org.apache.tools.ant.types.selectors.SelectorContainer,L41908,L103,,24,,,,,,,0,0,,,,,,,,,,0,,0,23,,,,,,,0,0,3,0,0,0
L1912,Interface,SelectorScanner,org.apache.tools.ant.types.selectors.SelectorScanner,L41908,L103,,3,,,,,,,0,0,,,,,,,,,,0,,0,3,,,,,,,0,0,1,0,0,0
L9671,Interface,FileNameMapper,org.apache.tools.ant.util.FileNameMapper,L44233,L103,,3,,,,,,,0,0,,,,,,,,,,0,,9,4,,,,,,,0,4,9,0,0,0
L2762,Interface,Regexp,org.apache.tools.ant.util.regexp.Regexp,L45231,L103,,1,,,,,,,0,1,,,,,,,,,,2,,8,3,,,,,,,0,2,3,0,0,0
L26903,Interface,RegexpMatcher,org.apache.tools.ant.util.regexp.RegexpMatcher,L45231,L103,,6,,,,,,,1,0,,,,,,,,,,0,,9,8,,,,,,,0,3,3,3,0,0
L11939,Interface,TimeoutObserver,org.apache.tools.ant.util.TimeoutObserver,L44233,L103,,1,,,,,,,0,0,,,,,,,,,,0,,2,1,,,,,,,0,0,2,0,0,0
L3214,Interface,Tokenizer,org.apache.tools.ant.util.Tokenizer,L44233,L103,,2,,,,,,,0,0,,,,,,,,,,0,,1,3,,,,,,,0,1,3,0,0,0
L46547,Interface,BZip2Constants,org.apache.tools.bzip2.BZip2Constants,L46541,L103,,0,,,,,,,0,0,,,,,,,,,,0,,0,0,,,,,,,0,0,2,0,0,0
L47816,Interface,UnixStat,org.apache.tools.zip.UnixStat,L47793,L103,,0,,,,,,,0,0,,,,,,,,,,0,,0,0,,,,,,,0,0,3,0,0,0
L47813,Interface,ZipExtraField,org.apache.tools.zip.ZipExtraField,L47793,L103,,6,,,,,,,0,0,,,,,,,,,,0,,7,3,,,,,,,0,0,2,0,0,0
L987,Class,AntTypeDefinition,org.apache.tools.ant.AntTypeDefinition,L443,L103,6,18,15,6,5,0,0,2,2,0,0,1,0,0,0,0,0,0,0,1,3,12,25,0,0,0,0,0,0,0,,,,0,0
L961,Class,BuildEvent,org.apache.tools.ant.BuildEvent,L443,L103,3,11,11,2,6,0,0,0,0,1,1,0,0,0,0,0,3,3,0,0,2,153,10,0,0,0,0,0,0,0,,,,0,0
L161,Class,BuildException,org.apache.tools.ant.BuildException,L443,L103,1,15,15,1,3,0,0,1,1,1,1,1,0,0,0,0,2,2,0,0,1,11,18,0,0,0,0,0,0,0,,,,0,0
L1691,Class,DemuxInputStream,org.apache.tools.ant.DemuxInputStream,L443,L103,0,3,3,0,0,0,0,0,0,1,1,0,0,0,0,0,1,1,0,0,0,0,1,0,0,0,0,0,0,0,,,,0,0
L1710,Class,DemuxOutputStream,org.apache.tools.ant.DemuxOutputStream,L443,L103,6,10,5,0,1,0,0,0,0,1,1,0,0,0,0,0,1,1,0,0,1,0,4,0,0,0,0,0,0,0,,,,0,0
L2271,Class,ExitException,org.apache.tools.ant.ExitException,L443,L103,1,3,3,0,1,0,0,0,0,1,1,0,0,0,0,0,0,0,0,0,0,0,1,0,0,0,0,0,0,0,,,,0,0
L2352,Class,BaseFilterReader,org.apache.tools.ant.filters.BaseFilterReader,L2321,L103,2,10,5,2,2,0,0,5,16,1,1,2,0,0,0,0,0,1,0,0,0,0,5,0,0,0,0,0,0,0,,,,0,0
L2418,Class,BaseParamFilterReader,org.apache.tools.ant.filters.BaseParamFilterReader,L2321,L103,0,4,3,1,1,0,1,11,11,2,2,1,10,2,0,0,0,0,1,0,0,0,3,0,0,0,0,0,0,0,,,,0,0
L2482,Class,ConcatFilter,org.apache.tools.ant.filters.ConcatFilter,L2321,L103,4,9,8,2,2,0,1,0,0,3,3,0,14,2,0,0,0,0,0,0,2,0,7,0,0,0,0,0,0,0,,,,0,0
L2550,Class,EscapeUnicode,org.apache.tools.ant.filters.EscapeUnicode,L2321,L103,1,5,4,0,0,0,1,0,0,3,3,0,14,2,0,0,0,0,0,0,1,1,3,0,0,0,0,0,0,0,,,,0,0
L2582,Class,ExpandProperties,org.apache.tools.ant.filters.ExpandProperties,L2321,L103,1,4,4,0,0,0,1,0,0,2,2,0,10,2,0,0,0,0,0,0,1,1,3,0,0,0,0,0,0,0,,,,0,0
L2604,Class,HeadFilter,org.apache.tools.ant.filters.HeadFilter,L2321,L103,8,10,6,2,2,0,1,0,0,3,3,0,14,2,0,0,0,0,1,0,1,1,5,0,0,0,0,0,0,0,,,,0,0
L2683,Class,LineContains,org.apache.tools.ant.filters.LineContains,L2321,L103,3,8,5,1,1,0,1,0,0,3,3,0,14,2,0,0,0,0,0,0,2,1,6,0,0,0,0,0,0,0,,,,0,0
L2740,Class,LineContainsRegExp,org.apache.tools.ant.filters.LineContainsRegExp,L2321,L103,3,8,5,1,1,0,1,0,0,3,3,0,14,2,0,0,0,0,0,0,2,1,6,0,0,0,0,0,0,0,,,,0,0
L2792,Class,PrefixLines,org.apache.tools.ant.filters.PrefixLines,L2321,L103,3,7,5,1,1,0,1,0,0,3,3,0,14,2,0,0,0,0,0,0,1,1,5,0,0,0,0,0,0,0,,,,0,0
L2924,Class,StringInputStream,org.apache.tools.ant.filters.StringInputStream,L2321,L103,4,9,9,0,0,0,0,0,0,1,1,0,0,0,0,0,0,0,0,0,2,0,3,0,0,0,0,0,0,0,,,,0,0
L2975,Class,StripJavaComments,org.apache.tools.ant.filters.StripJavaComments,L2321,L103,3,4,4,0,0,0,1,0,0,2,2,0,10,2,0,0,0,0,0,0,0,1,3,0,0,0,0,0,0,0,,,,0,0
L3000,Class,StripLineBreaks,org.apache.tools.ant.filters.StripLineBreaks,L2321,L103,3,7,5,1,1,0,1,0,0,3,3,0,14,2,0,0,0,0,0,0,1,1,5,0,0,0,0,0,0,0,,,,0,0
L3034,Class,StripLineComments,org.apache.tools.ant.filters.StripLineComments,L2321,L103,3,8,5,1,1,0,1,0,0,3,3,0,14,2,0,0,0,0,0,0,2,1,6,0,0,0,0,0,0,0,,,,0,0
L3086,Class,TabsToSpaces,org.apache.tools.ant.filters.TabsToSpaces,L2321,L103,4,7,5,1,1,0,1,0,0,3,3,0,14,2,0,0,0,0,0,0,1,1,3,0,0,0,0,0,0,0,,,,0,0
L3127,Class,TailFilter,org.apache.tools.ant.filters.TailFilter,L2321,L103,9,10,6,2,2,0,1,0,0,3,3,0,14,2,0,0,0,0,1,0,2,1,5,0,0,0,0,0,0,0,,,,0,0
L3203,Class,TokenFilter,org.apache.tools.ant.filters.TokenFilter,L2321,L103,4,19,19,1,0,0,1,0,0,2,2,0,10,2,0,0,0,0,1,0,2,1,19,0,0,0,0,0,0,0,,,,0,0
L3569,Class,ChainReaderHelper,org.apache.tools.ant.filters.util.ChainReaderHelper,L3565,L103,4,8,7,5,2,0,0,0,0,0,0,0,0,0,0,0,0,1,0,0,2,0,8,0,0,0,0,0,0,0,,,,0,0
L3639,Class,JavaClassHelper,org.apache.tools.ant.filters.util.JavaClassHelper,L3565,L103,1,1,1,0,1,0,0,0,0,0,0,0,0,0,0,0,0,0,0,0,1,0,1,0,0,0,0,0,0,0,,,,0,0
L4756,Class,DefaultInputHandler,org.apache.tools.ant.input.DefaultInputHandler,L4749,L103,0,4,2,0,2,0,1,0,0,0,0,0,0,0,0,0,0,0,0,0,0,0,4,0,0,0,0,0,0,0,,,,0,0
L4766,Class,InputRequest,org.apache.tools.ant.input.InputRequest,L4749,L103,2,5,5,1,3,0,0,1,1,0,0,1,0,0,0,0,0,0,0,0,1,4,4,0,0,0,0,0,0,0,,,,0,0
L4795,Class,MultipleChoiceInputRequest,org.apache.tools.ant.input.MultipleChoiceInputRequest,L4749,L103,1,3,3,0,2,0,0,0,0,1,1,0,5,2,0,0,0,0,0,0,1,0,3,0,0,0,0,0,0,0,,,,0,0
L4835,Class,PropertyFileInputHandler,org.apache.tools.ant.input.PropertyFileInputHandler,L4749,L103,2,3,2,0,0,0,1,0,0,0,0,0,0,0,0,0,0,0,0,0,2,0,1,0,0,0,0,0,0,0,,,,0,0
L5425,Class,AnsiColorLogger,org.apache.tools.ant.listener.AnsiColorLogger,L5419,L103,16,2,0,1,0,0,0,0,0,1,1,0,15,7,0,0,0,0,0,0,1,0,2,0,0,0,0,0,0,0,,,,0,0
L5579,Class,MailLogger,org.apache.tools.ant.listener.MailLogger,L5419,L103,1,6,1,0,1,0,0,0,0,1,1,0,15,7,0,0,0,0,0,0,1,0,23,0,0,0,0,0,0,0,,,,0,0
L1153,Class,Location,org.apache.tools.ant.Location,L443,L103,3,7,6,0,2,0,1,0,0,0,0,0,0,0,0,0,2,5,0,0,1,10,5,0,0,0,0,0,0,0,,,,0,0
L5840,Class,MagicNames,org.apache.tools.ant.MagicNames,L443,L103,2,0,0,0,0,0,0,0,0,0,0,0,0,0,0,0,0,0,0,0,1,0,0,0,0,0,0,0,0,0,,,,0,0
L1816,Class,Main,org.apache.tools.ant.Main,L443,L103,18,21,5,0,2,0,1,0,0,0,0,0,0,0,0,0,0,0,0,0,5,0,28,0,0,0,0,0,0,0,,,,0,0
L6070,Class,NoBannerLogger,org.apache.tools.ant.NoBannerLogger,L443,L103,1,4,4,0,0,0,0,0,0,1,1,0,15,7,0,0,0,0,0,0,1,0,3,0,0,0,0,0,0,0,,,,0,0
L6087,Class,PathTokenizer,org.apache.tools.ant.PathTokenizer,L443,L103,4,3,3,0,1,0,0,0,0,0,0,0,0,0,0,0,0,0,0,0,2,0,2,0,0,0,0,0,0,0,,,,0,0
L1396,Class,TaskAdapter,org.apache.tools.ant.TaskAdapter,L443,L103,1,5,5,1,1,0,1,0,0,2,2,0,35,4,0,0,0,0,0,0,1,0,5,0,0,0,0,0,0,0,,,,0,0
L7410,Class,AbstractCvsTask,org.apache.tools.ant.taskdefs.AbstractCvsTask,L7223,L103,21,41,32,21,10,0,0,2,2,2,2,1,35,4,0,0,1,1,1,0,4,0,32,0,0,0,0,0,0,0,,,,0,0
L7849,Class,Antlib,org.apache.tools.ant.taskdefs.Antlib,L7223,L103,4,6,3,2,1,0,1,0,0,2,2,0,35,4,0,0,0,0,0,0,3,0,7,0,0,0,0,0,0,0,,,,0,0
L7898,Class,AntlibDefinition,org.apache.tools.ant.taskdefs.AntlibDefinition,L7223,L103,2,4,4,2,2,0,0,3,7,2,2,4,35,4,0,0,0,0,0,0,2,0,4,0,0,0,0,0,0,0,,,,0,0
L8112,Class,Basename,org.apache.tools.ant.taskdefs.Basename,L7223,L103,3,4,4,3,0,0,0,0,0,2,2,0,35,4,0,0,0,0,0,0,2,0,3,0,0,0,0,0,0,0,,,,0,0
L8132,Class,BuildNumber,org.apache.tools.ant.taskdefs.BuildNumber,L7223,L103,3,5,2,1,1,0,0,0,0,2,2,0,35,4,0,0,0,0,0,0,2,0,3,0,0,0,0,0,0,0,,,,0,0
L8172,Class,BUnzip2,org.apache.tools.ant.taskdefs.BUnzip2,L7223,L103,1,2,0,0,1,0,0,0,0,3,3,0,44,6,0,0,0,0,0,0,1,0,1,0,0,0,0,0,0,0,,,,0,0
L8204,Class,BZip2,org.apache.tools.ant.taskdefs.BZip2,L7223,L103,0,1,0,0,0,0,0,0,0,3,3,0,43,6,0,0,0,0,0,0,0,0,0,0,0,0,0,0,0,0,,,,0,0
L8228,Class,CallTarget,org.apache.tools.ant.taskdefs.CallTarget,L7223,L103,3,13,13,3,0,0,0,0,0,2,2,0,35,4,0,0,1,1,0,0,1,0,8,0,0,0,0,0,0,0,,,,0,0
L8445,Class,Chmod,org.apache.tools.ant.taskdefs.Chmod,L7223,L103,2,18,16,11,1,0,0,0,0,4,4,0,92,30,0,0,0,0,1,0,0,0,11,0,0,0,0,0,0,0,,,,0,0
L8598,Class,Javac12,org.apache.tools.ant.taskdefs.compilers.Javac12,L8554,L103,0,1,1,0,0,0,0,0,0,1,1,0,18,14,0,0,0,0,0,0,0,0,0,0,0,0,0,0,0,0,,,,0,0
L8605,Class,Javac13,org.apache.tools.ant.taskdefs.compilers.Javac13,L8554,L103,1,1,1,0,0,0,0,0,0,1,1,0,18,14,0,0,0,0,0,0,0,0,0,0,0,0,0,0,0,0,,,,0,0
L8611,Class,Jvc,org.apache.tools.ant.taskdefs.compilers.Jvc,L8554,L103,0,1,1,0,0,0,0,0,0,1,1,0,18,14,0,0,0,0,0,0,0,0,0,0,0,0,0,0,0,0,,,,0,0
L8616,Class,Kjc,org.apache.tools.ant.taskdefs.compilers.Kjc,L8554,L103,0,2,1,1,0,0,0,0,0,1,1,0,18,14,0,0,0,0,0,0,0,0,1,0,0,0,0,0,0,0,,,,0,0
L8626,Class,Sj,org.apache.tools.ant.taskdefs.compilers.Sj,L8554,L103,0,1,1,0,0,0,0,0,0,1,1,0,18,14,0,0,0,0,0,0,0,0,0,0,0,0,0,0,0,0,,,,0,0
L8885,Class,Concat,org.apache.tools.ant.taskdefs.Concat,L7223,L103,15,21,17,8,0,0,0,0,0,2,2,0,35,4,0,0,0,0,1,0,6,0,16,0,0,0,0,0,0,0,,,,0,0
L9141,Class,And,org.apache.tools.ant.taskdefs.condition.And,L9120,L103,0,1,1,0,0,0,1,0,0,2,2,0,24,1,0,0,0,0,0,0,0,1,0,0,0,0,0,0,0,0,,,,0,0
L9143,Class,ConditionBase,org.apache.tools.ant.taskdefs.condition.ConditionBase,L9120,L103,1,19,17,0,1,0,0,5,5,1,1,1,5,0,0,0,0,0,0,0,1,0,18,0,0,0,0,0,0,0,,,,0,0
L9235,Class,Contains,org.apache.tools.ant.taskdefs.condition.Contains,L9120,L103,3,4,4,3,0,0,1,0,0,0,0,0,0,0,0,0,0,0,0,0,1,1,2,0,0,0,0,0,0,0,,,,0,0
L9199,Class,Equals,org.apache.tools.ant.taskdefs.condition.Equals,L9120,L103,4,5,5,4,0,0,1,0,0,0,0,0,0,0,0,0,0,0,0,0,1,1,2,0,0,0,0,0,0,0,,,,0,0
L9229,Class,FilesMatch,org.apache.tools.ant.taskdefs.condition.FilesMatch,L9120,L103,2,3,3,2,0,0,1,0,0,0,0,0,0,0,0,0,0,0,1,0,1,1,2,0,0,0,0,0,0,0,,,,0,0
L9217,Class,Http,org.apache.tools.ant.taskdefs.condition.Http,L9120,L103,2,3,3,2,0,0,1,0,0,1,1,0,5,0,0,0,0,0,0,0,1,1,1,0,0,0,0,0,0,0,,,,0,0
L9247,Class,IsFalse,org.apache.tools.ant.taskdefs.condition.IsFalse,L9120,L103,1,2,2,1,0,0,1,0,0,1,1,0,5,0,0,0,0,0,0,0,1,1,0,0,0,0,0,0,0,0,,,,0,0
L9253,Class,IsReference,org.apache.tools.ant.taskdefs.condition.IsReference,L9120,L103,1,3,3,2,0,0,1,0,0,1,1,0,5,0,0,0,0,0,1,0,1,1,2,0,0,0,0,0,0,0,,,,0,0
L9211,Class,IsSet,org.apache.tools.ant.taskdefs.condition.IsSet,L9120,L103,1,2,2,1,0,0,1,0,0,1,1,0,5,0,0,0,0,0,0,0,1,1,1,0,0,0,0,0,0,0,,,,0,0
L9241,Class,IsTrue,org.apache.tools.ant.taskdefs.condition.IsTrue,L9120,L103,1,2,2,1,0,0,1,0,0,1,1,0,5,0,0,0,0,0,0,0,1,1,0,0,0,0,0,0,0,0,,,,0,0
L9182,Class,Not,org.apache.tools.ant.taskdefs.condition.Not,L9120,L103,0,1,1,0,0,0,1,0,0,2,2,0,24,1,0,0,0,0,0,0,0,1,0,0,0,0,0,0,0,0,,,,0,0
L9193,Class,Or,org.apache.tools.ant.taskdefs.condition.Or,L9120,L103,0,1,1,0,0,0,1,0,0,2,2,0,24,1,0,0,0,0,0,0,0,1,0,0,0,0,0,0,0,0,,,,0,0
L9205,Class,Os,org.apache.tools.ant.taskdefs.condition.Os,L9120,L103,8,12,12,4,5,0,1,0,0,0,0,0,0,0,0,0,0,0,0,0,1,1,13,0,0,0,0,0,0,0,,,,0,0
L9223,Class,Socket,org.apache.tools.ant.taskdefs.condition.Socket,L9120,L103,2,3,3,2,0,0,1,0,0,1,1,0,5,0,0,0,0,0,0,0,1,1,1,0,0,0,0,0,0,0,,,,0,0
L9513,Class,ConditionTask,org.apache.tools.ant.taskdefs.ConditionTask,L7223,L103,2,3,3,2,0,0,0,0,0,2,2,0,24,1,0,0,0,0,0,0,1,0,2,0,0,0,0,0,0,0,,,,0,0
L9711,Class,Copydir,org.apache.tools.ant.taskdefs.Copydir,L7223,L103,6,7,6,5,0,0,0,0,0,3,3,0,76,4,0,0,0,0,0,0,2,0,5,0,0,0,0,0,0,0,,,,0,0
L9747,Class,Copyfile,org.apache.tools.ant.taskdefs.Copyfile,L7223,L103,4,5,5,4,0,0,0,0,0,2,2,0,35,4,0,0,0,0,0,0,1,0,3,0,0,0,0,0,0,0,,,,0,0
L9768,Class,Cvs,org.apache.tools.ant.taskdefs.Cvs,L7223,L103,0,1,1,0,0,0,0,0,0,3,3,0,76,25,0,0,0,0,0,0,0,0,0,0,0,0,0,0,0,0,,,,0,0
L9787,Class,ChangeLogParser,org.apache.tools.ant.taskdefs.cvslib.ChangeLogParser,L9775,L103,14,10,1,0,1,0,0,0,0,0,0,0,0,0,0,0,1,1,0,0,3,2,9,0,0,0,0,0,0,0,,,,0,0
L9993,Class,ChangeLogWriter,org.apache.tools.ant.taskdefs.cvslib.ChangeLogWriter,L9775,L103,2,2,1,0,0,0,0,0,0,0,0,0,0,0,0,0,0,0,0,0,1,0,4,0,0,0,0,0,0,0,,,,0,0
L9823,Class,CVSEntry,org.apache.tools.ant.taskdefs.cvslib.CVSEntry,L9775,L103,4,9,4,1,4,0,0,0,0,0,0,0,0,0,0,0,0,0,0,0,3,7,14,0,0,0,0,0,0,0,,,,0,0
L10053,Class,CvsTagDiff,org.apache.tools.ant.taskdefs.cvslib.CvsTagDiff,L9775,L103,12,11,7,6,0,0,0,0,0,3,3,0,76,25,0,0,0,0,1,0,2,0,11,0,0,0,0,0,0,0,,,,0,0
L10113,Class,CvsTagEntry,org.apache.tools.ant.taskdefs.cvslib.CvsTagEntry,L9775,L103,3,7,7,0,3,0,0,0,0,0,0,0,0,0,0,0,0,0,0,0,1,3,10,0,0,0,0,0,0,0,,,,0,0
L9916,Class,CvsUser,org.apache.tools.ant.taskdefs.cvslib.CvsUser,L9775,L103,2,5,2,2,2,0,0,0,0,0,0,0,0,0,0,0,0,0,0,0,1,1,4,0,0,0,0,0,0,0,,,,0,0
L10018,Class,RCSFile,org.apache.tools.ant.taskdefs.cvslib.RCSFile,L9775,L103,3,5,0,0,3,0,0,0,0,0,0,0,0,0,0,0,0,0,0,0,1,0,8,0,0,0,0,0,0,0,,,,0,0
L10193,Class,RedirectingOutputStream,org.apache.tools.ant.taskdefs.cvslib.RedirectingOutputStream,L9775,L103,0,2,1,0,0,0,0,0,0,2,2,0,9,6,0,0,1,1,0,0,0,0,2,0,0,0,0,0,0,0,,,,0,0
L9957,Class,RedirectingStreamHandler,org.apache.tools.ant.taskdefs.cvslib.RedirectingStreamHandler,L9775,L103,0,3,1,0,1,0,0,0,0,1,1,0,15,6,0,0,0,0,0,0,0,0,2,0,0,0,0,0,0,0,,,,0,0
L10218,Class,CVSPass,org.apache.tools.ant.taskdefs.CVSPass,L7223,L103,4,6,5,3,0,0,0,0,0,2,2,0,35,4,0,0,0,0,0,0,2,0,5,0,0,0,0,0,0,0,,,,0,0
L10248,Class,DefaultExcludes,org.apache.tools.ant.taskdefs.DefaultExcludes,L7223,L103,5,5,5,4,0,0,0,0,0,2,2,0,35,4,0,0,0,0,0,0,1,0,2,0,0,0,0,0,0,0,,,,0,0
L10278,Class,DefBase,org.apache.tools.ant.taskdefs.DefBase,L7223,L103,2,11,10,4,4,0,0,2,4,3,3,3,39,6,0,0,0,0,0,0,2,0,8,0,0,0,0,0,0,0,,,,0,0
L10727,Class,Deltree,org.apache.tools.ant.taskdefs.Deltree,L7223,L103,1,3,2,1,0,0,0,0,0,2,2,0,35,4,0,0,0,0,0,0,1,0,2,0,0,0,0,0,0,0,,,,0,0
L10771,Class,Dirname,org.apache.tools.ant.taskdefs.Dirname,L7223,L103,2,3,3,2,0,0,0,0,0,2,2,0,35,4,0,0,0,0,0,0,2,0,2,0,0,0,0,0,0,0,,,,0,0
L10786,Class,Ear,org.apache.tools.ant.taskdefs.Ear,L7223,L103,2,7,4,2,0,0,0,0,0,5,5,0,135,34,0,0,0,0,1,0,1,0,7,0,0,0,0,0,0,0,,,,0,0
L147,Class,Echo,org.apache.tools.ant.taskdefs.Echo,L7223,L103,4,6,6,4,0,0,0,0,0,2,2,0,35,4,0,0,0,0,2,0,2,1,4,0,0,0,0,0,0,0,,,,0,0
L5682,Class,EmailAddress,org.apache.tools.ant.taskdefs.email.EmailAddress,L10889,L103,2,8,7,2,2,0,0,0,0,0,0,0,0,0,0,0,2,2,0,0,1,9,8,0,0,0,0,0,0,0,,,,0,0
L10929,Class,EmailTask,org.apache.tools.ant.taskdefs.email.EmailTask,L10889,L103,21,29,29,19,2,0,0,2,2,2,2,1,35,4,0,0,2,2,0,0,2,0,23,0,0,0,0,0,0,0,,,,0,0
L5657,Class,Mailer,org.apache.tools.ant.taskdefs.email.Mailer,L10889,L103,12,17,16,15,1,0,0,2,3,0,0,2,0,0,0,0,2,3,0,0,2,0,13,0,0,0,0,0,0,0,,,,0,0
L5673,Class,Message,org.apache.tools.ant.taskdefs.email.Message,L10889,L103,5,11,11,3,3,0,0,0,0,1,1,0,5,0,0,0,2,2,0,0,3,2,9,0,0,0,0,0,0,0,,,,0,0
L11084,Class,PlainMailer,org.apache.tools.ant.taskdefs.email.PlainMailer,L10889,L103,0,2,1,0,0,0,0,1,1,1,1,1,17,12,0,0,0,0,0,0,0,0,2,0,0,0,0,0,0,0,,,,0,0
L11311,Class,UUMailer,org.apache.tools.ant.taskdefs.email.UUMailer,L10889,L103,0,1,0,0,0,0,0,0,0,2,2,0,19,12,0,0,0,0,0,0,0,0,2,0,0,0,0,0,0,0,,,,0,0
L11362,Class,Exec,org.apache.tools.ant.taskdefs.Exec,L7223,L103,6,10,7,5,0,0,0,0,0,2,2,0,35,4,0,0,0,0,0,0,3,0,6,0,0,0,0,0,0,0,,,,0,0
L11442,Class,ExecTask,org.apache.tools.ant.taskdefs.ExecTask,L7223,L103,12,35,25,21,2,0,0,1,7,2,2,3,35,4,0,0,1,1,2,0,3,1,22,0,0,0,0,0,0,0,,,,0,0
L8447,Class,ExecuteOn,org.apache.tools.ant.taskdefs.ExecuteOn,L7223,L103,14,22,15,9,4,0,0,4,6,3,3,2,70,16,0,0,0,0,2,0,4,0,24,0,0,0,0,0,0,0,,,,0,0
L11614,Class,ExecuteWatchdog,org.apache.tools.ant.taskdefs.ExecuteWatchdog,L7223,L103,4,9,8,0,1,0,1,0,0,0,0,0,0,0,0,0,2,2,1,0,2,7,2,0,0,0,0,0,0,0,,,,0,0
L12209,Class,Exit,org.apache.tools.ant.taskdefs.Exit,L7223,L103,3,7,5,3,0,0,0,0,0,2,2,0,35,4,0,0,0,0,0,0,1,0,4,0,0,0,0,0,0,0,,,,0,0
L12316,Class,Filter,org.apache.tools.ant.taskdefs.Filter,L7223,L103,3,5,4,3,0,0,0,0,0,2,2,0,35,4,0,0,0,0,0,0,2,0,3,0,0,0,0,0,0,0,,,,0,0
L12581,Class,GenerateKey,org.apache.tools.ant.taskdefs.GenerateKey,L7223,L103,12,13,13,11,0,0,0,0,0,2,2,0,35,4,0,0,0,0,0,0,2,0,11,0,0,0,0,0,0,0,,,,0,0
L12748,Class,GUnzip,org.apache.tools.ant.taskdefs.GUnzip,L7223,L103,1,2,0,0,1,0,0,0,0,3,3,0,44,6,0,0,0,0,0,0,1,0,1,0,0,0,0,0,0,0,,,,0,0
L12764,Class,GZip,org.apache.tools.ant.taskdefs.GZip,L7223,L103,0,1,0,0,0,0,0,0,0,3,3,0,43,6,0,0,0,0,0,0,0,0,0,0,0,0,0,0,0,0,,,,0,0
L12799,Class,Input,org.apache.tools.ant.taskdefs.Input,L7223,L103,4,7,7,4,0,0,0,0,0,2,2,0,35,4,0,0,0,0,0,0,1,0,5,0,0,0,0,0,0,0,,,,0,0
L14279,Class,Jikes,org.apache.tools.ant.taskdefs.Jikes,L7223,L103,1,2,0,0,0,0,0,0,0,0,0,0,0,0,0,0,1,2,0,0,1,0,4,0,0,0,0,0,0,0,,,,0,0
L14282,Class,JikesOutputParser,org.apache.tools.ant.taskdefs.JikesOutputParser,L7223,L103,6,12,5,4,1,0,1,0,0,0,0,0,0,0,0,0,1,2,0,0,1,1,8,0,0,0,0,0,0,0,,,,0,0
L14353,Class,KeySubst,org.apache.tools.ant.taskdefs.KeySubst,L7223,L103,4,7,7,4,0,0,0,0,0,2,2,0,35,4,0,0,0,0,0,0,3,0,8,0,0,0,0,0,0,0,,,,0,0
L14389,Class,LoadFile,org.apache.tools.ant.taskdefs.LoadFile,L7223,L103,5,6,6,4,0,0,0,0,0,2,2,0,35,4,0,0,0,0,0,0,3,0,4,0,0,0,0,0,0,0,,,,0,0
L14425,Class,LoadProperties,org.apache.tools.ant.taskdefs.LoadProperties,L7223,L103,3,4,4,2,0,0,0,0,0,2,2,0,35,4,0,0,0,0,0,0,3,0,3,0,0,0,0,0,0,0,,,,0,0
L7494,Class,LogOutputStream,org.apache.tools.ant.taskdefs.LogOutputStream,L7223,L103,6,9,6,0,1,0,0,2,2,1,1,1,0,0,0,0,0,1,0,0,1,0,3,0,0,0,0,0,0,0,,,,0,0
L8813,Class,LogStreamHandler,org.apache.tools.ant.taskdefs.LogStreamHandler,L7223,L103,0,2,2,0,0,0,0,1,1,1,1,1,15,6,0,0,0,0,0,0,0,0,1,0,0,0,0,0,0,0,,,,0,0
L14505,Class,MacroDef,org.apache.tools.ant.taskdefs.MacroDef,L7223,L103,4,13,11,1,6,0,0,0,0,3,3,0,39,6,0,0,1,1,0,0,4,1,10,0,0,0,0,0,0,0,,,,0,0
L5793,Class,ManifestException,org.apache.tools.ant.taskdefs.ManifestException,L7223,L103,0,1,1,0,0,0,0,0,0,1,1,0,0,0,0,0,0,0,0,0,0,0,1,0,0,0,0,0,0,0,,,,0,0
L8297,Class,MatchingTask,org.apache.tools.ant.taskdefs.MatchingTask,L7223,L103,0,41,39,8,4,0,1,26,34,2,2,3,35,4,0,0,0,0,1,0,0,0,38,0,0,0,0,0,0,0,,,,0,0
L15182,Class,Mkdir,org.apache.tools.ant.taskdefs.Mkdir,L7223,L103,2,3,2,1,0,0,0,0,0,2,2,0,35,4,0,0,0,0,0,0,1,0,2,0,0,0,0,0,0,0,,,,0,0
L15199,Class,Move,org.apache.tools.ant.taskdefs.Move,L7223,L103,0,7,1,0,0,0,0,0,0,3,3,0,66,23,0,0,0,0,0,0,0,0,8,0,0,0,0,0,0,0,,,,0,0
L8206,Class,Pack,org.apache.tools.ant.taskdefs.Pack,L7223,L103,2,8,4,3,0,0,0,2,2,2,2,1,35,4,0,0,0,0,0,0,1,0,7,0,0,0,0,0,0,0,,,,0,0
L34933,Class,Patch,org.apache.tools.ant.taskdefs.Patch,L7223,L103,3,10,10,9,0,0,0,0,0,2,2,0,35,4,0,0,0,0,1,0,1,0,4,0,0,0,0,0,0,0,,,,0,0
L34973,Class,PathConvert,org.apache.tools.ant.taskdefs.PathConvert,L7223,L103,8,15,12,7,1,0,0,0,0,2,2,0,35,4,0,0,0,0,2,0,2,0,11,0,0,0,0,0,0,0,,,,0,0
L5256,Class,PreSetDef,org.apache.tools.ant.taskdefs.PreSetDef,L7223,L103,1,3,3,1,0,0,1,0,0,3,3,0,39,6,0,0,0,1,0,0,1,0,2,0,0,0,0,0,0,0,,,,0,0
L11646,Class,ProcessDestroyer,org.apache.tools.ant.taskdefs.ProcessDestroyer,L7223,L103,5,7,5,0,1,0,1,0,0,0,0,0,0,0,0,0,1,1,0,0,3,0,2,0,0,0,0,0,0,0,,,,0,0
L1448,Class,Property,org.apache.tools.ant.taskdefs.Property,L7223,L103,8,35,25,12,9,0,0,0,0,2,2,0,35,4,0,0,0,1,2,0,3,5,34,0,0,0,0,0,0,0,,,,0,0
L35599,Class,Rename,org.apache.tools.ant.taskdefs.Rename,L7223,L103,3,4,4,3,0,0,0,0,0,2,2,0,35,4,0,0,0,0,0,0,1,0,3,0,0,0,0,0,0,0,,,,0,0
L35763,Class,Rmic,org.apache.tools.ant.taskdefs.Rmic,L7223,L103,16,47,44,17,23,0,0,0,0,3,3,0,76,4,0,0,1,2,3,0,4,3,37,0,0,0,0,0,0,0,,,,0,0
L35965,Class,DefaultRmicAdapter,org.apache.tools.ant.taskdefs.rmic.DefaultRmicAdapter,L35957,L103,1,12,5,3,7,0,1,3,3,0,0,1,0,0,0,0,0,1,1,0,1,0,12,0,0,0,0,0,0,0,,,,0,0
L36033,Class,KaffeRmic,org.apache.tools.ant.taskdefs.rmic.KaffeRmic,L35957,L103,0,1,1,0,0,0,0,0,0,1,1,0,12,1,0,0,0,0,0,0,0,0,0,0,0,0,0,0,0,0,,,,0,0
L36055,Class,SunRmic,org.apache.tools.ant.taskdefs.rmic.SunRmic,L35957,L103,0,1,1,0,0,0,0,0,0,1,1,0,12,1,0,0,0,0,0,0,0,0,0,0,0,0,0,0,0,0,,,,0,0
L36063,Class,WLRmic,org.apache.tools.ant.taskdefs.rmic.WLRmic,L35957,L103,0,3,3,0,2,0,0,0,0,1,1,0,12,1,0,0,0,0,0,0,0,0,2,0,0,0,0,0,0,0,,,,0,0
L36080,Class,SendEmail,org.apache.tools.ant.taskdefs.SendEmail,L7223,L103,0,1,1,1,0,0,0,0,0,3,3,0,64,25,0,0,0,0,0,0,0,0,1,0,0,0,0,0,0,0,,,,0,0
L36087,Class,Sequential,org.apache.tools.ant.taskdefs.Sequential,L7223,L103,1,2,2,0,0,0,1,1,1,2,2,1,35,4,0,0,0,0,0,0,1,0,1,0,0,0,0,0,0,0,,,,0,0
L36098,Class,SignJar,org.apache.tools.ant.taskdefs.SignJar,L7223,L103,14,18,15,13,2,0,0,0,0,2,2,0,35,4,0,0,0,0,0,0,3,0,15,0,0,0,0,0,0,0,,,,0,0
L36191,Class,Sleep,org.apache.tools.ant.taskdefs.Sleep,L7223,L103,5,10,9,5,1,0,0,0,0,2,2,0,35,4,0,0,0,0,0,0,0,0,0,0,0,0,0,0,0,0,,,,0,0
L36470,Class,SubAnt,org.apache.tools.ant.taskdefs.SubAnt,L7223,L103,10,22,18,9,1,0,0,0,0,2,2,0,35,4,0,0,0,0,1,0,3,0,21,0,0,0,0,0,0,0,,,,0,0
L36903,Class,Taskdef,org.apache.tools.ant.taskdefs.Taskdef,L7223,L103,0,1,1,0,0,0,0,0,0,6,6,0,71,19,0,0,0,0,0,0,0,0,0,0,0,0,0,0,0,0,,,,0,0
L36909,Class,TaskOutputStream,org.apache.tools.ant.taskdefs.TaskOutputStream,L7223,L103,2,3,1,0,0,0,0,0,0,1,1,0,0,0,0,0,0,1,0,0,1,0,1,0,0,0,0,0,0,0,,,,0,0
L36994,Class,Transform,org.apache.tools.ant.taskdefs.Transform,L7223,L103,0,0,0,0,0,0,0,0,0,4,4,0,92,30,0,0,0,0,0,0,0,0,0,0,0,0,0,0,0,0,,,,0,0
L33984,Class,Tstamp,org.apache.tools.ant.taskdefs.Tstamp,L7223,L103,2,4,3,2,0,0,0,0,0,2,2,0,35,4,0,0,1,1,0,0,2,0,4,0,0,0,0,0,0,0,,,,0,0
L1538,Class,Typedef,org.apache.tools.ant.taskdefs.Typedef,L7223,L103,0,0,0,0,0,0,0,1,1,5,5,1,71,19,0,0,0,0,0,0,0,0,0,0,0,0,0,0,0,0,,,,0,0
L8174,Class,Unpack,org.apache.tools.ant.taskdefs.Unpack,L7223,L103,2,9,5,4,1,0,0,2,2,2,2,1,35,4,0,0,0,0,0,0,1,0,6,0,0,0,0,0,0,0,,,,0,0
L9176,Class,UpToDate,org.apache.tools.ant.taskdefs.UpToDate,L7223,L103,5,10,8,4,1,0,1,0,0,2,2,0,35,4,0,0,0,0,1,0,3,1,9,0,0,0,0,0,0,0,,,,0,0
L37215,Class,WaitFor,org.apache.tools.ant.taskdefs.WaitFor,L7223,L103,5,6,6,5,0,0,0,0,0,2,2,0,24,1,0,0,0,0,0,0,1,0,3,0,0,0,0,0,0,0,,,,0,0
L37270,Class,War,org.apache.tools.ant.taskdefs.War,L7223,L103,2,9,6,2,0,0,0,0,0,5,5,0,135,34,0,0,0,0,1,0,1,0,9,0,0,0,0,0,0,0,,,,0,0
L37307,Class,WhichResource,org.apache.tools.ant.taskdefs.WhichResource,L7223,L103,3,7,6,4,0,0,0,0,0,2,2,0,35,4,0,0,0,0,1,0,1,0,5,0,0,0,0,0,0,0,,,,0,0
L3608,Class,AntFilterReader,org.apache.tools.ant.types.AntFilterReader,L39850,L103,2,9,9,4,3,0,1,0,0,2,2,0,19,2,0,0,1,1,0,0,2,1,9,0,0,0,0,0,0,0,,,,0,0
L21097,Class,DataType,org.apache.tools.ant.types.DataType,L39850,L103,2,14,4,3,5,0,0,18,57,1,1,4,5,0,0,0,1,1,0,0,1,0,12,0,0,0,0,0,0,0,,,,0,0
L40420,Class,Description,org.apache.tools.ant.types.Description,L39850,L103,0,4,2,0,1,0,0,0,0,2,2,0,19,2,0,0,0,0,0,0,0,0,10,0,0,0,0,0,0,0,,,,0,0
L12062,Class,DirSet,org.apache.tools.ant.types.DirSet,L39850,L103,0,3,2,0,0,0,0,0,0,3,3,0,69,8,0,0,0,0,0,0,0,4,1,0,0,0,0,0,0,0,,,,0,0
L19176,Class,DTDLocation,org.apache.tools.ant.types.DTDLocation,L39850,L103,0,0,0,0,0,0,0,1,1,1,1,1,6,4,0,0,0,0,0,0,0,1,0,0,0,0,0,0,0,0,,,,0,0
L5158,Class,EnumeratedAttribute,org.apache.tools.ant.types.EnumeratedAttribute,L39850,L103,2,8,7,1,3,0,0,63,63,0,0,1,0,0,0,0,0,0,0,0,1,0,6,0,0,0,0,0,0,0,,,,0,0
L8959,Class,FileList,org.apache.tools.ant.types.FileList,L39850,L103,2,8,6,3,3,0,0,0,0,2,2,0,19,2,0,0,0,0,0,0,2,6,8,0,0,0,0,0,0,0,,,,0,0
L143,Class,FileSet,org.apache.tools.ant.types.FileSet,L39850,L103,0,3,2,0,0,0,0,6,6,3,3,1,69,8,0,0,0,0,3,0,0,56,1,0,0,0,0,0,0,0,,,,0,0
L3603,Class,FilterChain,org.apache.tools.ant.types.FilterChain,L39850,L103,1,24,24,1,1,0,1,0,0,2,2,0,19,2,0,0,0,0,0,0,1,4,24,0,0,0,0,0,0,0,,,,0,0
L6169,Class,FilterSetCollection,org.apache.tools.ant.types.FilterSetCollection,L39850,L103,1,5,5,0,1,0,0,0,0,0,0,0,0,0,0,0,0,1,0,0,1,12,4,0,0,0,0,0,0,0,,,,0,0
L40704,Class,FlexInteger,org.apache.tools.ant.types.FlexInteger,L39850,L103,1,3,3,0,0,0,0,0,0,0,0,0,0,0,0,0,1,1,0,0,1,1,2,0,0,0,0,0,0,0,,,,0,0
L2427,Class,Parameter,org.apache.tools.ant.types.Parameter,L39850,L103,3,6,6,3,3,0,0,0,0,0,0,0,0,0,0,0,0,1,1,0,1,19,6,0,0,0,0,0,0,0,,,,0,0
L623,Class,Path,org.apache.tools.ant.types.Path,L39850,L103,1,29,24,3,0,0,1,1,1,2,2,1,19,2,0,0,4,5,35,4,1,182,30,0,0,0,0,0,0,0,,,,0,0
L11953,Class,Permissions,org.apache.tools.ant.types.Permissions,L39850,L103,6,7,6,1,0,0,0,0,0,0,0,0,0,0,0,0,1,1,4,0,3,4,2,0,0,0,0,0,0,0,,,,0,0
L7836,Class,Reference,org.apache.tools.ant.types.Reference,L39850,L103,1,5,5,1,2,0,0,1,1,0,0,1,0,0,0,0,1,1,3,0,1,53,5,0,0,0,0,0,0,0,,,,0,0
L2759,Class,RegularExpression,org.apache.tools.ant.types.RegularExpression,L39850,L103,1,5,5,1,3,0,0,0,0,2,2,0,19,2,0,0,0,1,3,2,1,3,6,0,0,0,0,0,0,0,,,,0,0
L41779,Class,ApacheCatalog,org.apache.tools.ant.types.resolver.ApacheCatalog,L41775,L103,0,3,2,1,0,0,0,0,0,1,1,0,0,0,0,0,1,1,0,0,0,0,3,0,0,0,0,0,0,0,,,,0,0
L41784,Class,ApacheCatalogResolver,org.apache.tools.ant.types.resolver.ApacheCatalogResolver,L41775,L103,0,4,4,1,0,0,0,0,0,1,1,0,0,0,0,0,1,2,0,0,0,1,8,0,0,0,0,0,0,0,,,,0,0
L2197,Class,Resource,org.apache.tools.ant.types.Resource,L39850,L103,4,14,14,4,4,0,2,0,0,0,0,0,0,0,0,0,1,1,0,1,1,16,7,0,0,0,0,0,0,0,,,,0,0
L40447,Class,ResourceLocation,org.apache.tools.ant.types.ResourceLocation,L39850,L103,4,6,6,3,3,0,0,1,2,0,0,2,0,0,0,0,0,0,0,0,2,6,6,0,0,0,0,0,0,0,,,,0,0
L10580,Class,AndSelector,org.apache.tools.ant.types.selectors.AndSelector,L41908,L103,0,3,3,0,1,0,0,0,0,4,4,0,53,4,0,0,0,0,0,0,0,5,4,0,0,0,0,0,0,0,,,,0,0
L41971,Class,BaseExtendSelector,org.apache.tools.ant.types.selectors.BaseExtendSelector,L41908,L103,0,4,3,1,2,0,1,8,8,3,3,1,25,3,0,0,0,1,0,0,0,0,5,0,0,0,0,0,0,0,,,,0,0
L41973,Class,BaseSelector,org.apache.tools.ant.types.selectors.BaseSelector,L41908,L103,1,6,6,1,2,0,1,5,21,2,2,3,19,2,0,0,0,0,0,0,1,11,5,0,0,0,0,0,0,0,,,,0,0
L41949,Class,BaseSelectorContainer,org.apache.tools.ant.types.selectors.BaseSelectorContainer,L41908,L103,1,28,28,0,3,0,1,5,6,3,3,2,25,3,0,0,0,0,0,0,1,0,27,0,0,0,0,0,0,0,,,,0,0
L10684,Class,ContainsRegexpSelector,org.apache.tools.ant.types.selectors.ContainsRegexpSelector,L41908,L103,2,6,6,2,1,0,0,0,0,4,4,0,29,3,0,0,0,1,1,0,1,5,6,0,0,0,0,0,0,0,,,,0,0
L10652,Class,ContainsSelector,org.apache.tools.ant.types.selectors.ContainsSelector,L41908,L103,7,8,8,4,1,0,0,0,0,4,4,0,29,3,0,0,0,0,0,0,1,5,6,0,0,0,0,0,0,0,,,,0,0
L10620,Class,DateSelector,org.apache.tools.ant.types.selectors.DateSelector,L41908,L103,10,11,11,6,2,0,0,0,0,4,4,0,29,3,0,0,0,0,0,0,1,5,7,0,0,0,0,0,0,0,,,,0,0
L10676,Class,DependSelector,org.apache.tools.ant.types.selectors.DependSelector,L41908,L103,0,3,3,0,0,0,0,0,0,4,4,0,32,5,0,0,0,0,0,0,0,5,3,0,0,0,0,0,0,0,,,,0,0
L10668,Class,DepthSelector,org.apache.tools.ant.types.selectors.DepthSelector,L41908,L103,4,7,7,3,1,0,0,0,0,4,4,0,29,3,0,0,0,0,0,0,1,5,5,0,0,0,0,0,0,0,,,,0,0
L15159,Class,DifferentSelector,org.apache.tools.ant.types.selectors.DifferentSelector,L41908,L103,1,2,1,1,0,0,0,0,0,4,4,0,32,5,0,0,0,0,1,0,0,4,2,0,0,0,0,0,0,0,,,,0,0
L10644,Class,ExtendSelector,org.apache.tools.ant.types.selectors.ExtendSelector,L41908,L103,2,10,10,3,2,0,0,0,0,3,3,0,25,3,0,0,1,2,0,0,2,5,9,0,0,0,0,0,0,0,,,,0,0
L10636,Class,FilenameSelector,org.apache.tools.ant.types.selectors.FilenameSelector,L41908,L103,6,8,8,4,1,0,0,0,0,4,4,0,29,3,0,0,0,0,0,0,1,5,6,0,0,0,0,0,0,0,,,,0,0
L10612,Class,MajoritySelector,org.apache.tools.ant.types.selectors.MajoritySelector,L41908,L103,1,4,4,1,1,0,0,0,0,4,4,0,53,4,0,0,0,0,0,0,0,5,4,0,0,0,0,0,0,0,,,,0,0
L42249,Class,MappingSelector,org.apache.tools.ant.types.selectors.MappingSelector,L41908,L103,2,7,6,2,1,0,0,2,2,3,3,1,25,3,0,0,0,1,1,0,1,0,7,0,0,0,0,0,0,0,,,,0,0
L42510,Class,EqualComparator,org.apache.tools.ant.types.selectors.modifiedselector.EqualComparator,L42438,L103,0,2,2,0,0,0,1,0,0,0,0,0,0,0,0,0,0,0,0,0,0,0,3,0,0,0,0,0,0,0,,,,0,0
L42522,Class,HashvalueAlgorithm,org.apache.tools.ant.types.selectors.modifiedselector.HashvalueAlgorithm,L42438,L103,0,3,3,0,2,0,1,0,0,0,0,0,0,0,0,0,0,0,0,0,0,0,3,0,0,0,0,0,0,0,,,,0,0
L10604,Class,NoneSelector,org.apache.tools.ant.types.selectors.NoneSelector,L41908,L103,0,3,3,0,1,0,0,1,1,4,4,1,53,4,0,0,0,0,0,0,0,5,4,0,0,0,0,0,0,0,,,,0,0
L10596,Class,NotSelector,org.apache.tools.ant.types.selectors.NotSelector,L41908,L103,0,3,3,0,0,0,0,0,0,5,5,0,56,4,0,0,0,0,0,0,0,5,1,0,0,0,0,0,0,0,,,,0,0
L10588,Class,OrSelector,org.apache.tools.ant.types.selectors.OrSelector,L41908,L103,0,3,3,0,1,0,0,0,0,4,4,0,53,4,0,0,0,0,0,0,0,5,4,0,0,0,0,0,0,0,,,,0,0
L10660,Class,PresentSelector,org.apache.tools.ant.types.selectors.PresentSelector,L41908,L103,2,7,7,2,1,0,0,0,0,3,3,0,25,3,0,0,0,1,1,0,1,5,7,0,0,0,0,0,0,0,,,,0,0
L42864,Class,SelectorUtils,org.apache.tools.ant.types.selectors.SelectorUtils,L41908,L103,0,16,14,0,4,0,0,0,0,0,0,0,0,0,0,0,0,0,0,0,0,0,28,0,0,0,0,0,0,0,,,,0,0
L10572,Class,SelectSelector,org.apache.tools.ant.types.selectors.SelectSelector,L41908,L103,2,13,12,2,4,0,0,0,0,4,4,0,53,4,0,0,0,0,0,0,1,5,10,0,0,0,0,0,0,0,,,,0,0
L10628,Class,SizeSelector,org.apache.tools.ant.types.selectors.SizeSelector,L41908,L103,7,8,8,4,1,0,0,0,0,4,4,0,29,3,0,0,0,0,0,0,1,5,7,0,0,0,0,0,0,0,,,,0,0
L15167,Class,TypeSelector,org.apache.tools.ant.types.selectors.TypeSelector,L41908,L103,2,6,6,2,1,0,0,0,0,4,4,0,29,3,0,0,0,0,0,0,1,4,6,0,0,0,0,0,0,0,,,,0,0
L3436,Class,Substitution,org.apache.tools.ant.types.Substitution,L39850,L103,2,4,4,1,2,0,0,0,0,2,2,0,19,2,0,0,0,0,1,2,1,2,4,0,0,0,0,0,0,0,,,,0,0
L33125,Class,XMLCatalog,org.apache.tools.ant.types.XMLCatalog,L39850,L103,4,24,13,6,5,0,3,0,0,2,2,0,19,2,0,0,2,3,3,0,3,5,30,0,0,0,0,0,0,0,,,,0,0
L37735,Class,ZipScanner,org.apache.tools.ant.types.ZipScanner,L39850,L103,3,8,7,2,3,0,0,0,0,1,1,0,52,20,0,0,1,1,1,0,3,1,7,0,0,0,0,0,0,0,,,,0,0
L6986,Class,CollectionUtils,org.apache.tools.ant.util.CollectionUtils,L44233,L103,0,3,3,0,0,0,0,0,0,0,0,0,0,0,0,0,0,0,0,0,0,0,6,0,0,0,0,0,0,0,,,,0,0
L44399,Class,DateUtils,org.apache.tools.ant.util.DateUtils,L44233,L103,10,10,8,0,2,0,0,0,0,0,0,0,0,0,0,0,0,0,0,0,4,0,16,0,0,0,0,0,0,0,,,,0,0
L18597,Class,DOMElementWriter,org.apache.tools.ant.util.DOMElementWriter,L44233,L103,2,6,6,0,2,0,0,0,0,0,0,0,0,0,0,0,1,1,0,0,1,0,10,0,0,0,0,0,0,0,,,,0,0
L13308,Class,FacadeTaskHelper,org.apache.tools.ant.util.facade.FacadeTaskHelper,L44678,L103,4,9,9,2,4,0,0,0,0,0,0,0,0,0,0,0,0,0,2,0,2,0,9,0,0,0,0,0,0,0,,,,0,0
L13551,Class,ImplementationSpecificArgument,org.apache.tools.ant.util.facade.ImplementationSpecificArgument,L44678,L103,1,3,3,1,1,0,0,2,2,2,2,1,11,1,0,0,0,0,0,0,1,1,3,0,0,0,0,0,0,0,,,,0,0
L9676,Class,FlatFileNameMapper,org.apache.tools.ant.util.FlatFileNameMapper,L44233,L103,0,3,3,2,0,0,1,0,0,0,0,0,0,0,0,0,0,0,0,0,0,0,4,0,0,0,0,0,0,0,,,,0,0
L13514,Class,GlobPatternMapper,org.apache.tools.ant.util.GlobPatternMapper,L44233,L103,6,4,3,2,0,0,1,2,2,0,0,1,0,0,0,0,0,0,0,0,1,0,6,0,0,0,0,0,0,0,,,,0,0
L9681,Class,IdentityMapper,org.apache.tools.ant.util.IdentityMapper,L44233,L103,0,3,3,2,0,0,1,0,0,0,0,0,0,0,0,0,0,0,0,0,0,0,4,0,0,0,0,0,0,0,,,,0,0
L45025,Class,JAXPUtils,org.apache.tools.ant.util.JAXPUtils,L44233,L103,3,11,8,0,8,0,0,0,0,0,0,0,0,0,0,0,1,1,0,0,2,0,14,0,0,0,0,0,0,0,,,,0,0
L4776,Class,KeepAliveInputStream,org.apache.tools.ant.util.KeepAliveInputStream,L44233,L103,0,2,2,0,0,0,0,0,0,1,1,0,0,0,0,0,0,0,0,0,0,0,1,0,0,0,0,0,0,0,,,,0,0
L45083,Class,KeepAliveOutputStream,org.apache.tools.ant.util.KeepAliveOutputStream,L44233,L103,0,2,2,0,0,0,0,0,0,1,1,0,0,0,0,0,0,0,0,0,0,0,1,0,0,0,0,0,0,0,,,,0,0
L35569,Class,LazyFileOutputStream,org.apache.tools.ant.util.LazyFileOutputStream,L44233,L103,5,10,9,0,0,0,0,0,0,1,1,0,0,0,0,0,1,1,0,0,2,0,4,0,0,0,0,0,0,0,,,,0,0
L45135,Class,LazyHashtable,org.apache.tools.ant.util.LazyHashtable,L44233,L103,1,9,8,0,1,0,0,0,0,1,1,0,0,0,0,0,0,0,0,0,0,0,5,0,0,0,0,0,0,0,,,,0,0
L2621,Class,LineTokenizer,org.apache.tools.ant.util.LineTokenizer,L44233,L103,3,3,3,1,2,0,1,0,0,1,1,0,5,0,0,0,0,0,2,0,1,1,3,0,0,0,0,0,0,0,,,,0,0
L45170,Class,LoaderUtils,org.apache.tools.ant.util.LoaderUtils,L44233,L103,0,6,5,1,4,0,0,0,0,0,0,0,0,0,0,0,0,0,0,0,0,0,9,0,0,0,0,0,0,0,,,,0,0
L36807,Class,MergingMapper,org.apache.tools.ant.util.MergingMapper,L44233,L103,1,3,3,2,0,0,1,0,0,0,0,0,0,0,0,0,0,0,0,0,1,0,4,0,0,0,0,0,0,0,,,,0,0
L45225,Class,PackageNameMapper,org.apache.tools.ant.util.PackageNameMapper,L44233,L103,0,1,0,0,0,0,0,0,0,1,1,0,4,6,0,0,0,0,0,0,0,0,2,0,0,0,0,0,0,0,,,,0,0
L41756,Class,RegexpFactory,org.apache.tools.ant.util.regexp.RegexpFactory,L45231,L103,0,4,3,0,0,0,0,0,0,1,1,0,5,0,0,0,0,0,1,0,0,0,5,0,0,0,0,0,0,0,,,,0,0
L26910,Class,RegexpMatcherFactory,org.apache.tools.ant.util.regexp.RegexpMatcherFactory,L45231,L103,0,5,3,0,0,0,0,1,1,0,0,1,0,0,0,0,0,0,0,0,0,0,6,0,0,0,0,0,0,0,,,,0,0
L45483,Class,RegexpUtil,org.apache.tools.ant.util.regexp.RegexpUtil,L45231,L103,0,2,2,0,1,0,0,0,0,0,0,0,0,0,0,0,0,0,0,0,0,0,0,0,0,0,0,0,0,0,,,,0,0
L45615,Class,RegexpPatternMapper,org.apache.tools.ant.util.RegexpPatternMapper,L44233,L103,2,5,4,2,0,0,1,0,0,0,0,0,0,0,0,0,0,1,0,0,1,0,6,0,0,0,0,0,0,0,,,,0,0
L45693,Class,StringUtils,org.apache.tools.ant.util.StringUtils,L44233,L103,1,4,4,0,1,0,0,0,0,0,0,0,0,0,0,0,0,0,0,0,1,0,10,0,0,0,0,0,0,0,,,,0,0
L45711,Class,TaskLogger,org.apache.tools.ant.util.TaskLogger,L44233,L103,0,6,6,0,0,0,0,0,0,0,0,0,0,0,0,0,0,1,0,0,0,0,6,0,0,0,0,0,0,0,,,,0,0
L15408,Class,TeeOutputStream,org.apache.tools.ant.util.TeeOutputStream,L44233,L103,2,6,6,0,0,0,0,0,0,1,1,0,0,0,0,0,0,0,0,0,1,0,2,0,0,0,0,0,0,0,,,,0,0
L45753,Class,UnPackageNameMapper,org.apache.tools.ant.util.UnPackageNameMapper,L44233,L103,0,1,0,0,0,0,0,0,0,1,1,0,4,6,0,0,0,0,0,0,0,0,2,0,0,0,0,0,0,0,,,,0,0
L12001,Class,Watchdog,org.apache.tools.ant.util.Watchdog,L44233,L103,3,7,6,0,0,0,1,0,0,0,0,0,0,0,0,0,0,0,1,0,1,3,2,0,0,0,0,0,0,0,,,,0,0
L45967,Class,XmlLogger,org.apache.tools.ant.XmlLogger,L443,L103,18,15,12,4,3,0,1,0,0,0,0,0,0,0,0,0,0,0,0,0,6,0,13,0,0,0,0,0,0,0,,,,0,0
L8188,Class,CBZip2InputStream,org.apache.tools.bzip2.CBZip2InputStream,L46541,L103,44,32,2,8,1,0,1,0,0,1,1,0,0,0,0,0,1,1,0,0,1,0,2,0,0,0,0,0,0,0,,,,0,0
L8213,Class,CBZip2OutputStream,org.apache.tools.bzip2.CBZip2OutputStream,L46541,L103,40,33,5,0,0,0,1,0,0,1,1,0,0,0,0,0,1,1,0,0,1,0,3,0,0,0,0,0,0,0,,,,0,0
L46588,Class,CRC,org.apache.tools.bzip2.CRC,L46541,L103,2,6,1,1,2,0,0,0,0,0,0,0,0,0,0,0,2,2,0,0,0,0,0,0,0,0,0,0,0,0,,,,0,0
L46965,Class,ErrorInQuitException,org.apache.tools.mail.ErrorInQuitException,L46958,L103,0,1,1,0,0,0,0,0,0,1,1,0,0,0,0,0,0,0,0,0,0,0,1,0,0,0,0,0,0,0,,,,0,0
L5620,Class,MailMessage,org.apache.tools.mail.MailMessage,L46958,L103,19,31,13,7,3,0,0,0,0,0,0,0,0,0,0,0,2,2,0,1,3,0,19,0,0,0,0,0,0,0,,,,0,0
L46990,Class,MailPrintStream,org.apache.tools.mail.MailPrintStream,L46958,L103,1,5,3,0,0,0,0,0,0,1,1,0,0,0,0,0,1,1,0,0,0,0,2,0,0,0,0,0,0,0,,,,0,0
L46994,Class,SmtpResponseReader,org.apache.tools.mail.SmtpResponseReader,L46958,L103,2,5,3,0,2,0,0,0,0,0,0,0,0,0,0,0,1,1,0,0,2,0,4,0,0,0,0,0,0,0,,,,0,0
L36772,Class,TarEntry,org.apache.tools.tar.TarEntry,L47279,L103,19,35,34,11,15,0,1,0,0,0,0,0,0,0,0,0,1,1,0,0,2,2,16,0,0,0,0,0,0,0,,,,0,0
L47747,Class,TarUtils,org.apache.tools.tar.TarUtils,L47279,L103,0,7,7,0,4,0,0,0,0,0,0,0,0,0,0,0,0,0,0,0,0,0,2,0,0,0,0,0,0,0,,,,0,0
L47811,Class,AsiExtraField,org.apache.tools.zip.AsiExtraField,L47793,L103,6,19,18,5,12,0,3,0,0,0,0,0,0,0,0,0,2,2,0,0,2,0,5,0,0,0,0,0,0,0,,,,0,0
L47930,Class,ExtraFieldUtils,org.apache.tools.zip.ExtraFieldUtils,L47793,L103,1,5,5,0,0,0,0,0,0,0,0,0,0,0,0,0,0,0,0,0,1,0,6,0,0,0,0,0,0,0,,,,0,0
L47948,Class,UnrecognizedExtraField,org.apache.tools.zip.UnrecognizedExtraField,L47793,L103,2,9,9,3,5,0,1,0,0,0,0,0,0,0,0,0,2,2,0,0,0,0,4,0,0,0,0,0,0,0,,,,0,0
L47858,Class,ZipLong,org.apache.tools.zip.ZipLong,L47793,L103,1,7,7,0,3,0,1,0,0,0,0,0,0,0,0,0,1,1,0,0,0,2,1,0,0,0,0,0,0,0,,,,0,0
L47820,Class,ZipShort,org.apache.tools.zip.ZipShort,L47793,L103,1,7,7,0,3,0,1,0,0,0,0,0,0,0,0,0,2,2,0,0,0,12,1,0,0,0,0,0,0,0,,,,0,0
L47378,Interface,TarConstants,org.apache.tools.tar.TarConstants,L47279,L103,,0,,,,,,,0,0,,,,,,,,,,0,,0,0,,,,,,,0,0,1,0,1,1
L1581,Class,DefaultLogger,org.apache.tools.ant.DefaultLogger,L443,L103,7,15,12,4,0,0,1,3,3,0,0,1,0,0,0,0,0,0,0,0,2,0,13,0,0,0,0,0,0,0,,,,1,1
L1804,Class,Diagnostics,org.apache.tools.ant.Diagnostics,L443,L103,1,16,5,0,6,0,0,0,0,0,0,0,0,0,0,0,0,0,0,0,1,0,15,0,0,0,0,0,0,0,,,,1,1
L2450,Class,ClassConstants,org.apache.tools.ant.filters.ClassConstants,L2321,L103,2,4,4,0,0,0,1,0,0,2,2,0,10,2,0,0,0,0,0,0,1,1,3,0,0,0,0,0,0,0,,,,1,1
L2827,Class,ReplaceTokens,org.apache.tools.ant.filters.ReplaceTokens,L2321,L103,9,13,7,3,4,0,1,0,0,3,3,0,14,2,0,0,0,0,0,0,2,1,6,0,0,0,0,0,0,0,,,,1,1
L3885,Class,AntXMLContext,org.apache.tools.ant.helper.AntXMLContext,L3880,L103,8,26,26,6,11,0,0,0,0,0,0,0,0,0,0,0,0,2,0,1,5,16,26,0,0,0,0,0,0,0,,,,1,1
L4022,Class,ProjectHelper2,org.apache.tools.ant.helper.ProjectHelper2,L3880,L103,4,3,3,0,0,0,0,0,0,1,1,0,18,6,0,0,0,0,1,0,1,0,8,0,0,0,0,0,0,0,,,,1,1
L4401,Class,ProjectHelperImpl,org.apache.tools.ant.helper.ProjectHelperImpl,L3880,L103,4,4,2,0,0,0,0,0,0,1,1,0,18,6,0,0,0,2,1,0,3,0,8,0,0,0,0,0,0,0,,,,1,1
L5705,Class,AntClassLoader2,org.apache.tools.ant.loader.AntClassLoader2,L5702,L103,0,6,1,0,1,0,0,0,0,2,2,0,46,13,0,0,0,0,1,0,0,0,11,0,0,0,0,0,0,0,,,,1,1
L3329,Class,ProjectComponent,org.apache.tools.ant.ProjectComponent,L443,L103,0,5,5,1,1,0,0,20,342,0,0,6,0,0,0,0,1,1,0,1,0,3,4,0,0,0,0,0,0,0,,,,1,1
L4024,Class,ProjectHelper,org.apache.tools.ant.ProjectHelper,L443,L103,6,18,17,0,3,0,0,2,2,0,0,1,0,0,0,0,0,0,0,0,2,0,39,0,0,0,0,0,0,0,,,,1,1
L6285,Class,PropertyHelper,org.apache.tools.ant.PropertyHelper,L443,L103,3,20,18,7,7,0,0,0,0,0,0,0,0,0,0,0,1,1,0,0,1,0,40,0,0,0,0,0,0,0,,,,1,1
L3943,Class,RuntimeConfigurable,org.apache.tools.ant.RuntimeConfigurable,L443,L103,11,21,19,5,8,0,1,0,0,0,0,0,0,0,0,0,1,1,0,5,7,16,19,0,0,0,0,0,0,0,,,,1,1
L128,Class,Task,org.apache.tools.ant.Task,L443,L103,4,30,20,6,9,0,0,126,250,1,1,5,5,0,0,0,5,19,0,2,1,57,22,0,0,0,0,0,0,0,,,,1,1
L7918,Class,AntStructure,org.apache.tools.ant.taskdefs.AntStructure,L7223,L103,6,7,2,1,1,0,0,0,0,2,2,0,35,4,0,0,0,0,0,0,3,0,10,0,0,0,0,0,0,0,,,,1,1
L8577,Class,CompilerAdapterFactory,org.apache.tools.ant.taskdefs.compilers.CompilerAdapterFactory,L8554,L103,1,4,1,0,1,0,0,0,0,0,0,0,0,0,0,0,0,0,0,0,1,0,5,0,0,0,0,0,0,0,,,,1,1
L8638,Class,DefaultCompilerAdapter,org.apache.tools.ant.taskdefs.compilers.DefaultCompilerAdapter,L8554,L103,14,18,2,7,3,0,1,9,9,0,0,1,0,0,0,0,0,3,2,0,2,0,18,0,0,0,0,0,0,0,,,,1,1
L8621,Class,Gcj,org.apache.tools.ant.taskdefs.compilers.Gcj,L8554,L103,0,2,1,1,0,0,0,0,0,1,1,0,18,14,0,0,0,0,0,0,0,0,1,0,0,0,0,0,0,0,,,,1,1
L8588,Class,Jikes,org.apache.tools.ant.taskdefs.compilers.Jikes,L8554,L103,0,1,1,0,0,0,0,0,0,1,1,0,18,14,0,0,0,0,0,0,0,0,0,0,0,0,0,0,0,0,,,,1,1
L10338,Class,Definer,org.apache.tools.ant.taskdefs.Definer,L7223,L103,11,21,13,10,4,0,0,1,2,4,4,2,50,8,0,0,0,0,0,0,3,0,24,0,0,0,0,0,0,0,,,,1,1
L10740,Class,DependSet,org.apache.tools.ant.taskdefs.DependSet,L7223,L103,4,6,6,0,0,0,0,0,0,3,3,0,76,4,0,0,0,0,0,0,1,0,4,0,0,0,0,0,0,0,,,,1,1
L8988,Class,FixCRLF,org.apache.tools.ant.taskdefs.FixCRLF,L7223,L103,30,16,11,9,1,0,0,0,0,3,3,0,76,4,0,0,0,0,1,0,3,0,14,0,0,0,0,0,0,0,,,,1,1
L12776,Class,ImportTask,org.apache.tools.ant.taskdefs.ImportTask,L7223,L103,2,4,3,2,1,0,0,0,0,2,2,0,35,4,0,0,0,0,1,0,1,0,3,0,0,0,0,0,0,0,,,,1,1
L14160,Class,JDBCTask,org.apache.tools.ant.taskdefs.JDBCTask,L7223,L103,9,24,19,10,13,0,0,1,1,2,2,1,35,4,0,0,0,1,1,0,2,0,20,0,0,0,0,0,0,0,,,,1,1
L5784,Class,Manifest,org.apache.tools.ant.taskdefs.Manifest,L7223,L103,13,16,16,0,7,0,0,0,0,0,0,0,0,0,0,0,2,2,0,0,4,7,12,0,0,0,0,0,0,0,,,,1,1
L14985,Class,ManifestTask,org.apache.tools.ant.taskdefs.ManifestTask,L7223,L103,3,7,7,3,0,0,0,0,0,2,2,0,35,4,0,0,1,1,0,0,3,0,5,0,0,0,0,0,0,0,,,,1,1
L34815,Class,Parallel,org.apache.tools.ant.taskdefs.Parallel,L7223,L103,12,12,8,5,1,0,1,0,0,2,2,0,35,4,0,0,0,1,0,0,5,0,3,0,0,0,0,0,0,0,,,,1,1
L7469,Class,PumpStreamHandler,org.apache.tools.ant.taskdefs.PumpStreamHandler,L7223,L103,6,15,9,3,2,0,1,2,3,0,0,2,0,0,0,0,0,1,0,0,3,0,21,0,0,0,0,0,0,0,,,,1,1
L35359,Class,Recorder,org.apache.tools.ant.taskdefs.Recorder,L7223,L103,6,7,6,5,1,0,0,0,0,2,2,0,35,4,0,0,0,0,0,0,3,0,6,0,0,0,0,0,0,0,,,,1,1
L35619,Class,Replace,org.apache.tools.ant.taskdefs.Replace,L7223,L103,12,18,15,8,1,0,0,0,0,3,3,0,76,4,0,0,0,0,1,0,5,0,20,0,0,0,0,0,0,0,,,,1,1
L36048,Class,RmicAdapterFactory,org.apache.tools.ant.taskdefs.rmic.RmicAdapterFactory,L35957,L103,0,3,1,0,1,0,0,0,0,0,0,0,0,0,0,0,0,0,0,0,0,0,5,0,0,0,0,0,0,0,,,,1,1
L15474,Class,StreamPumper,org.apache.tools.ant.taskdefs.StreamPumper,L7223,L103,5,5,5,0,1,0,1,0,0,0,0,0,0,0,0,0,0,0,0,0,2,0,4,0,0,0,0,0,0,0,,,,1,1
L36662,Class,Tar,org.apache.tools.ant.taskdefs.Tar,L7223,L103,12,11,8,6,0,0,0,0,0,3,3,0,76,4,0,0,0,0,0,0,5,0,14,0,0,0,0,0,0,0,,,,1,1
L36927,Class,TempFile,org.apache.tools.ant.taskdefs.TempFile,L7223,L103,4,5,5,4,0,0,0,0,0,2,2,0,35,4,0,0,0,0,0,0,2,0,4,0,0,0,0,0,0,0,,,,1,1
L36956,Class,Touch,org.apache.tools.ant.taskdefs.Touch,L7223,L103,4,8,6,3,0,0,0,0,0,2,2,0,35,4,0,0,0,0,1,0,3,0,4,0,0,0,0,0,0,0,,,,1,1
L7416,Class,Commandline,org.apache.tools.ant.types.Commandline,L39850,L103,3,27,26,1,3,0,1,0,0,0,0,0,0,0,0,0,1,1,10,0,2,90,29,0,0,0,0,0,0,0,,,,1,1
L7509,Class,Environment,org.apache.tools.ant.types.Environment,L39850,L103,1,3,3,0,1,0,0,1,1,0,0,1,0,0,0,0,0,0,3,0,1,0,2,0,0,0,0,0,0,0,,,,1,1
L9546,Class,Mapper,org.apache.tools.ant.types.Mapper,L39850,L103,4,11,10,7,2,0,1,0,0,2,2,0,19,2,0,0,2,4,4,0,2,8,10,0,0,0,0,0,0,0,,,,1,1
L42473,Class,DigestAlgorithm,org.apache.tools.ant.types.selectors.modifiedselector.DigestAlgorithm,L42438,L103,4,6,6,2,2,0,1,0,0,0,0,0,0,0,0,0,0,0,0,0,2,0,5,0,0,0,0,0,0,0,,,,1,1
L42586,Class,PropertiesfileCache,org.apache.tools.ant.types.selectors.modifiedselector.PropertiesfileCache,L42438,L103,4,12,12,1,3,0,1,0,0,0,0,0,0,0,0,0,0,0,0,0,2,0,9,0,0,0,0,0,0,0,,,,1,1
L10287,Class,ClasspathUtils,org.apache.tools.ant.util.ClasspathUtils,L44233,L103,2,9,8,0,8,0,0,0,0,0,0,0,0,0,0,0,0,0,0,0,1,0,27,0,0,0,0,0,0,0,,,,1,1
L29911,Class,ScriptRunner,org.apache.tools.ant.util.ScriptRunner,L44233,L103,3,7,7,2,1,0,0,0,0,0,0,0,0,0,0,0,0,0,3,0,2,0,8,0,0,0,0,0,0,0,,,,1,1
L9696,Class,SourceFileScanner,org.apache.tools.ant.util.SourceFileScanner,L44233,L103,1,4,4,0,1,0,1,0,0,0,0,0,0,0,0,0,1,2,0,0,1,0,13,0,0,0,0,0,0,0,,,,1,1
L45213,Class,WeakishReference,org.apache.tools.ant.util.WeakishReference,L44233,L103,2,3,2,0,1,0,0,2,2,0,0,1,0,0,0,0,0,0,0,0,2,0,2,0,0,0,0,0,0,0,,,,1,1
L47290,Class,TarBuffer,org.apache.tools.tar.TarBuffer,L47279,L103,11,21,17,1,5,0,0,0,0,0,0,0,0,0,0,0,2,2,0,0,2,0,6,0,0,0,0,0,0,0,,,,1,1
L10827,Class,ZipOutputStream,org.apache.tools.zip.ZipOutputStream,L47793,L103,18,24,15,4,3,0,0,0,0,1,1,0,0,0,0,0,2,2,0,0,6,16,12,0,0,0,0,0,0,0,,,,1,1
L1262,Class,ComponentHelper,org.apache.tools.ant.ComponentHelper,L443,L103,9,33,23,2,9,0,0,0,0,0,0,0,0,0,0,0,1,1,0,0,5,0,39,0,0,0,0,0,0,0,,,,2,1
L1907,Class,DirectoryScanner,org.apache.tools.ant.DirectoryScanner,L443,L103,20,52,28,7,21,0,3,5,5,0,0,1,0,0,0,0,0,3,0,0,5,12,63,0,0,0,0,0,0,0,,,,2,1
L1094,Class,Target,org.apache.tools.ant.Target,L443,L103,6,23,19,6,5,0,1,0,0,0,0,0,0,0,0,0,3,5,0,4,2,23,20,0,0,0,0,0,0,0,,,,2,1
L7695,Class,Ant,org.apache.tools.ant.taskdefs.Ant,L7223,L103,10,22,16,6,0,0,0,0,0,2,2,0,35,4,0,0,1,2,0,0,4,1,14,0,0,0,0,0,0,0,,,,2,1
L8295,Class,Checksum,org.apache.tools.ant.taskdefs.Checksum,L7223,L103,16,19,14,10,1,0,1,0,0,3,3,0,76,4,0,0,0,0,0,0,6,1,13,0,0,0,0,0,0,0,,,,2,1
L8593,Class,JavacExternal,org.apache.tools.ant.taskdefs.compilers.JavacExternal,L8554,L103,0,1,1,0,0,0,0,0,0,1,1,0,18,14,0,0,0,0,0,0,0,0,0,0,0,0,0,0,0,0,,,,2,1
L9884,Class,ChangeLogTask,org.apache.tools.ant.taskdefs.cvslib.ChangeLogTask,L9775,L103,7,14,9,6,0,0,0,0,0,2,2,0,35,4,0,0,0,0,0,0,3,0,13,0,0,0,0,0,0,0,,,,2,1
L11934,Class,ExecuteJava,org.apache.tools.ant.taskdefs.ExecuteJava,L7223,L103,6,10,10,6,0,0,2,0,0,0,0,0,0,0,0,0,1,1,3,0,5,0,8,0,0,0,0,0,0,0,,,,2,1
L12238,Class,Expand,org.apache.tools.ant.taskdefs.Expand,L7223,L103,7,9,7,4,0,0,0,1,1,2,2,1,35,4,0,0,0,0,0,0,3,0,14,0,0,0,0,0,0,0,,,,2,1
L12677,Class,Get,org.apache.tools.ant.taskdefs.Get,L7223,L103,7,8,8,7,0,0,0,0,0,2,2,0,35,4,0,0,0,0,0,0,3,0,4,0,0,0,0,0,0,0,,,,2,1
L14578,Class,MacroInstance,org.apache.tools.ant.taskdefs.MacroInstance,L7223,L103,8,7,4,2,1,0,1,0,0,2,2,0,35,4,0,0,1,1,0,0,2,0,11,0,0,0,0,0,0,0,,,,2,1
L35409,Class,RecorderEntry,org.apache.tools.ant.taskdefs.RecorderEntry,L7223,L103,6,16,13,5,1,0,1,0,0,0,0,0,0,0,0,0,0,0,0,0,2,1,14,0,0,0,0,0,0,0,,,,2,1
L36237,Class,SQLExec,org.apache.tools.ant.taskdefs.SQLExec,L7223,L103,18,18,15,11,0,0,0,0,0,3,3,0,59,13,0,0,0,0,0,0,5,1,14,0,0,0,0,0,0,0,,,,2,1
L37115,Class,Untar,org.apache.tools.ant.taskdefs.Untar,L7223,L103,1,3,2,2,0,0,0,0,0,3,3,0,44,11,0,0,0,0,0,0,1,0,5,0,0,0,0,0,0,0,,,,2,1
L37341,Class,XmlProperty,org.apache.tools.ant.taskdefs.XmlProperty,L7223,L103,16,27,12,8,11,0,0,0,0,2,2,0,35,4,0,0,0,0,1,0,3,0,25,0,0,0,0,0,0,0,,,,2,1
L12122,Class,AbstractFileSet,org.apache.tools.ant.types.AbstractFileSet,L39850,L103,6,50,47,11,8,0,2,2,8,2,2,2,19,2,0,0,1,1,0,0,2,5,45,0,0,0,0,0,0,0,,,,2,1
L13209,Class,Assertions,org.apache.tools.ant.types.Assertions,L39850,L103,2,11,7,2,2,0,0,0,0,2,2,0,19,2,0,0,1,1,0,0,2,4,9,0,0,0,0,0,0,0,,,,2,1
L7750,Class,PropertySet,org.apache.tools.ant.types.PropertySet,L39850,L103,5,16,13,3,4,0,0,0,0,2,2,0,19,2,0,0,1,1,0,0,1,8,14,0,0,0,0,0,0,0,,,,2,1
L45637,Class,ResourceUtils,org.apache.tools.ant.util.ResourceUtils,L44233,L103,0,1,1,0,0,0,0,0,0,0,0,0,0,0,0,0,0,0,0,0,0,0,5,0,0,0,0,0,0,0,,,,2,1
L36729,Class,TarOutputStream,org.apache.tools.tar.TarOutputStream,L47279,L103,11,15,14,3,1,0,0,0,0,1,1,0,0,0,0,0,1,1,0,0,0,1,4,0,0,0,0,0,0,0,,,,2,1
L12267,Class,ZipEntry,org.apache.tools.zip.ZipEntry,L47793,L103,11,29,22,9,10,0,1,0,0,1,1,0,0,0,0,0,1,1,0,0,5,6,9,0,0,0,0,0,0,0,,,,2,1
L12259,Class,ZipFile,org.apache.tools.zip.ZipFile,L47793,L103,9,14,9,0,5,0,0,0,0,0,0,0,0,0,0,0,0,0,0,0,3,0,15,0,0,0,0,0,0,0,,,,2,1
L4690,Class,IntrospectionHelper,org.apache.tools.ant.IntrospectionHelper,L443,L103,9,31,22,1,11,0,1,0,0,0,0,0,0,0,0,0,0,0,0,0,4,1,69,0,0,0,0,0,0,0,,,,3,1
L7992,Class,Available,org.apache.tools.ant.taskdefs.Available,L7223,L103,8,19,15,11,0,0,1,0,0,2,2,0,35,4,0,0,0,1,1,0,2,1,16,0,0,0,0,0,0,0,,,,3,1
L10472,Class,Delete,org.apache.tools.ant.taskdefs.Delete,L7223,L103,9,40,37,13,0,0,0,0,0,3,3,0,76,4,0,0,0,0,0,0,2,0,34,0,0,0,0,0,0,0,,,,3,1
L7536,Class,Execute,org.apache.tools.ant.taskdefs.Execute,L7223,L103,12,27,22,9,6,0,0,0,0,0,0,0,0,0,0,0,3,5,0,0,4,6,26,0,0,0,0,0,0,0,,,,3,1
L10788,Class,Jar,org.apache.tools.ant.taskdefs.Jar,L7223,L103,9,23,10,6,4,0,0,2,2,4,4,1,112,25,0,0,1,1,0,0,4,0,29,0,0,0,0,0,0,0,,,,3,1
L13025,Class,Java,org.apache.tools.ant.taskdefs.Java,L7223,L103,9,47,37,24,0,0,0,2,2,2,2,1,35,4,0,0,1,2,3,0,3,1,37,0,0,0,0,0,0,0,,,,3,1
L8572,Class,Javac,org.apache.tools.ant.taskdefs.Javac,L7223,L103,22,75,68,30,32,0,0,0,0,3,3,0,76,4,0,0,1,2,2,0,2,4,49,0,0,0,0,0,0,0,,,,3,1
L11458,Class,Redirector,org.apache.tools.ant.taskdefs.Redirector,L7223,L103,15,21,15,9,3,0,0,0,0,0,0,0,0,0,0,0,2,3,0,0,6,0,17,0,0,0,0,0,0,0,,,,3,1
L36583,Class,Sync,org.apache.tools.ant.taskdefs.Sync,L7223,L103,1,13,8,5,0,0,0,0,0,2,2,0,35,4,0,0,0,0,0,0,1,0,10,0,0,0,0,0,0,0,,,,3,1
L33104,Class,XSLTProcess,org.apache.tools.ant.taskdefs.XSLTProcess,L7223,L103,17,30,23,12,4,0,1,0,0,3,3,0,76,4,0,0,1,1,3,0,4,2,30,0,0,0,0,0,0,0,,,,3,1
L11949,Class,CommandlineJava,org.apache.tools.ant.types.CommandlineJava,L39850,L103,4,35,31,7,11,0,1,0,0,0,0,0,0,0,0,0,3,3,8,0,2,11,30,0,0,0,0,0,0,0,,,,3,1
L6164,Class,FilterSet,org.apache.tools.ant.types.FilterSet,L39850,L103,7,19,15,3,6,0,1,0,0,2,2,0,19,2,0,0,0,1,0,0,2,4,18,0,0,0,0,0,0,0,,,,3,1
L8492,Class,PatternSet,org.apache.tools.ant.types.PatternSet,L39850,L103,4,22,16,5,4,0,1,0,0,2,2,0,19,2,0,0,1,1,2,0,1,6,27,0,0,0,0,0,0,0,,,,3,1
L10692,Class,ModifiedSelector,org.apache.tools.ant.types.selectors.modifiedselector.ModifiedSelector,L42438,L103,9,18,17,6,4,0,0,0,0,4,4,0,29,3,0,0,2,2,0,0,5,5,18,0,0,0,0,0,0,0,,,,3,1
L10811,Class,ZipFileSet,org.apache.tools.ant.types.ZipFileSet,L39850,L103,10,19,16,6,9,0,0,0,0,4,4,0,72,8,0,0,0,0,0,0,2,6,20,0,0,0,0,0,0,0,,,,3,1
L44969,Class,JavaEnvUtils,org.apache.tools.ant.util.JavaEnvUtils,L44233,L103,12,9,6,0,6,0,0,0,0,0,0,0,0,0,0,0,1,1,0,0,2,0,13,0,0,0,0,0,0,0,,,,3,1
L37137,Class,TarInputStream,org.apache.tools.tar.TarInputStream,L47279,L103,7,16,16,1,2,0,0,0,0,1,1,0,0,0,0,0,2,2,0,0,0,0,5,0,0,0,0,0,0,0,,,,3,1
L9528,Class,Copy,org.apache.tools.ant.taskdefs.Copy,L7223,L103,19,31,24,14,7,0,0,2,2,2,2,1,35,4,0,0,0,0,2,0,4,0,24,0,0,0,0,0,0,0,,,,4,1
L1342,Class,UnknownElement,org.apache.tools.ant.UnknownElement,L443,L103,6,28,16,2,9,0,0,0,0,2,2,0,35,4,0,0,1,2,0,1,3,10,32,0,0,0,0,0,0,0,,,,4,1
L562,Class,Project,org.apache.tools.ant.Project,L443,L103,28,99,87,19,23,0,0,0,0,0,0,0,0,0,0,0,13,52,0,8,6,191,135,0,0,0,0,0,0,0,,,,5,1
L13561,Class,Javadoc,org.apache.tools.ant.taskdefs.Javadoc,L7223,L103,28,83,77,58,0,0,0,0,0,2,2,0,35,4,0,0,0,0,3,0,5,0,63,0,0,0,0,0,0,0,,,,6,1
L12833,Class,Zip,org.apache.tools.ant.taskdefs.Zip,L7223,L103,21,36,21,11,8,0,0,1,3,3,3,2,76,4,0,0,0,0,2,0,4,0,41,0,0,0,0,0,0,0,,,,6,1
L1965,Class,FileUtils,org.apache.tools.ant.util.FileUtils,L44233,L103,8,35,33,1,5,0,0,0,0,0,0,0,0,0,0,0,4,6,31,0,3,4,93,0,0,0,0,0,0,0,,,,8,1
L509,Class,AntClassLoader,org.apache.tools.ant.AntClassLoader,L443,L103,13,46,31,6,9,0,1,1,1,1,1,1,0,0,0,0,1,4,0,0,4,5,64,0,0,0,0,0,0,0,,,,10,1
