ID,Column1,Name,LongName,Parent,Component,NumAttr,NumOps,NumPubOps,Setters,Getters,Nesting,IFImpl,NOC,NumDesc,NumAnc,DIT,CLD,OpsInh,AttrInh,Dep_Out,Dep_In,NumAssEl_ssc,NumAssEl_sb,NumAssEl_nsb,EC_Attr,IC_Attr,EC_Par,IC_Par,Connectors,InstSpec,LLInst,MsgSent,MsgRecv,MsgSelf,Diags,Assoc,NumDirClients,NumIndClients,BugNo,Label
L569,Class,ProcessorType<Type extends ProcessorType>,org.apache.camel.model.ProcessorType,L19904,L103,2,93,85,10,7,0,0,6,6,0,0,1,0,0,0,0,1,1,3,0,2,16,170,0,0,0,0,0,0,0,,,,28,1
L19427,Class,CamelNamingStrategy,org.apache.camel.management.CamelNamingStrategy,L19412,L103,15,15,11,2,10,0,0,0,0,0,0,0,0,0,0,0,2,2,0,0,1,5,25,0,0,0,0,0,0,0,,,,10,1
L19650,Class,InstrumentationLifecycleStrategy,org.apache.camel.management.InstrumentationLifecycleStrategy,L19412,L103,1,8,8,1,1,0,1,0,0,0,0,0,0,0,0,0,1,1,1,0,1,0,10,0,0,0,0,0,0,0,,,,9,1
L21988,Class,TryProcessor,org.apache.camel.processor.TryProcessor,L22220,L103,1,7,3,0,0,0,1,0,0,1,1,0,13,6,0,0,1,2,0,0,1,0,8,0,0,0,0,0,0,0,,,,9,1
L4499,Class,BeanProcessor,org.apache.camel.component.bean.BeanProcessor,L4413,L103,5,12,10,2,2,0,1,0,0,1,1,0,13,6,0,0,1,2,1,0,4,1,15,0,0,0,0,0,0,0,,,,9,1
L4565,Class,BeanInfo,org.apache.camel.component.bean.BeanInfo,L4413,L103,2,12,5,0,4,0,0,0,0,0,0,0,0,0,0,0,5,6,1,0,2,1,32,0,0,0,0,0,0,0,,,,9,1
L26021,Class,ObjectHelper,org.apache.camel.util.ObjectHelper,L25283,L103,1,29,28,0,8,0,0,0,0,0,0,0,0,0,0,0,0,0,0,0,1,0,58,0,0,0,0,0,0,0,,,,8,1
L5395,Class,FileEndpoint,org.apache.camel.component.file.FileEndpoint,L5354,L103,13,34,32,12,14,0,0,0,0,1,1,0,0,0,0,0,2,3,0,0,3,9,24,0,0,0,0,0,0,0,,,,8,1
L1780,Class,InterceptType,org.apache.camel.model.InterceptType,L19904,L103,0,3,3,0,0,0,0,0,0,1,1,0,0,0,0,0,0,0,0,0,0,3,5,0,0,0,0,0,0,0,,,,7,1
L1828,Class,DefaultCamelContext,org.apache.camel.impl.DefaultCamelContext,L17136,L103,5,51,38,10,17,0,2,1,1,1,1,1,13,6,0,0,5,6,7,0,2,0,59,0,0,0,0,0,0,0,,,,7,1
L2787,Class,MockEndpoint,org.apache.camel.component.mock.MockEndpoint,L6907,L103,11,44,38,2,8,0,0,0,0,1,1,0,0,0,0,0,2,2,42,0,5,2,31,0,0,0,0,0,0,0,,,,7,1
L710,Class,DeadLetterChannel,org.apache.camel.processor.DeadLetterChannel,L22220,L103,4,19,15,3,5,0,1,0,0,2,2,0,16,6,0,0,2,4,0,0,2,0,24,0,0,0,0,0,0,0,,,,7,1
L17253,Class,ResolverUtil<T extends Object>,org.apache.camel.util.ResolverUtil,L25283,L103,3,10,6,1,2,0,0,0,0,0,0,0,0,0,0,0,0,0,2,0,3,0,20,0,0,0,0,0,0,0,,,,6,1
L19084,Class,ChoiceType,org.apache.camel.model.ChoiceType,L19904,L103,0,12,12,3,5,0,0,0,0,1,1,0,0,0,0,0,3,3,0,0,0,4,13,0,0,0,0,0,0,0,,,,6,1
L5400,Class,FileConsumer,org.apache.camel.component.file.FileConsumer,L5354,L103,6,12,7,3,5,0,0,0,0,1,1,0,0,0,0,0,1,1,0,0,3,0,8,0,0,0,0,0,0,0,,,,6,1
L1230,Class,ExpressionClause<T extends ProcessorType>,org.apache.camel.builder.ExpressionClause,L227,L103,1,13,12,0,0,0,0,0,0,0,0,0,0,0,0,0,0,1,0,0,1,0,28,0,0,0,0,0,0,0,,,,5,1
L1720,Class,RoutesType,org.apache.camel.model.RoutesType,L19904,L103,1,23,22,6,6,0,1,0,0,0,0,0,0,0,0,0,5,6,1,0,1,1,28,0,0,0,0,0,0,0,,,,5,1
L17242,Class,AnnotationTypeConverterLoader,org.apache.camel.impl.converter.AnnotationTypeConverterLoader,L17229,L103,3,6,1,0,0,0,1,1,1,0,0,1,0,0,0,0,0,0,1,0,3,0,13,0,0,0,0,0,0,0,,,,5,1
L19954,Class,AggregatorType,org.apache.camel.model.AggregatorType,L19904,L103,2,14,14,3,3,0,0,0,0,2,2,0,13,1,0,0,0,0,1,0,0,2,9,0,0,0,0,0,0,0,,,,5,1
L21069,Class,TryType,org.apache.camel.model.TryType,L19904,L103,2,10,9,1,3,0,0,0,0,1,1,0,0,0,0,0,2,2,0,0,1,1,11,0,0,0,0,0,0,0,,,,5,1
L21090,Class,ResequencerType,org.apache.camel.model.ResequencerType,L19904,L103,1,24,20,4,7,0,0,0,0,1,1,0,0,0,0,0,3,5,0,0,1,4,30,0,0,0,0,0,0,0,,,,5,1
L25371,Class,ExchangeHelper,org.apache.camel.util.ExchangeHelper,L25283,L103,0,17,16,0,9,0,0,0,0,0,0,0,0,0,0,0,0,0,0,0,0,0,34,0,0,0,0,0,0,0,,,,5,1
L3061,Class,MulticastProcessor,org.apache.camel.processor.MulticastProcessor,L22220,L103,0,8,5,0,1,0,1,1,1,1,1,1,13,6,0,0,1,1,0,0,0,0,9,0,0,0,0,0,0,0,,,,5,1
L1746,Class,RouteType,org.apache.camel.model.RouteType,L19904,L103,2,22,20,5,5,0,1,0,0,1,1,0,93,2,0,0,3,4,1,0,2,20,24,0,0,0,0,0,0,0,,,,4,1
L17640,Class,DefaultLifecycleStrategy,org.apache.camel.impl.DefaultLifecycleStrategy,L17136,L103,0,5,5,0,0,0,1,0,0,0,0,0,0,0,0,0,0,0,0,0,0,0,7,0,0,0,0,0,0,0,,,,4,1
L18576,Class,RouteContext,org.apache.camel.impl.RouteContext,L17136,L103,0,13,13,0,4,0,0,0,0,0,0,0,0,0,0,0,2,3,3,0,0,50,19,0,0,0,0,0,0,0,,,,4,1
L19550,Class,InstrumentationAgentImpl,org.apache.camel.management.InstrumentationAgentImpl,L19412,L103,12,17,11,3,3,0,2,1,1,1,1,1,13,6,0,0,2,3,0,0,6,0,15,0,0,0,0,0,0,0,,,,4,1
L20083,Class,InterceptorType,org.apache.camel.model.InterceptorType,L19904,L103,0,1,1,0,0,0,0,1,1,0,0,1,0,0,0,0,0,0,0,0,0,0,2,0,0,0,0,0,0,0,,,,4,1
L20885,Class,MulticastType,org.apache.camel.model.MulticastType,L19904,L103,0,3,2,0,0,0,0,0,0,1,1,0,0,0,0,0,0,0,0,0,0,1,5,0,0,0,0,0,0,0,,,,4,1
L20948,Class,ProceedType,org.apache.camel.model.ProceedType,L19904,L103,0,3,3,0,2,0,0,0,0,1,1,0,93,2,0,0,0,0,0,0,0,0,4,0,0,0,0,0,0,0,,,,4,1
L22301,Class,AggregationCollection,org.apache.camel.processor.aggregate.AggregationCollection,L22296,L103,1,4,4,0,0,0,0,0,0,1,1,0,0,0,0,0,2,2,0,0,1,1,4,0,0,0,0,0,0,0,,,,4,1
L22345,Class,BatchProcessor,org.apache.camel.processor.BatchProcessor,L22220,L103,5,16,11,3,6,0,1,2,2,1,1,1,13,6,0,0,1,4,1,0,1,0,10,0,0,0,0,0,0,0,,,,4,1
L26647,Class,NodeData,org.apache.camel.view.NodeData,L26627,L103,11,3,2,0,0,0,0,0,0,0,0,0,0,0,0,0,1,1,0,0,1,8,7,0,0,0,0,0,0,0,,,,4,1
L2756,Class,DefaultExchange,org.apache.camel.impl.DefaultExchange,L17136,L103,3,38,31,9,14,0,1,14,14,0,0,1,0,0,0,0,0,3,2,0,3,0,43,0,0,0,0,0,0,0,,,,4,1
L4081,Interface,LifecycleStrategy,org.apache.camel.spi.LifecycleStrategy,L25161,L103,,5,,,,,,,0,0,,,,,,,,,,0,,3,7,,,,,,,0,1,2,0,4,1
L5242,Class,DefaultEndpoint<E extends Exchange>,org.apache.camel.impl.DefaultEndpoint,L17136,L103,2,19,16,2,7,0,1,0,0,0,0,0,0,0,0,0,0,3,0,0,2,0,21,0,0,0,0,0,0,0,,,,4,1
L5555,Class,FileProducer,org.apache.camel.component.file.FileProducer,L5354,L103,1,6,4,0,1,0,0,0,0,2,2,0,20,7,0,0,1,1,0,0,1,0,7,0,0,0,0,0,0,0,,,,4,1
L7593,Class,VmComponent,org.apache.camel.component.vm.VmComponent,L7588,L103,2,4,0,0,1,0,0,0,0,3,3,0,27,8,0,0,0,0,0,0,2,0,6,0,0,0,0,0,0,0,,,,4,1
L16402,Class,ObjectConverter,org.apache.camel.converter.ObjectConverter,L15931,L103,0,6,5,0,1,0,0,0,0,0,0,0,0,0,0,0,0,0,0,0,0,0,8,0,0,0,0,0,0,0,,,,3,1
L16441,Class,DefaultTypeConverter,org.apache.camel.impl.converter.DefaultTypeConverter,L17229,L103,2,11,7,1,3,0,2,0,0,0,0,0,0,0,0,0,3,3,1,0,1,0,19,0,0,0,0,0,0,0,,,,3,1
L1713,Class,RouteBuilder,org.apache.camel.builder.RouteBuilder,L227,L103,1,19,15,1,2,0,0,15,17,1,1,2,30,1,0,0,1,1,2,0,1,103,19,0,0,0,0,0,0,0,,,,3,1
L1787,Class,OtherwiseType,org.apache.camel.model.OtherwiseType,L19904,L103,0,3,3,0,1,0,0,0,0,2,2,0,5,2,0,0,1,1,0,0,0,7,4,0,0,0,0,0,0,0,,,,3,1
L18093,Class,MessageSupport,org.apache.camel.impl.MessageSupport,L17136,L103,2,12,11,4,4,0,1,1,12,0,0,2,0,0,0,0,0,1,1,0,2,0,13,0,0,0,0,0,0,0,,,,3,1
L19076,Class,FilterType,org.apache.camel.model.FilterType,L19904,L103,0,5,5,0,0,0,0,0,0,2,2,0,13,1,0,0,0,0,0,0,0,6,5,0,0,0,0,0,0,0,,,,3,1
L19718,Class,InstrumentationProcessor,org.apache.camel.management.InstrumentationProcessor,L19412,L103,0,2,1,0,0,0,0,0,0,2,2,0,23,6,0,0,1,1,0,0,0,0,2,0,0,0,0,0,0,0,,,,3,1
L19956,Class,ExpressionNode,org.apache.camel.model.ExpressionNode,L19904,L103,1,13,11,3,4,0,0,7,7,1,1,1,0,0,0,0,1,2,0,0,1,0,13,0,0,0,0,0,0,0,,,,3,1
L19977,Class,ExpressionType,org.apache.camel.model.language.ExpressionType,L20711,L103,2,16,16,2,7,0,0,13,13,0,0,1,0,0,0,0,0,3,0,0,1,12,18,0,0,0,0,0,0,0,,,,3,1
L20038,Class,BeanRef,org.apache.camel.model.BeanRef,L19904,L103,4,13,13,4,4,0,0,0,0,2,2,0,5,2,0,0,0,0,0,0,3,0,14,0,0,0,0,0,0,0,,,,3,1
L20079,Class,CatchType,org.apache.camel.model.CatchType,L19904,L103,3,15,14,4,5,0,0,0,0,1,1,0,93,2,0,0,1,1,0,0,3,1,15,0,0,0,0,0,0,0,,,,3,1
L20397,Class,DelayerType,org.apache.camel.model.DelayerType,L19904,L103,1,8,8,1,1,0,0,0,0,2,2,0,13,1,0,0,0,0,0,0,1,3,8,0,0,0,0,0,0,0,,,,3,1
L20567,Class,FinallyType,org.apache.camel.model.FinallyType,L19904,L103,0,3,3,0,1,0,0,0,0,2,2,0,5,2,0,0,1,1,0,0,0,2,4,0,0,0,0,0,0,0,,,,3,1
L20663,Class,InterceptorRef,org.apache.camel.model.InterceptorRef,L19904,L103,1,8,8,1,2,0,0,0,0,1,1,0,1,0,0,0,0,0,1,0,1,0,8,0,0,0,0,0,0,0,,,,3,1
L20858,Class,MarshalType,org.apache.camel.model.MarshalType,L19904,L103,1,9,9,2,2,0,0,0,0,2,2,0,5,2,0,0,0,1,0,0,1,0,9,0,0,0,0,0,0,0,,,,3,1
L21082,Class,SplitterType,org.apache.camel.model.SplitterType,L19904,L103,0,5,5,0,0,0,0,0,0,2,2,0,13,1,0,0,0,0,0,0,0,2,5,0,0,0,0,0,0,0,,,,3,1
L21128,Class,ThrottlerType,org.apache.camel.model.ThrottlerType,L19904,L103,2,14,14,4,5,0,0,0,0,1,1,0,93,2,0,0,2,2,0,0,1,1,10,0,0,0,0,0,0,0,,,,3,1
L21299,Class,UnmarshalType,org.apache.camel.model.UnmarshalType,L19904,L103,1,9,9,2,2,0,0,0,0,2,2,0,5,2,0,0,0,1,0,0,1,0,9,0,0,0,0,0,0,0,,,,3,1
L25323,Class,CamelContextHelper,org.apache.camel.util.CamelContextHelper,L25283,L103,0,5,4,0,1,0,0,0,0,0,0,0,0,0,0,0,0,0,0,0,0,0,11,0,0,0,0,0,0,0,,,,3,1
L2544,Class,XsltBuilder,org.apache.camel.builder.xml.XsltBuilder,L1925,L103,3,25,22,5,5,0,1,0,0,0,0,0,0,0,0,0,1,1,1,0,2,0,23,0,0,0,0,0,0,0,,,,3,1
L2548,Class,XmlConverter,org.apache.camel.converter.jaxp.XmlConverter,L16074,L103,5,47,47,2,2,0,0,0,0,0,0,0,0,0,0,0,0,0,4,0,4,4,79,0,0,0,0,0,0,0,,,,3,1
L25583,Class,IntrospectionSupport,org.apache.camel.util.IntrospectionSupport,L25283,L103,0,19,12,5,4,0,0,0,0,0,0,0,0,0,0,0,0,0,0,0,0,0,53,0,0,0,0,0,0,0,,,,3,1
L4123,Interface,ProducerTemplate<E extends Exchange>,org.apache.camel.ProducerTemplate,L106,L103,,27,,,,,,,0,1,,,,,,,,,,0,,4,93,,,,,,,0,2,0,0,3,1
L4473,Class,BeanComponent,org.apache.camel.component.bean.BeanComponent,L4413,L103,1,9,6,1,2,0,0,0,0,2,2,0,25,8,0,0,1,1,0,0,1,0,17,0,0,0,0,0,0,0,,,,3,1
L4475,Class,DefaultComponent<E extends Exchange>,org.apache.camel.impl.DefaultComponent,L17136,L103,2,12,7,3,2,0,1,7,9,1,1,2,13,6,0,0,0,1,0,0,1,0,14,0,0,0,0,0,0,0,,,,3,1
L5269,Class,DefaultConsumer<E extends Exchange>,org.apache.camel.impl.DefaultConsumer,L17136,L103,1,10,7,1,4,0,1,1,1,1,1,1,13,6,0,0,0,2,1,0,1,0,9,0,0,0,0,0,0,0,,,,3,1
L565,Class,DataTypeExpression<T extends ProcessorType>,org.apache.camel.builder.DataTypeExpression,L227,L103,2,10,9,0,0,0,0,0,0,0,0,0,0,0,0,0,0,0,0,0,1,0,13,0,0,0,0,0,0,0,,,,3,1
L821,Class,ExceptionType,org.apache.camel.model.ExceptionType,L19904,L103,3,27,25,5,7,0,0,0,0,1,1,0,0,0,0,0,2,3,0,0,3,7,22,0,0,0,0,0,0,0,,,,3,1
L841,Class,ExpressionBuilder,org.apache.camel.builder.ExpressionBuilder,L227,L103,0,28,27,0,0,0,0,0,0,0,0,0,0,0,0,0,0,0,0,0,0,0,58,0,0,0,0,0,0,0,,,,3,1
L15324,Class,TopicLoadBalancer,org.apache.camel.processor.loadbalancer.TopicLoadBalancer,L22858,L103,0,2,1,0,0,0,0,0,0,1,1,0,3,0,0,0,0,0,0,0,0,0,4,0,0,0,0,0,0,0,,,,2,1
L15942,Class,CollectionConverter,org.apache.camel.converter.CollectionConverter,L15931,L103,0,10,9,0,0,0,0,0,0,0,0,0,0,0,0,0,0,0,0,0,0,0,18,0,0,0,0,0,0,0,,,,2,1
L17209,Interface,TypeConverterRegistry,org.apache.camel.impl.converter.TypeConverterRegistry,L17229,L103,,2,,,,,,,0,0,,,,,,,,,,0,,6,4,,,,,,,0,1,2,0,2,1
L1725,Class,Route<E extends Exchange>,org.apache.camel.Route,L106,L103,2,11,10,2,4,0,0,0,0,0,0,0,0,0,0,0,1,2,0,0,2,4,12,0,0,0,0,0,0,0,,,,2,1
L17367,Class,AsyncProcessorTypeConverter,org.apache.camel.impl.converter.AsyncProcessorTypeConverter,L17229,L103,0,2,2,0,0,0,1,0,0,0,0,0,0,0,0,0,0,0,0,0,0,0,4,0,0,0,0,0,0,0,,,,2,1
L17506,Class,FactoryFinder,org.apache.camel.util.FactoryFinder,L25283,L103,2,16,14,0,1,0,0,0,0,0,0,0,0,0,0,0,0,0,2,0,2,0,40,0,0,0,0,0,0,0,,,,2,1
L18041,Class,UuidGenerator,org.apache.camel.util.UuidGenerator,L25283,L103,6,5,5,0,1,0,0,0,0,0,0,0,0,0,0,0,0,0,2,0,2,0,4,0,0,0,0,0,0,0,,,,2,1
L18580,Class,FromType,org.apache.camel.model.FromType,L19904,L103,2,14,13,3,5,0,0,0,0,0,0,0,0,0,0,0,0,1,1,0,1,4,17,0,0,0,0,0,0,0,,,,2,1
L18970,Class,SimpleLanguage,org.apache.camel.language.simple.SimpleLanguage,L18967,L103,0,7,3,0,0,0,1,0,0,0,0,0,0,0,0,0,0,0,0,0,0,0,15,0,0,0,0,0,0,0,,,,2,1
L19551,Interface,InstrumentationAgent,org.apache.camel.spi.InstrumentationAgent,L25161,L103,,5,,,,,,,0,1,,,,,,,,,,0,,1,7,,,,,,,0,2,1,0,2,1
L19997,Class,Aggregator,org.apache.camel.processor.Aggregator,L22220,L103,0,3,3,0,0,0,0,0,0,2,2,0,29,11,0,0,0,0,0,0,0,0,8,0,0,0,0,0,0,0,,,,2,1
L20153,Class,WhenType<Type extends ProcessorType>,org.apache.camel.model.WhenType,L19904,L103,0,5,5,0,0,0,0,0,0,2,2,0,13,1,0,0,0,0,0,0,0,0,5,0,0,0,0,0,0,0,,,,2,1
L20427,Class,RedeliveryPolicyType,org.apache.camel.model.RedeliveryPolicyType,L19904,L103,6,21,21,6,6,0,0,0,0,0,0,0,0,0,0,0,1,1,0,0,4,3,15,0,0,0,0,0,0,0,,,,2,1
L206,Interface,Exchange,org.apache.camel.Exchange,L106,L103,,21,,,,,,,0,0,,,,,,,,,,2,,312,23,,,,,,,0,24,1,0,2,1
L20617,Class,IdempotentConsumerType,org.apache.camel.model.IdempotentConsumerType,L19904,L103,1,9,9,2,2,0,0,0,0,2,2,0,13,1,0,0,0,0,1,0,1,1,11,0,0,0,0,0,0,0,,,,2,1
L2083,Interface,Message,org.apache.camel.Message,L106,L103,,15,,,,,,,0,0,,,,,,,,,,0,,48,20,,,,,,,0,1,1,0,2,1
L20852,Class,XQueryExpression,org.apache.camel.model.language.XQueryExpression,L20711,L103,0,3,3,0,1,0,0,0,0,1,1,0,16,2,0,0,0,0,0,0,0,0,2,0,0,0,0,0,0,0,,,,2,1
L2088,Class,DomResultHandlerFactory,org.apache.camel.builder.xml.DomResultHandlerFactory,L1925,L103,0,1,1,0,0,0,1,0,0,0,0,0,0,0,0,0,0,0,0,0,0,0,1,0,0,0,0,0,0,0,,,,2,1
L2090,Interface,ResultHandlerFactory,org.apache.camel.builder.xml.ResultHandlerFactory,L1925,L103,,1,,,,,,,0,0,,,,,,,,,,0,,2,1,,,,,,,0,1,3,0,2,1
L20924,Class,PolicyRef,org.apache.camel.model.PolicyRef,L19904,L103,1,9,7,1,2,0,0,0,0,2,2,0,5,2,0,0,0,0,1,0,1,2,10,0,0,0,0,0,0,0,,,,2,1
L20959,Class,ProcessorRef,org.apache.camel.model.ProcessorRef,L19904,L103,1,7,7,1,2,0,0,0,0,2,2,0,5,2,0,0,0,1,0,0,1,0,7,0,0,0,0,0,0,0,,,,2,1
L21022,Class,ToType,org.apache.camel.model.ToType,L19904,L103,2,17,17,4,7,0,0,0,0,1,1,0,93,2,0,0,1,2,0,0,1,0,18,0,0,0,0,0,0,0,,,,2,1
L21076,Class,RecipientListType,org.apache.camel.model.RecipientListType,L19904,L103,0,5,5,0,0,0,0,0,0,2,2,0,13,1,0,0,0,0,0,0,0,1,5,0,0,0,0,0,0,0,,,,2,1
L2114,Class,MessageVariableResolver,org.apache.camel.builder.xml.MessageVariableResolver,L1925,L103,2,4,4,1,1,0,1,0,0,0,0,0,0,0,0,0,1,2,0,0,2,0,6,0,0,0,0,0,0,0,,,,2,1
L21374,Class,ThreadType,org.apache.camel.model.ThreadType,L19904,L103,10,29,29,10,4,0,0,0,0,1,1,0,93,2,0,0,1,1,0,0,4,1,16,0,0,0,0,0,0,0,,,,2,1
L21562,Interface,RouteContainer,org.apache.camel.model.RouteContainer,L19904,L103,,2,,,,,,,0,0,,,,,,,,,,0,,2,2,,,,,,,0,0,2,0,2,1
L2187,Class,XPathBuilder<E extends Exchange>,org.apache.camel.builder.xml.XPathBuilder,L1925,L103,12,42,36,11,12,0,2,0,0,0,0,0,0,0,0,0,2,2,0,0,8,2,56,0,0,0,0,0,0,0,,,,2,1
L2201,Class,Namespaces,org.apache.camel.builder.xml.Namespaces,L1925,L103,6,2,1,0,1,0,0,0,0,0,0,0,0,0,0,0,0,0,0,0,1,0,2,0,0,0,0,0,0,0,,,,2,1
L2236,Class,StreamResultHandlerFactory,org.apache.camel.builder.xml.StreamResultHandlerFactory,L1925,L103,0,1,1,0,0,0,1,0,0,0,0,0,0,0,0,0,0,0,0,0,0,0,1,0,0,0,0,0,0,0,,,,2,1
L22916,Class,StickyLoadBalancer,org.apache.camel.processor.loadbalancer.StickyLoadBalancer,L22858,L103,2,7,5,1,2,0,0,0,0,2,2,0,5,0,0,0,2,2,0,0,1,0,9,0,0,0,0,0,0,0,,,,2,1
L3020,Class,ChoiceProcessor,org.apache.camel.processor.ChoiceProcessor,L22220,L103,0,7,5,0,2,0,1,0,0,1,1,0,13,6,0,0,1,2,0,0,0,0,6,0,0,0,0,0,0,0,,,,2,1
L3119,Class,Splitter,org.apache.camel.processor.Splitter,L22220,L103,0,5,3,0,0,0,1,0,0,1,1,0,13,6,0,0,0,2,0,0,0,0,4,0,0,0,0,0,0,0,,,,2,1
L3343,Class,DefaultAnnotationExpressionFactory,org.apache.camel.component.bean.DefaultAnnotationExpressionFactory,L4413,L103,0,2,1,0,1,0,1,2,2,0,0,1,0,0,0,0,0,0,0,0,0,0,7,0,0,0,0,0,0,0,,,,2,1
L3408,Class,StringSource,org.apache.camel.converter.jaxp.StringSource,L16074,L103,2,7,7,0,3,0,1,0,0,1,1,0,0,0,0,0,0,0,0,0,1,1,10,0,0,0,0,0,0,0,,,,2,1
L372,Class,BuilderSupport,org.apache.camel.builder.BuilderSupport,L227,L103,1,30,27,3,3,0,0,1,18,0,0,3,0,0,0,0,1,2,0,0,0,0,43,0,0,0,0,0,0,0,,,,2,1
L4117,Class,CamelTemplate<E extends Exchange>,org.apache.camel.CamelTemplate,L106,L103,4,45,38,3,5,0,1,0,0,1,1,0,13,6,0,0,1,6,0,0,3,5,121,0,0,0,0,0,0,0,,,,2,1
L4454,Class,MethodInfo,org.apache.camel.component.bean.MethodInfo,L4413,L103,3,14,12,0,8,0,0,0,0,0,0,0,0,0,0,0,2,3,0,0,2,2,21,0,0,0,0,0,0,0,,,,2,1
L446,Interface,Endpoint<E extends Exchange>,org.apache.camel.Endpoint,L106,L103,,9,,,,,,,0,0,,,,,,,,,,0,,102,10,,,,,,,0,15,1,0,2,1
L4610,Interface,MethodInvocation,org.apache.camel.component.bean.MethodInvocation,L4413,L103,,5,,,,,,,0,0,,,,,,,,,,0,,3,5,,,,,,,0,0,0,0,2,1
L4655,Class,ParameterInfo,org.apache.camel.component.bean.ParameterInfo,L4413,L103,3,5,5,0,4,0,0,0,0,0,0,0,0,0,0,0,0,1,0,0,2,0,6,0,0,0,0,0,0,0,,,,2,1
L5042,Class,XPathAnnotationExpressionFactory,org.apache.camel.component.bean.XPathAnnotationExpressionFactory,L4413,L103,0,1,1,0,0,0,0,0,0,1,1,0,2,0,0,0,0,0,0,0,0,0,5,0,0,0,0,0,0,0,,,,2,1
L5081,Class,JndiContext,org.apache.camel.util.jndi.JndiContext,L25697,L103,8,41,35,0,5,0,2,0,0,0,0,0,0,0,0,0,0,0,1,0,4,0,71,0,0,0,0,0,0,0,,,,2,1
L5372,Class,FileComponent,org.apache.camel.component.file.FileComponent,L5354,L103,1,3,2,0,0,0,0,0,0,1,1,0,0,0,0,0,0,0,0,0,1,1,5,0,0,0,0,0,0,0,,,,2,1
L657,Class,DataFormatType,org.apache.camel.model.dataformat.DataFormatType,L20281,L103,1,7,3,1,1,0,0,4,4,0,0,1,0,0,0,0,0,2,1,0,1,9,10,0,0,0,0,0,0,0,,,,2,1
L6720,Class,JMXEndpoint,org.apache.camel.component.jmx.JMXEndpoint,L6691,L103,10,19,18,6,7,0,0,0,0,1,1,0,0,0,0,0,1,1,0,0,6,1,19,0,0,0,0,0,0,0,,,,2,1
L6732,Class,JMXConsumer,org.apache.camel.component.jmx.JMXConsumer,L6691,L103,0,2,2,0,0,0,1,0,0,2,2,0,23,7,0,0,1,1,0,0,0,0,4,0,0,0,0,0,0,0,,,,2,1
L6873,Class,LogComponent,org.apache.camel.component.log.LogComponent,L6868,L103,1,2,0,0,1,0,0,0,0,1,1,0,0,0,0,0,0,0,0,0,1,0,5,0,0,0,0,0,0,0,,,,2,1
L7310,Class,SedaEndpoint,org.apache.camel.component.seda.SedaEndpoint,L7270,L103,1,6,6,0,2,0,0,0,0,1,1,0,0,0,0,0,1,1,0,0,1,1,9,0,0,0,0,0,0,0,,,,2,1
L7315,Class,SedaConsumer,org.apache.camel.component.seda.SedaConsumer,L7270,L103,2,5,3,0,0,0,2,0,0,1,1,0,13,6,0,0,1,2,0,0,2,0,3,0,0,0,0,0,0,0,,,,2,1
L836,Class,ErrorHandlerSupport,org.apache.camel.processor.ErrorHandlerSupport,L22220,L103,0,3,1,0,1,0,1,2,2,1,1,1,13,6,0,0,1,1,0,0,0,1,6,0,0,0,0,0,0,0,,,,2,1
L1310,Class,LoggingErrorHandler,org.apache.camel.processor.LoggingErrorHandler,L22220,L103,1,13,9,2,3,0,0,0,0,2,2,0,16,6,0,0,1,2,0,0,1,0,13,0,0,0,0,0,0,0,,,,1,1
L13716,Class,NoTypeConversionAvailableException,org.apache.camel.NoTypeConversionAvailableException,L106,L103,2,3,3,0,2,0,0,0,0,2,2,0,4,1,0,0,0,0,0,0,2,0,4,0,0,0,0,0,0,0,,,,1,1
L15438,Class,InvalidPayloadException,org.apache.camel.InvalidPayloadException,L106,L103,1,2,2,0,1,0,0,0,0,3,3,0,6,1,0,0,0,0,0,0,1,0,3,0,0,0,0,0,0,0,,,,1,1
L1588,Interface,PredicateFactory<E extends Exchange>,org.apache.camel.builder.PredicateFactory,L227,L103,,1,,,,,,,0,0,,,,,,,,,,0,,0,1,,,,,,,0,0,0,0,1,1
L1595,Class,ProcessorBuilder,org.apache.camel.builder.ProcessorBuilder,L227,L103,0,12,11,7,0,0,0,0,0,0,0,0,0,0,0,0,0,0,0,0,0,0,26,0,0,0,0,0,0,0,,,,1,1
L15981,Class,IOConverter,org.apache.camel.converter.IOConverter,L15931,L103,1,21,20,0,0,0,0,0,0,0,0,0,0,0,0,0,0,0,0,0,1,0,37,0,0,0,0,0,0,0,,,,1,1
L16359,Class,NIOConverter,org.apache.camel.converter.NIOConverter,L15931,L103,0,12,11,0,0,0,0,0,0,0,0,0,0,0,0,0,0,0,0,0,0,0,20,0,0,0,0,0,0,0,,,,1,1
L16583,Interface,TypeConverterAware,org.apache.camel.spi.TypeConverterAware,L25161,L103,,1,,,,,,,0,0,,,,,,,,,,0,,0,1,,,,,,,0,0,1,0,1,1
L17126,Class,FailedToCreateProducerException,org.apache.camel.FailedToCreateProducerException,L106,L103,0,2,2,0,1,0,0,0,0,2,2,0,4,1,0,0,1,1,0,0,0,0,3,0,0,0,0,0,0,0,,,,1,1
L17206,Class,CachingInjector<T extends Object>,org.apache.camel.impl.CachingInjector,L17136,L103,2,3,2,0,0,0,0,0,0,0,0,0,0,0,0,0,0,2,0,0,2,1,5,0,0,0,0,0,0,0,,,,1,1
L17244,Interface,TypeConverterLoader,org.apache.camel.impl.converter.TypeConverterLoader,L17229,L103,,1,,,,,,,0,0,,,,,,,,,,0,,0,1,,,,,,,0,0,1,0,1,1
L17327,Class,InstanceMethodTypeConverter,org.apache.camel.impl.converter.InstanceMethodTypeConverter,L17229,L103,1,3,3,0,0,0,1,0,0,0,0,0,0,0,0,0,0,1,0,0,1,0,5,0,0,0,0,0,0,0,,,,1,1
L17342,Class,ArrayTypeConverter,org.apache.camel.impl.converter.ArrayTypeConverter,L17229,L103,0,1,1,0,0,0,1,0,0,0,0,0,0,0,0,0,0,0,0,0,0,0,2,0,0,0,0,0,0,0,,,,1,1
L17426,Class,PropertyEditorTypeConverter,org.apache.camel.impl.converter.PropertyEditorTypeConverter,L17229,L103,0,1,1,0,0,0,1,0,0,0,0,0,0,0,0,0,0,0,0,0,0,0,2,0,0,0,0,0,0,0,,,,1,1
L17439,Class,EnumTypeConverter,org.apache.camel.impl.converter.EnumTypeConverter,L17229,L103,0,1,1,0,0,0,1,0,0,0,0,0,0,0,0,0,0,0,0,0,0,0,2,0,0,0,0,0,0,0,,,,1,1
L17630,Interface,ComponentResolver<E extends Exchange>,org.apache.camel.spi.ComponentResolver,L25161,L103,,1,,,,,,,0,0,,,,,,,,,,0,,3,3,,,,,,,0,1,1,0,1,1
L17635,Class,DefaultLanguageResolver,org.apache.camel.impl.DefaultLanguageResolver,L17136,L103,0,2,1,0,0,0,1,0,0,0,0,0,0,0,0,0,0,0,1,0,0,0,6,0,0,0,0,0,0,0,,,,1,1
L17824,Class,DefaultExchangeConverter,org.apache.camel.impl.DefaultExchangeConverter,L17136,L103,0,1,1,0,0,0,1,0,0,0,0,0,0,0,0,0,0,0,0,0,0,0,2,0,0,0,0,0,0,0,,,,1,1
L17840,Class,DefaultComponentResolver<E extends Exchange>,org.apache.camel.impl.DefaultComponentResolver,L17136,L103,1,1,1,0,0,0,1,0,0,0,0,0,0,0,0,0,0,0,1,0,1,0,3,0,0,0,0,0,0,0,,,,1,1
L179,Class,AlreadyStoppedException,org.apache.camel.AlreadyStoppedException,L106,L103,0,1,1,0,0,0,0,0,0,2,2,0,4,0,0,0,0,0,0,0,0,0,0,0,0,0,0,0,0,0,,,,1,1
L17958,Class,LoggingExceptionHandler,org.apache.camel.impl.LoggingExceptionHandler,L17136,L103,0,3,3,0,0,0,1,0,0,0,0,0,0,0,0,0,0,0,1,0,0,0,3,0,0,0,0,0,0,0,,,,1,1
L181,Class,CamelException,org.apache.camel.CamelException,L106,L103,0,4,4,0,0,0,0,3,11,1,1,3,0,0,0,0,0,0,0,0,0,0,4,0,0,0,0,0,0,0,,,,1,1
L18263,Class,DefaultUnitOfWork,org.apache.camel.impl.DefaultUnitOfWork,L17136,L103,1,6,6,0,1,0,1,0,0,0,0,0,0,0,0,0,2,2,0,0,1,0,3,0,0,0,0,0,0,0,,,,1,1
L18367,Class,ExpressionSupport<E extends Exchange>,org.apache.camel.impl.ExpressionSupport,L17136,L103,0,3,2,0,0,0,2,0,0,0,0,0,0,0,0,0,0,0,0,0,0,1,5,0,0,0,0,0,0,0,,,,1,1
L18559,Class,RuntimeExchangeException,org.apache.camel.RuntimeExchangeException,L106,L103,1,3,3,0,1,0,0,0,0,2,2,0,4,1,0,0,1,1,0,0,0,0,5,0,0,0,0,0,0,0,,,,1,1
L18634,Class,UnitOfWorkProcessor,org.apache.camel.processor.UnitOfWorkProcessor,L22220,L103,0,2,2,0,0,0,0,0,0,2,2,0,22,6,0,0,0,0,0,0,0,0,3,0,0,0,0,0,0,0,,,,1,1
L187,Interface,AsyncCallback,org.apache.camel.AsyncCallback,L106,L103,,1,,,,,,,0,0,,,,,,,,,,2,,22,0,,,,,,,0,0,0,0,1,1
L18731,Class,SerializationDataFormat,org.apache.camel.impl.SerializationDataFormat,L17136,L103,0,2,2,0,0,0,1,0,0,0,0,0,0,0,0,0,0,0,0,0,0,0,6,0,0,0,0,0,0,0,,,,1,1
L18883,Class,InvalidHeaderTypeException,org.apache.camel.InvalidHeaderTypeException,L106,L103,2,4,3,0,1,0,0,0,0,2,2,0,4,1,0,0,0,0,0,0,1,0,7,0,0,0,0,0,0,0,,,,1,1
L18909,Class,InvalidTypeException,org.apache.camel.InvalidTypeException,L106,L103,2,3,3,0,2,0,0,0,0,3,3,0,6,1,0,0,0,0,0,0,2,0,5,0,0,0,0,0,0,0,,,,1,1
L18935,Class,ExpressionEvaluationException,org.apache.camel.language.ExpressionEvaluationException,L18923,L103,1,2,2,0,1,0,0,0,0,2,2,0,4,1,0,0,0,1,0,0,1,0,4,0,0,0,0,0,0,0,,,,1,1
L18960,Annotation,LanguageExpression,org.apache.camel.language.LanguageExpression,L18923,L103,,0,,,,,,,0,0,,,,,,,,,,0,,0,0,,,,,,,0,0,0,0,1,1
L19471,Class,ManagedEndpoint,org.apache.camel.management.ManagedEndpoint,L19412,L103,0,3,3,0,2,0,0,0,0,0,0,0,0,0,0,0,0,1,0,0,0,1,3,0,0,0,0,0,0,0,,,,1,1
L19498,Class,ManagedRoute,org.apache.camel.management.ManagedRoute,L19412,L103,2,6,5,0,3,0,0,0,0,0,0,0,0,0,0,0,0,1,0,0,1,1,4,0,0,0,0,0,0,0,,,,1,1
L198,Interface,AsyncProcessor,org.apache.camel.AsyncProcessor,L106,L103,,1,,,,,,,0,1,,,,,,,,,,0,,8,2,,,,,,,0,7,12,0,1,1
L19963,Class,UseLatestAggregationStrategy,org.apache.camel.processor.aggregate.UseLatestAggregationStrategy,L22296,L103,0,1,1,0,0,0,1,0,0,0,0,0,0,0,0,0,0,0,0,0,0,0,3,0,0,0,0,0,0,0,,,,1,1
L20040,Class,OutputType<Type extends ProcessorType>,org.apache.camel.model.OutputType,L19904,L103,2,5,4,2,2,0,0,7,7,1,1,1,0,0,0,0,1,1,1,0,2,2,5,0,0,0,0,0,0,0,,,,1,1
L20121,Class,CatchProcessor,org.apache.camel.processor.CatchProcessor,L22220,L103,1,4,4,0,1,0,0,0,0,2,2,0,23,6,0,0,0,0,0,0,1,2,5,0,0,0,0,0,0,0,,,,1,1
L20235,Class,StreamResequencerConfig,org.apache.camel.model.config.StreamResequencerConfig,L20206,L103,3,10,10,3,4,0,0,0,0,0,0,0,0,0,0,0,0,1,0,0,3,4,3,0,0,0,0,0,0,0,,,,1,1
L20644,Class,IdentifiedType,org.apache.camel.model.IdentifiedType,L19904,L103,1,2,2,1,1,0,0,4,5,0,0,2,0,0,0,0,0,0,0,0,1,0,2,0,0,0,0,0,0,0,,,,1,1
L2068,Interface,ResultHandler,org.apache.camel.builder.xml.ResultHandler,L1925,L103,,2,,,,,,,0,0,,,,,,,,,,0,,4,2,,,,,,,0,0,3,0,1,1
L20834,Class,SimpleExpression,org.apache.camel.model.language.SimpleExpression,L20711,L103,0,3,3,0,1,0,0,0,0,1,1,0,16,2,0,0,0,0,0,0,0,0,2,0,0,0,0,0,0,0,,,,1,1
L20840,Class,SqlExpression,org.apache.camel.model.language.SqlExpression,L20711,L103,0,3,3,0,1,0,0,0,0,1,1,0,16,2,0,0,0,0,0,0,0,0,2,0,0,0,0,0,0,0,,,,1,1
L20846,Class,XPathExpression,org.apache.camel.model.language.XPathExpression,L20711,L103,0,3,3,0,1,0,0,0,0,1,1,0,16,2,0,0,0,0,0,0,0,0,2,0,0,0,0,0,0,0,,,,1,1
L21578,Class,ServiceActivationType,org.apache.camel.model.ServiceActivationType,L19904,L103,1,4,4,2,2,0,0,0,0,0,0,0,0,0,0,0,1,1,0,0,1,0,4,0,0,0,0,0,0,0,,,,1,1
L21779,Class,ThreadProcessor,org.apache.camel.processor.ThreadProcessor,L22220,L103,11,24,24,10,10,0,2,0,0,0,0,0,0,0,0,0,0,0,0,0,5,0,11,0,0,0,0,0,0,0,,,,1,1
L22169,Class,NoSuchPropertyException,org.apache.camel.NoSuchPropertyException,L106,L103,3,5,3,0,2,0,0,0,0,3,3,0,6,1,0,0,0,0,0,0,2,0,10,0,0,0,0,0,0,0,,,,1,1
L2258,Class,StringResultHandlerFactory,org.apache.camel.builder.xml.StringResultHandlerFactory,L1925,L103,0,1,1,0,0,0,1,0,0,0,0,0,0,0,0,0,0,0,0,0,0,0,1,0,0,0,0,0,0,0,,,,1,1
L22637,Class,DelegateAsyncProcessor,org.apache.camel.processor.DelegateAsyncProcessor,L22220,L103,0,9,7,1,1,0,1,1,1,1,1,1,13,6,0,0,0,1,0,0,0,0,7,0,0,0,0,0,0,0,,,,1,1
L22873,Class,LoadBalancerSupport,org.apache.camel.processor.loadbalancer.LoadBalancerSupport,L22858,L103,0,3,3,0,1,0,1,2,5,0,0,2,0,0,0,0,1,1,0,0,0,0,3,0,0,0,0,0,0,0,,,,1,1
L23382,Class,ResequencerEngine<E extends Object>,org.apache.camel.processor.resequencer.ResequencerEngine,L23258,L103,7,17,10,3,3,0,1,0,0,0,0,0,0,0,0,0,0,0,0,0,5,0,14,0,0,0,0,0,0,0,,,,1,1
L23547,Class,SequenceSender,org.apache.camel.processor.resequencer.SequenceSender,L23258,L103,2,6,4,1,0,0,0,0,0,1,1,0,0,0,0,0,0,3,0,0,2,0,4,0,0,0,0,0,0,0,,,,1,1
L23882,Interface,ValidatorErrorHandler,org.apache.camel.processor.validation.ValidatorErrorHandler,L23874,L103,,2,,,,,,,0,1,,,,,,,,,,0,,2,3,,,,,,,0,1,1,0,1,1
L2522,Class,XPathLanguage,org.apache.camel.builder.xml.XPathLanguage,L1925,L103,1,5,4,1,1,0,1,0,0,0,0,0,0,0,0,0,0,0,0,0,1,0,7,0,0,0,0,0,0,0,,,,1,1
L25312,Class,AsyncProcessorHelper,org.apache.camel.util.AsyncProcessorHelper,L25283,L103,0,2,1,0,0,0,0,0,0,0,0,0,0,0,0,0,0,0,0,0,0,0,2,0,0,0,0,0,0,0,,,,1,1
L25351,Class,CollectionHelper,org.apache.camel.util.CollectionHelper,L25283,L103,0,2,1,0,0,0,0,0,0,0,0,0,0,0,0,0,0,0,0,0,0,0,3,0,0,0,0,0,0,0,,,,1,1
L25685,Class,IOHelper,org.apache.camel.util.IOHelper,L25283,L103,0,2,2,0,0,0,0,0,0,0,0,0,0,0,0,0,0,0,0,0,0,0,5,0,0,0,0,0,0,0,,,,1,1
L26453,Class,UnsafeUriCharactersEncoder,org.apache.camel.util.UnsafeUriCharactersEncoder,L25283,L103,3,3,1,0,0,0,0,0,0,0,0,0,0,0,0,0,0,0,0,0,2,0,3,0,0,0,0,0,0,0,,,,1,1
L26479,Class,URISupport,org.apache.camel.util.URISupport,L25283,L103,0,14,12,0,0,0,0,0,0,0,0,0,0,0,0,0,0,0,0,0,0,0,31,0,0,0,0,0,0,0,,,,1,1
L2881,Class,FilterProcessor,org.apache.camel.processor.FilterProcessor,L22220,L103,1,4,4,0,1,0,0,0,0,2,2,0,23,6,0,0,0,0,0,0,1,3,5,0,0,0,0,0,0,0,,,,1,1
L3138,Class,MemoryMessageIdRepository,org.apache.camel.processor.idempotent.MemoryMessageIdRepository,L22702,L103,1,5,5,0,0,0,1,0,0,0,0,0,0,0,0,0,0,0,0,0,1,0,6,0,0,0,0,0,0,0,,,,1,1
L3182,Annotation,LanguageAnnotation,org.apache.camel.language.LanguageAnnotation,L18923,L103,,0,,,,,,,0,0,,,,,,,,,,0,,4,0,,,,,,,0,0,0,0,1,1
L3418,Class,BytesSource,org.apache.camel.converter.jaxp.BytesSource,L16074,L103,1,6,6,0,3,0,0,0,0,1,1,0,0,0,0,0,0,0,0,0,0,1,4,0,0,0,0,0,0,0,,,,1,1
L375,Interface,CamelContext,org.apache.camel.CamelContext,L106,L103,,23,,,,,,,0,1,,,,,,,,,,0,,159,35,,,,,,,0,34,1,0,1,1
L379,Interface,ErrorHandlerBuilder,org.apache.camel.builder.ErrorHandlerBuilder,L227,L103,,3,,,,,,,0,0,,,,,,,,,,0,,12,4,,,,,,,0,2,1,0,1,1
L3895,Class,RuntimeCamelException,org.apache.camel.RuntimeCamelException,L106,L103,1,4,4,0,0,0,0,15,16,1,1,2,0,0,0,0,0,0,0,0,0,0,4,0,0,0,0,0,0,0,,,,1,1
L4076,Interface,Injector,org.apache.camel.spi.Injector,L25161,L103,,1,,,,,,,0,0,,,,,,,,,,0,,15,1,,,,,,,0,3,2,0,1,1
L4107,Class,CamelExchangeException,org.apache.camel.CamelExchangeException,L106,L103,1,2,2,0,1,0,0,6,8,2,2,2,4,0,0,0,1,1,0,0,0,0,3,0,0,0,0,0,0,0,,,,1,1
L4119,Class,ServiceSupport,org.apache.camel.impl.ServiceSupport,L17136,L103,6,13,6,0,6,0,1,29,72,0,0,3,0,0,0,0,0,0,1,0,2,1,4,0,0,0,0,0,0,0,,,,1,1
L4132,Class,ProducerCache<E extends Exchange>,org.apache.camel.util.ProducerCache,L25283,L103,2,11,7,1,2,0,0,0,0,1,1,0,13,6,0,0,0,0,0,0,2,0,26,0,0,0,0,0,0,0,,,,1,1
L4448,Class,AmbiguousMethodCallException,org.apache.camel.component.bean.AmbiguousMethodCallException,L4413,L103,0,2,2,0,1,0,0,0,0,3,3,0,6,1,0,0,1,1,0,0,0,0,3,0,0,0,0,0,0,0,,,,1,1
L449,Class,NoSuchEndpointException,org.apache.camel.NoSuchEndpointException,L106,L103,2,2,2,0,1,0,0,0,0,2,2,0,4,1,0,0,0,0,0,0,1,0,2,0,0,0,0,0,0,0,,,,1,1
L4525,Class,NoBeanAvailableException,org.apache.camel.component.bean.NoBeanAvailableException,L4413,L103,1,2,2,0,1,0,0,0,0,2,2,0,4,0,0,0,0,0,0,0,1,0,2,0,0,0,0,0,0,0,,,,1,1
L4542,Class,BeanExchange,org.apache.camel.component.bean.BeanExchange,L4413,L103,0,4,4,1,1,0,0,0,0,1,1,0,38,3,0,0,0,0,0,0,0,1,4,0,0,0,0,0,0,0,,,,1,1
L4550,Class,BeanInvocation,org.apache.camel.component.bean.BeanInvocation,L4413,L103,3,5,5,0,3,0,0,0,0,0,0,0,0,0,0,0,0,0,0,0,2,3,8,0,0,0,0,0,0,0,,,,1,1
L4807,Class,DefaultParameterMappingStrategy,org.apache.camel.component.bean.DefaultParameterMappingStrategy,L4413,L103,0,4,4,0,1,0,1,0,0,0,0,0,0,0,0,0,1,1,1,0,0,0,4,0,0,0,0,0,0,0,,,,1,1
L490,Class,NoErrorHandlerBuilder,org.apache.camel.builder.NoErrorHandlerBuilder,L227,L103,0,2,2,0,0,0,0,0,0,1,1,0,2,0,0,0,0,0,0,0,0,1,3,0,0,0,0,0,0,0,,,,1,1
L5233,Class,DirectEndpoint<E extends Exchange>,org.apache.camel.component.direct.DirectEndpoint,L5213,L103,3,6,6,1,2,0,0,0,0,1,1,0,0,0,0,0,0,0,0,0,2,0,5,0,0,0,0,0,0,0,,,,1,1
L524,Class,DeadLetterChannelBuilder,org.apache.camel.builder.DeadLetterChannelBuilder,L227,L103,1,28,28,6,6,0,0,0,0,1,1,0,2,0,0,0,1,3,2,0,1,3,21,0,0,0,0,0,0,0,,,,1,1
L536,Class,SendProcessor,org.apache.camel.processor.SendProcessor,L22220,L103,1,7,5,0,1,0,2,0,0,1,1,0,13,6,0,0,0,3,0,0,1,0,6,0,0,0,0,0,0,0,,,,1,1
L5470,Interface,FileProcessStrategy,org.apache.camel.component.file.strategy.FileProcessStrategy,L5797,L103,,2,,,,,,,0,0,,,,,,,,,,0,,3,6,,,,,,,0,1,1,0,1,1
L555,Class,ConstantProcessorBuilder,org.apache.camel.builder.ConstantProcessorBuilder,L227,L103,0,2,2,0,0,0,1,0,0,0,0,0,0,0,0,0,0,1,0,0,0,0,2,0,0,0,0,0,0,0,,,,1,1
L5651,Class,NoOpFileProcessStrategy,org.apache.camel.component.file.strategy.NoOpFileProcessStrategy,L5797,L103,0,1,1,0,0,0,0,0,0,1,1,0,9,3,0,0,0,0,0,0,0,0,0,0,0,0,0,0,0,0,,,,1,1
L5657,Class,RenameFileProcessStrategy,org.apache.camel.component.file.strategy.RenameFileProcessStrategy,L5797,L103,1,7,7,1,1,0,0,0,0,1,1,0,9,3,0,0,1,1,0,0,1,0,8,0,0,0,0,0,0,0,,,,1,1
L5663,Class,DeleteFileProcessStrategy,org.apache.camel.component.file.strategy.DeleteFileProcessStrategy,L5797,L103,1,3,3,0,0,0,0,0,0,1,1,0,9,3,0,0,0,0,0,0,1,0,3,0,0,0,0,0,0,0,,,,1,1
L5679,Class,FileMessage,org.apache.camel.component.file.FileMessage,L5354,L103,1,8,7,1,2,0,0,0,0,2,2,0,22,3,0,0,0,0,0,0,1,0,6,0,0,0,0,0,0,0,,,,1,1
L5693,Class,DefaultMessage,org.apache.camel.impl.DefaultMessage,L17136,L103,1,10,8,2,3,0,0,11,11,1,1,1,12,2,0,0,0,0,0,0,1,0,13,0,0,0,0,0,0,0,,,,1,1
L5839,Class,FileProcessStrategySupport,org.apache.camel.component.file.strategy.FileProcessStrategySupport,L5797,L103,3,9,6,2,2,0,1,3,3,0,0,1,0,0,0,0,1,1,0,0,2,0,9,0,0,0,0,0,0,0,,,,1,1
L603,Class,SerializationDataFormat,org.apache.camel.model.dataformat.SerializationDataFormat,L20281,L103,0,1,0,0,0,0,0,0,0,1,1,0,7,1,0,0,0,0,0,0,0,0,2,0,0,0,0,0,0,0,,,,1,1
L667,Class,ErrorHandlerBuilderSupport,org.apache.camel.builder.ErrorHandlerBuilderSupport,L227,L103,0,2,1,0,0,0,1,3,3,0,0,1,0,0,0,0,1,1,0,0,0,0,2,0,0,0,0,0,0,0,,,,1,1
L6698,Class,JMXComponent,org.apache.camel.component.jmx.JMXComponent,L6691,L103,1,5,4,1,1,0,0,0,0,1,1,0,0,0,0,0,0,0,0,0,1,1,7,0,0,0,0,0,0,0,,,,1,1
L6701,Class,JMXExchange,org.apache.camel.component.jmx.JMXExchange,L6691,L103,0,1,1,0,0,0,0,0,0,1,1,0,38,3,0,0,0,0,0,0,0,4,2,0,0,0,0,0,0,0,,,,1,1
L679,Class,Logger,org.apache.camel.processor.Logger,L22220,L103,1,14,13,2,2,0,1,0,0,0,0,0,0,0,0,0,2,2,2,0,1,8,13,0,0,0,0,0,0,0,,,,1,1
L6853,Class,JMXMessage,org.apache.camel.component.jmx.JMXMessage,L6691,L103,1,6,6,0,2,0,0,0,0,2,2,0,22,3,0,0,0,0,0,0,1,0,4,0,0,0,0,0,0,0,,,,1,1
L7280,Class,SedaComponent,org.apache.camel.component.seda.SedaComponent,L7270,L103,0,2,1,0,0,0,0,2,2,2,2,1,25,8,0,0,0,0,0,0,0,1,5,0,0,0,0,0,0,0,,,,1,1
L7433,Class,TimerEndpoint,org.apache.camel.component.timer.TimerEndpoint,L7411,L103,7,17,17,5,9,0,0,0,0,1,1,0,0,0,0,0,2,2,0,0,3,2,11,0,0,0,0,0,0,0,,,,1,1
L7457,Class,TimerConsumer,org.apache.camel.component.timer.TimerConsumer,L7411,L103,2,5,1,0,0,0,0,0,0,1,1,0,0,0,0,0,1,1,0,0,2,0,4,0,0,0,0,0,0,0,,,,1,1
L792,Class,RecipientList,org.apache.camel.processor.RecipientList,L22220,L103,2,6,3,0,0,0,1,0,0,1,1,0,13,6,0,0,0,0,0,0,2,0,6,0,0,0,0,0,0,0,,,,1,1
L10301,Class,IBatisComponent,org.apache.camel.component.ibatis.IBatisComponent,L10278,L103,4,8,6,2,2,0,0,0,0,2,2,0,25,8,0,0,0,0,0,0,4,2,10,0,0,0,0,0,0,0,,,,0,0
L10332,Class,IBatisEndpoint,org.apache.camel.component.ibatis.IBatisEndpoint,L10278,L103,1,7,7,0,4,0,0,0,0,2,2,0,3,0,0,0,2,2,0,0,1,3,8,0,0,0,0,0,0,0,,,,0,0
L10349,Class,IBatisProducer,org.apache.camel.component.ibatis.IBatisProducer,L10278,L103,1,4,3,0,2,0,0,0,0,2,2,0,20,7,0,0,1,1,0,0,1,0,5,0,0,0,0,0,0,0,,,,0,0
L10355,Class,IBatisPollingConsumer,org.apache.camel.component.ibatis.IBatisPollingConsumer,L10278,L103,2,6,4,0,0,0,0,0,0,2,2,0,19,7,0,0,1,1,0,0,2,0,4,0,0,0,0,0,0,0,,,,0,0
L10482,Class,IrcBinding,org.apache.camel.component.irc.IrcBinding,L10454,L103,0,1,1,0,0,0,0,0,0,0,0,0,0,0,0,0,2,2,0,0,0,6,3,0,0,0,0,0,0,0,,,,0,0
L10486,Class,IrcExchange,org.apache.camel.component.irc.IrcExchange,L10454,L103,0,11,9,1,5,0,0,0,0,1,1,0,38,3,0,0,1,1,0,0,0,11,13,0,0,0,0,0,0,0,,,,0,0
L10490,Class,IrcMessage,org.apache.camel.component.irc.IrcMessage,L10454,L103,5,20,18,5,6,0,0,0,0,2,2,0,22,3,0,0,0,0,0,0,2,8,29,0,0,0,0,0,0,0,,,,0,0
L10497,Class,IrcComponent,org.apache.camel.component.irc.IrcComponent,L10454,L103,2,11,8,1,2,0,0,0,0,1,1,0,0,0,0,0,2,2,0,0,2,3,14,0,0,0,0,0,0,0,,,,0,0
L10506,Class,IrcConfiguration,org.apache.camel.component.irc.IrcConfiguration,L10454,L103,17,41,41,17,18,0,1,0,0,0,0,0,0,0,0,0,3,3,0,0,1,8,25,0,0,0,0,0,0,0,,,,0,0
L10527,Class,IrcEndpoint,org.apache.camel.component.irc.IrcEndpoint,L10454,L103,0,19,19,3,4,0,0,0,0,1,1,0,0,0,0,0,5,5,0,0,0,3,43,0,0,0,0,0,0,0,,,,0,0
L10678,Class,IrcConsumer,org.apache.camel.component.irc.IrcConsumer,L10454,L103,3,4,2,0,1,0,0,0,0,1,1,0,0,0,0,0,2,2,0,0,3,1,4,0,0,0,0,0,0,0,,,,0,0
L10815,Class,IrcProducer,org.apache.camel.component.irc.IrcProducer,L10454,L103,4,6,2,0,1,0,0,0,0,1,1,0,0,0,0,0,1,1,0,0,4,1,5,0,0,0,0,0,0,0,,,,0,0
L10833,Class,IrcErrorLogger,org.apache.camel.component.irc.IrcErrorLogger,L10454,L103,1,9,9,0,0,0,0,0,0,1,1,0,0,0,0,0,0,0,0,0,1,0,14,0,0,0,0,0,0,0,,,,0,0
L11040,Class,JdbcComponent,org.apache.camel.component.jdbc.JdbcComponent,L11018,L103,0,5,2,0,0,0,0,0,0,1,1,0,0,0,0,0,0,0,0,0,0,1,5,0,0,0,0,0,0,0,,,,0,0
L11055,Class,JdbcEndpoint,org.apache.camel.component.jdbc.JdbcEndpoint,L11018,L103,3,7,6,1,3,0,0,0,0,1,1,0,0,0,0,0,0,0,0,0,2,1,7,0,0,0,0,0,0,0,,,,0,0
L11087,Class,JdbcProducer,org.apache.camel.component.jdbc.JdbcProducer,L11018,L103,2,5,5,2,1,0,0,0,0,1,1,0,0,0,0,0,0,0,0,0,1,0,5,0,0,0,0,0,0,0,,,,0,0
L11365,Class,EventDrivenPollingConsumer<E extends Exchange>,org.apache.camel.impl.EventDrivenPollingConsumer,L17136,L103,3,11,8,1,1,0,1,0,0,1,1,0,0,0,0,0,0,0,1,0,3,0,10,0,0,0,0,0,0,0,,,,0,0
L11870,Annotation,Converter,org.apache.camel.Converter,L106,L103,,0,,,,,,,0,0,,,,,,,,,,0,,0,0,,,,,,,0,0,0,0,0,0
L12074,Class,JingComponent,org.apache.camel.component.validator.jing.JingComponent,L12050,L103,0,2,0,0,0,0,0,1,1,2,2,1,3,2,0,0,0,0,0,0,0,0,8,0,0,0,0,0,0,0,,,,0,0
L12076,Class,ResourceBasedComponent,org.apache.camel.component.ResourceBasedComponent,L4402,L103,2,3,2,1,1,0,0,2,4,1,1,2,0,0,0,0,0,0,0,0,2,0,4,0,0,0,0,0,0,0,,,,0,0
L12086,Class,JingValidator,org.apache.camel.component.validator.jing.JingValidator,L12050,L103,7,13,13,6,6,0,1,0,0,0,0,0,0,0,0,0,0,0,0,0,6,2,11,0,0,0,0,0,0,0,,,,0,0
L12115,Class,DefaultValidationErrorHandler,org.apache.camel.processor.validation.DefaultValidationErrorHandler,L23874,L103,4,7,7,0,1,0,1,0,0,0,0,0,0,0,0,0,0,0,0,0,2,0,8,0,0,0,0,0,0,0,,,,0,0
L12174,Class,RelaxNGCompactSyntaxComponent,org.apache.camel.component.validator.jing.RelaxNGCompactSyntaxComponent,L12050,L103,0,1,0,0,0,0,0,0,0,3,3,0,5,2,0,0,0,0,0,0,0,0,4,0,0,0,0,0,0,0,,,,0,0
L12222,Class,ValidatorComponent,org.apache.camel.component.validator.ValidatorComponent,L12044,L103,0,2,0,0,0,0,0,1,1,2,2,1,3,2,0,0,0,0,0,0,0,0,8,0,0,0,0,0,0,0,,,,0,0
L12235,Class,SpringValidator,org.apache.camel.component.validator.SpringValidator,L12044,L103,1,3,2,1,1,0,0,0,0,1,1,0,18,6,0,0,0,0,0,0,1,2,3,0,0,0,0,0,0,0,,,,0,0
L12253,Class,ValidatingProcessor,org.apache.camel.processor.validation.ValidatingProcessor,L23874,L103,6,18,15,7,7,0,1,1,1,0,0,1,0,0,0,0,1,1,0,0,6,0,18,0,0,0,0,0,0,0,,,,0,0
L12353,Class,EndpointMessageListener<E extends Exchange>,org.apache.camel.component.jms.EndpointMessageListener,L12293,L103,2,7,7,2,2,0,1,0,0,0,0,0,0,0,0,0,2,3,0,0,1,0,7,0,0,0,0,0,0,0,,,,0,0
L12359,Class,JmsEndpoint,org.apache.camel.component.jms.JmsEndpoint,L12293,L103,3,16,15,2,5,0,0,0,0,1,1,0,0,0,0,0,5,5,0,0,1,8,23,0,0,0,0,0,0,0,,,,0,0
L12364,Class,JmsBinding,org.apache.camel.component.jms.JmsBinding,L12293,L103,1,6,4,0,0,0,0,0,0,0,0,0,0,0,0,0,3,3,0,0,1,7,16,0,0,0,0,0,0,0,,,,0,0
L12376,Class,JmsExchange,org.apache.camel.component.jms.JmsExchange,L12293,L103,0,14,11,0,8,0,0,0,0,1,1,0,38,3,0,0,1,1,0,0,0,7,17,0,0,0,0,0,0,0,,,,0,0
L12409,Class,RuntimeJmsException,org.apache.camel.component.jms.RuntimeJmsException,L12293,L103,1,1,1,0,0,0,0,3,3,1,1,1,0,0,0,0,0,0,0,0,0,0,2,0,0,0,0,0,0,0,,,,0,0
L1281,Interface,Language,org.apache.camel.spi.Language,L25161,L103,,2,,,,,,,0,0,,,,,,,,,,0,,10,4,,,,,,,0,1,6,0,0,0
L12867,Class,JmsConsumer,org.apache.camel.component.jms.JmsConsumer,L12293,L103,1,5,2,0,1,0,0,0,0,1,1,0,0,0,0,0,0,0,0,0,1,2,7,0,0,0,0,0,0,0,,,,0,0
L12910,Class,JmsProducer,org.apache.camel.component.jms.JmsProducer,L12293,L103,2,3,3,0,1,0,0,0,0,2,2,0,20,7,0,0,1,1,0,0,2,2,4,0,0,0,0,0,0,0,,,,0,0
L12937,Class,JmsPollingConsumer,org.apache.camel.component.jms.JmsPollingConsumer,L12293,L103,1,8,5,1,1,0,0,0,0,1,1,0,0,0,0,0,0,0,0,0,1,0,6,0,0,0,0,0,0,0,,,,0,0
L12970,Class,JmsMessage,org.apache.camel.component.jms.JmsMessage,L12293,L103,2,11,7,1,4,0,0,0,0,2,2,0,22,3,0,0,0,0,0,0,2,6,12,0,0,0,0,0,0,0,,,,0,0
L12997,Class,JmsIOConverter,org.apache.camel.component.jms.JmsIOConverter,L12293,L103,0,3,1,0,0,0,0,0,0,0,0,0,0,0,0,0,0,0,0,0,0,0,4,0,0,0,0,0,0,0,,,,0,0
L13096,Class,MessagePropertyAccessException,org.apache.camel.component.jms.MessagePropertyAccessException,L12293,L103,2,2,2,0,1,0,0,0,0,2,2,0,1,1,0,0,0,0,0,0,1,0,3,0,0,0,0,0,0,0,,,,0,0
L13109,Class,MessageJMSPropertyAccessException,org.apache.camel.component.jms.MessageJMSPropertyAccessException,L12293,L103,1,1,1,0,0,0,0,0,0,2,2,0,1,1,0,0,0,0,0,0,0,0,1,0,0,0,0,0,0,0,,,,0,0
L13114,Class,MessagePropertyNamesAccessException,org.apache.camel.component.jms.MessagePropertyNamesAccessException,L12293,L103,1,1,1,0,0,0,0,0,0,2,2,0,1,1,0,0,0,0,0,0,0,0,1,0,0,0,0,0,0,0,,,,0,0
L13166,Class,MessageListenerProcessor,org.apache.camel.component.jms.MessageListenerProcessor,L12293,L103,0,2,2,0,0,0,1,0,0,0,0,0,0,0,0,0,1,2,0,0,0,0,3,0,0,0,0,0,0,0,,,,0,0
L1321,Class,PredicateBuilder,org.apache.camel.builder.PredicateBuilder,L227,L103,0,18,17,0,9,0,0,0,0,0,0,0,0,0,0,0,0,0,0,0,0,0,45,0,0,0,0,0,0,0,,,,0,0
L1328,Interface,Predicate<E extends Object>,org.apache.camel.Predicate,L106,L103,,2,,,,,,,0,0,,,,,,,,,,0,,14,3,,,,,,,0,1,0,0,0,0
L13338,Class,SpringRouteBuilder,org.apache.camel.spring.SpringRouteBuilder,L28871,L103,1,5,5,1,1,0,0,1,1,2,2,1,49,2,0,0,0,0,0,0,1,0,6,0,0,0,0,0,0,0,,,,0,0
L13347,Interface,Policy<E extends Object>,org.apache.camel.spi.Policy,L25161,L103,,1,,,,,,,0,0,,,,,,,,,,0,,3,2,,,,,,,0,1,0,0,0,0
L13350,Class,SpringTransactionPolicy<E extends Object>,org.apache.camel.spring.spi.SpringTransactionPolicy,L29615,L103,2,4,4,1,1,0,1,0,0,0,0,0,0,0,0,0,0,0,0,0,2,0,5,0,0,0,0,0,0,0,,,,0,0
L1338,Class,PredicateSupport<E extends Exchange>,org.apache.camel.impl.PredicateSupport,L17136,L103,0,2,1,0,0,0,1,0,0,0,0,0,0,0,0,0,0,0,0,0,0,0,4,0,0,0,0,0,0,0,,,,0,0
L14001,Class,JavaMailConnection,org.apache.camel.component.mail.JavaMailConnection,L13966,L103,0,1,1,0,1,0,0,0,0,1,1,0,0,0,0,0,0,0,0,0,0,1,3,0,0,0,0,0,0,0,,,,0,0
L14007,Class,MailBinding,org.apache.camel.component.mail.MailBinding,L13966,L103,0,6,2,0,0,0,0,0,0,0,0,0,0,0,0,0,2,2,0,0,0,5,16,0,0,0,0,0,0,0,,,,0,0
L14012,Class,MailEndpoint,org.apache.camel.component.mail.MailEndpoint,L13966,L103,0,11,11,1,3,0,0,0,0,1,1,0,0,0,0,0,5,5,0,0,0,6,17,0,0,0,0,0,0,0,,,,0,0
L14027,Class,RuntimeMailException,org.apache.camel.component.mail.RuntimeMailException,L13966,L103,1,1,1,0,0,0,0,2,2,1,1,1,0,0,0,0,0,0,0,0,0,0,2,0,0,0,0,0,0,0,,,,0,0
L14036,Class,MailExchange,org.apache.camel.component.mail.MailExchange,L13966,L103,0,10,8,0,5,0,0,0,0,1,1,0,38,3,0,0,1,1,0,0,0,4,13,0,0,0,0,0,0,0,,,,0,0
L14057,Class,MailComponent,org.apache.camel.component.mail.MailComponent,L13966,L103,0,9,7,1,1,0,0,0,0,1,1,0,0,0,0,0,1,1,0,0,0,1,11,0,0,0,0,0,0,0,,,,0,0
L14063,Class,MailConfiguration,org.apache.camel.component.mail.MailConfiguration,L13966,L103,12,28,28,12,12,0,1,0,0,0,0,0,0,0,0,0,2,2,0,0,3,6,23,0,0,0,0,0,0,0,,,,0,0
L1411,Class,BinaryPredicateSupport<E extends Exchange>,org.apache.camel.impl.BinaryPredicateSupport,L17136,L103,2,7,3,0,1,0,1,0,0,0,0,0,0,0,0,0,0,0,0,0,1,0,14,0,0,0,0,0,0,0,,,,0,0
L14180,Class,MailConsumer,org.apache.camel.component.mail.MailConsumer,L13966,L103,2,9,3,0,0,0,1,0,0,1,1,0,0,0,0,0,1,1,0,0,2,0,7,0,0,0,0,0,0,0,,,,0,0
L14220,Class,MailConverters,org.apache.camel.component.mail.MailConverters,L13966,L103,0,2,2,0,0,0,0,0,0,0,0,0,0,0,0,0,0,0,0,0,0,0,4,0,0,0,0,0,0,0,,,,0,0
L14249,Class,MailProducer,org.apache.camel.component.mail.MailProducer,L13966,L103,2,2,2,0,0,0,0,0,0,1,1,0,0,0,0,0,1,1,0,0,2,0,3,0,0,0,0,0,0,0,,,,0,0
L14295,Class,MailMessage,org.apache.camel.component.mail.MailMessage,L13966,L103,1,12,10,1,3,0,0,0,0,2,2,0,22,3,0,0,0,0,0,0,1,6,10,0,0,0,0,0,0,0,,,,0,0
L14330,Class,MessageHeaderAccessException,org.apache.camel.component.mail.MessageHeaderAccessException,L13966,L103,2,2,2,0,1,0,0,0,0,2,2,0,1,1,0,0,0,0,0,0,1,0,3,0,0,0,0,0,0,0,,,,0,0
L14342,Class,MessageHeaderNamesAccessException,org.apache.camel.component.mail.MessageHeaderNamesAccessException,L13966,L103,1,1,1,0,0,0,0,0,0,2,2,0,1,1,0,0,0,0,0,0,0,0,1,0,0,0,0,0,0,0,,,,0,0
L14504,Class,MinaComponent,org.apache.camel.component.mina.MinaComponent,L14475,L103,0,7,2,0,0,0,0,0,0,1,1,0,0,0,0,0,0,0,0,0,0,1,18,0,0,0,0,0,0,0,,,,0,0
L14507,Class,MinaExchange,org.apache.camel.component.mina.MinaExchange,L14475,L103,0,1,1,0,0,0,0,0,0,1,1,0,38,3,0,0,0,0,0,0,0,2,1,0,0,0,0,0,0,0,,,,0,0
L14528,Class,MinaEndpoint,org.apache.camel.component.mina.MinaEndpoint,L14475,L103,4,10,10,0,5,0,0,0,0,1,1,0,0,0,0,0,2,2,0,1,4,6,17,0,0,0,0,0,0,0,,,,0,0
L14545,Class,MinaConsumer,org.apache.camel.component.mina.MinaConsumer,L14475,L103,3,3,1,0,0,0,0,0,0,1,1,0,0,0,0,0,1,1,0,0,3,0,2,0,0,0,0,0,0,0,,,,0,0
L14601,Class,MinaProducer,org.apache.camel.component.mina.MinaProducer,L14475,L103,4,4,2,0,0,0,0,0,0,2,2,0,20,7,0,0,1,1,0,0,3,0,2,0,0,0,0,0,0,0,,,,0,0
L14801,Class,CamelJob,org.apache.camel.component.quartz.CamelJob,L14776,L103,0,1,1,0,0,0,1,0,0,0,0,0,0,0,0,0,0,0,0,0,0,0,1,0,0,0,0,0,0,0,,,,0,0
L14806,Class,QuartzEndpoint,org.apache.camel.component.quartz.QuartzEndpoint,L14776,L103,6,23,20,3,6,0,0,0,0,1,1,0,0,0,0,0,0,0,1,0,5,4,28,0,0,0,0,0,0,0,,,,0,0
L14813,Class,QuartzComponent,org.apache.camel.component.quartz.QuartzComponent,L14776,L103,4,13,8,3,3,0,0,0,0,1,1,0,0,0,0,0,0,0,0,0,4,2,13,0,0,0,0,0,0,0,,,,0,0
L14816,Class,QuartzExchange,org.apache.camel.component.quartz.QuartzExchange,L14776,L103,0,3,3,0,2,0,0,0,0,1,1,0,38,3,0,0,0,0,0,0,0,3,4,0,0,0,0,0,0,0,,,,0,0
L14872,Class,QuartzConsumer,org.apache.camel.component.quartz.QuartzConsumer,L14776,L103,0,4,2,0,1,0,0,0,0,1,1,0,0,0,0,0,0,0,0,0,0,3,3,0,0,0,0,0,0,0,,,,0,0
L14895,Interface,LoadBalancer,org.apache.camel.processor.loadbalancer.LoadBalancer,L22858,L103,,3,,,,,,,0,1,,,,,,,,,,0,,6,3,,,,,,,0,2,1,0,0,0
L14975,Class,RoundRobinLoadBalancer,org.apache.camel.processor.loadbalancer.RoundRobinLoadBalancer,L22858,L103,1,1,0,0,0,0,0,0,0,2,2,0,5,0,0,0,0,0,0,0,0,0,3,0,0,0,0,0,0,0,,,,0,0
L14984,Class,QuartzMessage,org.apache.camel.component.quartz.QuartzMessage,L14776,L103,1,3,2,0,1,0,0,0,0,2,2,0,22,3,0,0,0,0,0,0,1,1,4,0,0,0,0,0,0,0,,,,0,0
L15045,Class,RmiComponent,org.apache.camel.component.rmi.RmiComponent,L15021,L103,0,3,2,0,0,0,0,0,0,1,1,0,0,0,0,0,0,0,0,0,0,1,5,0,0,0,0,0,0,0,,,,0,0
L15060,Class,RmiEndpoint,org.apache.camel.component.rmi.RmiEndpoint,L15021,L103,4,14,13,4,6,0,0,0,0,1,1,0,0,0,0,0,2,2,0,0,3,2,13,0,0,0,0,0,0,0,,,,0,0
L15065,Class,RmiConsumer,org.apache.camel.component.rmi.RmiConsumer,L15021,L103,2,6,4,0,2,0,1,0,0,1,1,0,0,0,0,0,1,1,0,0,1,0,8,0,0,0,0,0,0,0,,,,0,0
L15147,Class,RmiProducer,org.apache.camel.component.rmi.RmiProducer,L15021,L103,1,3,3,0,1,0,0,0,0,2,2,0,20,7,0,0,1,1,1,0,1,0,3,0,0,0,0,0,0,0,,,,0,0
L15239,Class,CamelEvent,org.apache.camel.component.event.CamelEvent,L15230,L103,0,3,3,0,2,0,0,0,0,1,1,0,0,0,0,0,0,1,0,0,0,0,4,0,0,0,0,0,0,0,,,,0,0
L15244,Class,EventEndpoint,org.apache.camel.component.event.EventEndpoint,L15230,L103,0,13,11,1,4,0,0,0,0,1,1,0,0,0,0,0,2,2,2,0,0,7,15,0,0,0,0,0,0,0,,,,0,0
L15252,Class,EventComponent,org.apache.camel.component.event.EventComponent,L15230,L103,1,6,5,1,2,0,1,0,0,1,1,0,0,0,0,0,1,1,0,0,1,2,8,0,0,0,0,0,0,0,,,,0,0
L15271,Class,EventConsumer,org.apache.camel.component.event.EventConsumer,L15230,L103,0,3,1,0,0,0,0,0,0,1,1,0,0,0,0,0,1,1,0,0,0,3,2,0,0,0,0,0,0,0,,,,0,0
L15359,Class,ResourceBasedEndpoint,org.apache.camel.component.ResourceBasedEndpoint,L4402,L103,4,4,4,1,2,0,0,2,2,2,2,1,7,0,0,0,0,0,0,0,4,0,7,0,0,0,0,0,0,0,,,,0,0
L15476,Class,VelocityComponent,org.apache.camel.component.velocity.VelocityComponent,L15456,L103,1,3,2,1,1,0,0,0,0,2,2,0,25,8,0,0,1,1,0,0,1,1,6,0,0,0,0,0,0,0,,,,0,0
L15488,Class,VelocityEndpoint,org.apache.camel.component.velocity.VelocityEndpoint,L15456,L103,1,6,5,1,3,0,0,0,0,3,3,0,11,4,0,0,1,1,0,0,1,0,7,0,0,0,0,0,0,0,,,,0,0
L15560,Class,RuntimeXmppException,org.apache.camel.component.xmpp.RuntimeXmppException,L15532,L103,1,2,2,0,0,0,0,0,0,1,1,0,0,0,0,0,0,0,0,0,0,0,3,0,0,0,0,0,0,0,,,,0,0
L15568,Class,XmppBinding,org.apache.camel.component.xmpp.XmppBinding,L15532,L103,0,3,2,0,0,0,0,0,0,0,0,0,0,0,0,0,2,2,0,0,0,5,8,0,0,0,0,0,0,0,,,,0,0
L15582,Class,XmppExchange,org.apache.camel.component.xmpp.XmppExchange,L15532,L103,0,13,11,0,8,0,0,0,0,1,1,0,38,3,0,0,2,2,0,0,0,4,16,0,0,0,0,0,0,0,,,,0,0
L15590,Class,XmppComponent,org.apache.camel.component.xmpp.XmppComponent,L15532,L103,0,4,3,0,0,0,0,0,0,1,1,0,0,0,0,0,0,0,0,0,0,1,5,0,0,0,0,0,0,0,,,,0,0
L15610,Class,XmppEndpoint,org.apache.camel.component.xmpp.XmppEndpoint,L15532,L103,12,33,32,12,13,0,0,0,0,1,1,0,0,0,0,0,4,4,0,0,4,3,31,0,0,0,0,0,0,0,,,,0,0
L15623,Class,XmppConsumer,org.apache.camel.component.xmpp.XmppConsumer,L15532,L103,1,4,2,0,0,0,1,0,0,1,1,0,0,0,0,0,1,1,0,0,1,0,3,0,0,0,0,0,0,0,,,,0,0
L15679,Class,XmppGroupChatProducer,org.apache.camel.component.xmpp.XmppGroupChatProducer,L15532,L103,3,7,5,1,2,0,0,0,0,2,2,0,20,7,0,0,1,1,0,0,3,0,6,0,0,0,0,0,0,0,,,,0,0
L15685,Class,XmppPrivateChatProducer,org.apache.camel.component.xmpp.XmppPrivateChatProducer,L15532,L103,3,7,5,1,2,0,0,0,0,2,2,0,20,7,0,0,1,1,0,0,3,0,6,0,0,0,0,0,0,0,,,,0,0
L15764,Class,XmppMessage,org.apache.camel.component.xmpp.XmppMessage,L15532,L103,1,11,10,2,4,0,0,0,0,2,2,0,22,3,0,0,0,0,0,0,1,6,11,0,0,0,0,0,0,0,,,,0,0
L15978,Annotation,HasAnnotation,org.apache.camel.converter.HasAnnotation,L15931,L103,,0,,,,,,,0,0,,,,,,,,,,0,,0,0,,,,,,,0,0,0,0,0,0
L16045,Class,CollectionStringBuffer,org.apache.camel.util.CollectionStringBuffer,L25283,L103,3,6,6,1,1,0,0,0,0,0,0,0,0,0,0,0,0,0,0,0,2,0,5,0,0,0,0,0,0,0,,,,0,0
L16444,Class,ReflectionInjector,org.apache.camel.impl.ReflectionInjector,L17136,L103,0,1,1,0,0,0,1,0,0,0,0,0,0,0,0,0,0,0,0,0,0,0,1,0,0,0,0,0,0,0,,,,0,0
L16545,Class,ExchangeType,org.apache.camel.converter.jaxb.ExchangeType,L16516,L103,1,4,4,2,2,0,0,0,0,0,0,0,0,0,0,0,1,1,0,0,1,0,4,0,0,0,0,0,0,0,,,,0,0
L16558,Class,PropertyType,org.apache.camel.converter.jaxb.PropertyType,L16516,L103,2,4,4,2,2,0,0,0,0,0,0,0,0,0,0,0,0,0,0,0,2,0,4,0,0,0,0,0,0,0,,,,0,0
L16581,Class,FallbackTypeConverter,org.apache.camel.converter.jaxb.FallbackTypeConverter,L16516,L103,2,8,4,2,2,0,2,0,0,0,0,0,0,0,0,0,0,1,0,0,1,0,10,0,0,0,0,0,0,0,,,,0,0
L16670,Class,HeaderType,org.apache.camel.converter.jaxb.HeaderType,L16516,L103,1,6,5,2,2,0,0,4,4,0,0,1,0,0,0,0,0,0,0,0,1,1,5,0,0,0,0,0,0,0,,,,0,0
L16689,Class,IntegerHeader,org.apache.camel.converter.jaxb.IntegerHeader,L16516,L103,1,6,6,2,2,0,0,0,0,1,1,0,6,1,0,0,0,0,0,0,1,0,6,0,0,0,0,0,0,0,,,,0,0
L16711,Class,JaxbConverter,org.apache.camel.converter.jaxb.JaxbConverter,L16516,L103,0,7,6,1,1,0,0,0,0,0,0,0,0,0,0,0,0,0,1,0,0,0,12,0,0,0,0,0,0,0,,,,0,0
L16732,Class,MessageType,org.apache.camel.converter.jaxb.MessageType,L16516,L103,2,8,7,2,3,0,0,0,0,0,0,0,0,0,0,0,1,1,0,0,2,2,10,0,0,0,0,0,0,0,,,,0,0
L16744,Class,JaxbDataFormat,org.apache.camel.converter.jaxb.JaxbDataFormat,L16516,L103,5,14,13,4,4,0,1,0,0,0,0,0,0,0,0,0,0,0,0,0,4,0,15,0,0,0,0,0,0,0,,,,0,0
L16746,Interface,DataFormat,org.apache.camel.spi.DataFormat,L25161,L103,,2,,,,,,,0,0,,,,,,,,,,0,,12,6,,,,,,,0,3,3,0,0,0
L16796,Class,LongHeader,org.apache.camel.converter.jaxb.LongHeader,L16516,L103,1,6,6,2,2,0,0,0,0,1,1,0,6,1,0,0,0,0,0,0,1,0,6,0,0,0,0,0,0,0,,,,0,0
L16859,Class,StringHeader,org.apache.camel.converter.jaxb.StringHeader,L16516,L103,1,6,6,2,2,0,0,0,0,1,1,0,6,1,0,0,0,0,0,0,1,0,6,0,0,0,0,0,0,0,,,,0,0
L16870,Class,ObjectHeader,org.apache.camel.converter.jaxb.ObjectHeader,L16516,L103,1,4,4,1,1,0,0,0,0,1,1,0,6,1,0,0,0,0,0,0,1,0,4,0,0,0,0,0,0,0,,,,0,0
L17014,Annotation,EndpointInject,org.apache.camel.EndpointInject,L106,L103,,0,,,,,,,0,0,,,,,,,,,,0,,1,0,,,,,,,0,0,0,0,0,0
L17058,Interface,UnitOfWork,org.apache.camel.spi.UnitOfWork,L25161,L103,,3,,,,,,,0,0,,,,,,,,,,0,,4,3,,,,,,,0,1,1,0,0,0
L17321,Class,StaticMethodTypeConverter,org.apache.camel.impl.converter.StaticMethodTypeConverter,L17229,L103,1,3,3,0,0,0,1,0,0,0,0,0,0,0,0,0,0,0,0,0,1,0,4,0,0,0,0,0,0,0,,,,0,0
L17431,Class,ToStringTypeConverter,org.apache.camel.impl.converter.ToStringTypeConverter,L17229,L103,0,1,1,0,0,0,1,0,0,0,0,0,0,0,0,0,0,0,0,0,0,0,2,0,0,0,0,0,0,0,,,,0,0
L17503,Class,NoFactoryAvailableException,org.apache.camel.util.NoFactoryAvailableException,L25283,L103,1,2,2,0,1,0,0,0,0,1,1,0,0,0,0,0,0,0,0,0,1,0,2,0,0,0,0,0,0,0,,,,0,0
L17654,Class,JndiRegistry,org.apache.camel.impl.JndiRegistry,L17136,L103,1,9,8,1,1,0,1,0,0,0,0,0,0,0,0,0,1,1,0,0,1,1,10,0,0,0,0,0,0,0,,,,0,0
L17716,Class,ResolveEndpointFailedException,org.apache.camel.ResolveEndpointFailedException,L106,L103,1,2,2,0,1,0,0,0,0,2,2,0,4,1,0,0,0,0,0,0,1,0,3,0,0,0,0,0,0,0,,,,0,0
L1773,Class,DelegateProcessor,org.apache.camel.processor.DelegateProcessor,L22220,L103,0,10,7,1,1,0,1,9,11,1,1,2,13,6,0,0,0,1,3,0,0,6,7,0,0,0,0,0,0,0,,,,0,0
L17946,Interface,ExceptionHandler,org.apache.camel.spi.ExceptionHandler,L25161,L103,,1,,,,,,,0,0,,,,,,,,,,0,,8,1,,,,,,,0,4,1,0,0,0
L18166,Class,NoSuchLanguageException,org.apache.camel.NoSuchLanguageException,L106,L103,2,2,2,0,1,0,0,0,0,2,2,0,4,1,0,0,0,0,0,0,1,0,2,0,0,0,0,0,0,0,,,,0,0
L18225,Class,DefaultScheduledPollConsumer<E extends Exchange>,org.apache.camel.impl.DefaultScheduledPollConsumer,L17136,L103,1,5,2,0,0,0,0,0,0,1,1,0,0,0,0,0,0,0,0,0,1,0,5,0,0,0,0,0,0,0,,,,0,0
L18267,Interface,Synchronization,org.apache.camel.spi.Synchronization,L25161,L103,,2,,,,,,,0,0,,,,,,,,,,0,,4,2,,,,,,,0,1,0,0,0,0
L18467,Class,NoPolicy<E extends Object>,org.apache.camel.impl.NoPolicy,L17136,L103,0,1,1,0,0,0,1,0,0,0,0,0,0,0,0,0,0,0,0,0,0,0,2,0,0,0,0,0,0,0,,,,0,0
L18478,Class,NoRouteBuilder,org.apache.camel.impl.NoRouteBuilder,L17136,L103,0,2,2,0,1,0,0,0,0,2,2,0,49,2,0,0,0,0,0,0,0,0,0,0,0,0,0,0,0,0,,,,0,0
L18537,Class,ProcessorPollingConsumer,org.apache.camel.impl.ProcessorPollingConsumer,L17136,L103,0,6,4,0,0,0,0,0,0,2,2,0,19,7,0,0,0,1,0,0,0,0,5,0,0,0,0,0,0,0,,,,0,0
L18587,Class,Interceptor,org.apache.camel.processor.Interceptor,L22220,L103,0,7,5,1,1,0,0,0,0,2,2,0,23,6,0,0,1,2,1,0,0,2,4,0,0,0,0,0,0,0,,,,0,0
L18649,Class,ProceedProcessor,org.apache.camel.processor.ProceedProcessor,L22220,L103,0,3,3,0,0,0,1,0,0,0,0,0,0,0,0,0,1,1,0,0,0,0,3,0,0,0,0,0,0,0,,,,0,0
L18946,Class,IllegalSyntaxException,org.apache.camel.language.IllegalSyntaxException,L18923,L103,1,3,3,0,2,0,0,0,0,2,2,0,4,1,0,0,0,0,1,0,1,0,4,0,0,0,0,0,0,0,,,,0,0
L19229,Annotation,EL,org.apache.camel.language.juel.EL,L19207,L103,,0,,,,,,,0,0,,,,,,,,,,0,,0,0,,,,,,,0,0,0,0,0,0
L19232,Class,JuelExpression,org.apache.camel.language.juel.JuelExpression,L19207,L103,3,9,5,2,1,0,0,0,0,1,1,0,0,0,0,0,0,0,0,0,3,0,17,0,0,0,0,0,0,0,,,,0,0
L19286,Class,JuelLanguage,org.apache.camel.language.juel.JuelLanguage,L19207,L103,0,2,2,0,0,0,1,0,0,0,0,0,0,0,0,0,0,0,0,0,0,0,4,0,0,0,0,0,0,0,,,,0,0
L19324,Annotation,OGNL,org.apache.camel.language.ognl.OGNL,L19302,L103,,0,,,,,,,0,0,,,,,,,,,,0,,0,0,,,,,,,0,0,0,0,0,0
L19327,Class,OgnlExpression,org.apache.camel.language.ognl.OgnlExpression,L19302,L103,3,5,3,0,0,0,0,0,0,1,1,0,0,0,0,0,0,0,0,0,3,0,10,0,0,0,0,0,0,0,,,,0,0
L19334,Class,OgnlLanguage,org.apache.camel.language.ognl.OgnlLanguage,L19302,L103,0,2,2,0,0,0,1,0,0,0,0,0,0,0,0,0,0,0,0,0,0,1,4,0,0,0,0,0,0,0,,,,0,0
L19353,Class,RootObject,org.apache.camel.language.ognl.RootObject,L19302,L103,0,13,13,0,12,0,0,0,0,0,0,0,0,0,0,0,0,1,0,0,0,0,15,0,0,0,0,0,0,0,,,,0,0
L1947,Class,DefaultNamespaceContext,org.apache.camel.builder.xml.DefaultNamespaceContext,L1925,L103,2,8,8,1,3,0,1,0,0,0,0,0,0,0,0,0,1,1,0,0,2,4,12,0,0,0,0,0,0,0,,,,0,0
L19487,Class,ManagedService,org.apache.camel.management.ManagedService,L19412,L103,0,5,5,0,2,0,0,0,0,0,0,0,0,0,0,0,0,0,1,0,0,1,2,0,0,0,0,0,0,0,,,,0,0
L19513,Class,PerformanceCounter,org.apache.camel.management.PerformanceCounter,L19412,L103,4,8,8,0,5,0,0,0,0,1,1,0,3,1,0,0,1,1,0,0,1,2,0,0,0,0,0,0,0,0,,,,0,0
L19534,Class,Counter,org.apache.camel.management.Counter,L19412,L103,1,3,3,0,1,0,0,1,1,0,0,1,0,0,0,0,0,0,0,0,1,0,0,0,0,0,0,0,0,0,,,,0,0
L19900,Annotation,MessageDriven,org.apache.camel.MessageDriven,L106,L103,,0,,,,,,,0,0,,,,,,,,,,0,,0,0,,,,,,,0,0,0,0,0,0
L19960,Interface,AggregationStrategy,org.apache.camel.processor.aggregate.AggregationStrategy,L22296,L103,,1,,,,,,,0,0,,,,,,,,,,0,,6,3,,,,,,,0,2,1,0,0,0
L200,Interface,Processor,org.apache.camel.Processor,L106,L103,,1,,,,,,,4,0,,,,,,,,,,1,,224,1,,,,,,,0,28,28,15,0,0
L20211,Class,BatchResequencerConfig,org.apache.camel.model.config.BatchResequencerConfig,L20206,L103,2,7,7,2,3,0,0,0,0,0,0,0,0,0,0,0,0,1,0,0,2,6,0,0,0,0,0,0,0,0,,,,0,0
L20241,Interface,ExpressionResultComparator<E extends Exchange>,org.apache.camel.processor.resequencer.ExpressionResultComparator,L23258,L103,,1,,,,,,,0,1,,,,,,,,,,0,,0,1,,,,,,,0,0,0,0,0,0
L20255,Class,DefaultExchangeComparator,org.apache.camel.processor.resequencer.DefaultExchangeComparator,L23258,L103,1,7,6,2,2,0,1,0,0,0,0,0,0,0,0,0,0,0,0,0,1,0,10,0,0,0,0,0,0,0,,,,0,0
L20415,Class,Delayer,org.apache.camel.processor.Delayer,L22220,L103,2,6,4,1,1,0,0,0,0,3,3,0,33,9,0,0,0,0,0,0,1,0,5,0,0,0,0,0,0,0,,,,0,0
L20621,Interface,MessageIdRepository,org.apache.camel.processor.idempotent.MessageIdRepository,L22702,L103,,1,,,,,,,0,0,,,,,,,,,,0,,10,1,,,,,,,0,2,2,0,0,0
L2066,Class,DomResultHandler,org.apache.camel.builder.xml.DomResultHandler,L1925,L103,1,2,2,1,1,0,1,0,0,0,0,0,0,0,0,0,0,0,0,0,1,0,2,0,0,0,0,0,0,0,,,,0,0
L20728,Class,ELExpression,org.apache.camel.model.language.ELExpression,L20711,L103,0,3,3,0,1,0,0,0,0,1,1,0,16,2,0,0,0,0,0,0,0,0,2,0,0,0,0,0,0,0,,,,0,0
L20779,Class,GroovyExpression,org.apache.camel.model.language.GroovyExpression,L20711,L103,0,3,3,0,1,0,0,0,0,1,1,0,16,2,0,0,0,0,0,0,0,0,2,0,0,0,0,0,0,0,,,,0,0
L20785,Class,HeaderExpression,org.apache.camel.model.language.HeaderExpression,L20711,L103,0,3,3,0,1,0,0,0,0,1,1,0,16,2,0,0,0,0,0,0,0,0,2,0,0,0,0,0,0,0,,,,0,0
L20791,Class,JavaScriptExpression,org.apache.camel.model.language.JavaScriptExpression,L20711,L103,0,3,3,0,1,0,0,0,0,1,1,0,16,2,0,0,0,0,0,0,0,0,2,0,0,0,0,0,0,0,,,,0,0
L20797,Class,LanguageExpression,org.apache.camel.model.language.LanguageExpression,L20711,L103,1,4,4,1,1,0,0,0,0,1,1,0,16,2,0,0,0,0,0,0,1,0,4,0,0,0,0,0,0,0,,,,0,0
L20810,Class,OgnlExpression,org.apache.camel.model.language.OgnlExpression,L20711,L103,0,3,3,0,1,0,0,0,0,1,1,0,16,2,0,0,0,0,0,0,0,0,2,0,0,0,0,0,0,0,,,,0,0
L20816,Class,PhpExpression,org.apache.camel.model.language.PhpExpression,L20711,L103,0,3,3,0,1,0,0,0,0,1,1,0,16,2,0,0,0,0,0,0,0,0,2,0,0,0,0,0,0,0,,,,0,0
L20822,Class,PythonExpression,org.apache.camel.model.language.PythonExpression,L20711,L103,0,3,3,0,1,0,0,0,0,1,1,0,16,2,0,0,0,0,0,0,0,0,2,0,0,0,0,0,0,0,,,,0,0
L20828,Class,RubyExpression,org.apache.camel.model.language.RubyExpression,L20711,L103,0,3,3,0,1,0,0,0,0,1,1,0,16,2,0,0,0,0,0,0,0,0,2,0,0,0,0,0,0,0,,,,0,0
L20880,Class,MarshalProcessor,org.apache.camel.processor.MarshalProcessor,L22220,L103,0,2,2,0,0,0,1,0,0,0,0,0,0,0,0,0,0,0,1,0,0,0,2,0,0,0,0,0,0,0,,,,0,0
L20895,Class,NodeFactory,org.apache.camel.model.NodeFactory,L19904,L103,0,2,2,0,0,0,0,0,0,0,0,0,0,0,0,0,1,1,0,0,0,2,2,0,0,0,0,0,0,0,,,,0,0
L2098,Class,InvalidXPathExpression,org.apache.camel.builder.xml.InvalidXPathExpression,L1925,L103,1,2,2,0,1,0,0,0,0,3,3,0,7,2,0,0,0,0,0,0,1,0,3,0,0,0,0,0,0,0,,,,0,0
L2100,Class,RuntimeExpressionException,org.apache.camel.RuntimeExpressionException,L106,L103,1,3,3,0,0,0,0,1,1,2,2,1,4,1,0,0,0,0,0,0,0,0,4,0,0,0,0,0,0,0,,,,0,0
L212,Annotation,Body,org.apache.camel.Body,L106,L103,,0,,,,,,,0,0,,,,,,,,,,0,,0,0,,,,,,,0,0,0,0,0,0
L21526,Class,Resequencer,org.apache.camel.processor.Resequencer,L22220,L103,0,7,4,0,0,0,0,0,0,2,2,0,29,11,0,0,0,0,0,0,0,1,16,0,0,0,0,0,0,0,,,,0,0
L21547,Class,StreamResequencer,org.apache.camel.processor.StreamResequencer,L22220,L103,2,7,5,1,1,0,1,0,0,2,2,0,23,6,0,0,0,1,0,0,2,1,4,0,0,0,0,0,0,0,,,,0,0
L2163,Class,NamespaceBuilder,org.apache.camel.builder.xml.NamespaceBuilder,L1925,L103,1,4,4,0,0,0,0,0,0,0,0,0,0,0,0,0,0,0,0,0,1,0,6,0,0,0,0,0,0,0,,,,0,0
L21890,Class,Throttler,org.apache.camel.processor.Throttler,L22220,L103,4,10,9,2,4,0,0,0,0,3,3,0,33,9,0,0,0,0,0,0,0,0,4,0,0,0,0,0,0,0,,,,0,0
L22036,Class,UnmarshalProcessor,org.apache.camel.processor.UnmarshalProcessor,L22220,L103,0,2,2,0,0,0,1,0,0,0,0,0,0,0,0,0,0,0,1,0,0,0,2,0,0,0,0,0,0,0,,,,0,0
L2218,Class,StreamResultHandler,org.apache.camel.builder.xml.StreamResultHandler,L1925,L103,2,2,2,1,1,0,1,0,0,0,0,0,0,0,0,0,0,0,0,0,2,0,2,0,0,0,0,0,0,0,,,,0,0
L2243,Class,StringResultHandler,org.apache.camel.builder.xml.StringResultHandler,L1925,L103,2,2,2,1,1,0,1,0,0,0,0,0,0,0,0,0,0,0,0,0,2,0,2,0,0,0,0,0,0,0,,,,0,0
L22441,Class,CompositeProcessor,org.apache.camel.processor.CompositeProcessor,L22220,L103,0,6,4,0,1,0,1,0,0,1,1,0,13,6,0,0,1,1,0,0,0,0,4,0,0,0,0,0,0,0,,,,0,0
L22569,Class,DelayProcessorSupport,org.apache.camel.processor.DelayProcessorSupport,L22220,L103,3,10,4,1,1,0,0,2,2,2,2,1,23,6,0,0,0,0,0,0,2,0,5,0,0,0,0,0,0,0,,,,0,0
L22664,Interface,ErrorHandler,org.apache.camel.processor.ErrorHandler,L22220,L103,,0,,,,,,,0,1,,,,,,,,,,0,,0,0,,,,,,,0,0,1,0,0,0
L22724,Class,NoMessageIdException,org.apache.camel.processor.idempotent.NoMessageIdException,L22702,L103,0,3,3,0,2,0,0,0,0,2,2,0,4,1,0,0,0,2,0,0,0,0,4,0,0,0,0,0,0,0,,,,0,0
L22754,Class,"LRUCache<K extends Object, V extends Object>",org.apache.camel.util.LRUCache,L25283,L103,2,4,3,0,1,0,0,0,0,1,1,0,0,0,0,0,0,0,0,0,0,0,1,0,0,0,0,0,0,0,,,,0,0
L22886,Class,QueueLoadBalancer,org.apache.camel.processor.loadbalancer.QueueLoadBalancer,L22858,L103,0,2,1,0,0,0,0,3,3,1,1,1,3,0,0,0,1,1,0,0,0,1,4,0,0,0,0,0,0,0,,,,0,0
L22899,Class,RandomLoadBalancer,org.apache.camel.processor.loadbalancer.RandomLoadBalancer,L22858,L103,0,1,0,0,0,0,0,0,0,2,2,0,5,0,0,0,0,0,0,0,0,0,3,0,0,0,0,0,0,0,,,,0,0
L23238,Class,ExpressionListComparator,org.apache.camel.util.ExpressionListComparator,L25283,L103,0,2,2,0,0,0,1,0,0,0,0,0,0,0,0,0,1,1,0,0,0,0,3,0,0,0,0,0,0,0,,,,0,0
L23292,Class,Element<E extends Object>,org.apache.camel.processor.resequencer.Element,L23258,L103,1,6,6,0,1,0,1,0,0,0,0,0,0,0,0,0,1,1,0,0,1,0,4,0,0,0,0,0,0,0,,,,0,0
L23294,Interface,TimeoutHandler,org.apache.camel.processor.resequencer.TimeoutHandler,L23258,L103,,1,,,,,,,0,0,,,,,,,,,,0,,2,1,,,,,,,0,0,2,0,0,0
L23304,Class,Timeout,org.apache.camel.processor.resequencer.Timeout,L23258,L103,2,7,7,0,1,0,0,0,0,1,1,0,0,0,0,0,2,2,0,0,1,5,4,0,0,0,0,0,0,0,,,,0,0
L23329,Class,ElementComparator<E extends Object>,org.apache.camel.processor.resequencer.ElementComparator,L23258,L103,1,4,4,0,0,0,1,0,0,0,0,0,0,0,0,0,0,0,0,0,1,0,7,0,0,0,0,0,0,0,,,,0,0
L23332,Interface,SequenceElementComparator<E extends Object>,org.apache.camel.processor.resequencer.SequenceElementComparator,L23258,L103,,2,,,,,,,0,1,,,,,,,,,,0,,0,4,,,,,,,0,0,0,0,0,0
L23403,Class,Sequence<E extends Object>,org.apache.camel.processor.resequencer.Sequence,L23258,L103,2,6,6,0,0,0,0,0,0,1,1,0,0,0,0,0,0,0,0,0,1,0,10,0,0,0,0,0,0,0,,,,0,0
L23911,Class,ValidationException,org.apache.camel.ValidationException,L106,L103,0,1,1,0,0,0,0,2,2,3,3,1,6,1,0,0,0,0,0,0,0,0,2,0,0,0,0,0,0,0,,,,0,0
L23921,Class,SchemaValidationException,org.apache.camel.processor.validation.SchemaValidationException,L23874,L103,4,6,5,0,4,0,0,0,0,4,4,0,7,1,0,0,0,0,0,0,2,0,14,0,0,0,0,0,0,0,,,,0,0
L23928,Class,NoXmlBodyValidationException,org.apache.camel.processor.validation.NoXmlBodyValidationException,L23874,L103,0,1,1,0,0,0,0,0,0,4,4,0,7,1,0,0,0,0,0,0,0,0,1,0,0,0,0,0,0,0,,,,0,0
L25245,Interface,Provider<T extends Object>,org.apache.camel.spi.Provider,L25161,L103,,1,,,,,,,0,0,,,,,,,,,,0,,0,1,,,,,,,0,0,0,0,0,0
L254,Class,Builder,org.apache.camel.builder.Builder,L227,L103,0,11,10,0,0,0,0,0,0,0,0,0,0,0,0,0,0,0,0,0,0,0,18,0,0,0,0,0,0,0,,,,0,0
L25469,Class,ExpressionHelper,org.apache.camel.util.ExpressionHelper,L25283,L103,0,3,2,0,0,0,0,0,0,0,0,0,0,0,0,0,0,0,0,0,0,0,4,0,0,0,0,0,0,0,,,,0,0
L25704,Class,CamelInitialContextFactory,org.apache.camel.util.jndi.CamelInitialContextFactory,L25697,L103,0,1,1,0,1,0,1,0,0,0,0,0,0,0,0,0,0,0,0,0,0,0,2,0,0,0,0,0,0,0,,,,0,0
L26190,Class,ReportingTypeConverterLoader,org.apache.camel.util.ReportingTypeConverterLoader,L25283,L103,2,3,1,0,2,0,0,0,0,1,1,0,6,3,0,0,0,0,0,0,2,0,8,0,0,0,0,0,0,0,,,,0,0
L26256,Class,ReportingTypeConverterRegistry,org.apache.camel.util.ReportingTypeConverterRegistry,L25283,L103,1,3,3,0,2,0,1,0,0,0,0,0,0,0,0,0,0,0,0,0,1,0,5,0,0,0,0,0,0,0,,,,0,0
L26389,Class,ServiceHelper,org.apache.camel.util.ServiceHelper,L25283,L103,1,7,6,0,0,0,0,0,0,0,0,0,0,0,0,0,0,0,0,0,1,0,6,0,0,0,0,0,0,0,,,,0,0
L26407,Class,Time,org.apache.camel.util.Time,L25283,L103,2,15,12,0,2,0,0,0,0,0,0,0,0,0,0,0,0,0,0,0,1,2,3,0,0,0,0,0,0,0,,,,0,0
L266,Class,ValueBuilder<E extends Exchange>,org.apache.camel.builder.ValueBuilder,L227,L103,1,26,24,0,10,0,1,0,0,0,0,0,0,0,0,0,0,0,0,0,1,18,47,0,0,0,0,0,0,0,,,,0,0
L26637,Class,GraphGeneratorSupport,org.apache.camel.view.GraphGeneratorSupport,L26627,L103,6,11,3,1,5,0,0,2,2,0,0,1,0,0,0,0,2,2,0,0,2,0,19,0,0,0,0,0,0,0,,,,0,0
L26640,Class,RouteDotGenerator,org.apache.camel.view.RouteDotGenerator,L26627,L103,0,8,1,0,0,0,0,0,0,1,1,0,11,6,0,0,0,0,0,0,0,0,19,0,0,0,0,0,0,0,,,,0,0
L2674,Class,ExpectedBodyTypeException,org.apache.camel.ExpectedBodyTypeException,L106,L103,1,3,3,0,2,0,0,0,0,2,2,0,4,1,0,0,1,1,0,0,1,0,4,0,0,0,0,0,0,0,,,,0,0
L26797,Class,XmlGraphGenerator,org.apache.camel.view.XmlGraphGenerator,L26627,L103,1,8,1,0,0,0,0,0,0,1,1,0,11,6,0,0,0,0,0,0,0,0,19,0,0,0,0,0,0,0,,,,0,0
L2686,Class,RuntimeTransformException,org.apache.camel.RuntimeTransformException,L106,L103,1,3,3,0,0,0,0,0,0,2,2,0,4,1,0,0,0,0,0,0,0,0,4,0,0,0,0,0,0,0,,,,0,0
L27231,Class,ActivityBuilder,org.apache.camel.bam.ActivityBuilder,L27209,L103,0,11,11,0,4,0,1,0,0,0,0,0,0,0,0,0,2,5,0,0,0,5,12,0,0,0,0,0,0,0,,,,0,0
L27234,Class,ProcessBuilder,org.apache.camel.bam.ProcessBuilder,L27209,L103,5,19,14,2,7,0,0,1,1,2,2,1,49,2,0,0,2,5,0,0,4,3,26,0,0,0,0,0,0,0,,,,0,0
L27239,Class,ActivityRules,org.apache.camel.bam.rules.ActivityRules,L27921,L103,3,12,10,3,3,0,0,0,0,1,1,0,13,6,0,0,2,5,3,0,2,17,9,0,0,0,0,0,0,0,,,,0,0
L27271,Class,TimeExpression,org.apache.camel.bam.TimeExpression,L27209,L103,0,10,10,0,6,0,0,0,0,0,0,0,0,0,0,0,2,4,0,0,0,6,14,0,0,0,0,0,0,0,,,,0,0
L27288,Class,ProcessInstance,org.apache.camel.bam.model.ProcessInstance,L27325,L103,4,17,16,5,9,0,0,0,0,0,0,0,0,0,0,0,3,3,1,0,3,12,16,0,0,0,0,0,0,0,,,,0,0
L27292,Class,ActivityState,org.apache.camel.bam.model.ActivityState,L27325,L103,4,22,18,7,9,0,0,0,0,2,2,0,9,3,0,0,2,2,1,0,2,16,23,0,0,0,0,0,0,0,,,,0,0
L27333,Class,ActivityDefinition,org.apache.camel.bam.model.ActivityDefinition,L27325,L103,1,6,6,2,3,0,0,0,0,1,1,0,3,1,0,0,2,2,1,0,1,5,6,0,0,0,0,0,0,0,,,,0,0
L27335,Class,EntitySupport,org.apache.camel.bam.model.EntitySupport,L27325,L103,1,3,3,1,1,0,0,3,4,0,0,2,0,0,0,0,0,0,0,0,1,0,3,0,0,0,0,0,0,0,,,,0,0
L27343,Class,ProcessDefinition,org.apache.camel.bam.model.ProcessDefinition,L27325,L103,2,5,5,1,3,0,0,0,0,1,1,0,3,1,0,0,2,3,1,0,2,10,6,0,0,0,0,0,0,0,,,,0,0
L27362,Class,TemporalEntity,org.apache.camel.bam.model.TemporalEntity,L27325,L103,2,6,6,2,4,0,0,1,1,1,1,1,3,1,0,0,0,0,0,0,1,0,4,0,0,0,0,0,0,0,,,,0,0
L27387,Class,ProcessContext,org.apache.camel.bam.processor.ProcessContext,L27647,L103,0,14,14,5,6,0,0,0,0,0,0,0,0,0,0,0,0,1,4,0,0,4,17,0,0,0,0,0,0,0,,,,0,0
L27562,Class,ProcessRules,org.apache.camel.bam.rules.ProcessRules,L27921,L103,0,7,5,1,2,0,0,0,0,1,1,0,13,6,0,0,2,3,3,0,0,5,6,0,0,0,0,0,0,0,,,,0,0
L276,Interface,Expression<E extends Exchange>,org.apache.camel.Expression,L106,L103,,1,,,,,,,0,0,,,,,,,,,,0,,58,2,,,,,,,0,7,0,0,0,0
L27600,Class,JpaBamProcessor,org.apache.camel.bam.processor.JpaBamProcessor,L27647,L103,1,3,2,0,0,0,0,0,0,1,1,0,0,0,0,0,0,0,0,0,1,0,11,0,0,0,0,0,0,0,,,,0,0
L27630,Class,ActivityMonitorEngine,org.apache.camel.bam.processor.ActivityMonitorEngine,L27647,L103,7,7,4,1,1,0,1,0,0,1,1,0,13,6,0,0,0,0,1,0,4,0,4,0,0,0,0,0,0,0,,,,0,0
L27696,Class,BamProcessorSupport<T extends Object>,org.apache.camel.bam.processor.BamProcessorSupport,L27647,L103,6,13,5,1,5,0,1,0,0,0,0,0,0,0,0,0,1,1,0,0,5,2,21,0,0,0,0,0,0,0,,,,0,0
L27750,Class,NoCorrelationKeyException,org.apache.camel.bam.processor.NoCorrelationKeyException,L27647,L103,0,2,2,0,1,0,0,0,0,3,3,0,6,1,0,0,1,1,0,0,0,0,3,0,0,0,0,0,0,0,,,,0,0
L27762,Class,JpaBamProcessorSupport<T extends Object>,org.apache.camel.bam.processor.JpaBamProcessorSupport,L27647,L103,5,20,12,7,6,0,0,0,0,1,1,0,0,0,0,0,0,0,1,0,3,0,33,0,0,0,0,0,0,0,,,,0,0
L27932,Class,TemporalRule,org.apache.camel.bam.rules.TemporalRule,L27921,L103,3,14,10,0,3,0,0,0,0,1,1,0,13,6,0,0,0,2,1,0,1,2,15,0,0,0,0,0,0,0,,,,0,0
L2830,Class,EventDrivenConsumerRoute<E extends Exchange>,org.apache.camel.impl.EventDrivenConsumerRoute,L17136,L103,0,5,4,1,1,0,0,0,0,1,1,0,0,0,0,0,0,1,0,0,0,0,6,0,0,0,0,0,0,0,,,,0,0
L28523,Class,Main,org.apache.camel.spring.Main,L28871,L103,9,24,18,5,6,0,0,1,1,1,1,1,13,6,0,0,0,0,0,0,7,0,14,0,0,0,0,0,0,0,,,,0,0
L28687,Class,CamelContextFactoryBean,org.apache.camel.spring.CamelContextFactoryBean,L28871,L103,7,26,23,8,11,0,6,1,1,1,1,1,2,1,0,0,4,4,2,0,6,0,19,0,0,0,0,0,0,0,,,,0,0
L28709,Class,CamelNamespaceHandler,org.apache.camel.spring.handler.CamelNamespaceHandler,L29167,L103,3,8,2,0,2,0,0,1,1,1,1,1,0,0,0,0,1,1,0,0,3,0,13,0,0,0,0,0,0,0,,,,0,0
L28895,Class,CamelBeanPostProcessor,org.apache.camel.spring.CamelBeanPostProcessor,L28871,L103,2,17,6,3,3,0,2,0,0,0,0,0,0,0,0,0,1,1,0,0,2,0,33,0,0,0,0,0,0,0,,,,0,0
L28929,Class,ReflectionUtils,org.apache.camel.spring.util.ReflectionUtils,L29789,L103,0,2,2,1,0,0,0,0,0,1,1,0,0,0,0,0,0,0,0,0,0,0,5,0,0,0,0,0,0,0,,,,0,0
L29006,Class,CamelProxyFactoryType,org.apache.camel.spring.CamelProxyFactoryType,L28871,L103,2,0,0,0,0,0,0,0,0,1,1,0,2,1,0,0,0,0,0,0,2,0,0,0,0,0,0,0,0,0,,,,0,0
L29009,Class,CamelServiceExporterType,org.apache.camel.spring.CamelServiceExporterType,L28871,L103,3,0,0,0,0,0,0,0,0,1,1,0,2,1,0,0,0,0,0,0,2,0,0,0,0,0,0,0,0,0,,,,0,0
L29014,Class,EndpointFactoryBean,org.apache.camel.spring.EndpointFactoryBean,L28871,L103,2,11,10,4,6,0,2,0,0,1,1,0,2,1,0,0,0,2,0,0,1,0,9,0,0,0,0,0,0,0,,,,0,0
L29041,Class,SpringInstrumentationAgent,org.apache.camel.spring.SpringInstrumentationAgent,L28871,L103,1,2,2,0,0,0,2,0,0,2,2,0,30,18,0,0,0,0,0,0,1,0,0,0,0,0,0,0,0,0,,,,0,0
L29101,Class,RouteBuilderFinder,org.apache.camel.spring.RouteBuilderFinder,L28871,L103,3,8,5,0,3,0,0,0,0,0,0,0,0,0,0,0,1,1,1,0,3,0,10,0,0,0,0,0,0,0,,,,0,0
L29118,Class,CamelTemplateFactoryBean,org.apache.camel.spring.CamelTemplateFactoryBean,L28871,L103,1,8,8,2,5,0,3,0,0,0,0,0,0,0,0,0,0,1,0,0,1,0,6,0,0,0,0,0,0,0,,,,0,0
L29173,Class,BeanDefinitionParser,org.apache.camel.spring.handler.BeanDefinitionParser,L29167,L103,1,5,1,0,2,0,0,2,3,1,1,2,0,0,0,0,1,1,0,0,1,0,5,0,0,0,0,0,0,0,,,,0,0
L29190,Class,CamelProxyFactoryBean,org.apache.camel.spring.remoting.CamelProxyFactoryBean,L29462,L103,1,10,10,2,7,0,2,0,0,1,1,0,0,0,0,0,0,2,0,0,1,0,8,0,0,0,0,0,0,0,,,,0,0
L29194,Class,CamelServiceExporter,org.apache.camel.spring.remoting.CamelServiceExporter,L29462,L103,3,10,10,4,4,0,4,0,0,1,1,0,0,0,0,0,0,2,0,0,2,0,8,0,0,0,0,0,0,0,,,,0,0
L29220,Class,ScriptDefinitionParser,org.apache.camel.spring.handler.ScriptDefinitionParser,L29167,L103,1,2,1,0,0,0,0,0,0,3,3,0,7,3,0,0,0,0,0,0,1,0,4,0,0,0,0,0,0,0,,,,0,0
L29251,Class,LazyLoadingBeanDefinitionParser,org.apache.camel.spring.handler.LazyLoadingBeanDefinitionParser,L29167,L103,2,2,1,0,0,0,0,1,1,2,2,1,5,1,0,0,0,0,0,0,1,0,3,0,0,0,0,0,0,0,,,,0,0
L2931,Interface,Producer<E extends Exchange>,org.apache.camel.Producer,L106,L103,,4,,,,,,,0,2,,,,,,,,,,0,,10,5,,,,,,,0,5,1,0,0,0
L29521,Class,SendBeforeInterceptor,org.apache.camel.spring.remoting.SendBeforeInterceptor,L29462,L103,1,6,6,2,1,0,4,0,0,0,0,0,0,0,0,0,0,2,1,0,1,0,5,0,0,0,0,0,0,0,,,,0,0
L29623,Class,ApplicationContextRegistry,org.apache.camel.spring.spi.ApplicationContextRegistry,L29615,L103,1,3,3,0,0,0,1,0,0,0,0,0,0,0,0,0,0,0,0,0,1,0,5,0,0,0,0,0,0,0,,,,0,0
L29637,Class,BeanInjector,org.apache.camel.spring.spi.BeanInjector,L29615,L103,0,2,2,0,0,0,0,0,0,1,1,0,0,0,0,0,0,0,0,0,0,0,2,0,0,0,0,0,0,0,,,,0,0
L29643,Class,SpringConverters,org.apache.camel.spring.spi.SpringConverters,L29615,L103,0,9,8,0,0,0,0,0,0,0,0,0,0,0,0,0,0,0,0,0,0,0,15,0,0,0,0,0,0,0,,,,0,0
L29662,Class,SpringInjector,org.apache.camel.spring.spi.SpringInjector,L29615,L103,3,6,6,2,2,0,1,0,0,0,0,0,0,0,0,0,0,0,0,0,1,0,2,0,0,0,0,0,0,0,,,,0,0
L29693,Class,TransactionInterceptor,org.apache.camel.spring.spi.TransactionInterceptor,L29615,L103,2,4,3,0,0,0,0,0,0,2,2,0,23,6,0,0,0,0,0,0,2,1,4,0,0,0,0,0,0,0,,,,0,0
L29793,Class,MainRunner,org.apache.camel.spring.util.MainRunner,L29789,L103,5,12,12,4,4,0,2,0,0,0,0,0,0,0,0,0,0,0,0,0,3,0,5,0,0,0,0,0,0,0,,,,0,0
L3133,Class,IdempotentConsumer,org.apache.camel.processor.idempotent.IdempotentConsumer,L22702,L103,2,9,6,0,3,0,1,0,0,1,1,0,13,6,0,0,1,2,0,0,2,0,10,0,0,0,0,0,0,0,,,,0,0
L3176,Annotation,SQL,org.apache.camel.builder.sql.SQL,L3154,L103,,0,,,,,,,0,0,,,,,,,,,,0,,0,0,,,,,,,0,0,0,0,0,0
L3186,Class,SqlBuilder<E extends Exchange>,org.apache.camel.builder.sql.SqlBuilder,L3154,L103,2,12,8,1,1,0,2,0,0,0,0,0,0,0,0,0,0,0,0,0,2,0,19,0,0,0,0,0,0,0,,,,0,0
L3338,Annotation,NamespacePrefix,org.apache.camel.language.NamespacePrefix,L18923,L103,,0,,,,,,,0,0,,,,,,,,,,0,,0,0,,,,,,,0,2,0,0,0,0
L3639,Annotation,BeanShell,org.apache.camel.builder.script.BeanShell,L3611,L103,,0,,,,,,,0,0,,,,,,,,,,0,,0,0,,,,,,,0,0,0,0,0,0
L3642,Annotation,Groovy,org.apache.camel.builder.script.Groovy,L3611,L103,,0,,,,,,,0,0,,,,,,,,,,0,,0,0,,,,,,,0,0,0,0,0,0
L3645,Annotation,JavaScript,org.apache.camel.builder.script.JavaScript,L3611,L103,,0,,,,,,,0,0,,,,,,,,,,0,,0,0,,,,,,,0,0,0,0,0,0
L3648,Annotation,PHP,org.apache.camel.builder.script.PHP,L3611,L103,,0,,,,,,,0,0,,,,,,,,,,0,,0,0,,,,,,,0,0,0,0,0,0
L3651,Annotation,Python,org.apache.camel.builder.script.Python,L3611,L103,,0,,,,,,,0,0,,,,,,,,,,0,,0,0,,,,,,,0,0,0,0,0,0
L3654,Annotation,Ruby,org.apache.camel.builder.script.Ruby,L3611,L103,,0,,,,,,,0,0,,,,,,,,,,0,,0,0,,,,,,,0,0,0,0,0,0
L3657,Class,ScriptBuilder<E extends Exchange>,org.apache.camel.builder.script.ScriptBuilder,L3611,L103,6,53,43,3,7,0,3,0,0,0,0,0,0,0,0,0,0,0,0,0,5,0,66,0,0,0,0,0,0,0,,,,0,0
L3863,Class,ScriptEvaluationException,org.apache.camel.builder.script.ScriptEvaluationException,L3611,L103,0,3,3,0,0,0,0,0,0,2,2,0,4,1,0,0,0,0,0,0,0,2,4,0,0,0,0,0,0,0,,,,0,0
L3910,Class,ScriptLanguage,org.apache.camel.builder.script.ScriptLanguage,L3611,L103,1,3,3,0,0,0,1,0,0,0,0,0,0,0,0,0,0,0,0,0,1,0,5,0,0,0,0,0,0,0,,,,0,0
L3920,Class,ScriptLanguageResolver,org.apache.camel.builder.script.ScriptLanguageResolver,L3611,L103,0,1,1,0,0,0,1,0,0,0,0,0,0,0,0,0,0,0,0,0,0,0,3,0,0,0,0,0,0,0,,,,0,0
L3922,Interface,LanguageResolver,org.apache.camel.spi.LanguageResolver,L25161,L103,,1,,,,,,,0,0,,,,,,,,,,0,,2,3,,,,,,,0,1,2,0,0,0
L3967,Interface,Service,org.apache.camel.Service,L106,L103,,2,,,,,,,6,0,,,,,,,,,,0,,8,0,,,,,,,0,1,4,7,0,0
L3978,Interface,Component<E extends Exchange>,org.apache.camel.Component,L106,L103,,3,,,,,,,0,0,,,,,,,,,,0,,19,4,,,,,,,0,1,0,0,0,0
L4062,Interface,ExchangeConverter,org.apache.camel.spi.ExchangeConverter,L25161,L103,,1,,,,,,,0,0,,,,,,,,,,0,,4,2,,,,,,,0,1,1,0,0,0
L4066,Interface,TypeConverter,org.apache.camel.TypeConverter,L106,L103,,1,,,,,,,0,0,,,,,,,,,,0,,19,2,,,,,,,0,5,9,0,0,0
L4071,Interface,Registry,org.apache.camel.spi.Registry,L25161,L103,,2,,,,,,,0,0,,,,,,,,,,0,,6,4,,,,,,,0,1,2,0,0,0
L4086,Interface,CamelContextAware,org.apache.camel.CamelContextAware,L106,L103,,1,,,,,,,0,0,,,,,,,,,,0,,0,1,,,,,,,0,0,8,0,0,0
L4466,Interface,AnnotationExpressionFactory,org.apache.camel.component.bean.AnnotationExpressionFactory,L4413,L103,,1,,,,,,,0,0,,,,,,,,,,0,,0,5,,,,,,,0,0,1,0,0,0
L4482,Interface,ParameterMappingStrategy,org.apache.camel.component.bean.ParameterMappingStrategy,L4413,L103,,1,,,,,,,0,0,,,,,,,,,,0,,6,2,,,,,,,0,2,1,0,0,0
L4490,Class,ProcessorEndpoint,org.apache.camel.impl.ProcessorEndpoint,L17136,L103,0,7,6,0,2,0,0,1,3,1,1,2,0,0,0,0,0,1,0,0,0,3,10,0,0,0,0,0,0,0,,,,0,0
L4705,Annotation,Property,org.apache.camel.Property,L106,L103,,0,,,,,,,0,0,,,,,,,,,,0,,0,0,,,,,,,0,0,0,0,0,0
L4708,Annotation,Header,org.apache.camel.Header,L106,L103,,0,,,,,,,0,0,,,,,,,,,,0,,0,0,,,,,,,0,0,0,0,0,0
L4718,Annotation,Properties,org.apache.camel.Properties,L106,L103,,0,,,,,,,0,0,,,,,,,,,,0,,0,0,,,,,,,0,0,0,0,0,0
L4724,Annotation,Headers,org.apache.camel.Headers,L106,L103,,0,,,,,,,0,0,,,,,,,,,,0,,0,0,,,,,,,0,0,0,0,0,0
L4848,Class,CamelInvocationHandler,org.apache.camel.component.bean.CamelInvocationHandler,L4413,L103,0,2,2,0,0,0,1,0,0,0,0,0,0,0,0,0,0,2,1,0,0,0,6,0,0,0,0,0,0,0,,,,0,0
L497,Class,LoggingErrorHandlerBuilder,org.apache.camel.builder.LoggingErrorHandlerBuilder,L227,L103,1,9,9,2,2,0,0,0,0,1,1,0,2,0,0,0,0,0,1,0,1,4,7,0,0,0,0,0,0,0,,,,0,0
L4999,Class,ProxyHelper,org.apache.camel.component.bean.ProxyHelper,L4413,L103,0,5,4,0,0,0,0,0,0,0,0,0,0,0,0,0,0,0,0,0,0,0,12,0,0,0,0,0,0,0,,,,0,0
L5050,Annotation,XPath,org.apache.camel.language.XPath,L18923,L103,,0,,,,,,,0,0,,,,,,,,,,0,,0,0,,,,,,,0,1,0,0,0,0
L5100,Annotation,Simple,org.apache.camel.language.Simple,L18923,L103,,0,,,,,,,0,0,,,,,,,,,,0,,0,0,,,,,,,0,0,0,0,0,0
L5219,Class,DirectComponent<E extends Exchange>,org.apache.camel.component.direct.DirectComponent,L5213,L103,0,1,0,0,0,0,0,0,0,1,1,0,0,0,0,0,0,0,0,0,0,0,4,0,0,0,0,0,0,0,,,,0,0
L5249,Class,DefaultProducer<E extends Exchange>,org.apache.camel.impl.DefaultProducer,L17136,L103,1,7,5,0,1,0,1,10,10,1,1,1,13,6,0,0,0,0,0,0,1,0,6,0,0,0,0,0,0,0,,,,0,0
L5305,Interface,Consumer<E extends Exchange>,org.apache.camel.Consumer,L106,L103,,0,,,,,,,0,1,,,,,,,,,,0,,3,0,,,,,,,0,2,2,0,0,0
L5375,Class,FileExchange,org.apache.camel.component.file.FileExchange,L5354,L103,1,4,4,1,1,0,0,0,0,1,1,0,38,3,0,0,0,0,0,0,1,11,5,0,0,0,0,0,0,0,,,,0,0
L5403,Class,ScheduledPollConsumer<E extends Exchange>,org.apache.camel.impl.ScheduledPollConsumer,L17136,L103,7,14,11,4,4,0,1,0,0,1,1,0,0,0,0,0,0,0,0,0,4,0,7,0,0,0,0,0,0,0,,,,0,0
L5523,Class,ScheduledPollEndpoint<E extends Exchange>,org.apache.camel.impl.ScheduledPollEndpoint,L17136,L103,1,6,3,1,1,0,0,0,0,1,1,0,0,0,0,0,0,0,0,0,1,0,8,0,0,0,0,0,0,0,,,,0,0
L557,Interface,ProcessorFactory,org.apache.camel.builder.ProcessorFactory,L227,L103,,1,,,,,,,0,0,,,,,,,,,,0,,3,1,,,,,,,0,1,2,0,0,0
L5806,Class,DefaultFileRenamer,org.apache.camel.component.file.strategy.DefaultFileRenamer,L5797,L103,3,8,7,2,2,0,1,0,0,0,0,0,0,0,0,0,0,0,0,0,1,0,10,0,0,0,0,0,0,0,,,,0,0
L5808,Interface,FileRenamer,org.apache.camel.component.file.strategy.FileRenamer,L5797,L103,,1,,,,,,,0,0,,,,,,,,,,0,,6,2,,,,,,,0,2,1,0,0,0
L6047,Class,Pipeline,org.apache.camel.processor.Pipeline,L22220,L103,1,8,5,0,0,0,1,0,0,2,2,0,21,6,0,0,0,0,0,0,1,0,17,0,0,0,0,0,0,0,,,,0,0
L610,Class,JaxbDataFormat,org.apache.camel.model.dataformat.JaxbDataFormat,L20281,L103,1,5,4,1,1,0,0,0,0,1,1,0,7,1,0,0,0,0,0,0,1,0,3,0,0,0,0,0,0,0,,,,0,0
L6132,Class,FtpConsumer,org.apache.camel.component.file.remote.FtpConsumer,L6095,L103,5,15,10,4,6,0,0,0,0,1,1,0,0,0,0,0,1,1,0,0,2,1,14,0,0,0,0,0,0,0,,,,0,0
L6134,Class,RemoteFileConsumer<T extends RemoteFileExchange>,org.apache.camel.component.file.remote.RemoteFileConsumer,L6095,L103,1,2,2,0,0,0,0,0,0,1,1,0,0,0,0,0,0,0,0,0,1,0,5,0,0,0,0,0,0,0,,,,0,0
L6135,Class,RemoteFileExchange<T extends RemoteFileBinding>,org.apache.camel.component.file.remote.RemoteFileExchange,L6095,L103,1,4,4,1,1,0,0,0,0,1,1,0,38,3,0,0,0,0,0,0,1,4,9,0,0,0,0,0,0,0,,,,0,0
L6144,Class,FtpEndpoint,org.apache.camel.component.file.remote.FtpEndpoint,L6095,L103,1,4,3,0,0,0,0,0,0,1,1,0,0,0,0,0,2,2,0,0,1,3,7,0,0,0,0,0,0,0,,,,0,0
L6213,Class,RemoteFileEndpoint<T extends RemoteFileExchange>,org.apache.camel.component.file.remote.RemoteFileEndpoint,L6095,L103,0,9,8,1,3,0,0,0,0,1,1,0,0,0,0,0,2,2,0,0,0,1,12,0,0,0,0,0,0,0,,,,0,0
L622,Class,XMLBeansDataFormat,org.apache.camel.model.dataformat.XMLBeansDataFormat,L20281,L103,1,3,3,1,1,0,0,0,0,1,1,0,7,1,0,0,0,0,0,0,1,0,2,0,0,0,0,0,0,0,,,,0,0
L6220,Class,RemoteFileComponent,org.apache.camel.component.file.remote.RemoteFileComponent,L6095,L103,0,8,7,1,1,0,0,0,0,1,1,0,0,0,0,0,1,1,0,0,0,3,9,0,0,0,0,0,0,0,,,,0,0
L6224,Class,RemoteFileConfiguration,org.apache.camel.component.file.remote.RemoteFileConfiguration,L6095,L103,8,23,22,9,8,0,1,0,0,0,0,0,0,0,0,0,2,2,0,0,1,8,14,0,0,0,0,0,0,0,,,,0,0
L6230,Class,FtpProducer,org.apache.camel.component.file.remote.FtpProducer,L6095,L103,1,6,3,0,0,0,0,0,0,1,1,0,0,0,0,0,1,1,0,0,1,1,6,0,0,0,0,0,0,0,,,,0,0
L6255,Class,FtpOperationFailedException,org.apache.camel.component.file.remote.FtpOperationFailedException,L6095,L103,2,3,3,0,2,0,0,0,0,2,2,0,4,1,0,0,0,0,0,0,1,0,2,0,0,0,0,0,0,0,,,,0,0
L6271,Class,RemoteFileProducer<T extends RemoteFileExchange>,org.apache.camel.component.file.remote.RemoteFileProducer,L6095,L103,0,2,0,0,0,0,0,0,0,1,1,0,0,0,0,0,0,0,0,0,0,0,4,0,0,0,0,0,0,0,,,,0,0
L629,Class,ArtixDSDataFormat,org.apache.camel.model.dataformat.ArtixDSDataFormat,L20281,L103,3,13,12,4,4,0,0,0,0,1,1,0,7,1,0,0,1,1,0,0,2,0,9,0,0,0,0,0,0,0,,,,0,0
L6314,Class,RemoteFileBinding,org.apache.camel.component.file.remote.RemoteFileBinding,L6095,L103,0,1,1,0,0,0,0,0,0,0,0,0,0,0,0,0,1,1,0,0,0,3,3,0,0,0,0,0,0,0,,,,0,0
L6355,Class,SftpEndpoint,org.apache.camel.component.file.remote.SftpEndpoint,L6095,L103,0,4,3,0,0,0,0,0,0,1,1,0,0,0,0,0,2,2,0,0,0,3,7,0,0,0,0,0,0,0,,,,0,0
L6490,Class,RemoteFileMessage,org.apache.camel.component.file.remote.RemoteFileMessage,L6095,L103,3,12,10,3,4,0,0,0,0,2,2,0,22,3,0,0,0,0,0,0,2,0,12,0,0,0,0,0,0,0,,,,0,0
L6539,Class,SftpConsumer,org.apache.camel.component.file.remote.SftpConsumer,L6095,L103,5,15,10,4,6,0,0,0,0,1,1,0,0,0,0,0,1,1,0,0,2,1,14,0,0,0,0,0,0,0,,,,0,0
L6593,Class,SftpProducer,org.apache.camel.component.file.remote.SftpProducer,L6095,L103,1,6,3,0,0,0,0,0,0,1,1,0,0,0,0,0,1,1,0,0,1,1,6,0,0,0,0,0,0,0,,,,0,0
L671,Class,RedeliveryPolicy,org.apache.camel.processor.RedeliveryPolicy,L22220,L103,7,26,25,7,9,0,2,0,0,0,0,0,0,0,0,0,1,1,1,1,1,9,2,0,0,0,0,0,0,0,,,,0,0
L6914,Class,AssertionClause<E extends Exchange>,org.apache.camel.component.mock.AssertionClause,L6907,L103,1,8,6,0,0,0,1,0,0,0,0,0,0,0,0,0,0,0,0,0,1,2,13,0,0,0,0,0,0,0,,,,0,0
L6978,Class,MockComponent,org.apache.camel.component.mock.MockComponent,L6907,L103,0,1,0,0,0,0,0,0,0,1,1,0,0,0,0,0,0,0,0,0,0,0,4,0,0,0,0,0,0,0,,,,0,0
L7175,Class,ExpressionComparator<E extends Exchange>,org.apache.camel.util.ExpressionComparator,L25283,L103,1,2,2,0,0,0,1,0,0,0,0,0,0,0,0,0,0,0,0,0,1,0,3,0,0,0,0,0,0,0,,,,0,0
L7263,Class,RefComponent,org.apache.camel.component.ref.RefComponent,L7260,L103,0,1,0,0,0,0,0,0,0,1,1,0,0,0,0,0,0,0,0,0,0,0,4,0,0,0,0,0,0,0,,,,0,0
L7278,Class,QueueComponent,org.apache.camel.component.seda.QueueComponent,L7270,L103,1,1,1,0,0,0,0,0,0,3,3,0,27,8,0,0,0,0,0,0,1,0,0,0,0,0,0,0,0,0,,,,0,0
L7418,Class,TimerComponent,org.apache.camel.component.timer.TimerComponent,L7411,L103,1,3,1,0,1,0,0,0,0,1,1,0,0,0,0,0,1,1,0,0,1,2,6,0,0,0,0,0,0,0,,,,0,0
L7708,Class,JmsComponent,org.apache.camel.component.jms.JmsComponent,L12293,L103,3,52,49,38,1,0,1,1,1,1,1,1,0,0,0,0,1,1,0,0,2,1,32,0,0,0,0,0,0,0,,,,0,0
L7724,Class,JmsConfiguration,org.apache.camel.component.jms.JmsConfiguration,L12293,L103,42,88,83,39,39,0,1,0,0,0,0,0,0,0,0,0,3,3,0,0,9,8,39,0,0,0,0,0,0,0,,,,0,0
L7816,Class,DefaultPollingEndpoint<E extends Exchange>,org.apache.camel.impl.DefaultPollingEndpoint,L17136,L103,0,3,1,0,0,0,0,2,2,1,1,1,0,0,0,0,0,0,0,0,0,0,6,0,0,0,0,0,0,0,,,,0,0
L7837,Interface,PollingConsumer<E extends Exchange>,org.apache.camel.PollingConsumer,L106,L103,,3,,,,,,,0,1,,,,,,,,,,0,,8,3,,,,,,,0,2,0,0,0,0
L7873,Class,PollingConsumerSupport<E extends Exchange>,org.apache.camel.impl.PollingConsumerSupport,L17136,L103,1,6,5,1,2,0,1,3,3,1,1,1,13,6,0,0,0,0,1,0,1,0,6,0,0,0,0,0,0,0,,,,0,0
L7952,Class,AsyncProcessorDecorator,org.apache.camel.component.cxf.AsyncProcessorDecorator,L7909,L103,0,3,3,0,0,0,1,0,0,0,0,0,0,0,0,0,0,2,0,0,0,0,6,0,0,0,0,0,0,0,,,,0,0
L7976,Class,CamelInvoker,org.apache.camel.component.cxf.CamelInvoker,L7909,L103,1,5,5,0,1,0,1,0,0,0,0,0,0,0,0,0,2,2,0,0,1,0,11,0,0,0,0,0,0,0,,,,0,0
L7986,Class,CxfConsumer,org.apache.camel.component.cxf.CxfConsumer,L7909,L103,1,4,2,0,1,0,0,0,0,1,1,0,0,0,0,0,3,3,0,0,1,2,3,0,0,0,0,0,0,0,,,,0,0
L7999,Class,CxfEndpoint,org.apache.camel.component.cxf.CxfEndpoint,L7909,L103,10,27,27,7,13,0,0,0,0,1,1,0,0,0,0,0,4,6,0,0,2,8,27,0,0,0,0,0,0,0,,,,0,0
L8004,Class,CxfExchange,org.apache.camel.component.cxf.CxfExchange,L7909,L103,1,18,15,0,12,0,0,0,0,1,1,0,38,3,0,0,1,1,0,0,1,11,24,0,0,0,0,0,0,0,,,,0,0
L8017,Class,CxfMessage,org.apache.camel.component.cxf.CxfMessage,L7909,L103,1,11,10,2,4,0,0,0,0,2,2,0,22,3,0,0,0,0,0,0,1,6,11,0,0,0,0,0,0,0,,,,0,0
L8055,Class,CxfBinding,org.apache.camel.component.cxf.CxfBinding,L7909,L103,0,6,5,0,1,0,0,0,0,0,0,0,0,0,0,0,2,2,0,0,0,6,13,0,0,0,0,0,0,0,,,,0,0
L8086,Class,CxfComponent,org.apache.camel.component.cxf.CxfComponent,L7909,L103,0,3,2,0,0,0,0,0,0,1,1,0,0,0,0,0,1,1,0,0,0,2,5,0,0,0,0,0,0,0,,,,0,0
L8103,Interface,CxfConstants,org.apache.camel.component.cxf.CxfConstants,L7909,L103,,0,,,,,,,0,0,,,,,,,,,,0,,0,0,,,,,,,0,0,0,0,0,0
L8126,Class,CxfEndpointBean,org.apache.camel.component.cxf.spring.CxfEndpointBean,L9233,L103,0,1,1,0,0,0,0,0,0,1,1,0,0,0,0,0,0,1,0,0,0,1,0,0,0,0,0,0,0,0,,,,0,0
L8160,Class,CxfMessageObserver,org.apache.camel.component.cxf.CxfMessageObserver,L7909,L103,1,3,2,1,0,0,0,0,0,1,1,0,0,0,0,0,3,3,0,0,1,0,6,0,0,0,0,0,0,0,,,,0,0
L8200,Class,SpringCamelContext,org.apache.camel.spring.SpringCamelContext,L28871,L103,2,16,11,2,2,0,4,0,0,2,2,0,64,11,0,0,3,3,1,0,2,11,14,0,0,0,0,0,0,0,,,,0,0
L8211,Class,CxfProducer,org.apache.camel.component.cxf.CxfProducer,L7909,L103,1,7,3,0,0,0,0,0,0,1,1,0,0,0,0,0,2,2,0,0,1,0,6,0,0,0,0,0,0,0,,,,0,0
L8336,Interface,InvokingContext,org.apache.camel.component.cxf.invoker.InvokingContext,L8884,L103,,9,,,,,,,0,0,,,,,,,,,,0,,4,19,,,,,,,0,0,1,0,0,0
L8370,Class,CxfClientFactoryBean,org.apache.camel.component.cxf.invoker.CxfClientFactoryBean,L8884,L103,1,4,3,2,0,0,0,0,0,1,1,0,0,0,0,0,0,0,0,0,0,0,2,0,0,0,0,0,0,0,,,,0,0
L8402,Class,CxfClient,org.apache.camel.component.cxf.invoker.CxfClient,L8884,L103,2,8,6,1,2,0,0,0,0,1,1,0,0,0,0,0,0,0,0,0,2,0,23,0,0,0,0,0,0,0,,,,0,0
L8411,Class,CxfSoapComponent,org.apache.camel.component.cxf.CxfSoapComponent,L7909,L103,0,1,0,0,0,0,0,0,0,2,2,0,25,8,0,0,0,0,0,0,0,0,4,0,0,0,0,0,0,0,,,,0,0
L8424,Class,CxfSoapEndpoint,org.apache.camel.component.cxf.CxfSoapEndpoint,L7909,L103,5,16,14,1,7,0,1,0,0,0,0,0,0,0,0,0,2,3,0,0,5,2,16,0,0,0,0,0,0,0,,,,0,0
L8431,Class,CxfSoapConsumer,org.apache.camel.component.cxf.CxfSoapConsumer,L7909,L103,4,6,3,0,1,0,1,0,0,0,0,0,0,0,0,0,1,2,0,0,4,0,5,0,0,0,0,0,0,0,,,,0,0
L8505,Class,CxfSoapProducer,org.apache.camel.component.cxf.CxfSoapProducer,L7909,L103,1,11,9,0,1,0,2,0,0,0,0,0,0,0,0,0,1,3,0,0,1,0,11,0,0,0,0,0,0,0,,,,0,0
L8598,Class,AbstractInvokerInterceptor,org.apache.camel.component.cxf.interceptors.AbstractInvokerInterceptor,L8582,L103,2,5,2,1,2,0,0,2,2,1,1,1,0,0,0,0,0,0,0,0,1,0,6,0,0,0,0,0,0,0,,,,0,0
L8623,Class,AbstractMessageInInterceptor<T extends Message>,org.apache.camel.component.cxf.interceptors.AbstractMessageInInterceptor,L8582,L103,1,9,2,0,6,0,0,0,0,1,1,0,0,0,0,0,0,0,0,0,1,0,16,0,0,0,0,0,0,0,,,,0,0
L8684,Class,AbstractMessageOutInterceptor<T extends Message>,org.apache.camel.component.cxf.interceptors.AbstractMessageOutInterceptor,L8582,L103,0,4,1,0,2,0,0,0,0,1,1,0,0,0,0,0,0,0,0,0,0,0,6,0,0,0,0,0,0,0,,,,0,0
L8711,Class,DOMInInterceptor,org.apache.camel.component.cxf.interceptors.DOMInInterceptor,L8582,L103,1,3,3,0,1,0,0,0,0,1,1,0,0,0,0,0,2,2,0,0,1,0,2,0,0,0,0,0,0,0,,,,0,0
L8713,Class,DOMOutInterceptor,org.apache.camel.component.cxf.interceptors.DOMOutInterceptor,L8582,L103,1,3,3,0,1,0,0,0,0,1,1,0,0,0,0,0,2,2,0,0,1,0,2,0,0,0,0,0,0,0,,,,0,0
L8717,Class,XMLMessageInInterceptor,org.apache.camel.component.cxf.interceptors.XMLMessageInInterceptor,L8582,L103,1,6,1,0,5,0,0,0,0,1,1,0,0,0,0,0,1,1,0,0,1,0,11,0,0,0,0,0,0,0,,,,0,0
L8721,Class,SoapMessageInInterceptor,org.apache.camel.component.cxf.interceptors.SoapMessageInInterceptor,L8582,L103,1,6,1,0,5,0,0,0,0,1,1,0,0,0,0,0,1,1,0,0,1,0,11,0,0,0,0,0,0,0,,,,0,0
L8725,Class,PayloadInInterceptor,org.apache.camel.component.cxf.interceptors.PayloadInInterceptor,L8582,L103,1,2,1,0,1,0,0,0,0,2,2,0,5,2,0,0,0,0,0,0,1,0,1,0,0,0,0,0,0,0,,,,0,0
L8738,Class,XMLMessageOutInterceptor,org.apache.camel.component.cxf.interceptors.XMLMessageOutInterceptor,L8582,L103,1,4,2,0,1,0,0,0,0,1,1,0,0,0,0,0,1,1,0,0,1,0,5,0,0,0,0,0,0,0,,,,0,0
L8742,Class,SoapMessageOutInterceptor,org.apache.camel.component.cxf.interceptors.SoapMessageOutInterceptor,L8582,L103,1,3,2,0,1,0,0,0,0,1,1,0,0,0,0,0,1,1,0,0,1,0,2,0,0,0,0,0,0,0,,,,0,0
L8757,Class,FaultOutInterceptor,org.apache.camel.component.cxf.interceptors.FaultOutInterceptor,L8582,L103,1,2,2,0,0,0,0,0,0,1,1,0,0,0,0,0,0,0,0,0,1,0,1,0,0,0,0,0,0,0,,,,0,0
L8765,Class,PayloadContentRedirectInterceptor,org.apache.camel.component.cxf.interceptors.PayloadContentRedirectInterceptor,L8582,L103,0,2,2,0,0,0,0,0,0,1,1,0,0,0,0,0,0,0,0,0,0,0,1,0,0,0,0,0,0,0,,,,0,0
L8779,Class,RawMessageContentRedirectInterceptor,org.apache.camel.component.cxf.interceptors.RawMessageContentRedirectInterceptor,L8582,L103,0,2,2,0,0,0,0,0,0,1,1,0,0,0,0,0,0,0,0,0,0,0,1,0,0,0,0,0,0,0,,,,0,0
L8785,Class,RawMessageInInterceptor,org.apache.camel.component.cxf.interceptors.RawMessageInInterceptor,L8582,L103,1,2,1,0,1,0,0,0,0,2,2,0,5,2,0,0,0,0,0,0,1,0,1,0,0,0,0,0,0,0,,,,0,0
L8895,Class,AbstractInvokingContext,org.apache.camel.component.cxf.invoker.AbstractInvokingContext,L8884,L103,1,7,3,1,6,0,1,2,2,0,0,1,0,0,0,0,0,0,0,0,1,0,13,0,0,0,0,0,0,0,,,,0,0
L8998,Class,FaultChainInitiatorObserver,org.apache.camel.component.cxf.invoker.FaultChainInitiatorObserver,L8884,L103,2,4,1,0,2,0,0,0,0,1,1,0,0,0,0,0,0,0,0,0,1,0,5,0,0,0,0,0,0,0,,,,0,0
L9036,Class,InvokingContextFactory,org.apache.camel.component.cxf.invoker.InvokingContextFactory,L8884,L103,0,2,1,0,0,0,0,0,0,0,0,0,0,0,0,0,0,0,0,0,0,0,1,0,0,0,0,0,0,0,,,,0,0
L9041,Class,RawMessageInvokingContext,org.apache.camel.component.cxf.invoker.RawMessageInvokingContext,L8884,L103,2,12,7,2,8,0,0,0,0,1,1,0,7,1,0,0,0,0,0,0,2,0,21,0,0,0,0,0,0,0,,,,0,0
L9047,Class,PayloadInvokingContext,org.apache.camel.component.cxf.invoker.PayloadInvokingContext,L8884,L103,5,14,8,3,10,0,0,0,0,1,1,0,7,1,0,0,0,0,0,0,3,0,25,0,0,0,0,0,0,0,,,,0,0
L9059,Class,PayloadPhaseManagerImpl,org.apache.camel.component.cxf.phase.PayloadPhaseManagerImpl,L9188,L103,0,2,0,0,0,0,0,0,0,1,1,0,5,2,0,0,0,0,0,0,0,0,2,0,0,0,0,0,0,0,,,,0,0
L9065,Class,FaultPayloadPhaseManagerImpl,org.apache.camel.component.cxf.phase.FaultPayloadPhaseManagerImpl,L9188,L103,0,2,0,0,0,0,0,0,0,1,1,0,5,2,0,0,0,0,0,0,0,0,2,0,0,0,0,0,0,0,,,,0,0
L9087,Class,PayloadMessage,org.apache.camel.component.cxf.invoker.PayloadMessage,L8884,L103,2,4,4,0,2,0,0,0,0,0,0,0,0,0,0,0,0,0,0,0,2,0,5,0,0,0,0,0,0,0,,,,0,0
L9144,Class,RawMessagePhaseManagerImpl,org.apache.camel.component.cxf.phase.RawMessagePhaseManagerImpl,L9188,L103,0,2,0,0,0,0,0,0,0,1,1,0,5,2,0,0,0,0,0,0,0,0,2,0,0,0,0,0,0,0,,,,0,0
L9197,Class,AbstractPhaseManagerImpl,org.apache.camel.component.cxf.phase.AbstractPhaseManagerImpl,L9188,L103,2,5,3,0,2,0,1,3,3,0,0,1,0,0,0,0,0,0,0,0,1,0,4,0,0,0,0,0,0,0,,,,0,0
L9242,Class,CxfEndpointBeanDefinitionParser,org.apache.camel.component.cxf.spring.CxfEndpointBeanDefinitionParser,L9233,L103,0,6,0,0,2,0,0,0,0,1,1,0,0,0,0,0,0,0,0,0,0,0,17,0,0,0,0,0,0,0,,,,0,0
L9265,Class,NamespaceHandler,org.apache.camel.component.cxf.spring.NamespaceHandler,L9233,L103,0,1,1,0,0,0,0,0,0,1,1,0,0,0,0,0,0,0,0,0,0,0,0,0,0,0,0,0,0,0,,,,0,0
L9286,Class,CamelConduit,org.apache.camel.component.cxf.transport.CamelConduit,L9275,L103,3,7,4,0,3,0,1,0,0,1,1,0,0,0,0,0,1,1,0,0,2,1,7,0,0,0,0,0,0,0,,,,0,0
L9293,Class,CamelTransportBase,org.apache.camel.component.cxf.transport.CamelTransportBase,L9275,L103,4,7,6,1,1,0,0,0,0,0,0,0,0,0,0,0,2,3,0,0,4,0,14,0,0,0,0,0,0,0,,,,0,0
L9387,Class,CamelConstants,org.apache.camel.component.cxf.transport.CamelConstants,L9275,L103,18,0,0,0,0,0,0,0,0,0,0,0,0,0,0,0,0,0,0,0,1,0,0,0,0,0,0,0,0,0,,,,0,0
L9407,Class,CamelDestination,org.apache.camel.component.cxf.transport.CamelDestination,L9275,L103,4,11,5,1,4,0,1,0,0,1,1,0,0,0,0,0,1,3,0,0,3,1,13,0,0,0,0,0,0,0,,,,0,0
L9532,Class,CamelTransportFactory,org.apache.camel.component.cxf.transport.CamelTransportFactory,L9275,L103,2,8,8,2,6,0,2,0,0,1,1,0,0,0,0,0,0,1,0,0,2,0,12,0,0,0,0,0,0,0,,,,0,0
L9674,Class,CxfEndpointUtils,org.apache.camel.component.cxf.util.CxfEndpointUtils,L9668,L103,8,10,8,0,8,0,0,0,0,0,0,0,0,0,0,0,0,0,0,0,2,0,17,0,0,0,0,0,0,0,,,,0,0
L9715,Class,UriUtils,org.apache.camel.component.cxf.util.UriUtils,L9668,L103,0,3,0,0,2,0,0,0,0,0,0,0,0,0,0,0,0,0,0,0,0,0,4,0,0,0,0,0,0,0,,,,0,0
