ID,Type,Name,LongName,Parent,Component,NumAttr,NumOps,NumPubOps,Setters,Getters,Nesting,IFImpl,NOC,NumDesc,NumAnc,DIT,CLD,OpsInh,AttrInh,Dep_Out,Dep_In,NumAssEl_ssc,NumAssEl_sb,NumAssEl_nsb,EC_Attr,IC_Attr,EC_Par,IC_Par,Connectors,InstSpec,LLInst,MsgSent,MsgRecv,MsgSelf,Diags,Assoc,NumDirClients,NumIndClients,BugNo,Label
L10003,Class,VsftpRepository,fr.jayasoft.ivy.repository.vsftp.VsftpRepository,L9999,L103,17,43,15,5,12,0,0,0,0,1,1,0,19,2,0,0,1,2,0,0,7,2,54,0,0,0,0,0,0,0,,,,0,0
L10036,Class,VsftpResource,fr.jayasoft.ivy.repository.vsftp.VsftpResource,L9999,L103,0,4,3,0,0,0,0,0,0,1,1,0,14,6,0,0,1,1,0,0,0,0,5,0,0,0,0,0,0,0,,,,0,0
L10059,Class,IvyThread,fr.jayasoft.ivy.util.IvyThread,L12405,L103,0,10,9,0,0,0,0,0,0,1,1,0,0,0,0,0,0,1,0,0,0,0,14,0,0,0,0,0,0,0,,,,0,0
L1028,Class,IvyNode,fr.jayasoft.ivy.IvyNode,L563,L103,23,102,71,7,60,0,0,0,0,0,0,0,0,0,0,0,4,4,0,1,5,42,139,0,0,0,0,0,0,0,,,,0,0
L10313,Class,ResolvedURL,fr.jayasoft.ivy.ResolvedURL,L563,L103,3,5,5,0,3,0,1,0,0,0,0,0,0,0,0,0,0,0,0,0,3,0,5,0,0,0,0,0,0,0,,,,0,0
L1034,Interface,ModuleDescriptor,fr.jayasoft.ivy.ModuleDescriptor,L563,L103,,23,,,,,,,0,1,,,,,,,,,,1,,82,25,,,,,,,0,7,1,0,0,0
L10381,Interface,HasLatestStrategy,fr.jayasoft.ivy.resolver.HasLatestStrategy,L10339,L103,,3,,,,,,,0,0,,,,,,,,,,0,,0,3,,,,,,,0,0,1,0,0,0
L10489,Class,AbstractResourceResolver,fr.jayasoft.ivy.resolver.AbstractResourceResolver,L10339,L103,4,24,10,3,3,0,0,1,11,2,2,3,84,15,0,0,0,0,0,0,2,0,45,0,0,0,0,0,0,0,,,,0,0
L10491,Class,BasicResolver,fr.jayasoft.ivy.resolver.BasicResolver,L10339,L103,9,45,24,6,14,0,0,1,12,1,1,4,39,6,0,0,0,0,1,0,5,0,71,0,0,0,0,0,0,0,,,,0,0
L10504,Class,ResolvedResource,fr.jayasoft.ivy.resolver.ResolvedResource,L10339,L103,1,5,5,0,3,0,1,1,1,0,0,1,0,0,0,0,0,0,1,0,1,18,5,0,0,0,0,0,0,0,,,,0,0
L10529,Interface,ResourceMDParser,fr.jayasoft.ivy.resolver.ResourceMDParser,L10339,L103,,1,,,,,,,0,0,,,,,,,,,,0,,7,3,,,,,,,0,0,0,0,0,0
L10593,Class,IvyPattern,fr.jayasoft.ivy.util.IvyPattern,L12405,L103,1,2,2,1,1,0,0,0,0,0,0,0,0,0,0,0,0,0,0,0,1,2,2,0,0,0,0,0,0,0,,,,0,0
L10606,Class,AbstractSshBasedResolver,fr.jayasoft.ivy.resolver.AbstractSshBasedResolver,L10339,L103,1,11,10,8,2,0,0,2,2,4,4,1,126,20,0,0,0,0,0,0,0,0,9,0,0,0,0,0,0,0,,,,0,0
L10653,Class,ApacheHttpURLLister,fr.jayasoft.ivy.resolver.ApacheHttpURLLister,L10339,L103,0,3,3,0,0,0,1,0,0,0,0,0,0,0,0,0,0,0,1,0,0,0,4,0,0,0,0,0,0,0,,,,0,0
L10654,Interface,URLLister,fr.jayasoft.ivy.resolver.URLLister,L10339,L103,,2,,,,,,,0,0,,,,,,,,,,0,,2,3,,,,,,,0,0,2,0,0,0
L10717,Class,MDResolvedResource,fr.jayasoft.ivy.resolver.MDResolvedResource,L10339,L103,0,2,2,0,1,0,0,0,0,1,1,0,5,1,0,0,0,1,0,0,0,1,4,0,0,0,0,0,0,0,,,,0,0
L10892,Class,FileSystemResolver,fr.jayasoft.ivy.resolver.FileSystemResolver,L10339,L103,0,5,4,1,3,0,0,1,1,4,4,1,126,20,0,0,0,0,0,0,0,0,2,0,0,0,0,0,0,0,,,,0,0
L10971,Class,ResolvedModuleRevisionProxy,fr.jayasoft.ivy.resolver.ResolvedModuleRevisionProxy,L10339,L103,0,9,9,0,8,0,1,0,0,0,0,0,0,0,0,0,0,2,0,0,0,0,8,0,0,0,0,0,0,0,,,,0,0
L11070,Class,FileURLLister,fr.jayasoft.ivy.resolver.FileURLLister,L10339,L103,1,5,5,0,0,0,1,0,0,0,0,0,0,0,0,0,0,0,0,0,1,0,5,0,0,0,0,0,0,0,,,,0,0
L11083,Class,IBiblioResolver,fr.jayasoft.ivy.resolver.IBiblioResolver,L10339,L103,5,24,19,4,7,0,0,0,0,5,5,0,128,20,0,0,0,0,0,0,1,0,33,0,0,0,0,0,0,0,,,,0,0
L11085,Class,URLResolver,fr.jayasoft.ivy.resolver.URLResolver,L10339,L103,0,2,2,0,1,0,0,2,2,4,4,1,126,20,0,0,0,0,0,0,0,0,1,0,0,0,0,0,0,0,,,,0,0
L11161,Class,IvyRepResolver,fr.jayasoft.ivy.resolver.IvyRepResolver,L10339,L103,6,27,20,5,10,0,0,0,0,5,5,0,128,20,0,0,0,0,0,0,1,0,33,0,0,0,0,0,0,0,,,,0,0
L11486,Class,SFTPResolver,fr.jayasoft.ivy.resolver.SFTPResolver,L10339,L103,0,3,3,0,2,0,0,0,0,5,5,0,137,21,0,0,0,0,0,0,0,0,2,0,0,0,0,0,0,0,,,,0,0
L11495,Class,SshResolver,fr.jayasoft.ivy.resolver.SshResolver,L10339,L103,0,6,6,4,1,0,0,0,0,5,5,0,137,21,0,0,0,0,0,0,0,0,5,0,0,0,0,0,0,0,,,,0,0
L11521,Class,VfsResolver,fr.jayasoft.ivy.resolver.VfsResolver,L10339,L103,2,4,4,0,1,0,0,0,0,4,4,0,126,20,0,0,0,0,0,0,1,0,5,0,0,0,0,0,0,0,,,,0,0
L11538,Class,VsftpResolver,fr.jayasoft.ivy.resolver.VsftpResolver,L10339,L103,0,12,12,5,5,0,0,0,0,4,4,0,126,20,0,0,0,0,0,0,0,0,8,0,0,0,0,0,0,0,,,,0,0
L1159,Class,ArtifactOrigin,fr.jayasoft.ivy.ArtifactOrigin,L563,L103,2,3,3,0,2,0,0,0,0,0,0,0,0,0,0,0,0,2,0,1,1,14,2,0,0,0,0,0,0,0,,,,0,0
L11871,Class,Status,fr.jayasoft.ivy.status.Status,L11867,L103,2,6,6,2,2,0,0,0,0,0,0,0,0,0,0,0,0,0,0,0,1,2,3,0,0,0,0,0,0,0,,,,0,0
L11938,Interface,DependencyAnalyser,fr.jayasoft.ivy.tools.analyser.DependencyAnalyser,L11930,L103,,1,,,,,,,0,0,,,,,,,,,,0,,1,2,,,,,,,0,0,1,0,0,0
L11941,Class,JarModule,fr.jayasoft.ivy.tools.analyser.JarModule,L11930,L103,1,4,4,0,2,0,0,0,0,0,0,0,0,0,0,0,0,1,0,0,1,3,5,0,0,0,0,0,0,0,,,,0,0
L11945,Class,JarJarDependencyAnalyser,fr.jayasoft.ivy.tools.analyser.JarJarDependencyAnalyser,L11930,L103,1,3,3,0,0,0,1,0,0,0,0,0,0,0,0,0,0,0,0,0,1,0,4,0,0,0,0,0,0,0,,,,0,0
L11969,Class,JarModuleFinder,fr.jayasoft.ivy.tools.analyser.JarModuleFinder,L11930,L103,2,3,3,0,0,0,0,0,0,0,0,0,0,0,0,0,0,0,0,0,1,0,3,0,0,0,0,0,0,0,,,,0,0
L11996,Class,RepositoryAnalyser,fr.jayasoft.ivy.tools.analyser.RepositoryAnalyser,L11930,L103,0,2,2,0,0,0,0,0,0,0,0,0,0,0,0,0,0,0,0,0,0,0,3,0,0,0,0,0,0,0,,,,0,0
L12023,Class,AbstractURLHandler,fr.jayasoft.ivy.url.AbstractURLHandler,L12008,L103,0,6,6,0,6,0,1,2,2,0,0,1,0,0,0,0,0,0,0,0,0,0,6,0,0,0,0,0,0,0,,,,0,0
L12074,Class,BasicURLHandler,fr.jayasoft.ivy.url.BasicURLHandler,L12008,L103,0,5,5,0,2,0,0,0,0,1,1,0,6,0,0,0,0,0,0,0,0,0,9,0,0,0,0,0,0,0,,,,0,0
L1210,Class,IvyBuildList,fr.jayasoft.ivy.ant.IvyBuildList,L676,L103,10,26,20,9,10,0,0,0,0,2,2,0,24,3,0,0,0,0,0,0,2,0,25,0,0,0,0,0,0,0,,,,0,0
L12115,Class,CredentialsStore,fr.jayasoft.ivy.url.CredentialsStore,L12008,L103,1,3,2,0,1,0,0,0,0,0,0,0,0,0,0,0,0,0,0,0,1,0,7,0,0,0,0,0,0,0,,,,0,0
L12264,Class,IvyAuthenticator,fr.jayasoft.ivy.url.IvyAuthenticator,L12008,L103,0,2,0,0,1,0,0,0,0,1,1,0,0,0,0,0,0,0,0,0,0,0,1,0,0,0,0,0,0,0,,,,0,0
L12377,Class,URLHandlerRegistry,fr.jayasoft.ivy.url.URLHandlerRegistry,L12008,L103,0,3,3,1,2,0,0,0,0,0,0,0,0,0,0,0,1,1,0,0,0,0,3,0,0,0,0,0,0,0,,,,0,0
L12428,Class,ChecksumHelper,fr.jayasoft.ivy.util.ChecksumHelper,L12405,L103,2,5,3,0,1,0,0,0,0,0,0,0,0,0,0,0,0,0,0,0,1,0,11,0,0,0,0,0,0,0,,,,0,0
L12837,Class,CredentialsUtil,fr.jayasoft.ivy.util.CredentialsUtil,L12405,L103,0,2,2,0,0,0,0,0,0,0,0,0,0,0,0,0,0,0,0,0,0,0,6,0,0,0,0,0,0,0,,,,0,0
L12923,Class,EncrytedProperties,fr.jayasoft.ivy.util.EncrytedProperties,L12405,L103,0,7,7,1,2,0,0,0,0,1,1,0,0,0,0,0,0,0,0,0,0,0,11,0,0,0,0,0,0,0,,,,0,0
L12973,Class,FileUtil,fr.jayasoft.ivy.util.FileUtil,L12405,L103,1,11,10,0,1,0,0,0,0,0,0,0,0,0,0,0,0,0,0,0,0,0,29,0,0,0,0,0,0,0,,,,0,0
L13029,Class,IvyPatternHelper,fr.jayasoft.ivy.util.IvyPatternHelper,L12405,L103,12,26,24,0,2,0,0,0,0,0,0,0,0,0,0,0,0,0,0,0,2,0,125,0,0,0,0,0,0,0,,,,0,0
L1307,Interface,DependencyDescriptor,fr.jayasoft.ivy.DependencyDescriptor,L563,L103,,20,,,,,,,0,1,,,,,,,,,,1,,45,25,,,,,,,0,2,1,0,0,0
L13262,Class,Message,fr.jayasoft.ivy.util.Message,L12405,L103,10,19,18,2,4,0,0,0,0,0,0,0,0,0,0,0,0,0,0,0,1,0,11,0,0,0,0,0,0,0,,,,0,0
L13320,Class,StringUtils,fr.jayasoft.ivy.util.StringUtils,L12405,L103,1,5,4,0,0,0,0,0,0,0,0,0,0,0,0,0,0,0,0,0,0,0,9,0,0,0,0,0,0,0,,,,0,0
L13338,Class,XMLHelper,fr.jayasoft.ivy.util.XMLHelper,L12405,L103,6,5,4,0,0,0,0,0,0,0,0,0,0,0,0,0,0,0,0,0,2,0,14,0,0,0,0,0,0,0,,,,0,0
L1347,Class,IvyBuildNumber,fr.jayasoft.ivy.ant.IvyBuildNumber,L676,L103,8,21,17,9,8,0,0,0,0,2,2,0,24,3,0,0,0,0,0,0,1,0,24,0,0,0,0,0,0,0,,,,0,0
L13556,Class,AbstractVersionMatcher,fr.jayasoft.ivy.version.AbstractVersionMatcher,L13542,L103,1,9,9,2,2,0,2,6,6,0,0,1,0,0,0,0,0,1,0,0,1,0,10,0,0,0,0,0,0,0,,,,0,0
L13617,Class,Match,fr.jayasoft.ivy.version.Match,L13542,L103,4,11,9,4,6,0,0,0,0,0,0,0,0,0,0,0,0,0,0,0,1,1,14,0,0,0,0,0,0,0,,,,0,0
L13658,Class,PatternVersionMatcher,fr.jayasoft.ivy.version.PatternVersionMatcher,L13542,L103,3,4,3,0,1,0,0,0,0,1,1,0,9,1,0,0,0,0,0,0,2,0,4,0,0,0,0,0,0,0,,,,0,0
L1385,Interface,ResolvedModuleRevision,fr.jayasoft.ivy.ResolvedModuleRevision,L563,L103,,8,,,,,,,0,0,,,,,,,,,,1,,28,6,,,,,,,0,4,2,0,0,0
L1450,Class,IvyCacheFileset,fr.jayasoft.ivy.ant.IvyCacheFileset,L676,L103,1,4,4,2,1,0,0,0,0,4,4,0,50,13,0,0,0,0,0,0,1,0,2,0,0,0,0,0,0,0,,,,0,0
L1452,Class,IvyCacheTask,fr.jayasoft.ivy.ant.IvyCacheTask,L676,L103,0,2,0,0,2,0,0,2,2,3,3,1,48,13,0,0,0,0,0,0,0,0,2,0,0,0,0,0,0,0,,,,0,0
L1481,Class,IvyCachePath,fr.jayasoft.ivy.ant.IvyCachePath,L676,L103,2,4,4,2,1,0,0,0,0,4,4,0,50,13,0,0,0,0,0,0,1,0,3,0,0,0,0,0,0,0,,,,0,0
L1516,Class,ResolveReport,fr.jayasoft.ivy.report.ResolveReport,L8192,L103,6,22,22,4,15,0,0,0,0,0,0,0,0,0,0,0,0,1,1,0,2,28,20,0,0,0,0,0,0,0,,,,0,0
L1521,Class,ConfigurationResolveReport,fr.jayasoft.ivy.report.ConfigurationResolveReport,L8192,L103,7,23,22,0,20,0,0,0,0,0,0,0,0,0,0,0,0,3,0,0,4,13,27,0,0,0,0,0,0,0,,,,0,0
L1530,Class,ModuleRevisionId,fr.jayasoft.ivy.ModuleRevisionId,L563,L103,6,20,20,0,6,0,0,0,0,1,1,0,10,6,0,0,5,7,0,2,1,163,38,0,0,0,0,0,0,0,,,,0,0
L1533,Class,ArtifactDownloadReport,fr.jayasoft.ivy.report.ArtifactDownloadReport,L8192,L103,1,11,11,3,7,0,0,0,0,0,0,0,0,0,0,0,1,3,1,0,0,11,9,0,0,0,0,0,0,0,,,,0,0
L1545,Class,IvyCheck,fr.jayasoft.ivy.ant.IvyCheck,L676,L103,3,6,6,2,2,0,0,0,0,2,2,0,24,3,0,0,0,0,0,0,3,0,5,0,0,0,0,0,0,0,,,,0,0
L1571,Class,IvyConfigure,fr.jayasoft.ivy.ant.IvyConfigure,L676,L103,6,17,14,6,6,0,0,0,0,2,2,0,24,3,0,0,0,0,0,0,3,0,15,0,0,0,0,0,0,0,,,,0,0
L1677,Class,URLHandlerDispatcher,fr.jayasoft.ivy.url.URLHandlerDispatcher,L12008,L103,1,15,15,2,10,0,1,0,0,0,0,0,0,0,0,0,1,1,0,0,1,0,21,0,0,0,0,0,0,0,,,,0,0
L1682,Interface,URLHandler,fr.jayasoft.ivy.url.URLHandler,L12008,L103,,10,,,,,,,0,0,,,,,,,,,,0,,7,15,,,,,,,0,2,2,0,0,0
L1691,Class,IvyConvertPom,fr.jayasoft.ivy.ant.IvyConvertPom,L676,L103,2,5,5,2,2,0,0,0,0,2,2,0,24,3,0,0,0,0,0,0,1,0,4,0,0,0,0,0,0,0,,,,0,0
L1709,Class,URLResource,fr.jayasoft.ivy.repository.url.URLResource,L9561,L103,5,11,10,0,5,0,1,0,0,0,0,0,0,0,0,0,0,0,0,0,1,0,7,0,0,0,0,0,0,0,,,,0,0
L1715,Class,IvyDeliver,fr.jayasoft.ivy.ant.IvyDeliver,L676,L103,11,23,21,11,9,0,0,0,0,2,2,0,24,3,0,0,0,0,0,0,2,0,19,0,0,0,0,0,0,0,,,,0,0
L1719,Class,DefaultPublishingDRResolver,fr.jayasoft.ivy.DefaultPublishingDRResolver,L563,L103,0,1,1,0,0,0,1,1,1,0,0,1,0,0,0,0,0,0,0,0,0,0,5,0,0,0,0,0,0,0,,,,0,0
L1812,Interface,PublishingDependencyRevisionResolver,fr.jayasoft.ivy.PublishingDependencyRevisionResolver,L563,L103,,1,,,,,,,0,0,,,,,,,,,,0,,2,5,,,,,,,0,0,1,0,0,0
L1823,Class,IvyExtractFromSources,fr.jayasoft.ivy.ant.IvyExtractFromSources,L676,L103,8,16,14,5,6,0,0,0,0,2,2,0,24,3,0,0,0,0,0,0,5,0,15,0,0,0,0,0,0,0,,,,0,0
L1869,Class,PackageMapping,fr.jayasoft.ivy.ant.PackageMapping,L676,L103,4,9,9,4,5,0,0,0,0,0,0,0,0,0,0,0,0,0,0,0,1,1,9,0,0,0,0,0,0,0,,,,0,0
L1919,Class,IvyFindRevision,fr.jayasoft.ivy.ant.IvyFindRevision,L676,L103,5,11,11,5,5,0,0,0,0,2,2,0,24,3,0,0,0,0,0,0,1,0,10,0,0,0,0,0,0,0,,,,0,0
L1948,Class,IvyInfo,fr.jayasoft.ivy.ant.IvyInfo,L676,L103,1,3,3,1,1,0,0,0,0,2,2,0,24,3,0,0,0,0,0,0,1,0,2,0,0,0,0,0,0,0,,,,0,0
L1961,Class,Configuration,fr.jayasoft.ivy.Configuration,L563,L103,5,13,12,0,6,0,0,0,0,2,2,0,15,6,0,0,0,1,0,0,2,6,18,0,0,0,0,0,0,0,,,,0,0
L1975,Class,IvyInstall,fr.jayasoft.ivy.ant.IvyInstall,L676,L103,10,21,21,10,10,0,0,0,0,2,2,0,24,3,0,0,0,0,0,0,2,0,16,0,0,0,0,0,0,0,,,,0,0
L2037,Class,IvyListModules,fr.jayasoft.ivy.ant.IvyListModules,L676,L103,7,15,15,7,7,0,0,0,0,2,2,0,24,3,0,0,0,0,0,0,1,0,14,0,0,0,0,0,0,0,,,,0,0
L2096,Interface,Filter,fr.jayasoft.ivy.filter.Filter,L5236,L103,,1,,,,,,,0,0,,,,,,,,,,0,,36,1,,,,,,,0,9,6,0,0,0
L2171,Class,IvyPublish,fr.jayasoft.ivy.ant.IvyPublish,L676,L103,21,43,43,21,18,0,0,0,0,2,2,0,24,3,0,0,0,0,0,0,4,0,28,0,0,0,0,0,0,0,,,,0,0
L2344,Class,ArtifactRevisionId,fr.jayasoft.ivy.ArtifactRevisionId,L563,L103,0,13,13,0,7,0,0,0,0,1,1,0,10,6,0,0,4,4,0,0,0,4,22,0,0,0,0,0,0,0,,,,0,0
L2373,Class,IvyReport,fr.jayasoft.ivy.ant.IvyReport,L676,L103,13,31,26,12,14,0,0,0,0,2,2,0,24,3,0,0,0,0,0,0,3,0,36,0,0,0,0,0,0,0,,,,0,0
L2454,Class,XmlReportOutputter,fr.jayasoft.ivy.report.XmlReportOutputter,L8192,L103,0,9,8,0,3,0,1,0,0,0,0,0,0,0,0,0,0,0,0,0,0,0,20,0,0,0,0,0,0,0,,,,0,0
L2480,Class,IvyRepositoryReport,fr.jayasoft.ivy.ant.IvyRepositoryReport,L676,L103,15,36,30,14,16,0,0,0,0,2,2,0,24,3,0,0,0,0,0,0,3,0,39,0,0,0,0,0,0,0,,,,0,0
L2514,Class,DefaultModuleDescriptor,fr.jayasoft.ivy.DefaultModuleDescriptor,L563,L103,13,56,56,10,28,0,1,0,0,0,0,0,0,0,0,0,1,4,0,1,5,0,68,0,0,0,0,0,0,0,,,,0,0
L2720,Class,IvyRetrieve,fr.jayasoft.ivy.ant.IvyRetrieve,L676,L103,3,7,7,3,3,0,0,0,0,3,3,0,48,13,0,0,0,0,0,0,1,0,4,0,0,0,0,0,0,0,,,,0,0
L2848,Class,IvyVar,fr.jayasoft.ivy.ant.IvyVar,L676,L103,5,12,11,5,6,0,0,0,0,2,2,0,24,3,0,0,0,0,0,0,2,0,12,0,0,0,0,0,0,0,,,,0,0
L3441,Interface,ExtendableItem,fr.jayasoft.ivy.extendable.ExtendableItem,L4984,L103,,6,,,,,,,3,0,,,,,,,,,,0,,0,9,,,,,,,0,0,1,4,0,0
L3450,Class,ArtifactId,fr.jayasoft.ivy.ArtifactId,L563,L103,3,8,8,0,5,0,0,0,0,0,0,0,0,0,0,0,3,3,0,0,1,12,10,0,0,0,0,0,0,0,,,,0,0
L3486,Interface,ArtifactInfo,fr.jayasoft.ivy.ArtifactInfo,L563,L103,,2,,,,,,,0,0,,,,,,,,,,0,,9,1,,,,,,,0,0,5,0,0,0
L3498,Class,UnmodifiableExtendableItem,fr.jayasoft.ivy.extendable.UnmodifiableExtendableItem,L4984,L103,6,10,7,3,6,0,1,3,4,0,0,2,0,0,0,0,0,0,0,0,1,0,17,0,0,0,0,0,0,0,,,,0,0
L3570,Class,AbstractCircularDependencyStrategy,fr.jayasoft.ivy.circular.AbstractCircularDependencyStrategy,L3561,L103,1,3,2,0,1,0,1,3,3,0,0,1,0,0,0,0,0,0,0,0,1,0,3,0,0,0,0,0,0,0,,,,0,0
L3571,Interface,CircularDependencyStrategy,fr.jayasoft.ivy.circular.CircularDependencyStrategy,L3561,L103,,2,,,,,,,0,0,,,,,,,,,,0,,9,2,,,,,,,0,4,1,0,0,0
L3581,Class,CircularDependencyException,fr.jayasoft.ivy.circular.CircularDependencyException,L3561,L103,0,2,2,0,1,0,0,0,0,1,1,0,0,0,0,0,0,1,0,0,0,0,2,0,0,0,0,0,0,0,,,,0,0
L3593,Class,CircularDependencyHelper,fr.jayasoft.ivy.circular.CircularDependencyHelper,L3561,L103,0,3,3,0,0,0,0,0,0,0,0,0,0,0,0,0,0,0,0,0,0,0,6,0,0,0,0,0,0,0,,,,0,0
L3606,Class,ErrorCircularDependencyStrategy,fr.jayasoft.ivy.circular.ErrorCircularDependencyStrategy,L3561,L103,0,3,2,0,1,0,0,0,0,1,1,0,3,1,0,0,1,1,0,0,0,0,2,0,0,0,0,0,0,0,,,,0,0
L3621,Class,IgnoreCircularDependencyStrategy,fr.jayasoft.ivy.circular.IgnoreCircularDependencyStrategy,L3561,L103,0,3,2,0,1,0,0,0,0,1,1,0,3,1,0,0,1,1,0,0,0,0,2,0,0,0,0,0,0,0,,,,0,0
L3630,Class,WarnCircularDependencyStrategy,fr.jayasoft.ivy.circular.WarnCircularDependencyStrategy,L3561,L103,0,3,2,0,1,0,0,0,0,1,1,0,3,1,0,0,1,1,0,0,0,0,2,0,0,0,0,0,0,0,,,,0,0
L3640,Class,DefaultExtendableItem,fr.jayasoft.ivy.extendable.DefaultExtendableItem,L4984,L103,0,5,5,3,0,0,0,1,1,1,1,1,10,6,0,0,0,0,0,0,0,1,8,0,0,0,0,0,0,0,,,,0,0
L3725,Class,AbstractConflictManager,fr.jayasoft.ivy.conflict.AbstractConflictManager,L3713,L103,1,5,5,2,2,0,2,5,5,0,0,1,0,0,0,0,0,1,0,0,1,0,5,0,0,0,0,0,0,0,,,,0,0
L3726,Interface,ConflictManager,fr.jayasoft.ivy.ConflictManager,L563,L103,,2,,,,,,,0,0,,,,,,,,,,1,,13,4,,,,,,,0,1,1,0,0,0
L3729,Interface,IvyAware,fr.jayasoft.ivy.IvyAware,L563,L103,,1,,,,,,,0,0,,,,,,,,,,0,,0,1,,,,,,,0,0,5,0,0,0
L3744,Class,FixedConflictManager,fr.jayasoft.ivy.conflict.FixedConflictManager,L3713,L103,1,3,3,0,1,0,0,0,0,1,1,0,5,1,0,0,0,0,0,0,1,0,5,0,0,0,0,0,0,0,,,,0,0
L3761,Class,LatestConflictManager,fr.jayasoft.ivy.conflict.LatestConflictManager,L3713,L103,1,9,8,2,1,0,0,0,0,1,1,0,5,1,0,0,0,1,0,0,1,0,12,0,0,0,0,0,0,0,,,,0,0
L3777,Interface,LatestStrategy,fr.jayasoft.ivy.LatestStrategy,L563,L103,,3,,,,,,,0,0,,,,,,,,,,0,,22,6,,,,,,,0,4,1,0,0,0
L3827,Class,NoConflictManager,fr.jayasoft.ivy.conflict.NoConflictManager,L3713,L103,0,2,2,0,0,0,0,0,0,1,1,0,5,1,0,0,0,0,0,0,0,0,3,0,0,0,0,0,0,0,,,,0,0
L3832,Class,RegexpConflictManager,fr.jayasoft.ivy.conflict.RegexpConflictManager,L3713,L103,2,8,4,2,1,0,0,0,0,1,1,0,5,1,0,0,0,0,0,0,1,0,11,0,0,0,0,0,0,0,,,,0,0
L3866,Class,StrictConflictException,fr.jayasoft.ivy.conflict.StrictConflictException,L3713,L103,0,4,4,0,0,0,0,0,0,1,1,0,0,0,0,0,0,0,0,0,0,0,4,0,0,0,0,0,0,0,,,,0,0
L3900,Class,StrictConflictManager,fr.jayasoft.ivy.conflict.StrictConflictManager,L3713,L103,0,2,2,0,0,0,0,0,0,1,1,0,5,1,0,0,0,0,0,0,0,0,3,0,0,0,0,0,0,0,,,,0,0
L3934,Class,DefaultArtifact,fr.jayasoft.ivy.DefaultArtifact,L563,L103,2,16,16,0,8,0,0,0,0,1,1,0,10,0,0,0,1,1,0,0,2,0,42,0,0,0,0,0,0,0,,,,0,0
L3995,Class,DefaultDependencyArtifactDescriptor,fr.jayasoft.ivy.DefaultDependencyArtifactDescriptor,L563,L103,3,15,15,0,9,0,1,0,0,0,0,0,0,0,0,0,2,3,0,1,2,0,25,0,0,0,0,0,0,0,,,,0,0
L3996,Interface,DependencyArtifactDescriptor,fr.jayasoft.ivy.DependencyArtifactDescriptor,L563,L103,,8,,,,,,,0,0,,,,,,,,,,0,,21,8,,,,,,,0,0,1,0,0,0
L4000,Class,DefaultDependencyDescriptor,fr.jayasoft.ivy.DefaultDependencyDescriptor,L563,L103,9,44,37,0,25,0,1,0,0,0,0,0,0,0,0,0,4,5,0,3,3,11,71,0,0,0,0,0,0,0,,,,0,0
L4007,Interface,PatternMatcher,fr.jayasoft.ivy.matcher.PatternMatcher,L7443,L103,,2,,,,,,,0,0,,,,,,,,,,2,,28,3,,,,,,,0,3,4,0,0,0
L4072,Class,Namespace,fr.jayasoft.ivy.namespace.Namespace,L7788,L103,3,7,7,2,4,0,0,0,0,0,0,0,0,0,0,0,1,3,1,0,2,17,5,0,0,0,0,0,0,0,,,,0,0
L4075,Interface,NamespaceTransformer,fr.jayasoft.ivy.namespace.NamespaceTransformer,L7788,L103,,2,,,,,,,0,0,,,,,,,,,,0,,8,2,,,,,,,0,1,1,0,0,0
L4284,Class,MDArtifact,fr.jayasoft.ivy.MDArtifact,L563,L103,6,12,12,0,8,0,0,0,0,1,1,0,10,0,0,0,2,2,0,1,4,0,21,0,0,0,0,0,0,0,,,,0,0
L4374,Interface,Resource,fr.jayasoft.ivy.repository.Resource,L8471,L103,,7,,,,,,,0,0,,,,,,,,,,1,,54,4,,,,,,,0,3,7,0,0,0
L4427,Interface,VersionMatcher,fr.jayasoft.ivy.version.VersionMatcher,L13542,L103,,5,,,,,,,0,0,,,,,,,,,,0,,15,8,,,,,,,0,1,1,0,0,0
L4468,Class,License,fr.jayasoft.ivy.License,L563,L103,2,3,3,0,2,0,0,0,0,0,0,0,0,0,0,0,0,0,0,0,1,3,4,0,0,0,0,0,0,0,,,,0,0
L4508,Class,DefaultModuleRevision,fr.jayasoft.ivy.DefaultModuleRevision,L563,L103,3,12,12,0,9,0,1,0,0,0,0,0,0,0,0,0,2,2,0,0,1,0,12,0,0,0,0,0,0,0,,,,0,0
L4511,Interface,DependencyResolver,fr.jayasoft.ivy.DependencyResolver,L563,L103,,13,,,,,,,0,0,,,,,,,,,,0,,43,21,,,,,,,0,9,1,0,0,0
L4593,Class,ResolveData,fr.jayasoft.ivy.ResolveData,L563,L103,5,15,15,1,8,0,0,0,0,0,0,0,0,0,0,0,2,3,0,0,3,21,25,0,0,0,0,0,0,0,,,,0,0
L4597,Class,DownloadReport,fr.jayasoft.ivy.report.DownloadReport,L8192,L103,1,4,4,0,3,0,0,0,0,0,0,0,0,0,0,0,0,0,0,0,1,10,6,0,0,0,0,0,0,0,,,,0,0
L4624,Class,OrganisationEntry,fr.jayasoft.ivy.resolver.OrganisationEntry,L10339,L103,1,3,3,0,2,0,0,0,0,0,0,0,0,0,0,0,1,2,0,0,1,17,4,0,0,0,0,0,0,0,,,,0,0
L4629,Class,ModuleEntry,fr.jayasoft.ivy.resolver.ModuleEntry,L10339,L103,1,5,5,0,4,0,0,0,0,0,0,0,0,0,0,0,2,2,0,0,1,16,6,0,0,0,0,0,0,0,,,,0,0
L4635,Class,RevisionEntry,fr.jayasoft.ivy.resolver.RevisionEntry,L10339,L103,1,7,7,0,6,0,0,0,0,0,0,0,0,0,0,0,1,1,0,0,1,7,8,0,0,0,0,0,0,0,,,,0,0
L4660,Class,IvyEventFilter,fr.jayasoft.ivy.event.IvyEventFilter,L4641,L103,3,3,2,0,0,0,1,0,0,0,0,0,0,0,0,0,0,0,2,0,1,0,6,0,0,0,0,0,0,0,,,,0,0
L4690,Class,DownloadEvent,fr.jayasoft.ivy.event.download.DownloadEvent,L4683,L103,0,3,2,0,1,0,0,3,3,1,1,1,13,2,0,0,0,1,0,0,0,0,5,0,0,0,0,0,0,0,,,,0,0
L4709,Class,EndArtifactDownloadEvent,fr.jayasoft.ivy.event.download.EndArtifactDownloadEvent,L4683,L103,1,3,3,0,2,0,0,0,0,2,2,0,16,2,0,0,0,1,1,0,1,0,7,0,0,0,0,0,0,0,,,,0,0
L4738,Class,NeedArtifactEvent,fr.jayasoft.ivy.event.download.NeedArtifactEvent,L4683,L103,1,2,2,0,1,0,0,0,0,2,2,0,16,2,0,0,0,1,0,0,1,0,4,0,0,0,0,0,0,0,,,,0,0
L4748,Class,PrepareDownloadEvent,fr.jayasoft.ivy.event.download.PrepareDownloadEvent,L4683,L103,1,2,2,0,1,0,0,0,0,1,1,0,13,2,0,0,0,1,0,0,1,0,3,0,0,0,0,0,0,0,,,,0,0
L4757,Class,StartArtifactDownloadEvent,fr.jayasoft.ivy.event.download.StartArtifactDownloadEvent,L4683,L103,1,3,3,0,2,0,0,0,0,2,2,0,16,2,0,0,0,2,0,0,1,0,6,0,0,0,0,0,0,0,,,,0,0
L4771,Class,FilteredIvyListener,fr.jayasoft.ivy.event.FilteredIvyListener,L4641,L103,0,4,4,0,2,0,1,0,0,0,0,0,0,0,0,0,1,1,1,0,0,0,5,0,0,0,0,0,0,0,,,,0,0
L4772,Interface,IvyListener,fr.jayasoft.ivy.event.IvyListener,L4641,L103,,1,,,,,,,1,1,,,,,,,,,,0,,7,1,,,,,,,0,1,1,3,0,0
L4836,Interface,Matcher,fr.jayasoft.ivy.matcher.Matcher,L7443,L103,,2,,,,,,,0,0,,,,,,,,,,2,,9,1,,,,,,,0,3,7,0,0,0
L4855,Class,NotFilter,fr.jayasoft.ivy.filter.NotFilter,L5236,L103,0,3,3,0,1,0,1,0,0,0,0,0,0,0,0,0,1,1,0,0,0,0,3,0,0,0,0,0,0,0,,,,0,0
L4866,Class,OrFilter,fr.jayasoft.ivy.filter.OrFilter,L5236,L103,0,4,4,0,2,0,1,0,0,0,0,0,0,0,0,0,1,1,0,0,0,0,5,0,0,0,0,0,0,0,,,,0,0
L4871,Class,AndFilter,fr.jayasoft.ivy.filter.AndFilter,L5236,L103,0,4,4,0,2,0,1,0,0,0,0,0,0,0,0,0,1,1,0,0,0,0,5,0,0,0,0,0,0,0,,,,0,0
L4890,Class,EndResolveDependencyEvent,fr.jayasoft.ivy.event.resolve.EndResolveDependencyEvent,L4882,L103,1,2,2,0,1,0,0,0,0,2,2,0,16,2,0,0,0,1,0,0,1,0,5,0,0,0,0,0,0,0,,,,0,0
L4891,Class,ResolveDependencyEvent,fr.jayasoft.ivy.event.resolve.ResolveDependencyEvent,L4882,L103,0,3,2,0,2,0,0,2,2,1,1,1,13,2,0,0,0,2,0,0,0,0,6,0,0,0,0,0,0,0,,,,0,0
L4906,Class,EndResolveEvent,fr.jayasoft.ivy.event.resolve.EndResolveEvent,L4882,L103,1,2,2,0,1,0,0,0,0,2,2,0,15,3,0,0,0,0,1,0,1,0,5,0,0,0,0,0,0,0,,,,0,0
L4907,Class,ResolveEvent,fr.jayasoft.ivy.event.resolve.ResolveEvent,L4882,L103,1,2,1,0,1,0,0,2,2,1,1,1,13,2,0,0,0,1,0,0,1,0,5,0,0,0,0,0,0,0,,,,0,0
L4943,Class,StartResolveDependencyEvent,fr.jayasoft.ivy.event.resolve.StartResolveDependencyEvent,L4882,L103,1,1,1,0,0,0,0,0,0,2,2,0,16,2,0,0,0,0,0,0,1,0,3,0,0,0,0,0,0,0,,,,0,0
L4950,Class,StartResolveEvent,fr.jayasoft.ivy.event.resolve.StartResolveEvent,L4882,L103,1,1,1,0,0,0,0,0,0,2,2,0,15,3,0,0,0,0,0,0,1,0,3,0,0,0,0,0,0,0,,,,0,0
L5021,Class,ExtendableItemHelper,fr.jayasoft.ivy.extendable.ExtendableItemHelper,L4984,L103,0,3,3,0,2,0,0,0,0,0,0,0,0,0,0,0,0,0,0,0,0,0,9,0,0,0,0,0,0,0,,,,0,0
L5255,Class,ArtifactTypeFilter,fr.jayasoft.ivy.filter.ArtifactTypeFilter,L5236,L103,1,2,2,0,0,0,1,0,0,0,0,0,0,0,0,0,0,0,0,0,1,0,2,0,0,0,0,0,0,0,,,,0,0
L5263,Class,FilterHelper,fr.jayasoft.ivy.filter.FilterHelper,L5236,L103,0,2,2,0,1,0,0,0,0,0,0,0,0,0,0,0,1,1,0,0,0,0,5,0,0,0,0,0,0,0,,,,0,0
L5275,Class,NoFilter,fr.jayasoft.ivy.filter.NoFilter,L5236,L103,0,2,1,0,0,0,1,0,0,0,0,0,0,0,0,0,1,1,0,0,0,0,1,0,0,0,0,0,0,0,,,,0,0
L5298,Interface,TransferListener,fr.jayasoft.ivy.repository.TransferListener,L8471,L103,,1,,,,,,,0,1,,,,,,,,,,0,,9,1,,,,,,,0,0,1,0,0,0
L5351,Class,StatusManager,fr.jayasoft.ivy.status.StatusManager,L11867,L103,5,13,12,1,7,0,0,0,0,0,0,0,0,0,0,0,0,1,0,0,3,2,10,0,0,0,0,0,0,0,,,,0,0
L5360,Class,LatestLexicographicStrategy,fr.jayasoft.ivy.latest.LatestLexicographicStrategy,L7196,L103,1,1,1,0,0,0,0,0,0,2,2,0,12,2,0,0,0,0,0,0,1,0,0,0,0,0,0,0,0,0,,,,0,0
L5365,Class,LatestRevisionStrategy,fr.jayasoft.ivy.latest.LatestRevisionStrategy,L7196,L103,4,5,5,1,2,0,0,0,0,2,2,0,12,2,0,0,0,0,0,0,2,0,2,0,0,0,0,0,0,0,,,,0,0
L5370,Class,LatestTimeStrategy,fr.jayasoft.ivy.latest.LatestTimeStrategy,L7196,L103,1,1,1,0,0,0,0,0,0,2,2,0,12,2,0,0,0,0,0,0,1,0,0,0,0,0,0,0,0,0,,,,0,0
L5396,Class,LogReportOutputter,fr.jayasoft.ivy.report.LogReportOutputter,L8192,L103,0,4,3,0,1,0,1,0,0,0,0,0,0,0,0,0,0,0,0,0,0,0,6,0,0,0,0,0,0,0,,,,0,0
L5413,Class,TransferEvent,fr.jayasoft.ivy.repository.TransferEvent,L8471,L103,19,20,13,8,9,0,0,0,0,1,1,0,13,2,0,0,3,3,0,0,3,4,17,0,0,0,0,0,0,0,,,,0,0
L5498,Class,ModuleIdMatcher,fr.jayasoft.ivy.matcher.ModuleIdMatcher,L7443,L103,0,3,3,0,0,0,0,0,0,0,0,0,0,0,0,0,2,3,0,0,0,0,4,0,0,0,0,0,0,0,,,,0,0
L5569,Class,ChainResolver,fr.jayasoft.ivy.resolver.ChainResolver,L10339,L103,3,19,13,4,7,0,0,0,0,1,1,0,39,6,0,0,0,0,0,0,1,0,27,0,0,0,0,0,0,0,,,,0,0
L5574,Class,DualResolver,fr.jayasoft.ivy.resolver.DualResolver,L10339,L103,1,14,14,3,4,0,0,0,0,1,1,0,39,6,0,0,0,1,0,0,0,0,16,0,0,0,0,0,0,0,,,,0,0
L5669,Interface,ReportOutputter,fr.jayasoft.ivy.report.ReportOutputter,L8192,L103,,2,,,,,,,0,0,,,,,,,,,,0,,5,3,,,,,,,0,0,2,0,0,0
L5697,Class,ExactVersionMatcher,fr.jayasoft.ivy.version.ExactVersionMatcher,L13542,L103,0,3,3,0,1,0,0,0,0,1,1,0,9,1,0,0,0,0,0,0,0,0,3,0,0,0,0,0,0,0,,,,0,0
L5709,Class,LatestVersionMatcher,fr.jayasoft.ivy.version.LatestVersionMatcher,L13542,L103,0,5,5,0,1,0,0,0,0,1,1,0,9,1,0,0,0,0,0,0,0,0,7,0,0,0,0,0,0,0,,,,0,0
L5714,Class,SubVersionMatcher,fr.jayasoft.ivy.version.SubVersionMatcher,L13542,L103,0,3,3,0,1,0,0,0,0,1,1,0,9,1,0,0,0,0,0,0,0,0,3,0,0,0,0,0,0,0,,,,0,0
L5719,Class,VersionRangeMatcher,fr.jayasoft.ivy.version.VersionRangeMatcher,L13542,L103,26,11,9,2,4,0,1,0,0,1,1,0,9,1,0,0,0,1,0,0,3,0,17,0,0,0,0,0,0,0,,,,0,0
L5898,Class,CacheResolver,fr.jayasoft.ivy.resolver.CacheResolver,L10339,L103,1,13,11,0,2,0,0,0,0,5,5,0,131,20,0,0,0,0,0,0,1,0,19,0,0,0,0,0,0,0,,,,0,0
L614,Class,AbstractArtifact,fr.jayasoft.ivy.AbstractArtifact,L563,L103,0,10,10,0,7,0,1,2,2,0,0,1,0,0,0,0,0,0,0,0,0,0,11,0,0,0,0,0,0,0,,,,0,0
L616,Interface,Artifact,fr.jayasoft.ivy.Artifact,L563,L103,,8,,,,,,,0,1,,,,,,,,,,0,,110,8,,,,,,,0,3,2,0,0,0
L6184,Class,AbstractResolver,fr.jayasoft.ivy.resolver.AbstractResolver,L10339,L103,6,39,29,8,11,0,3,3,15,0,0,5,0,0,0,0,0,2,1,0,2,0,52,0,0,0,0,0,0,0,,,,0,0
L6616,Class,PropertiesFile,fr.jayasoft.ivy.util.PropertiesFile,L12405,L103,2,2,2,0,0,0,0,0,0,1,1,0,0,0,0,0,0,0,0,0,2,2,2,0,0,0,0,0,0,0,,,,0,0
L6691,Class,IvyContext,fr.jayasoft.ivy.IvyContext,L563,L103,5,13,10,5,8,0,0,0,0,0,0,0,0,0,0,0,1,3,0,0,5,0,13,0,0,0,0,0,0,0,,,,0,0
L7205,Class,AbstractLatestStrategy,fr.jayasoft.ivy.latest.AbstractLatestStrategy,L7196,L103,1,6,6,2,2,0,2,1,4,0,0,2,0,0,0,0,0,1,0,0,1,0,8,0,0,0,0,0,0,0,,,,0,0
L7224,Class,ComparatorLatestStrategy,fr.jayasoft.ivy.latest.ComparatorLatestStrategy,L7196,L103,1,6,6,1,1,0,0,3,3,1,1,1,6,1,0,0,0,0,0,0,1,0,8,0,0,0,0,0,0,0,,,,0,0
L726,Class,AddPathTask,fr.jayasoft.ivy.ant.AddPathTask,L676,L103,3,12,12,3,2,0,0,0,0,1,1,0,0,0,0,0,0,0,0,0,2,0,9,0,0,0,0,0,0,0,,,,0,0
L7369,Class,Main,fr.jayasoft.ivy.Main,L563,L103,0,7,1,0,1,0,0,0,0,0,0,0,0,0,0,0,0,0,0,0,0,0,20,0,0,0,0,0,0,0,,,,0,0
L7378,Class,DefaultMessageImpl,fr.jayasoft.ivy.util.DefaultMessageImpl,L12405,L103,1,6,6,0,1,0,1,0,0,0,0,0,0,0,0,0,0,0,0,0,0,0,3,0,0,0,0,0,0,0,,,,0,0
L7455,Class,AnyMatcher,fr.jayasoft.ivy.matcher.AnyMatcher,L7443,L103,0,4,3,0,2,0,1,0,0,0,0,0,0,0,0,0,1,1,0,0,0,0,2,0,0,0,0,0,0,0,,,,0,0
L7465,Class,ExactOrRegexpPatternMatcher,fr.jayasoft.ivy.matcher.ExactOrRegexpPatternMatcher,L7443,L103,0,4,3,0,3,0,1,0,0,0,0,0,0,0,0,0,0,0,0,0,0,0,4,0,0,0,0,0,0,0,,,,0,0
L7488,Class,ExactPatternMatcher,fr.jayasoft.ivy.matcher.ExactPatternMatcher,L7443,L103,0,4,3,0,3,0,1,0,0,0,0,0,0,0,0,0,0,0,0,0,0,0,4,0,0,0,0,0,0,0,,,,0,0
L7508,Class,GlobPatternMatcher,fr.jayasoft.ivy.matcher.GlobPatternMatcher,L7443,L103,0,4,3,0,3,0,1,0,0,0,0,0,0,0,0,0,0,0,0,0,0,0,4,0,0,0,0,0,0,0,,,,0,0
L7532,Class,MatcherHelper,fr.jayasoft.ivy.matcher.MatcherHelper,L7443,L103,0,7,7,0,3,0,0,0,0,0,0,0,0,0,0,0,0,0,0,0,0,0,18,0,0,0,0,0,0,0,,,,0,0
L754,Class,AntBuildTrigger,fr.jayasoft.ivy.ant.AntBuildTrigger,L676,L103,5,12,9,4,6,0,1,0,0,1,1,0,9,3,0,0,0,0,0,0,2,0,11,0,0,0,0,0,0,0,,,,0,0
L756,Class,AbstractTrigger,fr.jayasoft.ivy.event.AbstractTrigger,L4641,L103,3,9,7,3,5,0,1,2,2,0,0,1,0,0,0,0,0,0,1,0,1,0,9,0,0,0,0,0,0,0,,,,0,0
L7570,Class,NoMatcher,fr.jayasoft.ivy.matcher.NoMatcher,L7443,L103,0,4,3,0,2,0,1,0,0,0,0,0,0,0,0,0,1,1,0,0,0,0,2,0,0,0,0,0,0,0,,,,0,0
L7582,Class,RegexpPatternMatcher,fr.jayasoft.ivy.matcher.RegexpPatternMatcher,L7443,L103,0,5,4,0,3,0,1,0,0,0,0,0,0,0,0,0,0,0,0,0,0,0,6,0,0,0,0,0,0,0,,,,0,0
L759,Interface,Trigger,fr.jayasoft.ivy.event.Trigger,L4641,L103,,1,,,,,,,0,2,,,,,,,,,,0,,2,1,,,,,,,0,0,3,0,0,0
L7672,Class,ModuleDescriptorSorter,fr.jayasoft.ivy.ModuleDescriptorSorter,L563,L103,3,6,4,0,1,0,0,0,0,0,0,0,0,0,0,0,0,0,0,0,3,0,15,0,0,0,0,0,0,0,,,,0,0
L772,Class,IvyEvent,fr.jayasoft.ivy.event.IvyEvent,L4641,L103,2,13,6,0,4,0,0,5,12,0,0,2,0,0,0,0,0,1,0,0,2,8,14,0,0,0,0,0,0,0,,,,0,0
L7798,Class,MRIDRule,fr.jayasoft.ivy.namespace.MRIDRule,L7788,L103,4,11,11,4,4,0,0,0,0,0,0,0,0,0,0,0,1,1,0,0,1,4,12,0,0,0,0,0,0,0,,,,0,0
L7825,Class,MRIDTransformationRule,fr.jayasoft.ivy.namespace.MRIDTransformationRule,L7788,L103,1,4,4,0,1,0,1,0,0,0,0,0,0,0,0,0,2,2,0,0,1,4,4,0,0,0,0,0,0,0,,,,0,0
L7892,Class,NamespaceRule,fr.jayasoft.ivy.namespace.NamespaceRule,L7788,L103,2,8,8,2,4,0,0,0,0,0,0,0,0,0,0,0,1,1,0,0,1,1,8,0,0,0,0,0,0,0,,,,0,0
L7919,Class,NameSpaceHelper,fr.jayasoft.ivy.namespace.NameSpaceHelper,L7788,L103,0,8,8,0,0,0,0,0,0,0,0,0,0,0,0,0,0,0,0,0,0,0,24,0,0,0,0,0,0,0,,,,0,0
L803,Interface,MessageImpl,fr.jayasoft.ivy.util.MessageImpl,L12405,L103,,4,,,,,,,0,0,,,,,,,,,,0,,5,3,,,,,,,0,1,2,0,0,0
L8111,Class,ModuleDescriptorParserRegistry,fr.jayasoft.ivy.parser.ModuleDescriptorParserRegistry,L7975,L103,1,8,7,0,3,0,0,0,0,1,1,0,1,0,0,0,0,0,0,0,1,0,13,0,0,0,0,0,0,0,,,,0,0
L8208,Class,DownloadStatus,fr.jayasoft.ivy.report.DownloadStatus,L8192,L103,1,2,1,0,0,0,0,0,0,0,0,0,0,0,0,0,1,1,0,0,1,3,2,0,0,0,0,0,0,0,,,,0,0
L836,Class,AntCallTrigger,fr.jayasoft.ivy.ant.AntCallTrigger,L676,L103,4,9,7,3,4,0,1,0,0,1,1,0,9,3,0,0,0,0,0,0,2,0,7,0,0,0,0,0,0,0,,,,0,0
L8483,Interface,Repository,fr.jayasoft.ivy.repository.Repository,L8471,L103,,10,,,,,,,0,0,,,,,,,,,,0,,10,16,,,,,,,0,2,1,0,0,0
L8554,Class,BasicResource,fr.jayasoft.ivy.repository.BasicResource,L8471,L103,5,9,9,0,4,0,1,0,0,0,0,0,0,0,0,0,0,0,0,0,1,0,6,0,0,0,0,0,0,0,,,,0,0
L8585,Class,FileRepository,fr.jayasoft.ivy.repository.file.FileRepository,L8581,L103,2,10,8,1,4,0,0,0,0,1,1,0,19,2,0,0,1,2,0,0,1,3,13,0,0,0,0,0,0,0,,,,0,0
L8589,Class,RepositoryCopyProgressListener,fr.jayasoft.ivy.repository.RepositoryCopyProgressListener,L8471,L103,1,6,6,1,1,0,1,0,0,0,0,0,0,0,0,0,1,3,0,0,1,0,6,0,0,0,0,0,0,0,,,,0,0
L8601,Class,FileResource,fr.jayasoft.ivy.repository.file.FileResource,L8581,L103,1,11,11,0,6,0,1,0,0,0,0,0,0,0,0,0,1,1,0,0,1,0,9,0,0,0,0,0,0,0,,,,0,0
L8663,Class,LazyResource,fr.jayasoft.ivy.repository.LazyResource,L8471,L103,6,14,7,4,4,0,1,1,1,0,0,1,0,0,0,0,0,0,0,0,1,0,4,0,0,0,0,0,0,0,,,,0,0
L867,Class,AntMessageImpl,fr.jayasoft.ivy.ant.AntMessageImpl,L676,L103,3,5,5,0,0,0,1,0,0,0,0,0,0,0,0,0,0,0,0,0,2,0,4,0,0,0,0,0,0,0,,,,0,0
L8742,Interface,CopyProgressListener,fr.jayasoft.ivy.util.CopyProgressListener,L12405,L103,,3,,,,,,,0,0,,,,,,,,,,0,,9,3,,,,,,,0,1,1,0,0,0
L8752,Class,CopyProgressEvent,fr.jayasoft.ivy.util.CopyProgressEvent,L12405,L103,3,7,6,0,3,0,0,0,0,0,0,0,0,0,0,0,0,0,0,0,0,6,0,0,0,0,0,0,0,0,,,,0,0
L8780,Class,ResourceHelper,fr.jayasoft.ivy.repository.ResourceHelper,L8471,L103,0,1,1,0,0,0,0,0,0,0,0,0,0,0,0,0,0,0,0,0,0,0,2,0,0,0,0,0,0,0,,,,0,0
L8789,Class,SFTPRepository,fr.jayasoft.ivy.repository.sftp.SFTPRepository,L8785,L103,0,11,7,0,4,0,0,0,0,2,2,0,38,9,0,0,1,1,0,0,0,2,19,0,0,0,0,0,0,0,,,,0,0
L8791,Class,AbstractSshBasedRepository,fr.jayasoft.ivy.repository.ssh.AbstractSshBasedRepository,L8894,L103,7,19,15,7,9,0,0,2,2,1,1,1,19,2,0,0,0,0,0,0,2,1,19,0,0,0,0,0,0,0,,,,0,0
L8812,Class,SFTPResource,fr.jayasoft.ivy.repository.sftp.SFTPResource,L8785,L103,5,10,9,0,4,0,1,0,0,0,0,0,0,0,0,0,1,1,0,0,1,1,7,0,0,0,0,0,0,0,,,,0,0
L8996,Class,RemoteScpException,fr.jayasoft.ivy.repository.ssh.RemoteScpException,L8894,L103,1,4,4,0,0,0,0,0,0,1,1,0,0,0,0,0,0,0,0,0,0,0,4,0,0,0,0,0,0,0,,,,0,0
L9018,Class,Scp,fr.jayasoft.ivy.repository.ssh.Scp,L8894,L103,1,16,8,0,4,0,0,0,0,0,0,0,0,0,0,0,0,0,0,0,1,0,38,0,0,0,0,0,0,0,,,,0,0
L9165,Class,SshCache,fr.jayasoft.ivy.repository.ssh.SshCache,L8894,L103,2,10,5,1,5,0,0,0,0,0,0,0,0,0,0,0,0,0,0,0,1,0,23,0,0,0,0,0,0,0,,,,0,0
L917,Class,IvyArtifactProperty,fr.jayasoft.ivy.ant.IvyArtifactProperty,L676,L103,7,15,15,7,7,0,0,0,0,2,2,0,24,3,0,0,0,0,0,0,2,0,12,0,0,0,0,0,0,0,,,,0,0
L9299,Class,Credentials,fr.jayasoft.ivy.util.Credentials,L12405,L103,4,10,10,0,6,0,0,0,0,0,0,0,0,0,0,0,0,0,0,0,1,7,14,0,0,0,0,0,0,0,,,,0,0
L9311,Class,SshRepository,fr.jayasoft.ivy.repository.ssh.SshRepository,L8894,L103,6,19,13,4,7,0,0,0,0,2,2,0,38,9,0,0,1,1,0,0,1,2,31,0,0,0,0,0,0,0,,,,0,0
L9323,Class,SshResource,fr.jayasoft.ivy.repository.ssh.SshResource,L8894,L103,5,12,11,0,4,0,1,0,0,0,0,0,0,0,0,0,1,1,0,0,1,2,9,0,0,0,0,0,0,0,,,,0,0
L9565,Class,URLRepository,fr.jayasoft.ivy.repository.url.URLRepository,L9561,L103,1,4,4,0,2,0,0,0,0,1,1,0,19,2,0,0,0,1,2,0,1,0,8,0,0,0,0,0,0,0,,,,0,0
L9582,Class,ApacheURLLister,fr.jayasoft.ivy.url.ApacheURLLister,L12008,L103,1,4,4,0,0,0,0,0,0,0,0,0,0,0,0,0,0,0,2,0,1,0,8,0,0,0,0,0,0,0,,,,0,0
L9643,Class,IvyWebdavClientFactory,fr.jayasoft.ivy.repository.vfs.IvyWebdavClientFactory,L9629,L103,0,2,1,0,0,0,0,0,0,0,0,0,0,0,0,0,0,0,0,0,0,0,5,0,0,0,0,0,0,0,,,,0,0
L9654,Class,HttpClientHandler,fr.jayasoft.ivy.url.HttpClientHandler,L12008,L103,7,17,6,0,8,0,0,0,0,1,1,0,6,0,0,0,0,0,0,0,3,0,21,0,0,0,0,0,0,0,,,,0,0
L9661,Class,IvyWebdavConnectionManager,fr.jayasoft.ivy.repository.vfs.IvyWebdavConnectionManager,L9629,L103,2,16,11,4,7,0,1,0,0,0,0,0,0,0,0,0,0,0,0,0,2,0,12,0,0,0,0,0,0,0,,,,0,0
L9737,Class,IvyWebdavFileProvider,fr.jayasoft.ivy.repository.vfs.IvyWebdavFileProvider,L9629,L103,0,1,0,0,0,0,0,0,0,1,1,0,0,0,0,0,0,0,0,0,0,0,3,0,0,0,0,0,0,0,,,,0,0
L9745,Class,IvyWebdavFileSystem,fr.jayasoft.ivy.repository.vfs.IvyWebdavFileSystem,L9629,L103,0,1,0,0,0,0,0,0,0,1,1,0,0,0,0,0,0,0,0,0,0,0,3,0,0,0,0,0,0,0,,,,0,0
L9754,Class,VfsRepository,fr.jayasoft.ivy.repository.vfs.VfsRepository,L9629,L103,2,8,5,0,3,0,0,0,0,1,1,0,19,2,0,0,0,0,1,0,2,0,10,0,0,0,0,0,0,0,,,,0,0
L977,Class,XmlReportParser,fr.jayasoft.ivy.xml.XmlReportParser,L13830,L103,0,7,3,0,7,0,0,0,0,0,0,0,0,0,0,0,0,0,0,0,0,0,22,0,0,0,0,0,0,0,,,,0,0
L9772,Class,VfsResource,fr.jayasoft.ivy.repository.vfs.VfsResource,L9629,L103,8,14,13,0,6,0,1,0,0,0,0,0,0,0,0,0,0,0,0,0,4,0,11,0,0,0,0,0,0,0,,,,0,0
L987,Class,ModuleId,fr.jayasoft.ivy.ModuleId,L563,L103,4,9,9,0,3,0,0,0,0,0,0,0,0,0,0,0,2,3,0,2,1,55,8,0,0,0,0,0,0,0,,,,0,0
L998,Class,IvyArtifactReport,fr.jayasoft.ivy.ant.IvyArtifactReport,L676,L103,5,20,12,5,5,0,0,0,0,2,2,0,24,3,0,0,0,0,0,0,2,0,31,0,0,0,0,0,0,0,,,,0,0
L10608,Class,RepositoryResolver,fr.jayasoft.ivy.resolver.RepositoryResolver,L10339,L103,1,18,12,4,4,0,0,5,10,3,3,2,108,19,0,0,0,0,1,0,1,0,50,0,0,0,0,0,0,0,,,,1,1
L11383,Class,ResolverHelper,fr.jayasoft.ivy.resolver.ResolverHelper,L10339,L103,0,6,5,0,0,0,0,0,0,0,0,0,0,0,0,0,0,0,0,0,0,0,21,0,0,0,0,0,0,0,,,,1,1
L12466,Class,Configurator,fr.jayasoft.ivy.util.Configurator,L12405,L103,4,20,18,3,4,0,0,0,0,0,0,0,0,0,0,0,0,0,1,0,3,1,29,0,0,0,0,0,0,0,,,,1,1
L13904,Class,XmlModuleDescriptorParser,fr.jayasoft.ivy.xml.XmlModuleDescriptorParser,L13830,L103,0,7,6,0,1,0,0,0,0,1,1,0,1,0,0,0,0,0,0,0,0,0,11,0,0,0,0,0,0,0,,,,1,1
L14033,Class,XmlModuleDescriptorUpdater,fr.jayasoft.ivy.xml.XmlModuleDescriptorUpdater,L13830,L103,1,5,4,0,0,0,0,0,0,0,0,0,0,0,0,0,0,0,0,0,1,0,32,0,0,0,0,0,0,0,,,,1,1
L14161,Class,XmlModuleDescriptorWriter,fr.jayasoft.ivy.xml.XmlModuleDescriptorWriter,L13830,L103,0,2,1,0,1,0,0,0,0,0,0,0,0,0,0,0,0,0,0,0,0,0,5,0,0,0,0,0,0,0,,,,1,1
L1498,Class,IvyPostResolveTask,fr.jayasoft.ivy.ant.IvyPostResolveTask,L676,L103,10,24,21,10,13,0,0,2,4,2,2,2,24,3,0,0,0,0,1,0,2,0,15,0,0,0,0,0,0,0,,,,1,1
L2118,Class,IvyResolve,fr.jayasoft.ivy.ant.IvyResolve,L676,L103,16,35,35,18,16,0,0,0,0,2,2,0,24,3,0,0,0,0,0,0,3,1,19,0,0,0,0,0,0,0,,,,1,1
L4370,Interface,ModuleDescriptorParser,fr.jayasoft.ivy.parser.ModuleDescriptorParser,L7975,L103,,4,,,,,,,0,0,,,,,,,,,,1,,11,12,,,,,,,0,1,1,0,1,1
L5078,Class,PomModuleDescriptorParser,fr.jayasoft.ivy.external.m2.PomModuleDescriptorParser,L5071,L103,1,6,5,0,1,0,0,0,0,1,1,0,1,0,0,0,0,1,0,0,1,0,10,0,0,0,0,0,0,0,,,,1,1
L5079,Class,AbstractModuleDescriptorParser,fr.jayasoft.ivy.parser.AbstractModuleDescriptorParser,L7975,L103,0,1,1,0,0,0,1,3,3,0,0,1,0,0,0,0,0,0,0,0,0,0,3,0,0,0,0,0,0,0,,,,1,1
L5467,Class,XmlIvyConfigurationParser,fr.jayasoft.ivy.xml.XmlIvyConfigurationParser,L13830,L103,6,7,5,0,0,0,0,0,0,1,1,0,0,0,0,0,0,1,1,0,2,0,12,0,0,0,0,0,0,0,,,,1,1
L5692,Class,ChainVersionMatcher,fr.jayasoft.ivy.version.ChainVersionMatcher,L13542,L103,1,8,8,1,2,0,0,0,0,1,1,0,9,1,0,0,0,0,0,0,1,0,10,0,0,0,0,0,0,0,,,,1,1
L8482,Class,AbstractRepository,fr.jayasoft.ivy.repository.AbstractRepository,L8471,L103,2,19,9,1,3,0,1,5,7,0,0,2,0,0,0,0,2,2,0,0,2,1,17,0,0,0,0,0,0,0,,,,1,1
L919,Class,IvyTask,fr.jayasoft.ivy.ant.IvyTask,L676,L103,3,24,3,4,12,0,0,19,23,1,1,3,0,0,0,0,0,0,0,0,3,0,50,0,0,0,0,0,0,0,,,,1,1
L961,Class,Ivy,fr.jayasoft.ivy.Ivy,L563,L103,39,206,180,20,61,0,1,0,0,0,0,0,0,0,0,0,5,16,0,2,9,74,460,0,0,0,0,0,0,0,,,,3,1
