ID,Type,Name,LongName,Parent,Component,NumAttr,NumOps,NumPubOps,Setters,Getters,Nesting,IFImpl,NOC,NumDesc,NumAnc,DIT,CLD,OpsInh,AttrInh,Dep_Out,Dep_In,NumAssEl_ssc,NumAssEl_sb,NumAssEl_nsb,EC_Attr,IC_Attr,EC_Par,IC_Par,Connectors,InstSpec,LLInst,MsgSent,MsgRecv,MsgSelf,Diags,Assoc,NumDirClients,NumIndClients,BugNo,label
L1015,Class,BSHFormalParameter,bsh.BSHFormalParameter,L104,L103,3,2,1,0,0,0,0,0,0,1,1,0,19,2,0,0,0,0,0,0,2,0,2,0,0,0,0,0,0,0,,,,0,0
L10245,Class,ParserRule,org.gjt.sp.jedit.syntax.ParserRule,L18471,L103,4,1,0,0,0,0,0,0,0,0,0,0,0,0,0,0,1,1,0,1,0,15,0,0,0,0,0,0,0,0,,,,0,0
L1027,Class,BSHFormalParameters,bsh.BSHFormalParameters,L104,L103,3,2,1,0,0,0,0,0,0,1,1,0,19,2,0,0,1,1,0,0,2,0,2,0,0,0,0,0,0,0,,,,0,0
L1050,Class,BSHForStatement,bsh.BSHForStatement,L104,L103,4,2,1,0,0,0,1,0,0,1,1,0,19,2,0,0,1,1,0,0,0,0,3,0,0,0,0,0,0,0,,,,0,0
L10813,Class,EditBus,org.gjt.sp.jedit.EditBus,L8198,L103,3,9,8,0,3,0,0,0,0,0,0,0,0,0,0,0,1,1,0,0,2,0,11,0,0,0,0,0,0,0,,,,0,0
L1082,Class,BSHIfStatement,bsh.BSHIfStatement,L104,L103,0,3,2,0,0,0,0,0,0,1,1,0,19,2,0,0,0,0,0,0,0,0,6,0,0,0,0,0,0,0,,,,0,0
L10881,Class,EditPaneUpdate,org.gjt.sp.jedit.msg.EditPaneUpdate,L15723,L103,4,4,4,0,2,0,0,0,0,2,2,0,8,1,0,0,0,0,0,0,1,1,5,0,0,0,0,0,0,0,,,,0,0
L1091,Class,BSHImportDeclaration,bsh.BSHImportDeclaration,L104,L103,2,2,1,0,0,0,0,0,0,1,1,0,19,2,0,0,0,0,0,0,0,0,3,0,0,0,0,0,0,0,,,,0,0
L10952,Class,MarkerHighlight,org.gjt.sp.jedit.textarea.MarkerHighlight,L18919,L103,2,7,7,2,3,0,1,0,0,0,0,0,0,0,0,0,2,3,0,0,1,0,7,0,0,0,0,0,0,0,,,,0,0
L10965,Class,BufferSwitcher,org.gjt.sp.jedit.gui.BufferSwitcher,L11205,L103,1,2,2,0,0,0,0,0,0,1,1,0,0,0,0,0,0,1,0,0,0,0,1,0,0,0,0,0,0,0,,,,0,0
L1116,Class,BSHLHSPrimarySuffix,bsh.BSHLHSPrimarySuffix,L104,L103,7,5,1,0,0,0,0,0,0,1,1,0,19,2,0,0,0,0,0,0,2,0,16,0,0,0,0,0,0,0,,,,0,0
L11249,Class,AbbrevEditor,org.gjt.sp.jedit.gui.AbbrevEditor,L11205,L103,2,5,5,1,3,0,0,0,0,1,1,0,0,0,0,0,2,2,0,0,1,0,4,0,0,0,0,0,0,0,,,,0,0
L11625,Class,EnhancedMenu,org.gjt.sp.jedit.gui.EnhancedMenu,L11205,L103,0,1,1,0,0,0,0,6,6,1,1,1,0,0,0,0,0,0,0,0,0,0,1,0,0,0,0,0,0,0,,,,0,0
L1163,Class,BSHLiteral,bsh.BSHLiteral,L104,L103,1,5,2,0,1,0,0,0,0,1,1,0,19,2,0,0,0,0,0,0,1,0,5,0,0,0,0,0,0,0,,,,0,0
L11749,Interface,DockableWindowContainer,org.gjt.sp.jedit.gui.DockableWindowContainer,L11205,L103,,5,,,,,,,0,0,,,,,,,,,,1,,1,5,,,,,,,0,0,2,0,0,0
L1203,Class,BshMethod,bsh.BshMethod,L104,L103,1,4,4,0,1,0,1,0,0,0,0,0,0,0,0,0,2,2,0,0,1,3,9,0,0,0,0,0,0,0,,,,0,0
L1209,Class,BSHMethodDeclaration,bsh.BSHMethodDeclaration,L104,L103,2,3,2,0,0,0,0,0,0,1,1,0,19,2,0,0,3,3,0,0,2,1,3,0,0,0,0,0,0,0,,,,0,0
L12107,Class,LogViewer,org.gjt.sp.jedit.gui.LogViewer,L11205,L103,0,3,3,0,2,0,1,0,0,1,1,0,0,0,0,0,0,0,0,0,0,0,2,0,0,0,0,0,0,0,,,,0,0
L12112,Class,EditAbbrevDialog,org.gjt.sp.jedit.gui.EditAbbrevDialog,L11205,L103,4,2,2,0,1,0,0,0,0,1,1,0,0,0,0,0,1,1,0,0,2,0,4,0,0,0,0,0,0,0,,,,0,0
L12146,Class,EnhancedButton,org.gjt.sp.jedit.gui.EnhancedButton,L11205,L103,0,3,3,0,2,0,0,0,0,1,1,0,0,0,0,0,0,0,0,0,0,1,4,0,0,0,0,0,0,0,,,,0,0
L12323,Class,FontSelectorDialog,org.gjt.sp.jedit.gui.FontSelectorDialog,L11205,L103,11,7,4,0,2,0,0,0,0,2,2,0,3,1,0,0,0,0,0,0,5,0,8,0,0,0,0,0,0,0,,,,0,0
L1260,Class,BSHReturnType,bsh.BSHReturnType,L104,L103,1,2,1,0,1,0,0,0,0,1,1,0,19,2,0,0,0,0,0,0,0,0,2,0,0,0,0,0,0,0,,,,0,0
L1272,Class,BSHMethodInvocation,bsh.BSHMethodInvocation,L104,L103,0,2,1,0,0,0,0,0,0,1,1,0,19,2,0,0,0,0,0,0,0,0,3,0,0,0,0,0,0,0,,,,0,0
L1281,Class,BSHPrimaryExpression,bsh.BSHPrimaryExpression,L104,L103,0,2,1,0,0,0,0,0,0,1,1,0,19,2,0,0,0,0,0,0,0,0,3,0,0,0,0,0,0,0,,,,0,0
L1290,Class,BSHPrimarySuffix,bsh.BSHPrimarySuffix,L104,L103,7,5,1,0,0,0,0,0,0,1,1,0,19,2,0,0,0,0,0,0,2,0,16,0,0,0,0,0,0,0,,,,0,0
L13001,Interface,WorkThreadProgressListener,org.gjt.sp.util.WorkThreadProgressListener,L20699,L103,,1,,,,,,,0,1,,,,,,,,,,0,,2,1,,,,,,,0,0,2,0,0,0
L13041,Class,JCheckBoxList,org.gjt.sp.jedit.gui.JCheckBoxList,L11205,L103,0,8,7,2,3,0,0,0,0,1,1,0,0,0,0,0,0,0,1,0,0,0,7,0,0,0,0,0,0,0,,,,0,0
L13062,Class,CheckBoxListModel,org.gjt.sp.jedit.gui.CheckBoxListModel,L11205,L103,1,10,7,1,6,0,0,0,0,1,1,0,0,0,0,0,0,0,0,0,1,0,8,0,0,0,0,0,0,0,,,,0,0
L13198,Class,MacrosMenu,org.gjt.sp.jedit.gui.MacrosMenu,L11205,L103,0,6,4,0,0,0,1,0,0,2,2,0,1,0,0,0,0,0,0,0,0,0,3,0,0,0,0,0,0,0,,,,0,0
L13208,Class,MacrosChanged,org.gjt.sp.jedit.msg.MacrosChanged,L15723,L103,0,1,1,0,0,0,0,0,0,2,2,0,8,1,0,0,0,0,0,0,0,0,1,0,0,0,0,0,0,0,,,,0,0
L13327,Class,OptionGroup,org.gjt.sp.jedit.OptionGroup,L8198,L103,2,9,9,0,5,0,0,0,0,0,0,0,0,0,0,0,0,1,0,1,2,4,6,0,0,0,0,0,0,0,,,,0,0
L13383,Class,GeneralOptionPane,org.gjt.sp.jedit.options.GeneralOptionPane,L15858,L103,13,3,1,0,0,0,0,0,0,2,2,0,10,4,0,0,0,0,0,0,4,0,0,0,0,0,0,0,0,0,,,,0,0
L13403,Class,TextAreaOptionPane,org.gjt.sp.jedit.options.TextAreaOptionPane,L15858,L103,11,3,3,0,0,0,0,0,0,2,2,0,10,4,0,0,0,0,1,0,1,0,0,0,0,0,0,0,0,0,,,,0,0
L13408,Class,GutterOptionPane,org.gjt.sp.jedit.options.GutterOptionPane,L15858,L103,6,3,3,0,0,0,0,0,0,2,2,0,10,4,0,0,0,0,1,0,3,0,0,0,0,0,0,0,0,0,,,,0,0
L13423,Class,ShortcutsOptionPane,org.gjt.sp.jedit.options.ShortcutsOptionPane,L15858,L103,5,8,1,0,0,0,0,0,0,2,2,0,10,4,0,0,0,0,0,0,4,0,10,0,0,0,0,0,0,0,,,,0,0
L1343,Class,BSHReturnStatement,bsh.BSHReturnStatement,L104,L103,1,2,1,0,0,0,1,0,0,1,1,0,19,2,0,0,0,0,0,0,0,0,3,0,0,0,0,0,0,0,,,,0,0
L1358,Class,BSHStatementExpressionList,bsh.BSHStatementExpressionList,L104,L103,0,2,1,0,0,0,0,0,0,1,1,0,19,2,0,0,0,0,0,0,0,0,3,0,0,0,0,0,0,0,,,,0,0
L13591,Class,PluginsMenu,org.gjt.sp.jedit.gui.PluginsMenu,L11205,L103,0,1,1,0,0,0,0,0,0,2,2,0,1,0,0,0,0,0,0,0,0,0,0,0,0,0,0,0,0,0,,,,0,0
L13616,Class,SelectLineRange,org.gjt.sp.jedit.gui.SelectLineRange,L11205,L103,4,5,4,0,0,0,1,0,0,2,2,0,3,1,0,0,0,1,0,0,2,0,3,0,0,0,0,0,0,0,,,,0,0
L1364,Class,BSHSwitchLabel,bsh.BSHSwitchLabel,L104,L103,1,2,2,0,0,0,0,0,0,1,1,0,19,2,0,0,0,0,0,0,0,0,3,0,0,0,0,0,0,0,,,,0,0
L13644,Class,SplashScreen,org.gjt.sp.jedit.gui.SplashScreen,L11205,L103,1,2,2,0,0,0,0,0,0,1,1,0,0,0,0,0,0,1,0,0,1,0,0,0,0,0,0,0,0,0,,,,0,0
L1372,Class,BSHSwitchStatement,bsh.BSHSwitchStatement,L104,L103,0,2,2,0,0,0,1,0,0,1,1,0,19,2,0,0,0,0,0,0,0,0,3,0,0,0,0,0,0,0,,,,0,0
L13827,Class,VariableGridLayout,org.gjt.sp.jedit.gui.VariableGridLayout,L11205,L103,10,17,16,0,5,0,2,0,0,0,0,0,0,0,0,0,0,0,0,0,0,0,18,0,0,0,0,0,0,0,,,,0,0
L1383,Class,BSHTernaryExpression,bsh.BSHTernaryExpression,L104,L103,0,2,1,0,0,0,0,0,0,1,1,0,19,2,0,0,0,0,0,0,0,0,3,0,0,0,0,0,0,0,,,,0,0
L1390,Class,BSHThrowStatement,bsh.BSHThrowStatement,L104,L103,0,2,1,0,0,0,0,0,0,1,1,0,19,2,0,0,0,0,0,0,0,0,3,0,0,0,0,0,0,0,,,,0,0
L13905,Class,ViewRegisters,org.gjt.sp.jedit.gui.ViewRegisters,L11205,L103,3,3,3,0,0,0,0,0,0,2,2,0,3,1,0,0,0,0,0,0,3,0,1,0,0,0,0,0,0,0,,,,0,0
L13921,Class,Registers,org.gjt.sp.jedit.Registers,L8198,L103,1,12,11,2,2,0,0,0,0,0,0,0,0,0,0,0,0,0,0,0,1,0,12,0,0,0,0,0,0,0,,,,0,0
L1396,Class,BSHTryStatement,bsh.BSHTryStatement,L104,L103,0,2,1,0,0,0,0,0,0,1,1,0,19,2,0,0,0,0,0,0,0,0,3,0,0,0,0,0,0,0,,,,0,0
L1407,Interface,Node,bsh.Node,L104,L103,,7,,,,,,,0,1,,,,,,,,,,0,,18,4,,,,,,,0,1,1,0,0,0
L1442,Class,BSHTypedVariableDeclaration,bsh.BSHTypedVariableDeclaration,L104,L103,1,3,1,0,0,0,0,0,0,1,1,0,19,2,0,0,0,0,0,0,0,0,5,0,0,0,0,0,0,0,,,,0,0
L14451,Class,FileRootsVFS,org.gjt.sp.jedit.io.FileRootsVFS,L14285,L103,3,5,5,0,2,0,0,0,0,1,1,0,22,7,0,0,0,0,0,0,3,0,10,0,0,0,0,0,0,0,,,,0,0
L1450,Class,BSHVariableDeclarator,bsh.BSHVariableDeclarator,L104,L103,1,2,1,0,0,0,0,0,0,1,1,0,19,2,0,0,0,0,0,0,1,0,4,0,0,0,0,0,0,0,,,,0,0
L1466,Class,BSHUnaryExpression,bsh.BSHUnaryExpression,L104,L103,2,5,1,0,0,0,1,0,0,1,1,0,19,2,0,0,0,0,0,0,0,0,9,0,0,0,0,0,0,0,,,,0,0
L14967,Class,EditorStarted,org.gjt.sp.jedit.msg.EditorStarted,L15723,L103,0,1,1,0,0,0,0,0,0,2,2,0,8,1,0,0,0,0,0,0,0,0,1,0,0,0,0,0,0,0,,,,0,0
L15246,Class,EditorExitRequested,org.gjt.sp.jedit.msg.EditorExitRequested,L15723,L103,0,2,2,0,1,0,0,0,0,2,2,0,8,1,0,0,0,0,0,0,0,0,2,0,0,0,0,0,0,0,,,,0,0
L15257,Class,EditorExiting,org.gjt.sp.jedit.msg.EditorExiting,L15723,L103,0,1,1,0,0,0,0,0,0,2,2,0,8,1,0,0,0,0,0,0,0,0,1,0,0,0,0,0,0,0,,,,0,0
L1548,Class,BSHWhileStatement,bsh.BSHWhileStatement,L104,L103,1,2,1,0,0,0,1,0,0,1,1,0,19,2,0,0,0,0,0,0,0,0,3,0,0,0,0,0,0,0,,,,0,0
L15817,Class,SearchSettingsChanged,org.gjt.sp.jedit.msg.SearchSettingsChanged,L15723,L103,0,1,1,0,0,0,0,0,0,2,2,0,8,1,0,0,0,0,0,0,0,0,1,0,0,0,0,0,0,0,,,,0,0
L15884,Class,AbbrevsModel,org.gjt.sp.jedit.options.AbbrevsModel,L15858,L103,1,10,8,1,5,0,0,0,0,1,1,0,0,0,0,0,1,1,0,0,1,0,5,0,0,0,0,0,0,0,,,,0,0
L1592,Class,Capabilities,bsh.Capabilities,L104,L103,2,5,5,1,0,0,0,0,0,0,0,0,0,0,0,0,0,0,0,0,1,0,1,0,0,0,0,0,0,0,,,,0,0
L15954,Class,Abbrev,org.gjt.sp.jedit.options.Abbrev,L15858,L103,2,2,0,0,0,0,0,0,0,0,0,0,0,0,0,0,0,0,0,0,1,0,2,0,0,0,0,0,0,0,,,,0,0
L16028,Class,ColorTableModel,org.gjt.sp.jedit.options.ColorTableModel,L15858,L103,1,8,6,1,4,0,0,0,0,1,1,0,0,0,0,0,1,1,0,0,1,1,5,0,0,0,0,0,0,0,,,,0,0
L16179,Class,ContextAddDialog,org.gjt.sp.jedit.options.ContextAddDialog,L15858,L103,8,4,4,0,1,0,0,0,0,2,2,0,3,1,0,0,0,0,0,0,3,0,3,0,0,0,0,0,0,0,,,,0,0
L1619,Class,CommandLineReader,bsh.CommandLineReader,L104,L103,4,4,4,0,0,0,0,0,0,1,1,0,0,0,0,0,0,0,0,0,0,0,2,0,0,0,0,0,0,0,,,,0,0
L16258,Class,WindowTableModel,org.gjt.sp.jedit.options.WindowTableModel,L15858,L103,1,10,9,1,6,0,0,0,0,1,1,0,0,0,0,0,1,1,0,0,1,1,4,0,0,0,0,0,0,0,,,,0,0
L1662,Class,dir,bsh.commands.dir,L1659,L103,1,4,4,0,0,0,0,0,0,0,0,0,0,0,0,0,0,0,0,0,1,0,8,0,0,0,0,0,0,0,,,,0,0
L16705,Class,StyleTableModel,org.gjt.sp.jedit.options.StyleTableModel,L15858,L103,1,8,6,1,4,0,0,0,0,1,1,0,0,0,0,0,1,1,0,0,1,1,5,0,0,0,0,0,0,0,,,,0,0
L16728,Class,StyleEditor,org.gjt.sp.jedit.options.StyleEditor,L15858,L103,7,5,4,0,1,0,1,0,0,2,2,0,3,1,0,0,0,0,0,0,2,0,4,0,0,0,0,0,0,0,,,,0,0
L16923,Class,ToolBarAddDialog,org.gjt.sp.jedit.options.ToolBarAddDialog,L15858,L103,13,5,4,0,1,0,0,0,0,2,2,0,3,1,0,0,0,0,0,0,5,0,4,0,0,0,0,0,0,0,,,,0,0
L17048,Class,Roster,org.gjt.sp.jedit.pluginmgr.Roster,L16985,L103,1,5,0,0,2,0,0,0,0,0,0,0,0,0,0,0,1,1,0,0,1,6,2,0,0,0,0,0,0,0,,,,0,0
L1734,Interface,ConsoleInterface,bsh.ConsoleInterface,L104,L103,,6,,,,,,,0,0,,,,,,,,,,0,,3,6,,,,,,,0,1,1,0,0,0
L17591,Class,Handler,org.gjt.sp.jedit.proto.jeditresource.Handler,L17586,L103,0,1,1,0,0,0,0,0,0,1,1,0,0,0,0,0,0,0,0,0,0,0,2,0,0,0,0,0,0,0,,,,0,0
L17755,Class,AllBufferSet,org.gjt.sp.jedit.search.AllBufferSet,L17738,L103,1,4,3,0,2,0,0,0,0,1,1,0,9,1,0,0,0,0,0,0,1,0,5,0,0,0,0,0,0,0,,,,0,0
L17757,Class,BufferListSet,org.gjt.sp.jedit.search.BufferListSet,L17738,L103,1,9,8,0,6,0,1,2,2,0,0,1,0,0,0,0,0,0,0,0,1,0,11,0,0,0,0,0,0,0,,,,0,0
L17833,Interface,SearchFileSet,org.gjt.sp.jedit.search.SearchFileSet,L17738,L103,,5,,,,,,,0,0,,,,,,,,,,0,,2,7,,,,,,,0,1,2,0,0,0
L17874,Class,CharIndexedSegment,org.gjt.sp.jedit.search.CharIndexedSegment,L17738,L103,2,4,3,0,1,0,2,0,0,0,0,0,0,0,0,0,0,0,0,0,1,0,1,0,0,0,0,0,0,0,,,,0,0
L17887,Class,CurrentBufferSet,org.gjt.sp.jedit.search.CurrentBufferSet,L17738,L103,0,5,5,0,4,0,1,0,0,0,0,0,0,0,0,0,0,0,0,0,0,0,7,0,0,0,0,0,0,0,,,,0,0
L1802,Class,Parser,bsh.Parser,L104,L103,18,399,82,0,2,0,2,0,0,0,0,0,0,0,0,0,5,5,0,0,2,0,14,0,0,0,0,0,0,0,,,,0,0
L184,Class,ASCII_UCodeESC_CharStream,bsh.ASCII_UCodeESC_CharStream,L104,L103,17,27,21,0,6,0,0,0,0,0,0,0,0,0,0,0,2,2,0,0,1,5,9,0,0,0,0,0,0,0,,,,0,0
L18481,Class,KeywordMap,org.gjt.sp.jedit.syntax.KeywordMap,L18471,L103,3,8,6,1,3,0,0,0,0,0,0,0,0,0,0,0,2,2,0,0,1,2,4,0,0,0,0,0,0,0,,,,0,0
L18555,Class,ParserRuleFactory,org.gjt.sp.jedit.syntax.ParserRuleFactory,L18471,L103,0,10,8,0,2,0,0,0,0,0,0,0,0,0,0,0,0,0,0,0,0,0,21,0,0,0,0,0,0,0,,,,0,0
L18991,Interface,TextAreaHighlight,org.gjt.sp.jedit.textarea.TextAreaHighlight,L18919,L103,,3,,,,,,,0,0,,,,,,,,,,0,,4,5,,,,,,,0,3,1,0,0,0
L1954,Class,ParseException,bsh.ParseException,L104,L103,4,6,5,0,2,0,0,0,0,1,1,0,0,0,0,0,1,1,0,0,1,1,7,0,0,0,0,0,0,0,,,,0,0
L19569,Interface,ScrollListener,org.gjt.sp.jedit.textarea.ScrollListener,L18919,L103,,2,,,,,,,0,1,,,,,,,,,,0,,2,2,,,,,,,0,0,1,0,0,0
L1968,Class,TokenMgrError,bsh.TokenMgrError,L104,L103,5,6,4,0,1,0,0,0,0,1,1,0,0,0,0,0,0,0,0,0,0,0,7,0,0,0,0,0,0,0,,,,0,0
L20227,Class,TextRendererAWT,org.gjt.sp.jedit.textarea.TextRendererAWT,L18919,L103,0,3,0,0,0,0,0,0,0,1,1,0,10,2,0,0,0,0,0,0,0,0,3,0,0,0,0,0,0,0,,,,0,0
L20286,Class,TextRenderer2D,org.gjt.sp.jedit.textarea.TextRenderer2D,L18919,L103,2,5,2,1,0,0,0,0,0,1,1,0,10,2,0,0,0,0,0,0,2,0,4,0,0,0,0,0,0,0,,,,0,0
L20706,Class,Log,org.gjt.sp.util.Log,L20699,L103,13,10,6,1,1,0,0,0,0,0,0,0,0,0,0,0,0,0,0,0,5,0,11,0,0,0,0,0,0,0,,,,0,0
L2115,Class,JJTParserState,bsh.JJTParserState,L104,L103,5,12,0,0,0,0,0,0,0,0,0,0,0,0,0,0,1,1,0,0,1,1,8,0,0,0,0,0,0,0,,,,0,0
L2217,Class,JThis,bsh.JThis,L104,L103,0,87,84,0,0,0,33,0,0,1,1,0,11,0,0,0,0,0,0,0,0,0,89,0,0,0,0,0,0,0,,,,0,0
L2803,Interface,NameSource,bsh.NameSource,L104,L103,,2,,,,,,,0,0,,,,,,,,,,0,,1,2,,,,,,,0,0,1,0,0,0
L3041,Class,Token,bsh.Token,L104,L103,6,2,2,0,0,0,1,0,0,0,0,0,0,0,0,0,3,3,0,1,1,6,1,0,0,0,0,0,0,0,,,,0,0
L3089,Interface,ParserTreeConstants,bsh.ParserTreeConstants,L104,L103,,0,,,,,,,0,0,,,,,,,,,,0,,0,0,,,,,,,0,0,1,0,0,0
L353,Class,BlockNameSpace,bsh.BlockNameSpace,L104,L103,0,3,2,1,0,0,0,0,0,1,1,0,49,9,0,0,0,0,0,0,0,0,4,0,0,0,0,0,0,0,,,,0,0
L355,Class,NameSpace,bsh.NameSpace,L104,L103,9,49,35,6,23,0,3,1,1,0,0,1,0,0,0,0,6,6,3,0,4,42,72,0,0,0,0,0,0,0,,,,0,0
L359,Class,EvalError,bsh.EvalError,L104,L103,0,11,9,1,4,0,0,2,2,1,1,1,0,0,0,0,1,1,0,0,0,0,12,0,0,0,0,0,0,0,,,,0,0
L380,Class,BSHAllocationExpression,bsh.BSHAllocationExpression,L104,L103,0,8,1,0,0,0,0,0,0,1,1,0,19,2,0,0,0,0,0,0,0,0,30,0,0,0,0,0,0,0,,,,0,0
L381,Class,SimpleNode,bsh.SimpleNode,L104,L103,2,19,19,1,4,0,1,35,35,0,0,1,0,0,0,0,5,5,0,0,1,18,16,0,0,0,0,0,0,0,,,,0,0
L390,Class,CallStack,bsh.CallStack,L104,L103,1,10,10,1,1,0,0,0,0,0,0,0,0,0,0,0,1,1,0,0,1,56,9,0,0,0,0,0,0,0,,,,0,0
L394,Class,Interpreter,bsh.Interpreter,L104,L103,12,50,42,14,11,0,2,0,0,0,0,0,0,0,0,0,4,4,1,0,3,68,70,0,0,0,0,0,0,0,,,,0,0
L399,Class,BSHAmbiguousName,bsh.BSHAmbiguousName,L104,L103,1,7,6,0,1,0,0,0,0,1,1,0,19,2,0,0,0,0,0,0,1,2,14,0,0,0,0,0,0,0,,,,0,0
L402,Class,BSHArguments,bsh.BSHArguments,L104,L103,0,2,1,0,1,0,0,0,0,1,1,0,19,2,0,0,0,0,0,0,0,1,3,0,0,0,0,0,0,0,,,,0,0
L409,Class,BSHArrayDimensions,bsh.BSHArrayDimensions,L104,L103,3,4,3,0,0,0,0,0,0,1,1,0,19,2,0,0,0,0,0,0,1,3,7,0,0,0,0,0,0,0,,,,0,0
L414,Class,BSHPrimitiveType,bsh.BSHPrimitiveType,L104,L103,1,2,1,0,1,0,0,0,0,1,1,0,19,2,0,0,0,0,0,0,1,1,1,0,0,0,0,0,0,0,,,,0,0
L4217,Class,ParserTokenManager,bsh.ParserTokenManager,L104,L103,23,49,6,0,1,0,1,0,0,0,0,0,0,0,0,0,2,2,0,0,1,2,6,0,0,0,0,0,0,0,,,,0,0
L435,Class,BSHBlock,bsh.BSHBlock,L104,L103,0,3,2,0,0,0,0,0,0,1,1,0,19,2,0,0,1,1,0,0,0,1,6,0,0,0,0,0,0,0,,,,0,0
L446,Class,ReflectError,bsh.ReflectError,L104,L103,0,2,2,0,0,0,0,0,0,1,1,0,0,0,0,0,0,0,0,0,0,0,1,0,0,0,0,0,0,0,,,,0,0
L456,Class,TargetError,bsh.TargetError,L104,L103,1,11,11,0,1,0,0,0,0,2,2,0,11,0,0,0,0,0,0,0,1,0,17,0,0,0,0,0,0,0,,,,0,0
L4716,Class,Reflect,bsh.Reflect,L104,L103,0,35,14,2,15,0,0,0,0,0,0,0,0,0,0,0,0,0,0,0,0,0,99,0,0,0,0,0,0,0,,,,0,0
L4944,Class,ReflectManager,bsh.ReflectManager,L104,L103,0,3,3,1,1,0,0,1,1,0,0,1,0,0,0,0,0,0,0,0,0,0,2,0,0,0,0,0,0,0,,,,0,0
L5028,Class,StringUtil,bsh.StringUtil,L104,L103,0,4,4,0,0,0,0,0,0,0,0,0,0,0,0,0,0,0,0,0,0,0,11,0,0,0,0,0,0,0,,,,0,0
L517,Class,Name,bsh.Name,L104,L103,6,18,9,0,1,0,1,0,0,0,0,0,0,0,0,0,1,1,0,0,2,2,43,0,0,0,0,0,0,0,,,,0,0
L5171,Class,XThis,bsh.XThis,L104,L103,1,5,2,0,1,0,0,0,0,1,1,0,11,0,0,0,0,0,0,0,1,0,8,0,0,0,0,0,0,0,,,,0,0
L5218,Class,HandlerBase,com.microstar.xml.HandlerBase,L5210,L103,0,13,13,0,0,0,1,6,6,0,0,1,0,0,0,0,0,0,0,0,0,0,16,0,0,0,0,0,0,0,,,,0,0
L5220,Interface,XmlHandler,com.microstar.xml.XmlHandler,L5210,L103,,13,,,,,,,0,0,,,,,,,,,,0,,0,16,,,,,,,0,0,1,0,0,0
L5270,Class,XmlException,com.microstar.xml.XmlException,L5210,L103,4,5,5,0,4,0,0,0,0,1,1,0,0,0,0,0,0,0,0,0,1,0,4,0,0,0,0,0,0,0,,,,0,0
L533,Class,LHS,bsh.LHS,L104,L103,10,8,3,0,1,0,2,0,0,0,0,0,0,0,0,0,1,1,0,0,3,10,12,0,0,0,0,0,0,0,,,,0,0
L544,Class,InterpreterError,bsh.InterpreterError,L104,L103,0,1,1,0,0,0,0,0,0,1,1,0,0,0,0,0,0,0,0,0,0,0,1,0,0,0,0,0,0,0,,,,0,0
L5743,Interface,CharIndexed,gnu.regexp.CharIndexed,L5714,L103,,3,,,,,,,0,0,,,,,,,,,,0,,24,0,,,,,,,0,1,6,0,0,0
L5755,Class,CharIndexedCharArray,gnu.regexp.CharIndexedCharArray,L5714,L103,2,4,3,0,1,0,2,0,0,0,0,0,0,0,0,0,0,0,0,0,0,0,0,0,0,0,0,0,0,0,,,,0,0
L576,Class,BSHArrayInitializer,bsh.BSHArrayInitializer,L104,L103,0,4,2,0,0,0,0,0,0,1,1,0,19,2,0,0,0,0,0,0,0,0,9,0,0,0,0,0,0,0,,,,0,0
L5771,Class,CharIndexedInputStream,gnu.regexp.CharIndexedInputStream,L5714,L103,8,5,3,0,1,0,1,0,0,0,0,0,0,0,0,0,1,1,0,0,1,0,1,0,0,0,0,0,0,0,,,,0,0
L5816,Class,CharIndexedReader,gnu.regexp.CharIndexedReader,L5714,L103,8,5,3,0,1,0,1,0,0,0,0,0,0,0,0,0,1,1,0,0,1,0,1,0,0,0,0,0,0,0,,,,0,0
L5859,Class,CharIndexedString,gnu.regexp.CharIndexedString,L5714,L103,3,4,3,0,1,0,2,0,0,0,0,0,0,0,0,0,0,0,0,0,1,0,1,0,0,0,0,0,0,0,,,,0,0
L5874,Class,CharIndexedStringBuffer,gnu.regexp.CharIndexedStringBuffer,L5714,L103,2,4,3,0,1,0,2,0,0,0,0,0,0,0,0,0,0,0,0,0,1,0,1,0,0,0,0,0,0,0,,,,0,0
L5891,Class,IntPair,gnu.regexp.IntPair,L5714,L103,2,0,0,0,0,0,1,0,0,0,0,0,0,0,0,0,0,0,0,0,0,1,0,0,0,0,0,0,0,0,,,,0,0
L5895,Class,CharUnit,gnu.regexp.CharUnit,L5714,L103,2,0,0,0,0,0,1,0,0,0,0,0,0,0,0,0,0,0,0,0,0,1,0,0,0,0,0,0,0,0,,,,0,0
L5899,Class,RE,gnu.regexp.RE,L5714,L103,11,44,26,2,22,0,0,0,0,1,1,0,8,1,0,0,5,5,3,0,2,4,80,0,0,0,0,0,0,0,,,,0,0
L5901,Class,REToken,gnu.regexp.REToken,L5714,L103,1,8,0,1,1,0,1,13,13,0,0,1,0,0,0,0,2,2,0,0,0,9,6,0,0,0,0,0,0,0,,,,0,0
L591,Class,Primitive,bsh.Primitive,L104,L103,1,43,28,0,4,0,2,0,0,0,0,0,0,0,0,0,0,0,0,0,1,2,50,0,0,0,0,0,0,0,,,,0,0
L5949,Class,REException,gnu.regexp.REException,L5714,L103,15,4,3,0,3,0,0,0,0,1,1,0,0,0,0,0,0,0,0,0,0,0,2,0,0,0,0,0,0,0,,,,0,0
L5966,Class,RESyntax,gnu.regexp.RESyntax,L5714,L103,31,8,8,2,2,0,1,0,0,0,0,0,0,0,0,0,0,0,1,0,2,4,2,0,0,0,0,0,0,0,,,,0,0
L5984,Class,RETokenEndSub,gnu.regexp.RETokenEndSub,L5714,L103,0,3,0,0,0,0,0,0,0,1,1,0,8,1,0,0,0,0,0,0,0,0,3,0,0,0,0,0,0,0,,,,0,0
L6034,Class,RETokenRepeated,gnu.regexp.RETokenRepeated,L5714,L103,3,7,0,0,2,0,0,0,0,1,1,0,8,1,0,0,1,1,0,0,0,0,7,0,0,0,0,0,0,0,,,,0,0
L6037,Class,RETokenWordBoundary,gnu.regexp.RETokenWordBoundary,L5714,L103,4,3,0,0,0,0,0,0,0,1,1,0,8,1,0,0,0,0,0,0,0,0,3,0,0,0,0,0,0,0,,,,0,0
L6044,Class,RETokenChar,gnu.regexp.RETokenChar,L5714,L103,2,5,0,0,1,0,0,0,0,1,1,0,8,1,0,0,0,0,0,0,0,0,4,0,0,0,0,0,0,0,,,,0,0
L6051,Class,RETokenRange,gnu.regexp.RETokenRange,L5714,L103,3,4,0,0,1,0,0,0,0,1,1,0,8,1,0,0,0,0,0,0,0,0,3,0,0,0,0,0,0,0,,,,0,0
L6068,Class,RETokenPOSIX,gnu.regexp.RETokenPOSIX,L5714,L103,16,5,0,0,1,0,0,0,0,1,1,0,8,1,0,0,0,0,0,0,1,0,4,0,0,0,0,0,0,0,,,,0,0
L6081,Class,RETokenOneOf,gnu.regexp.RETokenOneOf,L5714,L103,2,5,0,0,1,0,0,0,0,1,1,0,8,1,0,0,0,0,0,0,1,0,5,0,0,0,0,0,0,0,,,,0,0
L6096,Class,RETokenLookAhead,gnu.regexp.RETokenLookAhead,L5714,L103,1,2,0,0,0,0,0,0,0,1,1,0,8,1,0,0,1,1,0,0,0,0,4,0,0,0,0,0,0,0,,,,0,0
L6109,Class,RETokenStart,gnu.regexp.RETokenStart,L5714,L103,1,3,0,0,0,0,0,0,0,1,1,0,8,1,0,0,0,0,0,0,1,0,4,0,0,0,0,0,0,0,,,,0,0
L6117,Class,RETokenEnd,gnu.regexp.RETokenEnd,L5714,L103,1,3,0,0,0,0,0,0,0,1,1,0,8,1,0,0,0,0,0,0,1,0,4,0,0,0,0,0,0,0,,,,0,0
L6122,Class,RETokenAny,gnu.regexp.RETokenAny,L5714,L103,2,4,0,0,1,0,0,0,0,1,1,0,8,1,0,0,0,0,0,0,0,0,3,0,0,0,0,0,0,0,,,,0,0
L6142,Class,RETokenBackRef,gnu.regexp.RETokenBackRef,L5714,L103,2,3,0,0,0,0,0,0,0,1,1,0,8,1,0,0,0,0,0,0,0,0,3,0,0,0,0,0,0,0,,,,0,0
L6185,Class,REMatch,gnu.regexp.REMatch,L5714,L103,7,15,11,0,7,0,2,0,0,0,0,0,0,0,0,0,1,1,0,0,1,27,6,0,0,0,0,0,0,0,,,,0,0
L625,Class,BSHAssignment,bsh.BSHAssignment,L104,L103,1,3,1,0,0,0,1,0,0,1,1,0,19,2,0,0,0,0,0,0,0,0,6,0,0,0,0,0,0,0,,,,0,0
L626,Interface,ParserConstants,bsh.ParserConstants,L104,L103,,0,,,,,,,0,0,,,,,,,,,,0,,0,0,,,,,,,0,0,12,0,0,0
L6277,Class,REMatchEnumeration,gnu.regexp.REMatchEnumeration,L5714,L103,6,6,5,0,3,0,2,0,0,0,0,0,0,0,0,0,3,3,0,0,1,3,5,0,0,0,0,0,0,0,,,,0,0
L635,Class,BSHLHSPrimaryExpression,bsh.BSHLHSPrimaryExpression,L104,L103,0,2,1,0,0,0,0,0,0,1,1,0,19,2,0,0,0,0,0,0,0,0,3,0,0,0,0,0,0,0,,,,0,0
L6421,Class,REFilterInputStream,gnu.regexp.REFilterInputStream,L5714,L103,4,5,5,0,0,0,0,0,0,1,1,0,0,0,0,0,2,2,0,0,1,0,3,0,0,0,0,0,0,0,,,,0,0
L6458,Class,REFilterReader,gnu.regexp.REFilterReader,L5714,L103,4,5,5,0,0,0,0,0,0,1,1,0,0,0,0,0,2,2,0,0,1,0,3,0,0,0,0,0,0,0,,,,0,0
L723,Class,BSHBinaryExpression,bsh.BSHBinaryExpression,L104,L103,1,4,1,0,2,0,1,0,0,1,1,0,19,2,0,0,0,0,0,0,0,0,5,0,0,0,0,0,0,0,,,,0,0
L738,Class,BSHType,bsh.BSHType,L104,L103,3,6,5,0,3,0,1,0,0,1,1,0,19,2,0,0,0,0,0,0,1,1,3,0,0,0,0,0,0,0,,,,0,0
L7749,Class,EBPlugin,org.gjt.sp.jedit.EBPlugin,L8198,L103,0,2,1,0,0,0,1,2,2,1,1,1,7,1,0,0,0,0,0,0,0,0,1,0,0,0,0,0,0,0,,,,0,0
L7771,Class,EBMessage,org.gjt.sp.jedit.EBMessage,L8198,L103,1,6,6,0,2,0,0,3,12,0,0,2,0,0,0,0,1,1,0,0,0,16,4,0,0,0,0,0,0,0,,,,0,0
L7774,Class,PropertiesChanged,org.gjt.sp.jedit.msg.PropertiesChanged,L15723,L103,0,1,1,0,0,0,0,0,0,2,2,0,8,1,0,0,0,0,0,0,0,0,1,0,0,0,0,0,0,0,,,,0,0
L783,Class,ReturnControl,bsh.ReturnControl,L104,L103,2,1,1,0,0,0,1,0,0,0,0,0,0,0,0,0,0,0,0,0,1,0,1,0,0,0,0,0,0,0,,,,0,0
L7853,Interface,EBComponent,org.gjt.sp.jedit.EBComponent,L8198,L103,,1,,,,,,,0,0,,,,,,,,,,0,,11,1,,,,,,,0,2,12,0,0,0
L786,Class,BSHCastExpression,bsh.BSHCastExpression,L104,L103,0,6,6,0,0,0,0,0,0,1,1,0,19,2,0,0,0,0,0,0,0,0,13,0,0,0,0,0,0,0,,,,0,0
L8028,Interface,DockableWindow,org.gjt.sp.jedit.gui.DockableWindow,L11205,L103,,2,,,,,,,0,0,,,,,,,,,,2,,21,2,,,,,,,0,1,4,0,0,0
L8048,Class,FontSelector,org.gjt.sp.jedit.gui.FontSelector,L11205,L103,0,2,1,0,0,0,0,0,0,1,1,0,0,0,0,0,0,1,3,0,0,0,1,0,0,0,0,0,0,0,,,,0,0
L807,Class,This,bsh.This,L104,L103,0,11,7,0,3,0,2,2,2,0,0,1,0,0,0,0,3,3,0,0,0,1,21,0,0,0,0,0,0,0,,,,0,0
L8110,Class,CreateDockableWindow,org.gjt.sp.jedit.msg.CreateDockableWindow,L15723,L103,2,7,7,1,4,0,0,0,0,1,1,0,6,1,0,0,0,0,1,0,1,0,9,0,0,0,0,0,0,0,,,,0,0
L8232,Class,Abbrevs,org.gjt.sp.jedit.Abbrevs,L8198,L103,6,16,9,3,3,0,0,0,0,0,0,0,0,0,0,0,0,0,0,0,2,0,18,0,0,0,0,0,0,0,,,,0,0
L8286,Class,AddAbbrevDialog,org.gjt.sp.jedit.gui.AddAbbrevDialog,L11205,L103,4,1,1,0,0,0,0,0,0,1,1,0,0,0,0,0,1,2,0,0,2,0,2,0,0,0,0,0,0,0,,,,0,0
L8403,Interface,OptionPane,org.gjt.sp.jedit.OptionPane,L8198,L103,,4,,,,,,,0,0,,,,,,,,,,0,,3,2,,,,,,,0,0,1,0,0,0
L8523,Class,Autosave,org.gjt.sp.jedit.Autosave,L8198,L103,1,4,3,1,0,0,1,0,0,0,0,0,0,0,0,0,0,0,0,0,1,0,1,0,0,0,0,0,0,0,,,,0,0
L8674,Class,EditAction,org.gjt.sp.jedit.EditAction,L8198,L103,2,16,15,0,9,0,0,1,1,0,0,1,0,0,0,0,0,3,0,1,1,10,15,0,0,0,0,0,0,0,,,,0,0
L8725,Class,WorkRequest,org.gjt.sp.util.WorkRequest,L20699,L103,0,4,4,4,0,0,1,3,3,0,0,1,0,0,0,0,0,0,0,0,0,0,1,0,0,0,0,0,0,0,,,,0,0
L8808,Interface,BrowserListener,org.gjt.sp.jedit.browser.BrowserListener,L8714,L103,,2,,,,,,,0,1,,,,,,,,,,0,,2,4,,,,,,,0,0,1,0,0,0
L881,Class,BshClassManager,bsh.BshClassManager,L104,L103,5,23,21,2,5,0,0,0,0,0,0,0,0,0,0,0,0,0,0,0,3,0,23,0,0,0,0,0,0,0,,,,0,0
L8821,Class,BrowserPopupMenu,org.gjt.sp.jedit.browser.BrowserPopupMenu,L8714,L103,1,3,1,0,0,0,0,0,0,1,1,0,0,0,0,0,2,2,1,0,1,0,5,0,0,0,0,0,0,0,,,,0,0
L8958,Class,DirectoryListSet,org.gjt.sp.jedit.search.DirectoryListSet,L17738,L103,3,7,5,0,4,0,0,0,0,1,1,0,9,1,0,0,0,0,0,0,1,0,12,0,0,0,0,0,0,0,,,,0,0
L9428,Class,HistoryModel,org.gjt.sp.jedit.gui.HistoryModel,L11205,L103,4,9,8,0,4,0,0,0,0,0,0,0,0,0,0,0,2,2,0,0,3,1,8,0,0,0,0,0,0,0,,,,0,0
L9458,Class,ViewUpdate,org.gjt.sp.jedit.msg.ViewUpdate,L15723,L103,3,4,4,0,2,0,0,0,0,2,2,0,8,1,0,0,0,0,0,0,1,1,5,0,0,0,0,0,0,0,,,,0,0
L9463,Class,BufferUpdate,org.gjt.sp.jedit.msg.BufferUpdate,L15723,L103,10,5,5,0,3,0,0,0,0,2,2,0,8,1,0,0,0,1,0,0,1,3,7,0,0,0,0,0,0,0,,,,0,0
L9468,Class,VFSUpdate,org.gjt.sp.jedit.msg.VFSUpdate,L15723,L103,1,3,3,0,1,0,0,0,0,1,1,0,6,1,0,0,0,0,0,0,1,0,3,0,0,0,0,0,0,0,,,,0,0
L9659,Class,EnhancedDialog,org.gjt.sp.jedit.gui.EnhancedDialog,L11205,L103,1,3,3,0,0,0,0,16,16,1,1,1,0,0,0,0,0,0,0,0,1,0,2,0,0,0,0,0,0,0,,,,0,0
L9809,Class,SyntaxStyle,org.gjt.sp.jedit.syntax.SyntaxStyle,L18471,L103,3,4,4,0,3,0,0,0,0,0,0,0,0,0,0,0,0,0,1,1,2,9,6,0,0,0,0,0,0,0,,,,0,0
L9824,Class,TextRenderer,org.gjt.sp.jedit.textarea.TextRenderer,L18919,L103,2,10,7,1,0,0,0,2,2,0,0,1,0,0,0,0,1,1,0,0,1,2,13,0,0,0,0,0,0,0,,,,0,0
L990,Class,ClassPathException,bsh.ClassPathException,L104,L103,0,1,1,0,0,0,0,0,0,2,2,0,11,0,0,0,0,0,0,0,0,0,1,0,0,0,0,0,0,0,,,,0,0
L10151,Class,Mode,org.gjt.sp.jedit.Mode,L8198,L103,2,12,12,2,4,0,0,0,0,0,0,0,0,0,0,0,1,4,1,1,2,7,13,0,0,0,0,0,0,0,,,,1,1
L10218,Class,Token,org.gjt.sp.jedit.syntax.Token,L18471,L103,18,2,2,0,0,0,0,0,0,0,0,0,0,0,0,0,0,0,0,2,0,2,1,0,0,0,0,0,0,0,,,,1,1
L10255,Class,TokenMarker,org.gjt.sp.jedit.syntax.TokenMarker,L18471,L103,24,9,7,1,3,0,0,0,0,0,0,0,0,0,0,0,1,3,0,0,4,3,15,0,0,0,0,0,0,0,,,,1,1
L10512,Class,ParserRuleSet,org.gjt.sp.jedit.syntax.ParserRuleSet,L18471,L103,6,17,17,6,8,0,0,0,0,0,0,0,0,0,0,0,3,3,0,1,1,5,7,0,0,0,0,0,0,0,,,,1,1
L10585,Class,BufferHistory,org.gjt.sp.jedit.BufferHistory,L8198,L103,3,9,5,1,2,0,0,0,0,0,0,0,0,0,0,0,0,0,0,0,1,0,14,0,0,0,0,0,0,0,,,,1,1
L10604,Class,Selection,org.gjt.sp.jedit.textarea.Selection,L18919,L103,4,10,7,0,6,0,0,2,2,0,0,1,0,0,0,0,0,0,0,0,0,18,3,0,0,0,0,0,0,0,,,,1,1
L11546,Class,CompleteWord,org.gjt.sp.jedit.gui.CompleteWord,L11205,L103,2,3,2,0,0,0,0,0,0,1,1,0,0,0,0,0,0,1,0,0,2,0,4,0,0,0,0,0,0,0,,,,1,1
L12394,Class,GrabKeyDialog,org.gjt.sp.jedit.gui.GrabKeyDialog,L11205,L103,9,9,5,0,6,0,0,0,0,1,1,0,0,0,0,0,0,0,0,0,5,0,9,0,0,0,0,0,0,0,,,,1,1
L12967,Class,IOProgressMonitor,org.gjt.sp.jedit.gui.IOProgressMonitor,L11205,L103,3,3,2,0,0,0,0,0,0,1,1,0,0,0,0,0,0,0,0,0,3,0,1,0,0,0,0,0,0,0,,,,1,1
L13006,Class,WorkThreadPool,org.gjt.sp.util.WorkThreadPool,L20699,L103,12,16,9,0,5,0,0,0,0,0,0,0,0,0,0,0,1,1,1,0,4,5,9,0,0,0,0,0,0,0,,,,1,1
L13271,Class,OpenWithEncodingMenu,org.gjt.sp.jedit.gui.OpenWithEncodingMenu,L11205,L103,0,1,1,0,0,0,0,0,0,2,2,0,1,0,0,0,0,0,0,0,0,0,0,0,0,0,0,0,0,0,,,,1,1
L13388,Class,LoadSaveOptionPane,org.gjt.sp.jedit.options.LoadSaveOptionPane,L15858,L103,13,3,3,0,0,0,0,0,0,2,2,0,10,4,0,0,0,0,0,0,3,0,0,0,0,0,0,0,0,0,,,,1,1
L13418,Class,StyleOptionPane,org.gjt.sp.jedit.options.StyleOptionPane,L15858,L103,2,5,1,0,0,0,0,0,0,2,2,0,10,4,0,0,1,1,0,0,2,0,2,0,0,0,0,0,0,0,,,,1,1
L13428,Class,DockingOptionPane,org.gjt.sp.jedit.options.DockingOptionPane,L15858,L103,4,5,3,0,0,0,0,0,0,2,2,0,10,4,0,0,1,1,0,0,3,0,2,0,0,0,0,0,0,0,,,,1,1
L13433,Class,ContextOptionPane,org.gjt.sp.jedit.options.ContextOptionPane,L15858,L103,7,5,1,0,1,0,0,0,0,2,2,0,10,4,0,0,0,0,0,0,3,0,2,0,0,0,0,0,0,0,,,,1,1
L13438,Class,ToolBarOptionPane,org.gjt.sp.jedit.options.ToolBarOptionPane,L15858,L103,9,4,1,0,0,0,0,0,0,2,2,0,10,4,0,0,0,0,0,0,5,0,0,0,0,0,0,0,0,0,,,,1,1
L13443,Class,AbbrevsOptionPane,org.gjt.sp.jedit.options.AbbrevsOptionPane,L15858,L103,4,3,1,0,0,0,0,0,0,2,2,0,10,4,0,0,1,1,0,0,4,0,0,0,0,0,0,0,0,0,,,,1,1
L13448,Class,PrintOptionPane,org.gjt.sp.jedit.options.PrintOptionPane,L15858,L103,9,3,1,0,0,0,0,0,0,2,2,0,10,4,0,0,0,0,1,0,2,0,0,0,0,0,0,0,0,0,,,,1,1
L13544,Class,PastePrevious,org.gjt.sp.jedit.gui.PastePrevious,L11205,L103,3,11,10,0,0,0,3,0,0,2,2,0,3,1,0,0,1,2,0,0,2,0,8,0,0,0,0,0,0,0,,,,1,1
L13597,Class,RecentFilesMenu,org.gjt.sp.jedit.gui.RecentFilesMenu,L11205,L103,0,2,2,1,0,0,0,0,0,2,2,0,1,0,0,0,0,0,0,0,0,0,0,0,0,0,0,0,0,0,,,,1,1
L14570,Class,UrlVFS,org.gjt.sp.jedit.io.UrlVFS,L14285,L103,0,6,6,0,2,0,0,0,0,1,1,0,22,7,0,0,0,0,0,0,0,0,13,0,0,0,0,0,0,0,,,,1,1
L15361,Class,ModeCatalogHandler,org.gjt.sp.jedit.ModeCatalogHandler,L8198,L103,6,5,4,0,0,0,0,0,0,1,1,0,13,0,0,0,0,0,0,0,1,0,10,0,0,0,0,0,0,0,,,,1,1
L17107,Class,PluginListHandler,org.gjt.sp.jedit.pluginmgr.PluginListHandler,L16985,L103,19,12,8,0,0,0,0,0,0,1,1,0,13,0,0,0,1,1,0,0,5,0,16,0,0,0,0,0,0,0,,,,1,1
L17198,Class,PluginListDownloadProgress,org.gjt.sp.jedit.pluginmgr.PluginListDownloadProgress,L16985,L103,1,2,0,0,1,0,0,0,0,1,1,0,0,0,0,0,2,2,0,0,1,0,2,0,0,0,0,0,0,0,,,,1,1
L17398,Class,PluginManagerProgress,org.gjt.sp.jedit.pluginmgr.PluginManagerProgress,L16985,L103,7,9,8,2,1,0,0,0,0,1,1,0,0,0,0,0,1,1,0,0,3,7,7,0,0,0,0,0,0,0,,,,1,1
L17600,Class,PluginResURLConnection,org.gjt.sp.jedit.proto.jeditresource.PluginResURLConnection,L17586,L103,3,4,4,0,2,0,0,0,0,1,1,0,0,0,0,0,0,0,0,0,2,0,4,0,0,0,0,0,0,0,,,,1,1
L17978,Class,HyperSearchResult,org.gjt.sp.jedit.search.HyperSearchResult,L17738,L103,4,6,5,0,2,0,0,0,0,0,0,0,0,0,0,0,0,1,0,0,2,0,7,0,0,0,0,0,0,0,,,,1,1
L7691,Class,AbstractOptionPane,org.gjt.sp.jedit.AbstractOptionPane,L8198,L103,4,10,5,0,2,0,1,17,17,1,1,1,0,0,0,0,0,0,0,0,2,0,7,0,0,0,0,0,0,0,,,,1,1
L7808,Class,EditPlugin,org.gjt.sp.jedit.EditPlugin,L8198,L103,1,7,7,0,2,0,0,3,5,0,0,2,0,0,0,0,0,0,0,0,1,3,7,0,0,0,0,0,0,0,,,,1,1
L8512,Class,BeanShellAction,org.gjt.sp.jedit.BeanShellAction,L8198,L103,7,7,7,0,3,0,0,0,0,1,1,0,16,2,0,0,0,0,0,0,1,0,6,0,0,0,0,0,0,0,,,,1,1
L8628,Class,BeanShellErrorDialog,org.gjt.sp.jedit.gui.BeanShellErrorDialog,L11205,L103,0,3,3,0,0,0,0,0,0,2,2,0,3,1,0,0,0,0,0,0,0,0,2,0,0,0,0,0,0,0,,,,1,1
L8795,Class,WorkThread,org.gjt.sp.util.WorkThread,L20699,L103,7,13,11,4,4,0,0,0,0,1,1,0,0,0,0,0,1,1,0,0,2,2,6,0,0,0,0,0,0,0,,,,1,1
L10381,Class,Marker,org.gjt.sp.jedit.Marker,L8198,L103,3,6,3,1,2,0,0,0,0,0,0,0,0,0,0,0,1,1,0,0,1,2,1,0,0,0,0,0,0,0,,,,2,1
L11265,Class,AboutDialog,org.gjt.sp.jedit.gui.AboutDialog,L11205,L103,1,3,3,0,0,0,0,0,0,2,2,0,3,1,0,0,0,0,0,0,1,0,1,0,0,0,0,0,0,0,,,,2,1
L12102,Class,HyperSearchResults,org.gjt.sp.jedit.search.HyperSearchResults,L17738,L103,5,10,9,0,3,0,2,0,0,1,1,0,0,0,0,0,1,2,0,0,5,1,5,0,0,0,0,0,0,0,,,,2,1
L12158,Class,EnhancedCheckBoxMenuItem,org.gjt.sp.jedit.gui.EnhancedCheckBoxMenuItem,L11205,L103,5,5,4,0,3,0,0,0,0,1,1,0,0,0,0,0,0,1,0,0,3,0,6,0,0,0,0,0,0,0,,,,2,1
L12282,Class,EnhancedMenuItem,org.gjt.sp.jedit.gui.EnhancedMenuItem,L11205,L103,5,4,3,0,2,0,0,0,0,1,1,0,0,0,0,0,0,1,0,0,3,0,5,0,0,0,0,0,0,0,,,,2,1
L13232,Class,MarkersMenu,org.gjt.sp.jedit.gui.MarkersMenu,L11205,L103,0,2,2,1,0,0,0,0,0,2,2,0,1,0,0,0,0,0,0,0,0,0,0,0,0,0,0,0,0,0,,,,2,1
L13413,Class,ColorOptionPane,org.gjt.sp.jedit.options.ColorOptionPane,L15858,L103,2,5,1,0,0,0,0,0,0,2,2,0,10,4,0,0,1,1,0,0,2,0,2,0,0,0,0,0,0,0,,,,2,1
L13453,Class,BrowserOptionPane,org.gjt.sp.jedit.options.BrowserOptionPane,L15858,L103,8,3,3,0,0,0,0,0,0,2,2,0,10,4,0,0,0,0,0,0,2,0,0,0,0,0,0,0,0,0,,,,2,1
L13793,Class,TipOfTheDay,org.gjt.sp.jedit.gui.TipOfTheDay,L11205,L103,0,3,3,0,0,0,0,0,0,2,2,0,3,1,0,0,0,0,0,0,0,0,1,0,0,0,0,0,0,0,,,,2,1
L14414,Class,FavoritesVFS,org.gjt.sp.jedit.io.FavoritesVFS,L14285,L103,3,9,9,0,2,0,0,0,0,1,1,0,22,7,0,0,0,0,0,0,3,0,14,0,0,0,0,0,0,0,,,,2,1
L14683,Class,VFSManager,org.gjt.sp.jedit.io.VFSManager,L14285,L103,5,17,16,0,8,0,0,0,0,0,0,0,0,0,0,0,1,1,1,0,3,0,19,0,0,0,0,0,0,0,,,,2,1
L15274,Class,XModeHandler,org.gjt.sp.jedit.syntax.XModeHandler,L18471,L103,21,19,8,1,0,0,0,0,0,1,1,0,13,0,0,0,3,4,0,0,3,0,26,0,0,0,0,0,0,0,,,,2,1
L17055,Class,PluginList,org.gjt.sp.jedit.pluginmgr.PluginList,L16985,L103,3,5,0,0,0,0,0,0,0,0,0,0,0,0,0,0,2,2,0,0,2,2,2,0,0,0,0,0,0,0,,,,2,1
L17777,Interface,SearchMatcher,org.gjt.sp.jedit.search.SearchMatcher,L17738,L103,,2,,,,,,,0,0,,,,,,,,,,0,,5,3,,,,,,,0,2,2,0,2,1
L7761,Class,OptionsDialog,org.gjt.sp.jedit.gui.OptionsDialog,L11205,L103,7,11,8,0,0,0,2,0,0,2,2,0,3,1,0,0,0,1,0,0,5,3,10,0,0,0,0,0,0,0,,,,2,1
L8464,Class,ActionListHandler,org.gjt.sp.jedit.ActionListHandler,L8198,L103,8,11,7,0,0,0,0,0,0,1,1,0,13,0,0,0,0,0,0,0,2,0,15,0,0,0,0,0,0,0,,,,2,1
L9404,Class,HistoryTextField,org.gjt.sp.jedit.gui.HistoryTextField,L11205,L103,5,16,9,2,1,0,0,0,0,1,1,0,0,0,0,0,1,1,3,0,2,1,9,0,0,0,0,0,0,0,,,,2,1
L11473,Class,CloseDialog,org.gjt.sp.jedit.gui.CloseDialog,L11205,L103,6,5,4,0,1,0,0,0,0,2,2,0,3,1,0,0,0,1,0,0,3,0,1,0,0,0,0,0,0,0,,,,3,1
L11624,Class,CurrentDirectoryMenu,org.gjt.sp.jedit.gui.CurrentDirectoryMenu,L11205,L103,0,2,2,1,0,0,0,0,0,2,2,0,1,0,0,0,0,0,0,0,0,0,0,0,0,0,0,0,0,0,,,,3,1
L13393,Class,EditingOptionPane,org.gjt.sp.jedit.options.EditingOptionPane,L15858,L103,11,3,1,0,0,0,0,0,0,2,2,0,10,4,0,0,0,0,0,0,3,0,0,0,0,0,0,0,0,0,,,,3,1
L13398,Class,ModeOptionPane,org.gjt.sp.jedit.options.ModeOptionPane,L15858,L103,19,6,1,0,0,0,0,0,0,2,2,0,10,4,0,0,0,0,0,0,4,0,0,0,0,0,0,0,0,0,,,,3,1
L17201,Class,PluginManager,org.gjt.sp.jedit.pluginmgr.PluginManager,L16985,L103,8,2,1,0,0,0,0,0,0,1,1,0,0,0,0,0,1,1,0,0,3,1,1,0,0,0,0,0,0,0,,,,3,1
L17776,Class,BoyerMooreSearchMatcher,org.gjt.sp.jedit.search.BoyerMooreSearchMatcher,L17738,L103,8,7,4,0,1,0,1,0,0,0,0,0,0,0,0,0,0,0,1,0,1,0,6,0,0,0,0,0,0,0,,,,3,1
L17935,Class,HyperSearchRequest,org.gjt.sp.jedit.search.HyperSearchRequest,L17738,L103,2,3,2,0,0,0,0,0,0,1,1,0,4,0,0,0,2,3,0,0,2,0,5,0,0,0,0,0,0,0,,,,3,1
L18243,Class,SearchBar,org.gjt.sp.jedit.search.SearchBar,L17738,L103,3,6,4,1,1,0,0,0,0,1,1,0,0,0,0,0,0,1,1,0,1,1,2,0,0,0,0,0,0,0,,,,3,1
L11057,Class,StatusBar,org.gjt.sp.jedit.gui.StatusBar,L11205,L103,13,8,8,3,0,0,0,0,0,1,1,0,0,0,0,0,0,1,0,0,8,1,4,0,0,0,0,0,0,0,,,,4,1
L11126,Class,EditServer,org.gjt.sp.jedit.EditServer,L8198,L103,4,6,3,0,1,0,0,0,0,1,1,0,0,0,0,0,1,1,0,0,2,0,5,0,0,0,0,0,0,0,,,,4,1
L16994,Class,InstallPluginsDialog,org.gjt.sp.jedit.pluginmgr.InstallPluginsDialog,L16985,L103,15,4,2,0,0,0,0,0,0,2,2,0,3,1,0,0,0,0,1,0,6,0,3,0,0,0,0,0,0,0,,,,4,1
L18069,Class,RESearchMatcher,org.gjt.sp.jedit.search.RESearchMatcher,L17738,L103,3,3,3,0,0,0,1,0,0,0,0,0,0,0,0,0,0,0,3,0,1,0,6,0,0,0,0,0,0,0,,,,4,1
L8553,Class,BeanShell,org.gjt.sp.jedit.BeanShell,L8198,L103,2,13,11,0,2,0,0,0,0,0,0,0,0,0,0,0,0,0,2,0,0,0,26,0,0,0,0,0,0,0,,,,4,1
L8590,Class,VFS,org.gjt.sp.jedit.io.VFS,L14285,L103,7,22,22,0,5,0,0,4,4,0,0,1,0,0,0,0,2,3,2,0,1,10,58,0,0,0,0,0,0,0,,,,4,1
L8666,Class,JARClassLoader,org.gjt.sp.jedit.JARClassLoader,L8198,L103,3,13,8,0,4,0,0,0,0,1,1,0,0,0,0,0,0,0,0,1,3,2,16,0,0,0,0,0,0,0,,,,4,1
L8900,Class,MiscUtilities,org.gjt.sp.jedit.MiscUtilities,L8198,L103,0,28,24,0,10,0,0,0,0,0,0,0,0,0,0,0,0,0,0,0,0,0,53,0,0,0,0,0,0,0,,,,4,1
L9102,Class,FileCellRenderer,org.gjt.sp.jedit.browser.FileCellRenderer,L8714,L103,11,4,2,0,2,0,1,0,0,1,1,0,0,0,0,0,1,1,0,0,3,0,5,0,0,0,0,0,0,0,,,,4,1
L9657,Class,VFSFileChooserDialog,org.gjt.sp.jedit.browser.VFSFileChooserDialog,L8714,L103,5,6,5,0,1,0,0,0,0,2,2,0,3,1,0,0,1,1,0,0,3,0,4,0,0,0,0,0,0,0,,,,4,1
L11658,Class,DefaultInputHandler,org.gjt.sp.jedit.gui.DefaultInputHandler,L11205,L103,3,10,10,0,2,0,0,0,0,2,2,0,16,5,0,0,0,0,0,0,1,0,11,0,0,0,0,0,0,0,,,,5,1
L12524,Class,HelpViewer,org.gjt.sp.jedit.gui.HelpViewer,L11205,L103,9,9,6,0,0,0,1,0,0,1,1,0,0,0,0,0,0,0,0,0,7,0,9,0,0,0,0,0,0,0,,,,5,1
L13156,Class,KeyEventWorkaround,org.gjt.sp.jedit.gui.KeyEventWorkaround,L11205,L103,8,2,1,0,0,0,0,0,0,0,0,0,0,0,0,0,0,0,0,0,0,0,2,0,0,0,0,0,0,0,,,,5,1
L20405,Class,TextUtilities,org.gjt.sp.jedit.TextUtilities,L8198,L103,0,8,8,0,0,0,0,0,0,0,0,0,0,0,0,0,0,0,0,0,0,0,13,0,0,0,0,0,0,0,,,,5,1
L7820,Class,View,org.gjt.sp.jedit.View,L8198,L103,9,52,40,6,19,0,1,0,0,1,1,0,0,0,0,0,2,21,0,1,5,142,37,0,0,0,0,0,0,0,,,,5,1
L8621,Class,EditPane,org.gjt.sp.jedit.EditPane,L8198,L103,1,17,12,1,4,0,1,0,0,1,1,0,0,0,0,0,2,5,0,0,0,7,9,0,0,0,0,0,0,0,,,,5,1
L8723,Class,BrowserIORequest,org.gjt.sp.jedit.browser.BrowserIORequest,L8714,L103,8,7,3,0,0,0,0,0,0,1,1,0,4,0,0,0,1,1,1,0,2,0,6,0,0,0,0,0,0,0,,,,5,1
L11350,Class,BufferOptions,org.gjt.sp.jedit.gui.BufferOptions,L11205,L103,13,4,3,0,0,0,0,0,0,2,2,0,3,1,0,0,0,3,0,0,4,0,2,0,0,0,0,0,0,0,,,,6,1
L11660,Class,InputHandler,org.gjt.sp.jedit.gui.InputHandler,L11205,L103,5,16,14,2,5,0,0,1,1,1,1,1,0,0,0,0,0,3,0,0,1,3,9,0,0,0,0,0,0,0,,,,6,1
L12949,Class,Macros,org.gjt.sp.jedit.Macros,L8198,L103,6,17,15,0,3,0,0,0,0,0,0,0,0,0,0,0,0,0,0,0,3,0,27,0,0,0,0,0,0,0,,,,6,1
L8879,Class,FileVFS,org.gjt.sp.jedit.io.FileVFS,L14285,L103,4,19,19,1,4,0,0,0,0,1,1,0,22,7,0,0,0,0,0,0,2,0,48,0,0,0,0,0,0,0,,,,6,1
L8965,Class,SearchDialog,org.gjt.sp.jedit.search.SearchDialog,L17738,L103,22,11,4,0,0,0,0,0,0,2,2,0,3,1,0,0,0,1,1,0,3,0,8,0,0,0,0,0,0,0,,,,7,1
L11005,Class,Gutter,org.gjt.sp.jedit.textarea.Gutter,L18919,L103,15,25,25,10,10,0,1,0,0,1,1,0,0,0,0,0,2,3,0,0,4,1,19,0,0,0,0,0,0,0,,,,8,1
L13960,Class,GUIUtilities,org.gjt.sp.jedit.GUIUtilities,L8198,L103,8,37,34,0,5,0,0,0,0,0,0,0,0,0,0,0,0,1,0,0,2,0,82,0,0,0,0,0,0,0,,,,8,1
L8006,Class,DockableWindowManager,org.gjt.sp.jedit.gui.DockableWindowManager,L11205,L103,11,16,16,0,6,0,0,0,0,1,1,0,0,0,0,0,0,1,0,1,3,2,15,0,0,0,0,0,0,0,,,,8,1
L18103,Class,SearchAndReplace,org.gjt.sp.jedit.search.SearchAndReplace,L17738,L103,7,29,27,9,10,0,0,0,0,0,0,0,0,0,0,0,2,2,0,0,1,0,21,0,0,0,0,0,0,0,,,,9,1
L9962,Class,BufferIORequest,org.gjt.sp.jedit.io.BufferIORequest,L14285,L103,11,11,3,0,0,0,0,0,0,1,1,0,4,0,0,0,1,3,0,0,2,0,15,0,0,0,0,0,0,0,,,,9,1
L10968,Class,TextAreaPainter,org.gjt.sp.jedit.textarea.TextAreaPainter,L18919,L103,16,45,39,15,20,0,1,0,0,1,1,0,0,0,0,0,2,2,1,0,2,1,30,0,0,0,0,0,0,0,,,,16,1
L8982,Class,BrowserView,org.gjt.sp.jedit.browser.BrowserView,L8714,L103,8,11,8,0,2,0,0,0,0,1,1,0,0,0,0,0,3,3,0,0,6,1,11,0,0,0,0,0,0,0,,,,17,1
L8740,Class,VFSBrowser,org.gjt.sp.jedit.browser.VFSBrowser,L8714,L103,20,36,25,3,10,0,2,0,0,1,1,0,0,0,0,0,4,5,2,0,4,7,25,0,0,0,0,0,0,0,,,,18,1
L10622,Class,jEdit,org.gjt.sp.jedit.jEdit,L8198,L103,18,94,67,4,30,0,0,0,0,0,0,0,0,0,0,0,3,4,0,0,5,0,128,0,0,0,0,0,0,0,,,,23,1
L8254,Class,Buffer,org.gjt.sp.jedit.Buffer,L8198,L103,38,108,90,10,38,0,1,0,0,1,1,0,0,0,0,0,4,10,0,1,7,82,49,0,0,0,0,0,0,0,,,,25,1
L8245,Class,JEditTextArea,org.gjt.sp.jedit.textarea.JEditTextArea,L18919,L103,35,185,169,20,52,0,0,0,0,1,1,0,0,0,0,0,4,7,0,0,11,21,47,0,0,0,0,0,0,0,,,,45,1
