ID,Type,Name,LongName,parent,Component,NumAttr,NumOps,NumPubOps,Setters,Getters,Nesting,IFImpl,NOC,NumDesc,NumAnc,DIT,CLD,OpsInh,AttrInh,Dep_Out,Dep_In,NumAssEl_ssc,NumAssEl_sb,NumAssEl_nsb,EC_Attr,IC_Attr,EC_Par,IC_Par,Connectors,InstSpec,LLInst,MsgSent,MsgRecv,MsgSelf,Diags,Assoc,NumDirClients,NumIndClients,BugNo,Label
L10188,Class,Capabilities,org.gjt.sp.jedit.bsh.Capabilities,L9395,L103,2,5,5,1,0,0,0,0,0,0,0,0,0,0,0,0,0,0,0,0,1,0,1,0,0,0,0,0,0,0,,,,0,0
L10212,Class,BSHEnhancedForStatement,org.gjt.sp.jedit.bsh.BSHEnhancedForStatement,L9395,L103,1,2,1,0,0,0,1,0,0,1,1,0,18,2,0,0,0,0,0,0,1,0,3,0,0,0,0,0,0,0,,,,0,0
L10221,Class,CollectionManager,org.gjt.sp.jedit.bsh.CollectionManager,L9395,L103,0,6,6,0,5,0,0,1,1,0,0,1,0,0,0,0,0,0,0,0,0,0,11,0,0,0,0,0,0,0,,,,0,0
L10228,Interface,BshIterator,org.gjt.sp.jedit.bsh.BshIterator,L9395,L103,,2,,,,,,,0,0,,,,,,,,,,0,,2,1,,,,,,,0,0,2,0,0,0
L10248,Class,BSHFormalComment,org.gjt.sp.jedit.bsh.BSHFormalComment,L9395,L103,1,1,1,0,0,0,0,0,0,1,1,0,18,2,0,0,0,0,0,0,1,0,0,0,0,0,0,0,0,0,,,,0,0
L10252,Class,BSHFormalParameter,org.gjt.sp.jedit.bsh.BSHFormalParameter,L9395,L103,3,3,2,0,1,0,0,0,0,1,1,0,18,2,0,0,0,0,0,0,2,0,7,0,0,0,0,0,0,0,,,,0,0
L10272,Class,BSHFormalParameters,org.gjt.sp.jedit.bsh.BSHFormalParameters,L9395,L103,4,5,3,0,2,0,0,0,0,1,1,0,18,2,0,0,2,2,0,0,2,1,8,0,0,0,0,0,0,0,,,,0,0
L10301,Class,BSHForStatement,org.gjt.sp.jedit.bsh.BSHForStatement,L9395,L103,4,2,1,0,0,0,1,0,0,1,1,0,18,2,0,0,1,1,0,0,0,0,3,0,0,0,0,0,0,0,,,,0,0
L10325,Class,BSHIfStatement,org.gjt.sp.jedit.bsh.BSHIfStatement,L9395,L103,0,3,2,0,0,0,0,0,0,1,1,0,18,2,0,0,0,0,0,0,0,0,6,0,0,0,0,0,0,0,,,,0,0
L10334,Class,BSHImportDeclaration,org.gjt.sp.jedit.bsh.BSHImportDeclaration,L9395,L103,3,2,1,0,0,0,0,0,0,1,1,0,18,2,0,0,0,0,0,0,0,0,3,0,0,0,0,0,0,0,,,,0,0
L10351,Class,BSHLiteral,org.gjt.sp.jedit.bsh.BSHLiteral,L9395,L103,1,5,2,0,1,0,0,0,0,1,1,0,18,2,0,0,0,0,0,0,1,0,5,0,0,0,0,0,0,0,,,,0,0
L10390,Class,BSHMethodDeclaration,org.gjt.sp.jedit.bsh.BSHMethodDeclaration,L9395,L103,4,8,2,0,2,0,0,0,0,1,1,0,18,2,0,0,4,4,0,0,2,1,14,0,0,0,0,0,0,0,,,,0,0
L10501,Class,BSHReturnType,org.gjt.sp.jedit.bsh.BSHReturnType,L9395,L103,1,4,2,0,2,0,0,0,0,1,1,0,18,2,0,0,2,2,0,0,0,2,8,0,0,0,0,0,0,0,,,,0,0
L10546,Class,BSHMethodInvocation,org.gjt.sp.jedit.bsh.BSHMethodInvocation,L9395,L103,0,4,1,0,2,0,0,0,0,1,1,0,18,2,0,0,0,0,0,0,0,0,5,0,0,0,0,0,0,0,,,,0,0
L10561,Class,BSHPackageDeclaration,org.gjt.sp.jedit.bsh.BSHPackageDeclaration,L9395,L103,0,2,2,0,0,0,0,0,0,1,1,0,18,2,0,0,0,0,0,0,0,0,3,0,0,0,0,0,0,0,,,,0,0
L10586,Class,BSHPrimarySuffix,org.gjt.sp.jedit.bsh.BSHPrimarySuffix,L9395,L103,7,6,1,0,1,0,0,0,0,1,1,0,18,2,0,0,0,0,0,0,2,0,20,0,0,0,0,0,0,0,,,,0,0
L10667,Class,BSHReturnStatement,org.gjt.sp.jedit.bsh.BSHReturnStatement,L9395,L103,1,2,1,0,0,0,1,0,0,1,1,0,18,2,0,0,0,0,0,0,0,0,3,0,0,0,0,0,0,0,,,,0,0
L10688,Class,BSHStatementExpressionList,org.gjt.sp.jedit.bsh.BSHStatementExpressionList,L9395,L103,0,2,1,0,0,0,0,0,0,1,1,0,18,2,0,0,0,0,0,0,0,0,3,0,0,0,0,0,0,0,,,,0,0
L10694,Class,BSHSwitchLabel,org.gjt.sp.jedit.bsh.BSHSwitchLabel,L9395,L103,1,2,2,0,0,0,0,0,0,1,1,0,18,2,0,0,0,0,0,0,0,0,3,0,0,0,0,0,0,0,,,,0,0
L10702,Class,BSHSwitchStatement,org.gjt.sp.jedit.bsh.BSHSwitchStatement,L9395,L103,0,3,2,0,0,0,1,0,0,1,1,0,18,2,0,0,0,0,0,0,0,0,7,0,0,0,0,0,0,0,,,,0,0
L10718,Class,BSHTernaryExpression,org.gjt.sp.jedit.bsh.BSHTernaryExpression,L9395,L103,0,2,1,0,0,0,0,0,0,1,1,0,18,2,0,0,0,0,0,0,0,0,3,0,0,0,0,0,0,0,,,,0,0
L10725,Class,BSHThrowStatement,org.gjt.sp.jedit.bsh.BSHThrowStatement,L9395,L103,0,2,1,0,0,0,0,0,0,1,1,0,18,2,0,0,0,0,0,0,0,0,3,0,0,0,0,0,0,0,,,,0,0
L10731,Class,BSHTryStatement,org.gjt.sp.jedit.bsh.BSHTryStatement,L9395,L103,0,2,1,0,0,0,0,0,0,1,1,0,18,2,0,0,0,0,0,0,0,0,3,0,0,0,0,0,0,0,,,,0,0
L10737,Interface,Node,org.gjt.sp.jedit.bsh.Node,L9395,L103,,7,,,,,,,0,1,,,,,,,,,,0,,18,4,,,,,,,0,1,1,0,0,0
L10795,Class,BSHTypedVariableDeclaration,org.gjt.sp.jedit.bsh.BSHTypedVariableDeclaration,L9395,L103,0,6,2,0,3,0,0,0,0,1,1,0,18,2,0,0,1,1,0,0,0,0,12,0,0,0,0,0,0,0,,,,0,0
L10805,Class,BSHVariableDeclarator,org.gjt.sp.jedit.bsh.BSHVariableDeclarator,L9395,L103,1,3,2,0,0,0,0,0,0,1,1,0,18,2,0,0,0,0,0,0,1,1,5,0,0,0,0,0,0,0,,,,0,0
L10825,Class,BSHUnaryExpression,org.gjt.sp.jedit.bsh.BSHUnaryExpression,L9395,L103,2,5,1,0,0,0,1,0,0,1,1,0,18,2,0,0,0,0,0,0,0,0,9,0,0,0,0,0,0,0,,,,0,0
L10898,Class,BSHWhileStatement,org.gjt.sp.jedit.bsh.BSHWhileStatement,L9395,L103,1,2,1,0,0,0,1,0,0,1,1,0,18,2,0,0,0,0,0,0,0,0,3,0,0,0,0,0,0,0,,,,0,0
L10963,Class,ClassGenerator,org.gjt.sp.jedit.bsh.ClassGenerator,L9395,L103,0,4,4,1,1,0,0,1,1,0,0,1,0,0,0,0,0,0,0,0,0,0,16,0,0,0,0,0,0,0,,,,0,0
L10988,Class,ClassGeneratorImpl,org.gjt.sp.jedit.bsh.ClassGeneratorImpl,L9395,L103,0,7,5,1,2,0,0,0,0,1,1,0,4,0,0,0,0,0,0,0,0,0,39,0,0,0,0,0,0,0,,,,0,0
L11035,Class,Variable,org.gjt.sp.jedit.bsh.Variable,L9395,L103,6,12,7,1,6,0,1,0,0,0,0,0,0,0,0,0,3,3,0,0,3,8,22,0,0,0,0,0,0,0,,,,0,0
L11041,Class,DelayedEvalBshMethod,org.gjt.sp.jedit.bsh.DelayedEvalBshMethod,L9395,L103,2,5,4,0,4,0,0,0,0,1,1,0,14,7,0,0,5,5,0,0,1,2,15,0,0,0,0,0,0,0,,,,0,0
L11047,Class,ClassGeneratorUtil,org.gjt.sp.jedit.bsh.ClassGeneratorUtil,L9395,L103,14,22,6,0,8,0,1,0,0,0,0,0,0,0,0,0,4,4,0,0,3,0,63,0,0,0,0,0,0,0,,,,0,0
L11126,Interface,Constants,org.gjt.sp.jedit.bsh.org.objectweb.asm.Constants,L13799,L103,,0,,,,,,,0,0,,,,,,,,,,0,,0,0,,,,,,,0,0,1,0,0,0
L11193,Class,ClassWriter,org.gjt.sp.jedit.bsh.org.objectweb.asm.ClassWriter,L13799,L103,39,22,7,0,1,0,1,0,0,0,0,0,0,0,0,0,3,3,0,0,0,5,44,0,0,0,0,0,0,0,,,,0,0
L11258,Interface,CodeVisitor,org.gjt.sp.jedit.bsh.org.objectweb.asm.CodeVisitor,L13799,L103,,17,,,,,,,0,0,,,,,,,,,,0,,7,24,,,,,,,0,0,1,0,0,0
L11291,Class,Type,org.gjt.sp.jedit.bsh.org.objectweb.asm.Type,L13799,L103,15,23,18,0,21,0,0,0,0,0,0,0,0,0,0,0,0,0,0,0,0,0,19,0,0,0,0,0,0,0,,,,0,0
L11316,Class,Label,org.gjt.sp.jedit.bsh.org.objectweb.asm.Label,L13799,L103,7,4,1,0,0,0,0,0,0,0,0,0,0,0,0,0,2,2,0,0,0,27,3,0,0,0,0,0,0,0,,,,0,0
L11519,Class,BshClassLoader,org.gjt.sp.jedit.bsh.classpath.BshClassLoader,L11512,L103,0,7,4,0,1,0,0,1,1,1,1,1,0,0,0,0,1,2,0,0,0,0,11,0,0,0,0,0,0,0,,,,0,0
L11536,Class,BshClassPath,org.gjt.sp.jedit.bsh.classpath.BshClassPath,L11512,L103,12,49,29,2,14,0,2,0,0,0,0,0,0,0,0,0,1,1,0,0,7,2,51,0,0,0,0,0,0,0,,,,0,0
L11579,Interface,ClassPathListener,org.gjt.sp.jedit.bsh.classpath.ClassPathListener,L11512,L103,,1,,,,,,,0,0,,,,,,,,,,0,,2,0,,,,,,,0,0,1,0,0,0
L11582,Interface,NameSource,org.gjt.sp.jedit.bsh.NameSource,L9395,L103,,2,,,,,,,0,0,,,,,,,,,,0,,1,2,,,,,,,0,0,2,0,0,0
L11672,Class,ClassPathException,org.gjt.sp.jedit.bsh.ClassPathException,L9395,L103,0,1,1,0,0,0,0,0,0,2,2,0,4,0,0,0,0,0,0,0,0,0,1,0,0,0,0,0,0,0,,,,0,0
L11985,Class,DiscreteFilesClassLoader,org.gjt.sp.jedit.bsh.classpath.DiscreteFilesClassLoader,L11512,L103,1,3,3,0,0,0,0,0,0,2,2,0,7,0,0,0,0,0,0,0,1,0,5,0,0,0,0,0,0,0,,,,0,0
L12069,Class,CollectionIterator,org.gjt.sp.jedit.bsh.collection.CollectionIterator,L12065,L103,1,4,3,0,1,0,1,0,0,0,0,0,0,0,0,0,0,0,0,0,1,0,4,0,0,0,0,0,0,0,,,,0,0
L12087,Class,CollectionManagerImpl,org.gjt.sp.jedit.bsh.collection.CollectionManagerImpl,L12065,L103,0,4,4,0,3,0,0,0,0,1,1,0,6,0,0,0,0,0,0,0,0,0,10,0,0,0,0,0,0,0,,,,0,0
L121,Class,HandlerBase,com.microstar.xml.HandlerBase,L106,L103,0,13,13,0,0,0,1,0,0,0,0,0,0,0,0,0,0,0,0,0,0,0,16,0,0,0,0,0,0,0,,,,0,0
L12147,Class,CommandLineReader,org.gjt.sp.jedit.bsh.CommandLineReader,L9395,L103,4,4,4,0,0,0,0,0,0,1,1,0,0,0,0,0,0,0,0,0,0,0,2,0,0,0,0,0,0,0,,,,0,0
L12186,Class,dir,org.gjt.sp.jedit.bsh.commands.dir,L12183,L103,1,3,3,0,0,0,0,0,0,0,0,0,0,0,0,0,0,0,0,0,1,0,6,0,0,0,0,0,0,0,,,,0,0
L12226,Interface,ConsoleInterface,org.gjt.sp.jedit.bsh.ConsoleInterface,L9395,L103,,6,,,,,,,0,0,,,,,,,,,,0,,3,6,,,,,,,0,1,1,0,0,0
L12307,Class,ExternalNameSpace,org.gjt.sp.jedit.bsh.ExternalNameSpace,L9395,L103,1,15,11,4,6,0,0,0,0,1,1,0,74,16,0,0,0,0,0,0,1,0,24,0,0,0,0,0,0,0,,,,0,0
L12410,Class,Parser,org.gjt.sp.jedit.bsh.Parser,L9395,L103,6,351,88,1,3,0,2,0,0,0,0,0,0,0,0,0,5,5,0,0,1,0,19,0,0,0,0,0,0,0,,,,0,0
L12539,Class,ParseException,org.gjt.sp.jedit.bsh.ParseException,L9395,L103,5,11,10,1,5,0,0,0,0,2,2,0,12,1,0,0,1,1,0,0,1,2,11,0,0,0,0,0,0,0,,,,0,0
L12549,Class,TokenMgrError,org.gjt.sp.jedit.bsh.TokenMgrError,L9395,L103,5,6,4,0,1,0,0,0,0,1,1,0,0,0,0,0,0,0,0,0,0,0,7,0,0,0,0,0,0,0,,,,0,0
L126,Interface,XmlHandler,com.microstar.xml.XmlHandler,L106,L103,,13,,,,,,,0,0,,,,,,,,,,0,,1,16,,,,,,,0,1,1,0,0,0
L12670,Class,JJTParserState,org.gjt.sp.jedit.bsh.JJTParserState,L9395,L103,5,12,0,0,0,0,0,0,0,0,0,0,0,0,0,0,1,1,0,0,1,1,8,0,0,0,0,0,0,0,,,,0,0
L12676,Class,JavaCharStream,org.gjt.sp.jedit.bsh.JavaCharStream,L9395,L103,17,31,25,0,6,0,0,0,0,0,0,0,0,0,0,0,2,2,0,0,1,5,13,0,0,0,0,0,0,0,,,,0,0
L12898,Class,JThis,org.gjt.sp.jedit.bsh.JThis,L9395,L103,0,86,84,0,0,0,33,0,0,1,1,0,11,0,0,0,0,0,0,0,0,0,88,0,0,0,0,0,0,0,,,,0,0
L13296,Class,UtilTargetError,org.gjt.sp.jedit.bsh.UtilTargetError,L9395,L103,1,3,3,0,0,0,0,0,0,2,2,0,4,0,0,0,0,0,0,0,1,0,7,0,0,0,0,0,0,0,,,,0,0
L13813,Class,ByteVector,org.gjt.sp.jedit.bsh.org.objectweb.asm.ByteVector,L13799,L103,2,11,10,0,0,0,0,0,0,0,0,0,0,0,0,0,2,2,0,0,0,2,1,0,0,0,0,0,0,0,,,,0,0
L13862,Interface,ClassVisitor,org.gjt.sp.jedit.bsh.org.objectweb.asm.ClassVisitor,L13799,L103,,5,,,,,,,0,0,,,,,,,,,,0,,0,14,,,,,,,0,0,1,0,0,0
L13922,Class,Item,org.gjt.sp.jedit.bsh.org.objectweb.asm.Item,L13799,L103,10,8,0,5,1,0,0,0,0,0,0,0,0,0,0,0,2,2,0,0,1,15,3,0,0,0,0,0,0,0,,,,0,0
L13948,Class,CodeWriter,org.gjt.sp.jedit.bsh.org.objectweb.asm.CodeWriter,L13799,L103,14,31,17,0,5,0,1,0,0,0,0,0,0,0,0,0,5,5,0,0,0,2,31,0,0,0,0,0,0,0,,,,0,0
L14327,Class,Edge,org.gjt.sp.jedit.bsh.org.objectweb.asm.Edge,L13799,L103,1,0,0,0,0,0,0,0,0,0,0,0,0,0,0,0,2,2,0,0,0,0,0,0,0,0,0,0,0,0,,,,0,0
L15035,Class,Token,org.gjt.sp.jedit.bsh.Token,L9395,L103,6,2,2,0,0,0,1,0,0,0,0,0,0,0,0,0,3,3,0,0,1,6,1,0,0,0,0,0,0,0,,,,0,0
L15089,Interface,ParserTreeConstants,org.gjt.sp.jedit.bsh.ParserTreeConstants,L9395,L103,,0,,,,,,,0,0,,,,,,,,,,0,,0,0,,,,,,,0,0,1,0,0,0
L16171,Class,ParserTokenManager,org.gjt.sp.jedit.bsh.ParserTokenManager,L9395,L103,24,50,7,1,1,0,1,0,0,0,0,0,0,0,0,0,2,2,0,0,2,2,7,0,0,0,0,0,0,0,,,,0,0
L16721,Class,Reflect,org.gjt.sp.jedit.bsh.Reflect,L9395,L103,0,40,14,2,16,0,0,0,0,0,0,0,0,0,0,0,0,0,0,0,0,0,119,0,0,0,0,0,0,0,,,,0,0
L16956,Class,ReflectManagerImpl,org.gjt.sp.jedit.bsh.reflect.ReflectManagerImpl,L16953,L103,0,1,1,1,0,0,0,0,0,1,1,0,3,0,0,0,0,0,0,0,0,0,1,0,0,0,0,0,0,0,,,,0,0
L16958,Class,ReflectManager,org.gjt.sp.jedit.bsh.ReflectManager,L9395,L103,0,3,3,1,1,0,0,1,1,0,0,1,0,0,0,0,0,0,0,0,0,0,2,0,0,0,0,0,0,0,,,,0,0
L16989,Class,Remote,org.gjt.sp.jedit.bsh.Remote,L9395,L103,0,6,2,0,1,0,0,0,0,0,0,0,0,0,0,0,0,0,0,0,0,0,13,0,0,0,0,0,0,0,,,,0,0
L17102,Class,StringUtil,org.gjt.sp.jedit.bsh.StringUtil,L9395,L103,0,5,5,0,0,0,0,0,0,0,0,0,0,0,0,0,0,0,0,0,0,0,13,0,0,0,0,0,0,0,,,,0,0
L17245,Class,Types,org.gjt.sp.jedit.bsh.Types,L9395,L103,8,11,2,0,7,0,0,0,0,0,0,0,0,0,0,0,1,1,0,0,0,0,27,0,0,0,0,0,0,0,,,,0,0
L17367,Class,XThis,org.gjt.sp.jedit.bsh.XThis,L9395,L103,2,4,4,0,2,0,0,0,0,1,1,0,11,0,0,0,0,0,0,0,2,0,7,0,0,0,0,0,0,0,,,,0,0
L17436,Class,SaveCaretInfoVisitor,org.gjt.sp.jedit.visitors.SaveCaretInfoVisitor,L52406,L103,0,1,1,0,0,0,0,0,0,1,1,0,3,0,0,0,0,0,0,0,0,0,1,0,0,0,0,0,0,0,,,,0,0
L17489,Class,IntegerArray,org.gjt.sp.util.IntegerArray,L52433,L103,2,8,8,1,3,0,0,0,0,0,0,0,0,0,0,0,0,0,1,0,0,4,0,0,0,0,0,0,0,0,,,,0,0
L17534,Class,BufferAutosaveRequest,org.gjt.sp.jedit.bufferio.BufferAutosaveRequest,L20438,L103,0,2,2,0,0,0,0,0,0,2,2,0,15,18,0,0,0,0,0,0,0,0,5,0,0,0,0,0,0,0,,,,0,0
L17741,Interface,BufferChangeListener,org.gjt.sp.jedit.buffer.BufferChangeListener,L18248,L103,,7,,,,,,,0,0,,,,,,,,,,1,,5,7,,,,,,,0,0,1,0,0,0
L17764,Interface,BufferListener,org.gjt.sp.jedit.buffer.BufferListener,L18248,L103,,8,,,,,,,0,0,,,,,,,,,,1,,6,8,,,,,,,0,1,3,0,0,0
L17819,Class,ParserRuleSet,org.gjt.sp.jedit.syntax.ParserRuleSet,L45404,L103,12,31,31,9,17,0,0,0,0,0,0,0,0,0,0,0,7,7,0,3,3,23,20,0,0,0,0,0,0,0,,,,0,0
L17834,Class,Mode,org.gjt.sp.jedit.Mode,L5503,L103,6,21,18,3,7,0,0,1,1,0,0,1,0,0,0,0,1,4,0,1,3,13,21,0,0,0,0,0,0,0,,,,0,0
L17863,Class,DefaultTokenHandler,org.gjt.sp.jedit.syntax.DefaultTokenHandler,L45404,L103,1,8,5,1,3,0,1,2,2,0,0,1,0,0,0,0,1,1,0,0,1,0,11,0,0,0,0,0,0,0,,,,0,0
L17870,Class,Token,org.gjt.sp.jedit.syntax.Token,L45404,L103,25,4,4,0,0,0,0,1,1,0,0,1,0,0,0,0,3,3,0,0,1,6,4,0,0,0,0,0,0,0,,,,0,0
L17906,Class,Marker,org.gjt.sp.jedit.Marker,L5503,L103,3,7,2,2,2,0,0,0,0,0,0,0,0,0,0,0,1,1,0,0,1,3,1,0,0,0,0,0,0,0,,,,0,0
L18003,Class,MarkersSaveRequest,org.gjt.sp.jedit.bufferio.MarkersSaveRequest,L20438,L103,4,3,2,0,0,0,0,0,0,1,1,0,6,1,0,0,0,2,1,0,2,0,6,0,0,0,0,0,0,0,,,,0,0
L18088,Class,JEditVisitorAdapter,org.gjt.sp.jedit.visitors.JEditVisitorAdapter,L52406,L103,0,3,3,0,0,0,1,2,2,0,0,1,0,0,0,0,0,0,0,0,0,0,3,0,0,0,0,0,0,0,,,,0,0
L18160,Class,FoldHandler,org.gjt.sp.jedit.buffer.FoldHandler,L18248,L103,2,9,8,0,6,0,0,3,3,0,0,1,0,0,0,0,2,2,0,0,1,6,11,0,0,0,0,0,0,0,,,,0,0
L18232,Class,SyntaxStyle,org.gjt.sp.jedit.syntax.SyntaxStyle,L45404,L103,3,4,4,0,3,0,0,0,0,0,0,0,0,0,0,0,2,2,2,1,2,21,6,0,0,0,0,0,0,0,,,,0,0
L18239,Class,StyleEditor,org.gjt.sp.jedit.gui.StyleEditor,L22305,L103,7,7,6,0,1,0,1,0,0,2,2,0,7,2,0,0,1,1,0,0,2,0,11,0,0,0,0,0,0,0,,,,0,0
L18268,Class,BufferAdapter,org.gjt.sp.jedit.buffer.BufferAdapter,L18248,L103,0,8,8,0,0,0,1,0,0,0,0,0,0,0,0,0,0,0,0,0,0,0,8,0,0,0,0,0,0,0,,,,0,0
L18326,Class,BufferChangeAdapter,org.gjt.sp.jedit.buffer.BufferChangeAdapter,L18248,L103,0,7,7,0,0,0,1,0,0,0,0,0,0,0,0,0,0,0,0,0,0,0,7,0,0,0,0,0,0,0,,,,0,0
L18555,Class,BufferSegment,org.gjt.sp.jedit.buffer.BufferSegment,L18248,L103,3,8,6,0,0,0,1,0,0,0,0,0,0,0,0,0,0,0,0,0,0,0,3,0,0,0,0,0,0,0,,,,0,0
L18601,Interface,BufferUndoListener,org.gjt.sp.jedit.buffer.BufferUndoListener,L18248,L103,,4,,,,,,,0,0,,,,,,,,,,0,,2,4,,,,,,,0,0,0,0,0,0
L18622,Class,ContentManager,org.gjt.sp.jedit.buffer.ContentManager,L18248,L103,4,12,9,0,4,0,0,0,0,0,0,0,0,0,0,0,1,1,0,0,0,0,6,0,0,0,0,0,0,0,,,,0,0
L18701,Class,DefaultFoldHandlerProvider,org.gjt.sp.jedit.buffer.DefaultFoldHandlerProvider,L18248,L103,0,3,3,0,2,0,1,0,0,0,0,0,0,0,0,0,1,1,0,0,0,0,4,0,0,0,0,0,0,0,,,,0,0
L18703,Interface,FoldHandlerProvider,org.gjt.sp.jedit.buffer.FoldHandlerProvider,L18248,L103,,2,,,,,,,0,0,,,,,,,,,,0,,0,3,,,,,,,0,1,2,0,0,0
L18727,Class,DummyFoldHandler,org.gjt.sp.jedit.buffer.DummyFoldHandler,L18248,L103,0,2,2,0,1,0,0,0,0,1,1,0,9,2,0,0,0,0,0,0,0,0,2,0,0,0,0,0,0,0,,,,0,0
L18740,Class,ExplicitFoldHandler,org.gjt.sp.jedit.buffer.ExplicitFoldHandler,L18248,L103,0,2,2,0,1,0,0,0,0,1,1,0,9,2,0,0,0,0,0,0,0,0,2,0,0,0,0,0,0,0,,,,0,0
L18815,Class,IndentFoldHandler,org.gjt.sp.jedit.buffer.IndentFoldHandler,L18248,L103,0,4,3,0,3,0,0,0,0,1,1,0,9,2,0,0,0,0,0,0,0,0,6,0,0,0,0,0,0,0,,,,0,0
L18878,Class,LineManager,org.gjt.sp.jedit.buffer.LineManager,L18248,L103,8,17,15,5,7,0,0,0,0,0,0,0,0,0,0,0,1,1,0,0,1,0,5,0,0,0,0,0,0,0,,,,0,0
L18885,Class,PositionManager,org.gjt.sp.jedit.buffer.PositionManager,L18248,L103,2,4,4,0,0,0,0,0,0,0,0,0,0,0,0,0,1,1,0,0,1,0,2,0,0,0,0,0,0,0,,,,0,0
L18890,Class,UndoManager,org.gjt.sp.jedit.buffer.UndoManager,L18248,L103,11,18,14,1,3,0,0,0,0,0,0,0,0,0,0,0,1,1,0,0,3,0,7,0,0,0,0,0,0,0,,,,0,0
L18927,Class,TokenMarker,org.gjt.sp.jedit.syntax.TokenMarker,L45404,L103,8,14,6,0,3,0,0,0,0,0,0,0,0,0,0,0,5,6,1,0,2,6,18,0,0,0,0,0,0,0,,,,0,0
L19214,Interface,IndentRule,org.gjt.sp.jedit.indent.IndentRule,L32239,L103,,1,,,,,,,0,0,,,,,,,,,,0,,9,2,,,,,,,0,0,4,0,0,0
L19222,Interface,IndentAction,org.gjt.sp.jedit.indent.IndentAction,L32239,L103,,2,,,,,,,0,0,,,,,,,,,,0,,3,1,,,,,,,0,1,8,0,0,0
L19291,Interface,TokenHandler,org.gjt.sp.jedit.syntax.TokenHandler,L45404,L103,,2,,,,,,,0,0,,,,,,,,,,0,,3,3,,,,,,,0,1,5,0,0,0
L19429,Class,KeywordMap,org.gjt.sp.jedit.syntax.KeywordMap,L45404,L103,4,12,10,1,5,0,0,0,0,0,0,0,0,0,0,0,3,3,0,0,2,5,5,0,0,0,0,0,0,0,,,,0,0
L19748,Class,KillRing,org.gjt.sp.jedit.buffer.KillRing,L18248,L103,3,16,11,1,3,0,1,1,1,0,0,1,0,0,0,0,0,0,0,0,1,0,8,0,0,0,0,0,0,0,,,,0,0
L19750,Interface,MutableListModel,org.gjt.sp.jedit.gui.MutableListModel,L22305,L103,,2,,,,,,,0,1,,,,,,,,,,0,,1,2,,,,,,,0,1,2,0,0,0
L198,Class,XmlException,com.microstar.xml.XmlException,L106,L103,4,5,5,0,4,0,0,0,0,1,1,0,0,0,0,0,0,0,0,0,1,0,4,0,0,0,0,0,0,0,,,,0,0
L20235,Class,BufferHistory,org.gjt.sp.jedit.BufferHistory,L5503,L103,2,12,6,1,2,0,0,0,0,0,0,0,0,0,0,0,1,1,0,0,2,0,14,0,0,0,0,0,0,0,,,,0,0
L20332,Class,SettingsXML,org.gjt.sp.jedit.SettingsXML,L5503,L103,2,7,7,0,1,0,0,0,0,0,0,0,0,0,0,0,4,4,0,0,1,0,6,0,0,0,0,0,0,0,,,,0,0
L20404,Class,DynamicMenuChanged,org.gjt.sp.jedit.msg.DynamicMenuChanged,L37588,L103,1,3,3,0,1,0,0,0,0,1,1,0,5,1,0,0,0,0,0,0,1,0,3,0,0,0,0,0,0,0,,,,0,0
L20448,Class,BufferIORequest,org.gjt.sp.jedit.bufferio.BufferIORequest,L20438,L103,17,9,3,0,4,0,0,4,4,1,1,1,6,1,0,0,0,2,1,0,2,0,18,0,0,0,0,0,0,0,,,,0,0
L20479,Class,BufferInsertRequest,org.gjt.sp.jedit.bufferio.BufferInsertRequest,L20438,L103,0,2,2,0,0,0,0,0,0,2,2,0,15,18,0,0,0,0,0,0,0,0,5,0,0,0,0,0,0,0,,,,0,0
L20495,Class,SegmentBuffer,org.gjt.sp.util.SegmentBuffer,L52433,L103,0,4,3,0,0,0,0,0,0,1,1,0,0,0,0,0,0,0,0,0,0,1,0,0,0,0,0,0,0,0,,,,0,0
L20580,Interface,Encoding,org.gjt.sp.jedit.io.Encoding,L32901,L103,,3,,,,,,,0,0,,,,,,,,,,0,,3,6,,,,,,,0,0,2,0,0,0
L20625,Class,BufferLoadRequest,org.gjt.sp.jedit.bufferio.BufferLoadRequest,L20438,L103,0,7,2,0,2,0,0,0,0,2,2,0,15,18,0,0,0,0,0,0,0,0,10,0,0,0,0,0,0,0,,,,0,0
L20689,Interface,EncodingDetector,org.gjt.sp.jedit.io.EncodingDetector,L32901,L103,,1,,,,,,,0,0,,,,,,,,,,0,,1,2,,,,,,,0,0,3,0,0,0
L20713,Class,BufferSaveRequest,org.gjt.sp.jedit.bufferio.BufferSaveRequest,L20438,L103,0,4,2,0,0,0,0,0,0,2,2,0,15,18,0,0,0,0,0,0,0,0,6,0,0,0,0,0,0,0,,,,0,0
L20857,Interface,BufferSetListener,org.gjt.sp.jedit.bufferset.BufferSetListener,L20797,L103,,4,,,,,,,0,1,,,,,,,,,,0,,3,3,,,,,,,0,0,2,0,0,0
L20903,Class,BufferSetManager,org.gjt.sp.jedit.bufferset.BufferSetManager,L20797,L103,0,14,12,0,1,0,1,0,0,0,0,0,0,0,0,0,0,1,0,0,0,1,20,0,0,0,0,0,0,0,,,,0,0
L20966,Class,BufferSetAdapter,org.gjt.sp.jedit.bufferset.BufferSetAdapter,L20797,L103,0,4,4,0,0,0,1,1,1,0,0,1,0,0,0,0,0,0,0,0,0,0,3,0,0,0,0,0,0,0,,,,0,0
L21162,Class,Debug,org.gjt.sp.jedit.Debug,L5503,L103,22,0,0,0,0,0,0,0,0,0,0,0,0,0,0,0,0,0,0,0,0,0,0,0,0,0,0,0,0,0,,,,0,0
L21322,Class,EditBus,org.gjt.sp.jedit.EditBus,L5503,L103,1,9,6,0,1,0,0,0,0,0,0,0,0,0,0,0,0,0,0,0,1,0,9,0,0,0,0,0,0,0,,,,0,0
L21489,Class,BufferChanging,org.gjt.sp.jedit.msg.BufferChanging,L37588,L103,0,2,2,0,1,0,0,0,0,3,3,0,12,8,0,0,0,1,0,0,0,0,3,0,0,0,0,0,0,0,,,,0,0
L21553,Class,BufferSwitcher,org.gjt.sp.jedit.gui.BufferSwitcher,L22305,L103,1,2,2,0,0,0,0,0,0,1,1,0,0,0,0,0,0,1,0,0,0,1,1,0,0,0,0,0,0,0,,,,0,0
L21747,Class,AntiAlias,org.gjt.sp.jedit.textarea.AntiAlias,L46755,L103,5,8,8,1,0,0,0,0,0,1,1,0,0,0,0,0,1,1,0,0,1,2,4,0,0,0,0,0,0,0,,,,0,0
L21754,Class,MouseHandler,org.gjt.sp.jedit.textarea.MouseHandler,L46755,L103,0,3,3,0,0,0,0,0,0,2,2,0,15,9,0,0,1,1,0,0,0,0,3,0,0,0,0,0,0,0,,,,0,0
L21761,Class,TextAreaTransferHandler,org.gjt.sp.jedit.textarea.TextAreaTransferHandler,L46755,L103,4,8,3,0,1,0,0,0,0,1,1,0,0,0,0,0,1,1,0,0,0,0,16,0,0,0,0,0,0,0,,,,0,0
L21773,Class,Gutter,org.gjt.sp.jedit.textarea.Gutter,L46755,L103,31,47,41,21,16,0,1,0,0,1,1,0,0,0,0,0,3,3,2,0,6,10,29,0,0,0,0,0,0,0,,,,0,0
L21794,Interface,GutterPopupHandler,org.gjt.sp.jedit.textarea.GutterPopupHandler,L46755,L103,,1,,,,,,,0,0,,,,,,,,,,1,,1,0,,,,,,,0,0,0,0,0,0
L21955,Class,StatusBar,org.gjt.sp.jedit.gui.StatusBar,L22305,L103,11,14,12,3,1,0,1,0,0,1,1,0,0,0,0,0,0,3,0,0,8,1,10,0,0,0,0,0,0,0,,,,0,0
L21967,Interface,StatusListener,org.gjt.sp.jedit.textarea.StatusListener,L46755,L103,,3,,,,,,,0,1,,,,,,,,,,0,,2,4,,,,,,,0,0,1,0,0,0
L21988,Class,TextAreaExtension,org.gjt.sp.jedit.textarea.TextAreaExtension,L46755,L103,0,4,4,0,1,0,0,8,8,0,0,1,0,0,0,0,0,0,0,1,0,12,4,0,0,0,0,0,0,0,,,,0,0
L22147,Class,EnhancedMenu,org.gjt.sp.jedit.menu.EnhancedMenu,L36542,L103,3,8,7,0,0,0,1,0,0,1,1,0,0,0,0,0,1,2,0,0,2,0,9,0,0,0,0,0,0,0,,,,0,0
L22167,Class,OptionsDialog,org.gjt.sp.jedit.gui.OptionsDialog,L22305,L103,7,17,8,0,1,0,2,2,2,2,2,1,7,2,0,0,1,2,0,0,5,1,20,0,0,0,0,0,0,0,,,,0,0
L22197,Class,EditServer,org.gjt.sp.jedit.EditServer,L5503,L103,5,8,4,0,2,0,0,0,0,1,1,0,0,0,0,0,1,1,0,0,2,1,8,0,0,0,0,0,0,0,,,,0,0
L22377,Class,AbbrevEditor,org.gjt.sp.jedit.gui.AbbrevEditor,L22305,L103,3,8,8,2,5,0,0,0,0,1,1,0,0,0,0,0,2,2,0,0,2,0,7,0,0,0,0,0,0,0,,,,0,0
L22626,Class,AbstractContextOptionPane,org.gjt.sp.jedit.gui.AbstractContextOptionPane,L22305,L103,9,8,0,0,1,0,0,1,1,2,2,1,17,4,0,0,0,0,0,0,5,0,6,0,0,0,0,0,0,0,,,,0,0
L22720,Class,ContextAddDialog,org.gjt.sp.jedit.gui.ContextAddDialog,L22305,L103,7,5,4,0,1,0,0,0,0,2,2,0,7,2,0,0,0,0,0,0,4,0,2,0,0,0,0,0,0,0,,,,0,0
L22735,Class,ActionBar,org.gjt.sp.jedit.gui.ActionBar,L22305,L103,3,6,3,0,2,0,0,0,0,1,1,0,0,0,0,0,2,3,1,0,1,1,4,0,0,0,0,0,0,0,,,,0,0
L22798,Class,Macros,org.gjt.sp.jedit.Macros,L5503,L103,6,25,22,1,7,0,0,0,0,0,0,0,0,0,0,0,1,1,0,0,5,0,42,0,0,0,0,0,0,0,,,,0,0
L23004,Class,AnimatedIcon,org.gjt.sp.jedit.gui.AnimatedIcon,L22305,L103,6,9,9,3,3,0,0,0,0,1,1,0,0,0,0,0,0,0,0,0,3,0,7,0,0,0,0,0,0,0,,,,0,0
L23073,Class,TextAreaDialog,org.gjt.sp.jedit.gui.TextAreaDialog,L22305,L103,0,7,6,0,0,0,0,1,1,2,2,1,7,2,0,0,0,0,0,0,0,0,19,0,0,0,0,0,0,0,,,,0,0
L23085,Class,BufferOptions,org.gjt.sp.jedit.gui.BufferOptions,L22305,L103,2,3,3,0,0,0,0,0,0,2,2,0,7,2,0,0,0,2,1,0,1,0,2,0,0,0,0,0,0,0,,,,0,0
L23103,Class,BufferOptionPane,org.gjt.sp.jedit.options.BufferOptionPane,L38037,L103,11,3,1,0,0,0,0,0,0,2,2,0,17,4,0,0,0,2,1,0,2,0,0,0,0,0,0,0,0,0,,,,0,0
L23174,Class,CloseDialog,org.gjt.sp.jedit.gui.CloseDialog,L22305,L103,8,6,5,0,1,0,0,0,0,2,2,0,7,2,0,0,0,1,0,0,3,0,3,0,0,0,0,0,0,0,,,,0,0
L23255,Class,ColorWellButton,org.gjt.sp.jedit.gui.ColorWellButton,L22305,L103,0,3,3,1,1,0,0,0,0,1,1,0,0,0,0,0,1,1,3,0,0,0,3,0,0,0,0,0,0,0,,,,0,0
L23346,Class,CompleteWord,org.gjt.sp.jedit.gui.CompleteWord,L22305,L103,2,11,2,0,5,0,0,0,0,2,2,0,14,3,0,0,0,2,1,0,1,0,27,0,0,0,0,0,0,0,,,,0,0
L23349,Class,CompletionPopup,org.gjt.sp.jedit.gui.CompletionPopup,L22305,L103,3,14,8,1,2,0,0,1,1,1,1,1,0,0,0,0,0,1,0,0,3,0,11,0,0,0,0,0,0,0,,,,0,0
L23467,Class,StandardUtilities,org.gjt.sp.util.StandardUtilities,L52433,L103,0,20,19,0,9,0,0,0,0,0,0,0,0,0,0,0,0,0,0,0,0,0,29,0,0,0,0,0,0,0,,,,0,0
L23832,Class,DefaultInputHandler,org.gjt.sp.jedit.gui.DefaultInputHandler,L22305,L103,0,8,8,1,3,0,0,0,0,2,2,0,15,0,0,0,0,0,0,0,0,0,8,0,0,0,0,0,0,0,,,,0,0
L23835,Class,InputHandler,org.gjt.sp.jedit.gui.InputHandler,L22305,L103,0,15,10,1,2,0,0,1,1,1,1,1,0,0,0,0,0,2,0,0,0,3,11,0,0,0,0,0,0,0,,,,0,0
L23885,Class,KeyEventTranslator,org.gjt.sp.jedit.gui.KeyEventTranslator,L22305,L103,8,9,8,1,2,0,0,0,0,0,0,0,0,0,0,0,0,0,0,0,2,0,13,0,0,0,0,0,0,0,,,,0,0
L23935,Class,DockableLayout,org.gjt.sp.jedit.gui.DockableLayout,L22305,L103,11,14,13,2,3,0,1,0,0,0,0,0,0,0,0,0,1,1,0,0,2,0,18,0,0,0,0,0,0,0,,,,0,0
L23949,Class,DockablePanel,org.gjt.sp.jedit.gui.DockablePanel,L22305,L103,1,6,3,1,3,0,0,0,0,1,1,0,0,0,0,0,3,3,0,0,1,0,5,0,0,0,0,0,0,0,,,,0,0
L24060,Class,PanelWindowContainer,org.gjt.sp.jedit.gui.PanelWindowContainer,L22305,L103,13,17,13,1,7,0,2,0,0,0,0,0,0,0,0,0,2,2,0,0,9,7,12,0,0,0,0,0,0,0,,,,0,0
L24064,Class,DockableWindowManagerImpl,org.gjt.sp.jedit.gui.DockableWindowManagerImpl,L22305,L103,7,26,21,3,9,0,0,0,0,2,2,0,44,15,0,0,3,3,0,0,5,4,29,0,0,0,0,0,0,0,,,,0,0
L24175,Interface,DockableWindowContainer,org.gjt.sp.jedit.gui.DockableWindowContainer,L22305,L103,,5,,,,,,,0,0,,,,,,,,,,1,,1,5,,,,,,,0,0,2,0,0,0
L24187,Class,DockableWindowFactory,org.gjt.sp.jedit.gui.DockableWindowFactory,L22305,L103,1,10,9,0,5,0,0,0,0,0,0,0,0,0,0,0,1,1,0,0,1,4,15,0,0,0,0,0,0,0,,,,0,0
L24318,Class,MiscUtilities,org.gjt.sp.jedit.MiscUtilities,L5503,L103,8,69,65,0,26,0,0,0,0,0,0,0,0,0,0,0,0,0,0,0,4,0,124,0,0,0,0,0,0,0,,,,0,0
L24679,Class,DockableWindowUpdate,org.gjt.sp.jedit.msg.DockableWindowUpdate,L37588,L103,5,4,4,0,2,0,0,0,0,1,1,0,5,1,0,0,0,0,0,0,2,0,6,0,0,0,0,0,0,0,,,,0,0
L24973,Class,FloatingWindowContainer,org.gjt.sp.jedit.gui.FloatingWindowContainer,L22305,L103,4,10,10,0,3,0,2,0,0,1,1,0,0,0,0,0,1,1,0,0,3,0,9,0,0,0,0,0,0,0,,,,0,0
L25164,Class,DockableWindowManagerProvider,org.gjt.sp.jedit.gui.DockableWindowManagerProvider,L22305,L103,0,2,2,0,0,0,1,0,0,0,0,0,0,0,0,0,0,0,0,0,0,0,5,0,0,0,0,0,0,0,,,,0,0
L25166,Interface,DockingFrameworkProvider,org.gjt.sp.jedit.gui.DockingFrameworkProvider,L22305,L103,,2,,,,,,,0,0,,,,,,,,,,0,,1,5,,,,,,,0,1,1,0,0,0
L25182,Class,DockingLayoutManager,org.gjt.sp.jedit.gui.DockingLayoutManager,L22305,L103,8,18,7,0,3,0,1,0,0,0,0,0,0,0,0,0,0,1,0,0,2,0,20,0,0,0,0,0,0,0,,,,0,0
L25301,Class,DynamicContextMenuService,org.gjt.sp.jedit.gui.DynamicContextMenuService,L22305,L103,0,1,1,0,0,0,0,0,0,0,0,0,0,0,0,0,0,0,0,0,0,0,3,0,0,0,0,0,0,0,,,,0,0
L25309,Class,EditAbbrevDialog,org.gjt.sp.jedit.gui.EditAbbrevDialog,L22305,L103,5,6,4,0,2,0,0,0,0,1,1,0,0,0,0,0,1,1,0,0,3,0,13,0,0,0,0,0,0,0,,,,0,0
L25377,Class,EnhancedButton,org.gjt.sp.jedit.gui.EnhancedButton,L22305,L103,1,2,2,0,1,0,0,0,0,2,2,0,7,2,0,0,0,0,0,0,1,2,4,0,0,0,0,0,0,0,,,,0,0
L25484,Class,ErrorListDialog,org.gjt.sp.jedit.gui.ErrorListDialog,L22305,L103,2,3,3,0,0,0,0,0,0,2,2,0,7,2,0,0,0,0,0,0,1,0,4,0,0,0,0,0,0,0,,,,0,0
L25577,Class,ExtendedGridLayout,org.gjt.sp.jedit.gui.ExtendedGridLayout,L22305,L103,3,17,13,0,3,0,1,0,0,0,0,0,0,0,0,0,1,1,0,0,1,0,30,0,0,0,0,0,0,0,,,,0,0
L25582,Class,ExtendedGridLayoutConstraints,org.gjt.sp.jedit.gui.ExtendedGridLayoutConstraints,L22305,L103,9,19,11,1,12,0,0,0,0,0,0,0,0,0,0,0,0,0,0,0,1,1,7,0,0,0,0,0,0,0,,,,0,0
L25965,Class,FilesChangedDialog,org.gjt.sp.jedit.gui.FilesChangedDialog,L22305,L103,8,6,3,0,0,0,0,0,0,2,2,0,7,2,0,0,0,1,0,0,4,0,2,0,0,0,0,0,0,0,,,,0,0
L26145,Class,FilteredListModel<E extends ListModel>,org.gjt.sp.jedit.gui.FilteredListModel,L22305,L103,5,17,13,3,5,0,1,1,1,1,1,1,0,0,0,0,1,1,0,0,5,0,14,0,0,0,0,0,0,0,,,,0,0
L26277,Class,FilteredTableModel<E extends TableModel>,org.gjt.sp.jedit.gui.FilteredTableModel,L22305,L103,5,20,16,4,9,0,1,0,0,1,1,0,0,0,0,0,0,0,0,0,5,0,15,0,0,0,0,0,0,0,,,,0,0
L26538,Class,FontSelectorDialog,org.gjt.sp.jedit.gui.FontSelectorDialog,L22305,L103,11,11,3,0,2,0,0,0,0,2,2,0,7,2,0,0,1,1,0,0,5,0,17,0,0,0,0,0,0,0,,,,0,0
L26660,Class,GrabKeyDialog,org.gjt.sp.jedit.gui.GrabKeyDialog,L22305,L103,9,12,8,0,6,0,0,0,0,1,1,0,0,0,0,0,0,1,0,0,5,0,19,0,0,0,0,0,0,0,,,,0,0
L26915,Interface,HistoryModelSaver,org.gjt.sp.jedit.gui.HistoryModelSaver,L22305,L103,,2,,,,,,,0,0,,,,,,,,,,0,,1,3,,,,,,,0,1,1,0,0,0
L26926,Class,HistoryText,org.gjt.sp.jedit.gui.HistoryText,L22305,L103,5,19,19,4,6,0,0,0,0,0,0,0,0,0,0,0,3,3,0,0,3,0,8,0,0,0,0,0,0,0,,,,0,0
L27041,Class,ListModelEditor,org.gjt.sp.jedit.gui.ListModelEditor,L22305,L103,0,3,1,0,0,0,0,0,0,0,0,0,0,0,0,0,0,0,0,0,0,0,5,0,0,0,0,0,0,0,,,,0,0
L27064,Class,HistoryTextArea,org.gjt.sp.jedit.gui.HistoryTextArea,L22305,L103,0,9,7,3,2,0,0,0,0,1,1,0,0,0,0,0,1,1,1,0,0,0,6,0,0,0,0,0,0,0,,,,0,0
L27420,Class,IOProgressMonitor,org.gjt.sp.jedit.gui.IOProgressMonitor,L22305,L103,3,4,3,0,0,0,0,0,0,1,1,0,0,0,0,0,0,0,0,0,3,0,0,0,0,0,0,0,0,0,,,,0,0
L27515,Class,JCheckBoxList,org.gjt.sp.jedit.gui.JCheckBoxList,L22305,L103,1,10,9,2,4,0,0,0,0,1,1,0,0,0,0,0,0,0,1,0,1,0,8,0,0,0,0,0,0,0,,,,0,0
L27539,Class,CheckBoxListModel,org.gjt.sp.jedit.gui.CheckBoxListModel,L22305,L103,1,10,7,1,6,0,0,0,0,1,1,0,0,0,0,0,0,0,0,0,1,0,8,0,0,0,0,0,0,0,,,,0,0
L27680,Class,JEditHistoryModelSaver,org.gjt.sp.jedit.gui.JEditHistoryModelSaver,L22305,L103,3,3,2,0,0,0,1,0,0,0,0,0,0,0,0,0,0,0,0,0,2,0,5,0,0,0,0,0,0,0,,,,0,0
L27831,Class,KeyEventWorkaround,org.gjt.sp.jedit.gui.KeyEventWorkaround,L22305,L103,4,6,6,0,4,0,0,0,0,0,0,0,0,0,0,0,0,0,0,0,0,0,3,0,0,0,0,0,0,0,,,,0,0
L28108,Class,LogViewer,org.gjt.sp.jedit.gui.LogViewer,L22305,L103,6,10,6,2,0,0,2,0,0,1,1,0,0,0,0,0,1,1,0,0,5,0,1,0,0,0,0,0,0,0,,,,0,0
L282,Class,XmlParser,com.microstar.xml.XmlParser,L106,L103,91,117,27,8,20,0,0,0,0,0,0,0,0,0,0,0,1,1,0,0,7,0,116,0,0,0,0,0,0,0,,,,0,0
L28277,Class,MarkerViewer,org.gjt.sp.jedit.gui.MarkerViewer,L22305,L103,1,9,6,0,0,0,2,0,0,1,1,0,0,0,0,0,1,2,0,0,1,0,3,0,0,0,0,0,0,0,,,,0,0
L28362,Class,NumericTextField,org.gjt.sp.jedit.gui.NumericTextField,L22305,L103,1,3,2,0,0,0,0,0,0,1,1,0,0,0,0,0,0,0,0,0,0,0,3,0,0,0,0,0,0,0,,,,0,0
L28408,Class,OptionGroup,org.gjt.sp.jedit.OptionGroup,L5503,L103,4,13,12,1,6,0,0,0,0,0,0,0,0,0,0,0,0,1,0,1,2,7,13,0,0,0,0,0,0,0,,,,0,0
L28987,Class,PasteFromListDialog,org.gjt.sp.jedit.gui.PasteFromListDialog,L22305,L103,4,6,3,0,1,0,0,0,0,2,2,0,7,2,0,0,1,2,0,0,3,0,4,0,0,0,0,0,0,0,,,,0,0
L29076,Class,RegisterViewer,org.gjt.sp.jedit.gui.RegisterViewer,L22305,L103,6,9,6,0,0,0,3,0,0,1,1,0,0,0,0,0,0,1,0,0,5,0,5,0,0,0,0,0,0,0,,,,0,0
L29131,Class,RegisterChanged,org.gjt.sp.jedit.msg.RegisterChanged,L37588,L103,1,4,4,0,2,0,0,0,0,1,1,0,5,1,0,0,0,0,0,0,0,0,3,0,0,0,0,0,0,0,,,,0,0
L29163,Class,Registers,org.gjt.sp.jedit.Registers,L5503,L103,4,22,18,5,4,0,0,0,0,0,0,0,0,0,0,0,2,2,0,0,1,0,17,0,0,0,0,0,0,0,,,,0,0
L29282,Class,SelectLineRange,org.gjt.sp.jedit.gui.SelectLineRange,L22305,L103,4,5,4,0,0,0,1,0,0,2,2,0,7,2,0,0,0,1,0,0,2,0,3,0,0,0,0,0,0,0,,,,0,0
L29322,Class,ShortcutPrefixActiveEvent,org.gjt.sp.jedit.gui.ShortcutPrefixActiveEvent,L22305,L103,3,6,6,0,2,0,0,0,0,1,1,0,0,0,0,0,0,0,0,0,2,0,5,0,0,0,0,0,0,0,,,,0,0
L29369,Class,SplashScreen,org.gjt.sp.jedit.gui.SplashScreen,L22305,L103,13,7,5,0,0,0,0,0,0,1,1,0,0,0,0,0,0,1,0,0,6,0,5,0,0,0,0,0,0,0,,,,0,0
L29485,Class,ToolTipLabel,org.gjt.sp.jedit.gui.statusbar.ToolTipLabel,L29615,L103,0,1,1,0,1,0,0,0,0,1,1,0,0,0,0,0,0,1,0,0,0,0,2,0,0,0,0,0,0,0,,,,0,0
L29523,Interface,Widget,org.gjt.sp.jedit.gui.statusbar.Widget,L29615,L103,,3,,,,,,,0,0,,,,,,,,,,0,,16,1,,,,,,,0,1,13,0,0,0
L29604,Interface,StatusWidgetFactory,org.gjt.sp.jedit.gui.statusbar.StatusWidgetFactory,L29615,L103,,1,,,,,,,0,0,,,,,,,,,,0,,0,2,,,,,,,0,0,13,0,0,0
L29633,Class,BufferSetWidgetFactory,org.gjt.sp.jedit.gui.statusbar.BufferSetWidgetFactory,L29615,L103,0,1,1,0,1,0,1,0,0,0,0,0,0,0,0,0,0,0,0,0,0,0,2,0,0,0,0,0,0,0,,,,0,0
L29681,Class,ClockWidgetFactory,org.gjt.sp.jedit.gui.statusbar.ClockWidgetFactory,L29615,L103,0,1,1,0,1,0,1,0,0,0,0,0,0,0,0,0,0,0,0,0,0,0,2,0,0,0,0,0,0,0,,,,0,0
L29748,Class,EncodingWidgetFactory,org.gjt.sp.jedit.gui.statusbar.EncodingWidgetFactory,L29615,L103,0,1,1,0,1,0,1,0,0,0,0,0,0,0,0,0,0,0,0,0,0,0,2,0,0,0,0,0,0,0,,,,0,0
L29778,Class,ErrorsWidgetFactory,org.gjt.sp.jedit.gui.statusbar.ErrorsWidgetFactory,L29615,L103,0,1,1,0,1,0,1,0,0,0,0,0,0,0,0,0,0,0,0,0,0,0,2,0,0,0,0,0,0,0,,,,0,0
L29910,Class,FoldWidgetFactory,org.gjt.sp.jedit.gui.statusbar.FoldWidgetFactory,L29615,L103,0,1,1,0,1,0,1,0,0,0,0,0,0,0,0,0,0,0,0,0,0,0,2,0,0,0,0,0,0,0,,,,0,0
L29937,Class,LineSepWidgetFactory,org.gjt.sp.jedit.gui.statusbar.LineSepWidgetFactory,L29615,L103,0,1,1,0,1,0,1,0,0,0,0,0,0,0,0,0,0,0,0,0,0,0,2,0,0,0,0,0,0,0,,,,0,0
L29973,Class,MemoryStatusWidgetFactory,org.gjt.sp.jedit.gui.statusbar.MemoryStatusWidgetFactory,L29615,L103,0,1,1,0,1,0,1,0,0,0,0,0,0,0,0,0,0,0,0,0,0,0,2,0,0,0,0,0,0,0,,,,0,0
L30068,Class,ModeWidgetFactory,org.gjt.sp.jedit.gui.statusbar.ModeWidgetFactory,L29615,L103,0,1,1,0,1,0,1,0,0,0,0,0,0,0,0,0,0,0,0,0,0,0,2,0,0,0,0,0,0,0,,,,0,0
L30189,Class,SelectionLengthWidgetFactory,org.gjt.sp.jedit.gui.statusbar.SelectionLengthWidgetFactory,L29615,L103,0,1,1,0,1,0,1,0,0,0,0,0,0,0,0,0,0,0,0,0,0,0,2,0,0,0,0,0,0,0,,,,0,0
L30394,Class,TipOfTheDay,org.gjt.sp.jedit.gui.TipOfTheDay,L22305,L103,5,4,3,0,0,0,0,0,0,2,2,0,7,2,0,0,0,0,0,0,3,0,1,0,0,0,0,0,0,0,,,,0,0
L30442,Class,ToolBarManager,org.gjt.sp.jedit.gui.ToolBarManager,L22305,L103,4,5,3,0,0,0,0,0,0,0,0,0,0,0,0,0,0,1,0,0,2,0,10,0,0,0,0,0,0,0,,,,0,0
L30507,Class,VariableGridLayout,org.gjt.sp.jedit.gui.VariableGridLayout,L22305,L103,16,19,16,0,3,0,2,0,0,0,0,0,0,0,0,0,0,0,0,0,1,0,20,0,0,0,0,0,0,0,,,,0,0
L30632,Class,GUIUtilities,org.gjt.sp.jedit.GUIUtilities,L5503,L103,9,73,66,2,14,0,0,0,0,0,0,0,0,0,0,0,0,1,0,0,4,0,163,0,0,0,0,0,0,0,,,,0,0
L31259,Class,EnhancedCheckBoxMenuItem,org.gjt.sp.jedit.menu.EnhancedCheckBoxMenuItem,L36542,L103,2,3,3,0,1,0,0,0,0,1,1,0,0,0,0,0,0,1,0,0,1,0,5,0,0,0,0,0,0,0,,,,0,0
L31264,Class,EnhancedMenuItem,org.gjt.sp.jedit.menu.EnhancedMenuItem,L36542,L103,5,3,3,0,1,0,0,0,0,1,1,0,0,0,0,0,0,0,0,0,3,0,5,0,0,0,0,0,0,0,,,,0,0
L31333,Class,HelpHistoryModel,org.gjt.sp.jedit.help.HelpHistoryModel,L31323,L103,2,14,10,2,4,0,0,0,0,0,0,0,0,0,0,0,3,3,0,0,1,1,13,0,0,0,0,0,0,0,,,,0,0
L31346,Interface,HelpHistoryModelListener,org.gjt.sp.jedit.help.HelpHistoryModelListener,L31323,L103,,1,,,,,,,0,0,,,,,,,,,,0,,2,0,,,,,,,0,0,1,0,0,0
L31455,Class,HelpIndex,org.gjt.sp.jedit.help.HelpIndex,L31323,L103,3,10,7,0,1,0,0,0,0,0,0,0,0,0,0,0,1,1,0,0,3,1,10,0,0,0,0,0,0,0,,,,0,0
L31602,Class,HelpSearchPanel,org.gjt.sp.jedit.help.HelpSearchPanel,L31323,L103,1,2,1,0,1,0,0,0,0,1,1,0,0,0,0,0,2,2,1,0,1,0,2,0,0,0,0,0,0,0,,,,0,0
L31607,Interface,HelpViewerInterface,org.gjt.sp.jedit.help.HelpViewerInterface,L31323,L103,,8,,,,,,,0,0,,,,,,,,,,0,,2,6,,,,,,,0,2,1,0,0,0
L31984,Class,HistoryButton,org.gjt.sp.jedit.help.HistoryButton,L31323,L103,5,5,4,1,1,0,1,0,0,1,1,0,0,0,0,0,2,2,1,0,2,0,3,0,0,0,0,0,0,0,,,,0,0
L32250,Class,BracketIndentRule,org.gjt.sp.jedit.indent.BracketIndentRule,L32239,L103,2,5,5,0,3,0,1,2,2,0,0,1,0,0,0,0,0,0,0,0,0,0,7,0,0,0,0,0,0,0,,,,0,0
L32341,Class,CloseBracketIndentRule,org.gjt.sp.jedit.indent.CloseBracketIndentRule,L32239,L103,1,3,3,0,1,0,0,0,0,1,1,0,5,2,0,0,0,0,0,0,0,0,3,0,0,0,0,0,0,0,,,,0,0
L32407,Class,DeepIndentRule,org.gjt.sp.jedit.indent.DeepIndentRule,L32239,L103,2,3,2,0,1,0,1,0,0,0,0,0,0,0,0,0,0,0,0,0,0,0,3,0,0,0,0,0,0,0,,,,0,0
L32558,Class,IndentRuleFactory,org.gjt.sp.jedit.indent.IndentRuleFactory,L32239,L103,0,8,8,0,0,0,0,0,0,0,0,0,0,0,0,0,0,0,0,0,0,0,12,0,0,0,0,0,0,0,,,,0,0
L32565,Class,RegexpIndentRule,org.gjt.sp.jedit.indent.RegexpIndentRule,L32239,L103,2,5,4,0,1,0,1,0,0,0,0,0,0,0,0,0,1,1,0,0,1,0,9,0,0,0,0,0,0,0,,,,0,0
L32582,Class,OpenBracketIndentRule,org.gjt.sp.jedit.indent.OpenBracketIndentRule,L32239,L103,1,4,2,0,1,0,0,0,0,1,1,0,5,2,0,0,0,0,0,0,0,0,4,0,0,0,0,0,0,0,,,,0,0
L32694,Class,WhitespaceRule,org.gjt.sp.jedit.indent.WhitespaceRule,L32239,L103,0,1,1,0,0,0,1,0,0,0,0,0,0,0,0,0,0,0,0,0,0,0,2,0,0,0,0,0,0,0,,,,0,0
L32815,Class,DefaultInputHandlerProvider,org.gjt.sp.jedit.input.DefaultInputHandlerProvider,L32706,L103,0,2,2,0,1,0,1,0,0,0,0,0,0,0,0,0,1,1,0,0,0,0,2,0,0,0,0,0,0,0,,,,0,0
L32817,Interface,InputHandlerProvider,org.gjt.sp.jedit.input.InputHandlerProvider,L32706,L103,,1,,,,,,,0,0,,,,,,,,,,0,,1,1,,,,,,,0,1,3,0,0,0
L32827,Class,TextAreaInputHandler,org.gjt.sp.jedit.input.TextAreaInputHandler,L32706,L103,0,10,4,0,1,0,0,0,0,1,1,0,0,0,0,0,0,0,1,0,0,0,9,0,0,0,0,0,0,0,,,,0,0
L32831,Class,JEditBeanShellAction,org.gjt.sp.jedit.JEditBeanShellAction,L5503,L103,7,7,7,0,2,0,0,0,0,1,1,0,0,0,0,0,0,1,0,0,2,4,6,0,0,0,0,0,0,0,,,,0,0
L32921,Class,AutoDetection,org.gjt.sp.jedit.io.AutoDetection,L32901,L103,0,5,4,0,5,0,0,0,0,0,0,0,0,0,0,0,0,0,0,0,0,0,8,0,0,0,0,0,0,0,,,,0,0
L32991,Class,CharsetEncoding,org.gjt.sp.jedit.io.CharsetEncoding,L32901,L103,1,4,4,0,3,0,1,0,0,0,0,0,0,0,0,0,1,1,0,0,1,0,7,0,0,0,0,0,0,0,,,,0,0
L33025,Class,CopyFileWorker,org.gjt.sp.jedit.io.CopyFileWorker,L32901,L103,3,2,2,0,0,0,0,0,0,1,1,0,6,1,0,0,0,0,0,0,2,0,3,0,0,0,0,0,0,0,,,,0,0
L33056,Class,EncodingServer,org.gjt.sp.jedit.io.EncodingServer,L32901,L103,1,6,6,0,6,0,0,0,0,0,0,0,0,0,0,0,0,0,0,0,1,0,11,0,0,0,0,0,0,0,,,,0,0
L33108,Class,EncodingWithBOM,org.gjt.sp.jedit.io.EncodingWithBOM,L32901,L103,4,4,4,0,3,0,1,0,0,0,0,0,0,0,0,0,1,1,0,0,1,0,7,0,0,0,0,0,0,0,,,,0,0
L33168,Class,FavoritesVFS,org.gjt.sp.jedit.io.FavoritesVFS,L32901,L103,3,9,9,0,2,0,0,0,0,1,1,0,40,18,0,0,0,0,0,0,3,0,15,0,0,0,0,0,0,0,,,,0,0
L33240,Class,FileRootsVFS,org.gjt.sp.jedit.io.FileRootsVFS,L32901,L103,2,5,4,0,1,0,0,0,0,1,1,0,40,18,0,0,0,0,0,0,2,0,11,0,0,0,0,0,0,0,,,,0,0
L33543,Class,RegexEncodingDetector,org.gjt.sp.jedit.io.RegexEncodingDetector,L32901,L103,3,3,2,0,0,0,1,0,0,0,0,0,0,0,0,0,0,0,0,0,2,0,7,0,0,0,0,0,0,0,,,,0,0
L33576,Class,UrlVFS,org.gjt.sp.jedit.io.UrlVFS,L32901,L103,0,4,4,0,0,0,0,0,0,1,1,0,40,18,0,0,0,0,0,0,0,0,11,0,0,0,0,0,0,0,,,,0,0
L33709,Interface,ProgressObserver,org.gjt.sp.util.ProgressObserver,L52433,L103,,3,,,,,,,0,0,,,,,,,,,,0,,7,1,,,,,,,0,0,2,0,0,0
L34133,Class,VFSManager,org.gjt.sp.jedit.io.VFSManager,L32901,L103,5,21,20,0,9,0,0,0,0,0,0,0,0,0,0,0,4,4,1,0,3,0,27,0,0,0,0,0,0,0,,,,0,0
L34316,Class,XMLEncodingDetector,org.gjt.sp.jedit.io.XMLEncodingDetector,L32901,L103,0,2,1,0,1,0,1,0,0,0,0,0,0,0,0,0,0,0,0,0,0,0,4,0,0,0,0,0,0,0,,,,0,0
L34333,Interface,IPropertyManager,org.gjt.sp.jedit.IPropertyManager,L5503,L103,,1,,,,,,,0,0,,,,,,,,,,1,,4,2,,,,,,,0,3,1,0,0,0
L34601,Class,JEditRegisterSaver,org.gjt.sp.jedit.JEditRegisterSaver,L5503,L103,0,3,2,0,0,0,1,0,0,0,0,0,0,0,0,0,1,1,0,0,0,0,0,0,0,0,0,0,0,0,,,,0,0
L34608,Class,JEditRegistersListener,org.gjt.sp.jedit.JEditRegistersListener,L5503,L103,0,1,1,0,0,0,1,0,0,0,0,0,0,0,0,0,0,0,0,0,0,0,0,0,0,0,0,0,0,0,,,,0,0
L34620,Class,JEditKillRing,org.gjt.sp.jedit.JEditKillRing,L5503,L103,0,3,2,0,0,0,0,0,0,1,1,0,16,3,0,0,1,1,0,0,0,0,0,0,0,0,0,0,0,0,,,,0,0
L35311,Class,JEditEmbeddedTextArea,org.gjt.sp.jedit.textarea.JEditEmbeddedTextArea,L46755,L103,0,1,1,0,0,0,0,0,0,2,2,0,255,53,0,0,0,0,0,0,0,0,0,0,0,0,0,0,0,0,,,,0,0
L35321,Class,EditorExitRequested,org.gjt.sp.jedit.msg.EditorExitRequested,L37588,L103,1,4,4,0,2,0,0,0,0,1,1,0,5,1,0,0,0,0,0,0,0,0,2,0,0,0,0,0,0,0,,,,0,0
L35330,Class,EditorExiting,org.gjt.sp.jedit.msg.EditorExiting,L37588,L103,0,1,1,0,0,0,0,0,0,1,1,0,5,1,0,0,0,0,0,0,0,0,1,0,0,0,0,0,0,0,,,,0,0
L35351,Interface,JEditVisitor,org.gjt.sp.jedit.visitors.JEditVisitor,L52406,L103,,3,,,,,,,0,0,,,,,,,,,,0,,2,3,,,,,,,0,0,1,0,0,0
L35378,Class,XModeHandler,org.gjt.sp.jedit.syntax.XModeHandler,L45404,L103,6,16,9,0,3,0,0,0,0,1,1,0,0,0,0,0,4,4,0,0,3,1,25,0,0,0,0,0,0,0,,,,0,0
L35440,Class,PropertyManager,org.gjt.sp.jedit.PropertyManager,L5503,L103,4,15,2,2,3,0,0,0,0,0,0,0,0,0,0,0,1,1,0,0,2,0,21,0,0,0,0,0,0,0,,,,0,0
L35474,Class,ModeProvider,org.gjt.sp.jedit.syntax.ModeProvider,L45404,L103,0,8,7,0,3,0,0,0,0,0,0,0,0,0,0,0,1,1,0,0,0,0,12,0,0,0,0,0,0,0,,,,0,0
L35492,Class,ServiceManager,org.gjt.sp.jedit.ServiceManager,L5503,L103,1,8,7,0,3,0,0,0,0,0,0,0,0,0,0,0,0,0,0,0,1,0,17,0,0,0,0,0,0,0,,,,0,0
L35513,Class,SettingsReloader,org.gjt.sp.jedit.SettingsReloader,L5503,L103,0,2,1,0,0,0,1,0,0,0,0,0,0,0,0,0,0,0,0,0,0,0,2,0,0,0,0,0,0,0,,,,0,0
L35643,Class,EditorStarted,org.gjt.sp.jedit.msg.EditorStarted,L37588,L103,0,1,1,0,0,0,0,0,0,1,1,0,5,1,0,0,0,0,0,0,0,0,1,0,0,0,0,0,0,0,,,,0,0
L35695,Class,ModeCatalogHandler,org.gjt.sp.jedit.ModeCatalogHandler,L5503,L103,2,4,2,0,0,0,0,0,0,1,1,0,0,0,0,0,0,0,0,0,1,0,10,0,0,0,0,0,0,0,,,,0,0
L35707,Class,JEditMode,org.gjt.sp.jedit.JEditMode,L5503,L103,0,3,2,0,1,0,0,0,0,1,1,0,21,6,0,0,0,0,0,0,0,0,3,0,0,0,0,0,0,0,,,,0,0
L35734,Class,PluginManager,org.gjt.sp.jedit.pluginmgr.PluginManager,L40869,L103,8,12,7,0,2,0,1,0,0,1,1,0,0,0,0,0,3,3,0,0,4,3,5,0,0,0,0,0,0,0,,,,0,0
L36097,Interface,RegisterSaver,org.gjt.sp.jedit.RegisterSaver,L5503,L103,,2,,,,,,,0,0,,,,,,,,,,0,,1,0,,,,,,,0,1,1,0,0,0
L36151,Interface,RegistersListener,org.gjt.sp.jedit.RegistersListener,L5503,L103,,1,,,,,,,0,0,,,,,,,,,,0,,1,0,,,,,,,0,1,1,0,0,0
L36557,Class,DirectoryProvider,org.gjt.sp.jedit.menu.DirectoryProvider,L36542,L103,1,3,3,0,0,0,1,0,0,0,0,0,0,0,0,0,0,0,0,0,1,0,2,0,0,0,0,0,0,0,,,,0,0
L36560,Interface,DynamicMenuProvider,org.gjt.sp.jedit.menu.DynamicMenuProvider,L36542,L103,,2,,,,,,,0,0,,,,,,,,,,0,,0,1,,,,,,,0,1,8,0,0,0
L36777,Class,FavoritesProvider,org.gjt.sp.jedit.menu.FavoritesProvider,L36542,L103,0,2,2,0,0,0,1,0,0,0,0,0,0,0,0,0,0,0,0,0,0,0,1,0,0,0,0,0,0,0,,,,0,0
L36796,Class,MacrosProvider,org.gjt.sp.jedit.menu.MacrosProvider,L36542,L103,0,3,2,0,0,0,1,0,0,0,0,0,0,0,0,0,0,0,0,0,0,0,3,0,0,0,0,0,0,0,,,,0,0
L36816,Class,MarkersProvider,org.gjt.sp.jedit.menu.MarkersProvider,L36542,L103,0,2,2,0,0,0,1,0,0,0,0,0,0,0,0,0,0,0,0,0,0,0,1,0,0,0,0,0,0,0,,,,0,0
L36875,Class,PluginsProvider,org.gjt.sp.jedit.menu.PluginsProvider,L36542,L103,0,3,2,0,0,0,1,0,0,0,0,0,0,0,0,0,0,0,0,0,0,0,3,0,0,0,0,0,0,0,,,,0,0
L36897,Class,RecentDirectoriesProvider,org.gjt.sp.jedit.menu.RecentDirectoriesProvider,L36542,L103,0,2,2,0,0,0,1,0,0,0,0,0,0,0,0,0,0,0,0,0,0,0,1,0,0,0,0,0,0,0,,,,0,0
L36918,Class,RecentFilesProvider,org.gjt.sp.jedit.menu.RecentFilesProvider,L36542,L103,0,2,2,0,0,0,1,0,0,0,0,0,0,0,0,0,0,0,0,0,0,0,1,0,0,0,0,0,0,0,,,,0,0
L36954,Class,ReloadWithEncodingProvider,org.gjt.sp.jedit.menu.ReloadWithEncodingProvider,L36542,L103,0,3,3,0,0,0,2,0,0,0,0,0,0,0,0,0,0,1,0,0,0,0,2,0,0,0,0,0,0,0,,,,0,0
L37608,Class,PositionChanging,org.gjt.sp.jedit.msg.PositionChanging,L37588,L103,0,3,2,0,0,0,0,1,1,2,2,1,9,8,0,0,0,0,0,0,0,0,4,0,0,0,0,0,0,0,,,,0,0
L37783,Class,PropertiesChanging,org.gjt.sp.jedit.msg.PropertiesChanging,L37588,L103,1,2,2,0,1,0,0,0,0,1,1,0,5,1,0,0,0,0,0,0,0,0,1,0,0,0,0,0,0,0,,,,0,0
L37813,Class,SearchSettingsChanged,org.gjt.sp.jedit.msg.SearchSettingsChanged,L37588,L103,0,1,1,0,0,0,0,0,0,1,1,0,5,1,0,0,0,0,0,0,0,0,1,0,0,0,0,0,0,0,,,,0,0
L37863,Class,OperatingSystem,org.gjt.sp.jedit.OperatingSystem,L5503,L103,12,17,17,0,17,0,0,0,0,0,0,0,0,0,0,0,0,0,0,0,0,0,3,0,0,0,0,0,0,0,,,,0,0
L38064,Class,AbbrevsOptionPane,org.gjt.sp.jedit.options.AbbrevsOptionPane,L38037,L103,8,6,1,0,0,0,0,0,0,2,2,0,17,4,0,0,0,0,0,0,6,0,3,0,0,0,0,0,0,0,,,,0,0
L38296,Class,AppearanceOptionPane,org.gjt.sp.jedit.options.AppearanceOptionPane,L38037,L103,15,5,1,0,0,0,0,0,0,2,2,0,17,4,0,0,0,0,1,0,5,0,0,0,0,0,0,0,0,0,,,,0,0
L38386,Class,BrowserColorsOptionPane,org.gjt.sp.jedit.options.BrowserColorsOptionPane,L38037,L103,5,5,1,1,0,0,0,0,0,2,2,0,17,4,0,0,1,1,0,0,2,0,0,0,0,0,0,0,0,0,,,,0,0
L38398,Class,BrowserColorsModel,org.gjt.sp.jedit.options.BrowserColorsModel,L38037,L103,1,13,9,1,6,0,0,0,0,1,1,0,0,0,0,0,1,1,0,0,1,0,4,0,0,0,0,0,0,0,,,,0,0
L38565,Class,BrowserOptionPane,org.gjt.sp.jedit.options.BrowserOptionPane,L38037,L103,10,3,3,0,0,0,0,0,0,2,2,0,17,4,0,0,0,0,0,0,2,0,0,0,0,0,0,0,0,0,,,,0,0
L38643,Class,ContextOptionPane,org.gjt.sp.jedit.options.ContextOptionPane,L38037,L103,0,3,1,0,1,0,0,0,0,3,3,0,25,13,0,0,0,0,0,0,0,0,2,0,0,0,0,0,0,0,,,,0,0
L38652,Class,DockingOptionPane,org.gjt.sp.jedit.options.DockingOptionPane,L38037,L103,9,6,3,0,0,0,0,0,0,2,2,0,17,4,0,0,1,1,0,0,4,0,3,0,0,0,0,0,0,0,,,,0,0
L38685,Class,WindowTableModel,org.gjt.sp.jedit.options.WindowTableModel,L38037,L103,5,11,10,1,7,0,0,0,0,1,1,0,0,0,0,0,1,1,0,0,3,1,6,0,0,0,0,0,0,0,,,,0,0
L38825,Class,EditingOptionPane,org.gjt.sp.jedit.options.EditingOptionPane,L38037,L103,21,6,1,0,0,0,0,0,0,2,2,0,17,4,0,0,0,0,0,0,5,0,0,0,0,0,0,0,0,0,,,,0,0
L38960,Class,EncodingsOptionPane,org.gjt.sp.jedit.options.EncodingsOptionPane,L38037,L103,6,3,1,0,0,0,0,0,0,2,2,0,17,4,0,0,0,0,1,0,4,0,0,0,0,0,0,0,0,0,,,,0,0
L39016,Class,FirewallOptionPane,org.gjt.sp.jedit.options.FirewallOptionPane,L38037,L103,9,3,3,0,0,0,0,0,0,2,2,0,17,4,0,0,0,0,0,0,3,0,0,0,0,0,0,0,0,0,,,,0,0
L39064,Class,GeneralOptionPane,org.gjt.sp.jedit.options.GeneralOptionPane,L38037,L103,16,3,1,0,0,0,0,0,0,2,2,0,17,4,0,0,0,0,0,0,3,0,0,0,0,0,0,0,0,0,,,,0,0
L39154,Class,GutterOptionPane,org.gjt.sp.jedit.options.GutterOptionPane,L38037,L103,16,10,8,1,5,0,0,0,0,2,2,0,17,4,0,0,0,0,2,0,5,0,1,0,0,0,0,0,0,0,,,,0,0
L39264,Class,IconTheme,org.gjt.sp.jedit.options.IconTheme,L38037,L103,1,3,3,1,1,0,0,0,0,1,1,0,0,0,0,0,0,0,0,0,1,0,3,0,0,0,0,0,0,0,,,,0,0
L39269,Class,MouseOptionPane,org.gjt.sp.jedit.options.MouseOptionPane,L38037,L103,7,3,2,0,0,0,0,0,0,2,2,0,17,4,0,0,0,0,0,0,3,0,0,0,0,0,0,0,0,0,,,,0,0
L39297,Class,PluginManagerOptionPane,org.gjt.sp.jedit.options.PluginManagerOptionPane,L38037,L103,10,4,1,0,0,0,0,0,0,2,2,0,17,4,0,0,0,0,0,0,8,0,0,0,0,0,0,0,0,0,,,,0,0
L39394,Class,MirrorList,org.gjt.sp.jedit.pluginmgr.MirrorList,L40869,L103,2,5,1,0,0,0,0,0,0,0,0,0,0,0,0,0,1,1,0,0,2,1,3,0,0,0,0,0,0,0,,,,0,0
L39459,Class,PluginOptions,org.gjt.sp.jedit.options.PluginOptions,L38037,L103,0,6,4,0,1,0,0,0,0,3,3,0,24,9,0,0,0,1,0,0,0,0,8,0,0,0,0,0,0,0,,,,0,0
L39498,Class,PrintOptionPane,org.gjt.sp.jedit.options.PrintOptionPane,L38037,L103,8,3,1,0,0,0,0,0,0,2,2,0,17,4,0,0,0,0,1,0,2,0,0,0,0,0,0,0,0,0,,,,0,0
L39528,Class,SaveBackupOptionPane,org.gjt.sp.jedit.options.SaveBackupOptionPane,L38037,L103,11,3,1,0,0,0,0,0,0,2,2,0,17,4,0,0,0,0,0,0,2,0,0,0,0,0,0,0,0,0,,,,0,0
L39573,Class,ShortcutsOptionPane,org.gjt.sp.jedit.options.ShortcutsOptionPane,L38037,L103,6,8,1,1,0,0,0,0,0,2,2,0,17,4,0,0,0,0,0,0,6,0,10,0,0,0,0,0,0,0,,,,0,0
L39763,Class,StatusBarOptionPane,org.gjt.sp.jedit.options.StatusBarOptionPane,L38037,L103,9,4,1,0,0,0,0,0,0,2,2,0,17,4,0,0,0,0,2,0,3,0,0,0,0,0,0,0,0,0,,,,0,0
L39891,Class,SyntaxHiliteOptionPane,org.gjt.sp.jedit.options.SyntaxHiliteOptionPane,L38037,L103,3,5,1,0,0,0,0,0,0,2,2,0,17,4,0,0,0,0,0,0,3,0,2,0,0,0,0,0,0,0,,,,0,0
L40018,Class,TextAreaOptionPane,org.gjt.sp.jedit.options.TextAreaOptionPane,L38037,L103,12,3,3,0,0,0,0,0,0,2,2,0,17,4,0,0,0,0,2,0,2,0,0,0,0,0,0,0,0,0,,,,0,0
L40090,Class,ToolBarOptionPane,org.gjt.sp.jedit.options.ToolBarOptionPane,L38037,L103,4,5,1,0,0,0,0,0,0,2,2,0,17,4,0,0,0,0,1,0,4,0,1,0,0,0,0,0,0,0,,,,0,0
L40227,Class,ToolBarEditDialog,org.gjt.sp.jedit.options.ToolBarEditDialog,L38037,L103,12,6,4,0,1,0,0,0,0,2,2,0,7,2,0,0,0,0,0,0,5,0,4,0,0,0,0,0,0,0,,,,0,0
L4026,Class,EditPlugin,org.gjt.sp.jedit.EditPlugin,L5503,L103,0,21,17,0,15,0,0,5,6,0,0,2,0,0,0,0,1,1,0,1,0,4,36,0,0,0,0,0,0,0,,,,0,0
L40320,Class,ViewOptionPane,org.gjt.sp.jedit.options.ViewOptionPane,L38037,L103,19,3,1,0,0,0,0,0,0,2,2,0,17,4,0,0,0,0,0,0,6,0,0,0,0,0,0,0,0,0,,,,0,0
L40388,Class,PerspectiveManager,org.gjt.sp.jedit.PerspectiveManager,L5503,L103,3,6,6,2,2,0,0,0,0,0,0,0,0,0,0,0,1,1,0,0,1,0,1,0,0,0,0,0,0,0,,,,0,0
L4070,Interface,EBComponent,org.gjt.sp.jedit.EBComponent,L5503,L103,,1,,,,,,,0,0,,,,,,,,,,0,,10,1,,,,,,,0,0,21,0,0,0
L4076,Interface,DefaultFocusComponent,org.gjt.sp.jedit.gui.DefaultFocusComponent,L22305,L103,,1,,,,,,,0,0,,,,,,,,,,0,,0,0,,,,,,,0,0,4,0,0,0
L40881,Class,InstallPanel,org.gjt.sp.jedit.pluginmgr.InstallPanel,L40869,L103,9,5,2,0,0,0,1,0,0,1,1,0,0,0,0,0,1,1,0,0,7,0,4,0,0,0,0,0,0,0,,,,0,0
L41156,Class,PluginList,org.gjt.sp.jedit.pluginmgr.PluginList,L40869,L103,8,8,0,0,1,0,0,0,0,0,0,0,0,0,0,0,2,2,1,0,4,2,4,0,0,0,0,0,0,0,,,,0,0
L41345,Class,Roster,org.gjt.sp.jedit.pluginmgr.Roster,L40869,L103,3,10,1,0,4,0,0,0,0,0,0,0,0,0,0,0,1,1,0,0,3,4,9,0,0,0,0,0,0,0,,,,0,0
L41360,Class,PluginManagerProgress,org.gjt.sp.jedit.pluginmgr.PluginManagerProgress,L40869,L103,6,6,6,4,0,0,1,0,0,1,1,0,0,0,0,0,1,1,0,0,3,4,3,0,0,0,0,0,0,0,,,,0,0
L4139,Class,EBMessage,org.gjt.sp.jedit.EBMessage,L5503,L103,1,5,3,0,1,0,0,15,17,0,0,3,0,0,0,0,0,0,0,0,1,28,5,0,0,0,0,0,0,0,,,,0,0
L4142,Class,PropertiesChanged,org.gjt.sp.jedit.msg.PropertiesChanged,L37588,L103,0,1,1,0,0,0,0,0,0,1,1,0,5,1,0,0,0,0,0,0,0,0,1,0,0,0,0,0,0,0,,,,0,0
L41452,Class,ManagePanel,org.gjt.sp.jedit.pluginmgr.ManagePanel,L40869,L103,7,4,2,0,1,0,0,0,0,1,1,0,0,0,0,0,2,2,0,0,6,0,4,0,0,0,0,0,0,0,,,,0,0
L41460,Class,PluginDetailPanel,org.gjt.sp.jedit.pluginmgr.PluginDetailPanel,L40869,L103,3,2,0,1,0,0,0,0,0,1,1,0,0,0,0,0,1,1,0,0,3,0,1,0,0,0,0,0,0,0,,,,0,0
L41864,Class,MirrorListHandler,org.gjt.sp.jedit.pluginmgr.MirrorListHandler,L40869,L103,8,10,6,0,0,0,0,0,0,1,1,0,0,0,0,0,1,1,0,0,4,0,15,0,0,0,0,0,0,0,,,,0,0
L42051,Class,PluginListHandler,org.gjt.sp.jedit.pluginmgr.PluginListHandler,L40869,L103,22,11,7,0,0,0,0,0,0,1,1,0,0,0,0,0,1,1,0,0,6,0,18,0,0,0,0,0,0,0,,,,0,0
L4212,Class,AbstractOptionPane,org.gjt.sp.jedit.AbstractOptionPane,L5503,L103,4,17,14,0,2,0,1,24,25,1,1,2,0,0,0,0,0,0,0,0,2,0,19,0,0,0,0,0,0,0,,,,0,0
L4218,Class,FontSelector,org.gjt.sp.jedit.gui.FontSelector,L22305,L103,1,7,5,2,1,0,0,0,0,1,1,0,0,0,0,0,1,2,4,0,0,2,4,0,0,0,0,0,0,0,,,,0,0
L42648,Class,BufferPrintable,org.gjt.sp.jedit.print.BufferPrintable,L42643,L103,18,6,2,0,0,0,1,0,0,0,0,0,0,0,0,0,1,3,2,0,6,0,11,0,0,0,0,0,0,0,,,,0,0
L42697,Class,Chunk,org.gjt.sp.jedit.syntax.Chunk,L45404,L103,9,10,10,0,1,0,0,0,0,1,1,0,4,25,0,0,1,1,0,1,3,6,8,0,0,0,0,0,0,0,,,,0,0
L42704,Class,DisplayTokenHandler,org.gjt.sp.jedit.syntax.DisplayTokenHandler,L45404,L103,8,7,3,0,1,0,0,0,0,1,1,0,8,1,0,0,3,3,2,0,2,0,17,0,0,0,0,0,0,0,,,,0,0
L42852,Class,BufferPrinter1_3,org.gjt.sp.jedit.print.BufferPrinter1_3,L42643,L103,2,4,3,0,2,0,0,0,0,0,0,0,0,0,0,0,0,0,0,0,2,0,5,0,0,0,0,0,0,0,,,,0,0
L42924,Class,BufferPrinter1_4,org.gjt.sp.jedit.print.BufferPrinter1_4,L42643,L103,2,5,3,0,2,0,0,0,0,0,0,0,0,0,0,0,0,0,0,0,2,0,6,0,0,0,0,0,0,0,,,,0,0
L43119,Class,Handler,org.gjt.sp.jedit.proto.jeditresource.Handler,L43114,L103,0,1,1,0,0,0,0,0,0,1,1,0,0,0,0,0,0,0,0,0,0,0,2,0,0,0,0,0,0,0,,,,0,0
L43129,Class,PluginResURLConnection,org.gjt.sp.jedit.proto.jeditresource.PluginResURLConnection,L43114,L103,3,4,4,0,2,0,0,0,0,1,1,0,0,0,0,0,0,0,0,0,2,0,4,0,0,0,0,0,0,0,,,,0,0
L4332,Class,RolloverButton,org.gjt.sp.jedit.gui.RolloverButton,L22305,L103,2,7,7,2,0,0,0,8,8,1,1,1,0,0,0,0,2,2,5,0,1,0,2,0,0,0,0,0,0,0,,,,0,0
L43391,Class,AllBufferSet,org.gjt.sp.jedit.search.AllBufferSet,L43370,L103,1,4,3,0,2,0,0,0,0,1,1,0,7,1,0,0,0,0,0,0,1,0,5,0,0,0,0,0,0,0,,,,0,0
L43394,Class,BufferListSet,org.gjt.sp.jedit.search.BufferListSet,L43370,L103,1,7,6,0,5,0,1,2,2,0,0,1,0,0,0,0,0,0,0,0,1,0,11,0,0,0,0,0,0,0,,,,0,0
L43419,Class,BoyerMooreSearchMatcher,org.gjt.sp.jedit.search.BoyerMooreSearchMatcher,L43370,L103,7,7,4,0,1,0,0,0,0,1,1,0,2,1,0,0,0,0,0,0,0,0,5,0,0,0,0,0,0,0,,,,0,0
L43421,Class,SearchMatcher,org.gjt.sp.jedit.search.SearchMatcher,L43370,L103,1,2,2,0,0,0,0,2,2,0,0,1,0,0,0,0,3,3,0,0,1,7,2,0,0,0,0,0,0,0,,,,0,0
L4348,Class,EBPlugin,org.gjt.sp.jedit.EBPlugin,L5503,L103,1,2,1,0,0,0,1,1,1,1,1,1,21,0,0,0,0,0,0,0,0,0,1,0,0,0,0,0,0,0,,,,0,0
L43496,Interface,SearchFileSet,org.gjt.sp.jedit.search.SearchFileSet,L43370,L103,,5,,,,,,,0,0,,,,,,,,,,0,,2,9,,,,,,,0,1,2,0,0,0
L43529,Class,CurrentBufferSet,org.gjt.sp.jedit.search.CurrentBufferSet,L43370,L103,0,5,5,0,5,0,1,0,0,0,0,0,0,0,0,0,0,0,0,0,0,0,9,0,0,0,0,0,0,0,,,,0,0
L43605,Class,HyperSearchFileNode,org.gjt.sp.jedit.search.HyperSearchFileNode,L43370,L103,4,7,7,1,2,0,1,0,0,0,0,0,0,0,0,0,0,0,0,0,1,0,6,0,0,0,0,0,0,0,,,,0,0
L43607,Interface,HyperSearchNode,org.gjt.sp.jedit.search.HyperSearchNode,L43370,L103,,2,,,,,,,0,0,,,,,,,,,,0,,0,3,,,,,,,0,0,2,0,0,0
L43646,Class,HyperSearchFolderNode,org.gjt.sp.jedit.search.HyperSearchFolderNode,L43370,L103,3,3,3,0,1,0,0,0,0,0,0,0,0,0,0,0,0,0,0,0,2,0,3,0,0,0,0,0,0,0,,,,0,0
L43664,Class,HyperSearchOperationNode,org.gjt.sp.jedit.search.HyperSearchOperationNode,L43370,L103,3,10,10,1,3,0,0,0,0,0,0,0,0,0,0,0,1,1,0,1,2,1,11,0,0,0,0,0,0,0,,,,0,0
L43739,Class,HyperSearchRequest,org.gjt.sp.jedit.search.HyperSearchRequest,L43370,L103,3,5,1,0,0,0,0,0,0,1,1,0,6,1,0,0,2,3,1,0,2,0,8,0,0,0,0,0,0,0,,,,0,0
L43747,Class,HyperSearchResults,org.gjt.sp.jedit.search.HyperSearchResults,L43370,L103,11,22,14,1,2,0,2,0,0,1,1,0,0,0,0,0,1,2,1,0,5,1,15,0,0,0,0,0,0,0,,,,0,0
L43826,Class,HyperSearchResult,org.gjt.sp.jedit.search.HyperSearchResult,L43370,L103,5,10,5,0,2,0,1,0,0,0,0,0,0,0,0,0,0,1,0,0,2,3,9,0,0,0,0,0,0,0,,,,0,0
L4403,Class,GlobalOptions,org.gjt.sp.jedit.options.GlobalOptions,L38037,L103,0,8,5,0,1,0,0,0,0,3,3,0,24,9,0,0,0,0,0,0,0,0,10,0,0,0,0,0,0,0,,,,0,0
L44040,Interface,HyperSearchTreeNodeCallback,org.gjt.sp.jedit.search.HyperSearchTreeNodeCallback,L43370,L103,,1,,,,,,,0,0,,,,,,,,,,0,,1,1,,,,,,,0,0,3,0,0,0
L4411,Class,AboutDialog,org.gjt.sp.jedit.gui.AboutDialog,L22305,L103,0,3,2,0,0,0,1,0,0,1,1,0,0,0,0,0,0,0,0,0,0,0,2,0,0,0,0,0,0,0,,,,0,0
L4425,Class,BufferUpdate,org.gjt.sp.jedit.msg.BufferUpdate,L37588,L103,11,5,5,0,3,0,0,0,0,1,1,0,5,1,0,0,0,1,0,0,1,2,7,0,0,0,0,0,0,0,,,,0,0
L4430,Class,ViewUpdate,org.gjt.sp.jedit.msg.ViewUpdate,L37588,L103,5,4,4,0,2,0,0,0,0,1,1,0,5,1,0,0,0,0,0,0,1,0,5,0,0,0,0,0,0,0,,,,0,0
L4435,Class,EditPaneUpdate,org.gjt.sp.jedit.msg.EditPaneUpdate,L37588,L103,7,4,4,0,2,0,0,1,2,1,1,2,5,1,0,0,0,0,0,0,1,2,5,0,0,0,0,0,0,0,,,,0,0
L44391,Class,PatternSearchMatcher,org.gjt.sp.jedit.search.PatternSearchMatcher,L43370,L103,3,5,4,0,1,0,0,0,0,1,1,0,2,1,0,0,0,0,0,0,2,0,5,0,0,0,0,0,0,0,,,,0,0
L44422,Class,ReverseCharSequence,org.gjt.sp.util.ReverseCharSequence,L52433,L103,1,6,6,0,0,0,1,0,0,0,0,0,0,0,0,0,0,0,0,0,1,0,4,0,0,0,0,0,0,0,,,,0,0
L44441,Class,SearchAndReplace,org.gjt.sp.jedit.search.SearchAndReplace,L43370,L103,7,42,31,9,11,0,0,0,0,0,0,0,0,0,0,0,2,2,2,0,1,0,52,0,0,0,0,0,0,0,,,,0,0
L4455,Class,Buffer,org.gjt.sp.jedit.Buffer,L5503,L103,31,79,66,10,31,0,0,0,0,1,1,0,119,16,0,0,4,13,0,1,3,144,67,0,0,0,0,0,0,0,,,,0,0
L44753,Class,SearchBar,org.gjt.sp.jedit.search.SearchBar,L43370,L103,12,9,5,2,1,0,0,0,0,1,1,0,0,0,0,0,0,1,2,0,3,1,2,0,0,0,0,0,0,0,,,,0,0
L44888,Class,SearchDialog,org.gjt.sp.jedit.search.SearchDialog,L43370,L103,26,18,7,1,1,0,1,0,0,2,2,0,7,2,0,0,1,2,2,0,3,0,14,0,0,0,0,0,0,0,,,,0,0
L45164,Class,ServiceListHandler,org.gjt.sp.jedit.ServiceListHandler,L5503,L103,6,10,6,0,1,0,0,0,0,1,1,0,0,0,0,0,1,1,0,0,5,0,17,0,0,0,0,0,0,0,,,,0,0
L45673,Class,DummyTokenHandler,org.gjt.sp.jedit.syntax.DummyTokenHandler,L45404,L103,0,2,2,1,0,0,1,0,0,0,0,0,0,0,0,0,0,0,0,0,0,0,3,0,0,0,0,0,0,0,,,,0,0
L45845,Class,ParserRule,org.gjt.sp.jedit.syntax.ParserRule,L45404,L103,28,17,15,0,0,0,0,0,0,0,0,0,0,0,0,0,1,1,0,2,2,10,42,0,0,0,0,0,0,0,,,,0,0
L46304,Class,SyntaxUtilities,org.gjt.sp.jedit.syntax.SyntaxUtilities,L45404,L103,0,1,1,0,0,0,0,0,0,0,0,0,0,0,0,0,0,0,0,0,0,0,1,0,0,0,0,0,0,0,,,,0,0
L46472,Class,SegmentCharSequence,org.gjt.sp.util.SegmentCharSequence,L52433,L103,4,7,7,0,0,0,2,0,0,0,0,0,0,0,0,0,0,0,0,0,1,0,5,0,0,0,0,0,0,0,,,,0,0
L46795,Class,Anchor,org.gjt.sp.jedit.textarea.Anchor,L46755,L103,4,6,1,0,0,0,0,2,2,0,0,1,0,0,0,0,2,2,0,0,0,0,3,0,0,0,0,0,0,0,,,,0,0
L46798,Class,DisplayManager,org.gjt.sp.jedit.textarea.DisplayManager,L46755,L103,2,32,15,3,9,0,0,0,0,0,0,0,0,0,0,0,8,8,1,0,0,5,7,0,0,0,0,0,0,0,,,,0,0
L46863,Class,BufferHandler,org.gjt.sp.jedit.textarea.BufferHandler,L46755,L103,4,12,8,0,1,0,1,0,0,0,0,0,0,0,0,0,2,2,1,0,0,0,11,0,0,0,0,0,0,0,,,,0,0
L46917,Class,FirstLine,org.gjt.sp.jedit.textarea.FirstLine,L46755,L103,1,9,3,0,0,0,0,0,0,1,1,0,6,4,0,0,1,1,0,0,0,0,3,0,0,0,0,0,0,0,,,,0,0
L46922,Class,ScrollLineCount,org.gjt.sp.jedit.textarea.ScrollLineCount,L46755,L103,0,3,2,0,0,0,0,0,0,1,1,0,6,4,0,0,1,1,0,0,0,0,2,0,0,0,0,0,0,0,,,,0,0
L47046,Class,ChunkCache,org.gjt.sp.jedit.textarea.ChunkCache,L46755,L103,5,27,0,1,13,0,0,0,0,0,0,0,0,0,0,0,2,2,2,0,1,0,9,0,0,0,0,0,0,0,,,,0,0
L47276,Class,CircleFoldPainter,org.gjt.sp.jedit.textarea.CircleFoldPainter,L46755,L103,0,1,0,0,0,0,0,0,0,1,1,0,4,0,0,0,0,0,0,0,0,0,1,0,0,0,0,0,0,0,,,,0,0
L47277,Class,ShapedFoldPainter,org.gjt.sp.jedit.textarea.ShapedFoldPainter,L46755,L103,0,4,3,0,0,0,1,2,2,0,0,1,0,0,0,0,0,0,0,0,0,0,10,0,0,0,0,0,0,0,,,,0,0
L47421,Class,ScreenLineManager,org.gjt.sp.jedit.textarea.ScreenLineManager,L46755,L103,3,8,2,1,2,0,0,0,0,0,0,0,0,0,0,0,1,1,1,0,0,0,1,0,0,0,0,0,0,0,,,,0,0
L47424,Class,RangeMap,org.gjt.sp.jedit.textarea.RangeMap,L46755,L103,3,17,0,0,0,0,0,0,0,0,0,0,0,0,0,0,1,1,0,0,0,0,0,0,0,0,0,0,0,0,,,,0,0
L47541,Class,ExtensionManager,org.gjt.sp.jedit.textarea.ExtensionManager,L46755,L103,1,6,0,0,2,0,0,0,0,0,0,0,0,0,0,0,2,2,0,0,1,0,7,0,0,0,0,0,0,0,,,,0,0
L47652,Interface,FoldPainter,org.gjt.sp.jedit.textarea.FoldPainter,L46755,L103,,3,,,,,,,0,0,,,,,,,,,,0,,3,9,,,,,,,0,1,2,0,0,0
L47708,Class,TriangleFoldPainter,org.gjt.sp.jedit.textarea.TriangleFoldPainter,L46755,L103,0,3,3,0,0,0,1,0,0,0,0,0,0,0,0,0,0,0,0,0,0,0,9,0,0,0,0,0,0,0,,,,0,0
L47995,Interface,MouseActionsProvider,org.gjt.sp.jedit.textarea.MouseActionsProvider,L46755,L103,,1,,,,,,,0,0,,,,,,,,,,1,,1,3,,,,,,,0,0,1,0,0,0
L48015,Interface,StructureMatcher,org.gjt.sp.jedit.textarea.StructureMatcher,L46755,L103,,2,,,,,,,0,0,,,,,,,,,,1,,4,3,,,,,,,0,0,1,0,0,0
L48118,Class,InputMethodSupport,org.gjt.sp.jedit.textarea.InputMethodSupport,L46755,L103,4,12,11,0,7,0,2,0,0,1,1,0,4,0,0,0,1,1,0,0,2,0,14,0,0,0,0,0,0,0,,,,0,0
L48346,Class,TextAreaException,org.gjt.sp.jedit.textarea.TextAreaException,L46755,L103,0,1,1,0,0,0,0,0,0,1,1,0,0,0,0,0,0,0,0,0,0,0,1,0,0,0,0,0,0,0,,,,0,0
L48466,Class,MouseActions,org.gjt.sp.jedit.textarea.MouseActions,L46755,L103,1,2,1,0,1,0,1,0,0,0,0,0,0,0,0,0,0,1,0,0,1,0,5,0,0,0,0,0,0,0,,,,0,0
L48487,Class,TextAreaMouseHandler,org.gjt.sp.jedit.textarea.TextAreaMouseHandler,L46755,L103,9,15,7,0,3,0,0,1,1,1,1,1,0,0,0,0,1,1,0,0,0,0,10,0,0,0,0,0,0,0,,,,0,0
L48673,Class,ScrollLayout,org.gjt.sp.jedit.textarea.ScrollLayout,L46755,L103,10,6,5,0,1,0,1,0,0,0,0,0,0,0,0,0,0,0,0,0,2,0,10,0,0,0,0,0,0,0,,,,0,0
L48728,Interface,ScrollListener,org.gjt.sp.jedit.textarea.ScrollListener,L46755,L103,,2,,,,,,,0,1,,,,,,,,,,0,,2,2,,,,,,,0,0,1,0,0,0
L48944,Class,SelectionManager,org.gjt.sp.jedit.textarea.SelectionManager,L46755,L103,0,14,1,2,5,0,0,0,0,0,0,0,0,0,0,0,2,2,0,0,0,0,9,0,0,0,0,0,0,0,,,,0,0
L49073,Class,SquareFoldPainter,org.gjt.sp.jedit.textarea.SquareFoldPainter,L46755,L103,0,1,0,0,0,0,0,0,0,1,1,0,4,0,0,0,0,0,0,0,0,0,1,0,0,0,0,0,0,0,,,,0,0
L49080,Class,StandaloneTextArea,org.gjt.sp.jedit.textarea.StandaloneTextArea,L46755,L103,0,20,7,0,9,0,0,0,0,2,2,0,255,53,0,0,0,1,0,0,0,0,24,0,0,0,0,0,0,0,,,,0,0
L49396,Class,TextAreaBorder,org.gjt.sp.jedit.textarea.TextAreaBorder,L46755,L103,0,2,2,0,1,0,0,0,0,1,1,0,0,0,0,0,0,0,0,0,0,0,4,0,0,0,0,0,0,0,,,,0,0
L49462,Class,TextAreaDropHandler,org.gjt.sp.jedit.textarea.TextAreaDropHandler,L46755,L103,1,5,4,0,0,0,0,0,0,1,1,0,0,0,0,0,1,1,1,0,0,0,5,0,0,0,0,0,0,0,,,,0,0
L51558,Class,TextUtilities,org.gjt.sp.jedit.TextUtilities,L5503,L103,8,26,24,0,4,0,0,0,0,0,0,0,0,0,0,0,0,0,0,0,0,0,46,0,0,0,0,0,0,0,,,,0,0
L52479,Class,IOUtilities,org.gjt.sp.util.IOUtilities,L52433,L103,0,10,9,0,0,0,0,0,0,0,0,0,0,0,0,0,0,0,0,0,0,0,14,0,0,0,0,0,0,0,,,,0,0
L52530,Class,Log,org.gjt.sp.util.Log,L52433,L103,19,11,7,1,1,0,0,0,0,0,0,0,0,0,0,0,0,0,0,0,7,0,14,0,0,0,0,0,0,0,,,,0,0
L52760,Class,PropertiesBean,org.gjt.sp.util.PropertiesBean,L52433,L103,2,8,3,0,1,0,0,0,0,0,0,0,0,0,0,0,0,0,0,0,1,0,11,0,0,0,0,0,0,0,,,,0,0
L52826,Class,ReadWriteLock,org.gjt.sp.util.ReadWriteLock,L52433,L103,1,5,5,0,1,0,0,0,0,0,0,0,0,0,0,0,0,0,0,0,1,0,0,0,0,0,0,0,0,0,,,,0,0
L53018,Class,StringList,org.gjt.sp.util.StringList,L52433,L103,1,10,10,0,0,0,0,0,0,1,1,0,0,0,0,0,0,0,0,0,0,0,15,0,0,0,0,0,0,0,,,,0,0
L53074,Class,SyntaxUtilities,org.gjt.sp.util.SyntaxUtilities,L52433,L103,0,7,6,0,1,0,0,0,0,0,0,0,0,0,0,0,0,0,1,0,0,0,16,0,0,0,0,0,0,0,,,,0,0
L53129,Interface,ThreadAbortMonitor,org.gjt.sp.util.ThreadAbortMonitor,L52433,L103,,1,,,,,,,0,0,,,,,,,,,,0,,0,0,,,,,,,0,0,1,0,0,0
L53368,Class,XMLUtilities,org.gjt.sp.util.XMLUtilities,L52433,L103,0,4,3,0,0,0,0,0,0,0,0,0,0,0,0,0,0,0,0,0,0,0,8,0,0,0,0,0,0,0,,,,0,0
L5560,Class,Abbrevs,org.gjt.sp.jedit.Abbrevs,L5503,L103,8,17,9,3,3,0,0,0,0,0,0,0,0,0,0,0,0,0,0,0,4,0,19,0,0,0,0,0,0,0,,,,0,0
L5580,Class,JEditTextArea,org.gjt.sp.jedit.textarea.JEditTextArea,L46755,L103,3,30,29,2,10,0,0,0,0,2,2,0,255,53,0,0,2,4,1,2,1,13,9,0,0,0,0,0,0,0,,,,0,0
L5620,Class,AddAbbrevDialog,org.gjt.sp.jedit.gui.AddAbbrevDialog,L22305,L103,3,1,1,0,0,0,0,0,0,1,1,0,0,0,0,0,1,2,0,0,1,0,2,0,0,0,0,0,0,0,,,,0,0
L5804,Interface,OptionPane,org.gjt.sp.jedit.OptionPane,L5503,L103,,4,,,,,,,0,0,,,,,,,,,,0,,2,2,,,,,,,0,1,1,0,0,0
L5942,Class,ActionContext,org.gjt.sp.jedit.ActionContext,L5503,L103,0,2,2,0,2,0,0,1,1,1,1,1,0,0,0,0,1,4,0,1,0,15,4,0,0,0,0,0,0,0,,,,0,0
L5945,Class,"JEditActionContext<F extends JEditAbstractEditAction, E extends JEditActionSet<F>>",org.gjt.sp.jedit.JEditActionContext,L5503,L103,4,7,7,0,4,0,0,0,0,0,0,0,0,0,0,0,1,1,0,0,3,0,10,0,0,0,0,0,0,0,,,,0,0
L5946,Class,EditAction,org.gjt.sp.jedit.EditAction,L5503,L103,0,12,12,0,6,0,0,6,6,1,1,1,0,0,0,0,0,0,0,0,0,12,10,0,0,0,0,0,0,0,,,,0,0
L5949,Class,ActionSet,org.gjt.sp.jedit.ActionSet,L5503,L103,1,15,12,1,7,0,1,0,0,1,1,0,0,0,0,0,3,4,0,0,1,11,20,0,0,0,0,0,0,0,,,,0,0
L5972,Class,ActionListHandler,org.gjt.sp.jedit.ActionListHandler,L5503,L103,8,10,6,0,0,0,0,0,0,1,1,0,0,0,0,0,1,1,0,0,3,0,18,0,0,0,0,0,0,0,,,,0,0
L5982,Class,JEditActionSet<E extends JEditAbstractEditAction>,org.gjt.sp.jedit.JEditActionSet,L5503,L103,4,18,14,0,8,0,1,0,0,0,0,0,0,0,0,0,2,2,0,0,3,1,18,0,0,0,0,0,0,0,,,,0,0
L6056,Class,JEditAbstractEditAction<E extends Object>,org.gjt.sp.jedit.JEditAbstractEditAction,L5503,L103,2,7,5,1,1,0,0,0,0,0,0,0,0,0,0,0,0,0,0,0,2,1,9,0,0,0,0,0,0,0,,,,0,0
L6100,Class,PluginJAR,org.gjt.sp.jedit.PluginJAR,L5503,L103,14,37,26,1,18,0,0,0,0,0,0,0,0,0,0,0,4,4,0,3,6,28,31,0,0,0,0,0,0,0,,,,0,0
L6165,Class,BeanShellAction,org.gjt.sp.jedit.BeanShellAction,L5503,L103,5,7,7,0,2,0,0,0,0,2,2,0,12,0,0,0,0,0,0,0,1,0,6,0,0,0,0,0,0,0,,,,0,0
L6183,Class,AbstractInputHandler<E extends JEditAbstractEditAction>,org.gjt.sp.jedit.input.AbstractInputHandler,L32706,L103,10,21,19,3,4,0,0,0,0,0,0,0,0,0,0,0,1,1,0,0,5,6,21,0,0,0,0,0,0,0,,,,0,0
L6209,Class,Autosave,org.gjt.sp.jedit.Autosave,L5503,L103,1,4,3,1,0,0,1,0,0,0,0,0,0,0,0,0,0,0,0,0,1,0,1,0,0,0,0,0,0,0,,,,0,0
L6259,Class,BeanShell,org.gjt.sp.jedit.BeanShell,L5503,L103,2,19,17,0,2,0,0,0,0,0,0,0,0,0,0,0,0,0,0,0,1,0,46,0,0,0,0,0,0,0,,,,0,0
L6265,Class,BeanShellFacade<T extends Object>,org.gjt.sp.jedit.BeanShellFacade,L5503,L103,1,15,7,1,1,0,0,0,0,0,0,0,0,0,0,0,0,3,0,0,1,0,30,0,0,0,0,0,0,0,,,,0,0
L6314,Class,Selection,org.gjt.sp.jedit.textarea.Selection,L46755,L103,4,16,9,1,7,0,1,2,2,0,0,1,0,0,0,0,0,0,1,1,0,27,10,0,0,0,0,0,0,0,,,,0,0
L6346,Class,NameSpace,org.gjt.sp.jedit.bsh.NameSpace,L9395,L103,16,74,49,14,31,0,3,2,2,0,0,1,0,0,0,0,8,9,2,0,5,57,121,0,0,0,0,0,0,0,,,,0,0
L6367,Class,Interpreter,org.gjt.sp.jedit.bsh.Interpreter,L9395,L103,15,58,47,15,15,0,3,0,0,0,0,0,0,0,0,0,6,7,0,0,3,105,74,0,0,0,0,0,0,0,,,,0,0
L6401,Class,EvalError,org.gjt.sp.jedit.bsh.EvalError,L9395,L103,1,12,9,2,6,0,0,2,2,1,1,1,0,0,0,0,2,2,0,0,1,3,13,0,0,0,0,0,0,0,,,,0,0
L6424,Class,BshMethod,org.gjt.sp.jedit.bsh.BshMethod,L9395,L103,7,14,9,0,6,0,1,1,1,0,0,1,0,0,0,0,3,4,1,0,4,15,37,0,0,0,0,0,0,0,,,,0,0
L6509,Class,JARClassLoader,org.gjt.sp.jedit.JARClassLoader,L5503,L103,7,19,10,0,6,0,0,0,0,1,1,0,0,0,0,0,1,1,0,0,2,1,24,0,0,0,0,0,0,0,,,,0,0
L6522,Class,UtilEvalError,org.gjt.sp.jedit.bsh.UtilEvalError,L9395,L103,0,4,3,0,0,0,0,3,3,1,1,1,0,0,0,0,0,0,0,0,0,3,8,0,0,0,0,0,0,0,,,,0,0
L6541,Class,BeanShellErrorDialog,org.gjt.sp.jedit.gui.BeanShellErrorDialog,L22305,L103,0,2,2,0,0,0,0,0,0,3,3,0,14,2,0,0,0,0,0,0,0,0,4,0,0,0,0,0,0,0,,,,0,0
L6629,Class,ClassManagerImpl,org.gjt.sp.jedit.bsh.classpath.ClassManagerImpl,L11512,L103,5,22,18,1,7,0,0,0,0,1,1,0,32,8,0,0,2,2,0,0,4,0,21,0,0,0,0,0,0,0,,,,0,0
L6649,Class,TextArea,org.gjt.sp.jedit.textarea.TextArea,L46755,L103,53,255,218,29,62,0,0,3,3,1,1,1,0,0,0,0,11,11,3,3,13,49,71,0,0,0,0,0,0,0,,,,0,0
L6697,Class,CallStack,org.gjt.sp.jedit.bsh.CallStack,L9395,L103,0,13,13,1,1,0,0,0,0,0,0,0,0,0,0,0,3,3,0,0,0,98,10,0,0,0,0,0,0,0,,,,0,0
L6702,Class,Primitive,org.gjt.sp.jedit.bsh.Primitive,L9395,L103,2,44,29,0,6,0,2,0,0,0,0,0,0,0,0,0,1,1,0,0,2,0,59,0,0,0,0,0,0,0,,,,0,0
L6738,Class,TargetError,org.gjt.sp.jedit.bsh.TargetError,L9395,L103,2,10,10,0,1,0,0,0,0,2,2,0,12,1,0,0,0,0,0,0,1,0,15,0,0,0,0,0,0,0,,,,0,0
L6750,Class,BshClassManager,org.gjt.sp.jedit.bsh.BshClassManager,L9395,L103,8,32,19,2,7,0,0,1,1,0,0,1,0,0,0,0,2,4,0,0,3,16,42,0,0,0,0,0,0,0,,,,0,0
L6765,Class,BrowserCommandsMenu,org.gjt.sp.jedit.browser.BrowserCommandsMenu,L6753,L103,3,5,2,0,0,0,0,0,0,1,1,0,0,0,0,0,2,2,0,1,3,0,7,0,0,0,0,0,0,0,,,,0,0
L6774,Class,VFSBrowser,org.gjt.sp.jedit.browser.VFSBrowser,L6753,L103,35,53,42,4,13,0,3,0,0,1,1,0,0,0,0,0,5,7,2,0,11,13,40,0,0,0,0,0,0,0,,,,0,0
L6778,Class,VFSFile,org.gjt.sp.jedit.io.VFSFile,L32901,L103,15,33,31,9,17,0,1,4,4,0,0,1,0,0,0,0,0,0,2,1,2,32,26,0,0,0,0,0,0,0,,,,0,0
L6786,Class,VFS,org.gjt.sp.jedit.io.VFS,L32901,L103,18,40,35,0,9,0,0,4,4,0,0,1,0,0,0,0,1,1,3,1,3,27,115,0,0,0,0,0,0,0,,,,0,0
L6912,Class,MenuItemTextComparator,org.gjt.sp.jedit.menu.MenuItemTextComparator,L36542,L103,0,1,1,0,0,0,1,0,0,0,0,0,0,0,0,0,0,0,0,1,0,0,2,0,0,0,0,0,0,0,,,,0,0
L6937,Class,BrowserIORequest,org.gjt.sp.jedit.browser.BrowserIORequest,L6753,L103,9,7,2,0,0,0,0,0,0,1,1,0,6,1,0,0,1,1,1,0,2,0,7,0,0,0,0,0,0,0,,,,0,0
L6940,Class,WorkRequest,org.gjt.sp.util.WorkRequest,L52433,L103,1,6,6,6,0,0,2,7,11,0,0,2,0,0,0,0,0,0,1,0,0,1,1,0,0,0,0,0,0,0,,,,0,0
L7013,Class,WorkThread,org.gjt.sp.util.WorkThread,L52433,L103,7,14,12,4,5,0,1,0,0,1,1,0,0,0,0,0,1,1,0,0,2,3,6,0,0,0,0,0,0,0,,,,0,0
L7034,Interface,BrowserListener,org.gjt.sp.jedit.browser.BrowserListener,L6753,L103,,2,,,,,,,0,1,,,,,,,,,,0,,2,4,,,,,,,0,0,1,0,0,0
L7047,Class,BrowserView,org.gjt.sp.jedit.browser.BrowserView,L6753,L103,4,16,14,0,4,0,0,0,0,1,1,0,0,0,0,0,3,3,0,0,3,2,14,0,0,0,0,0,0,0,,,,0,0
L7062,Class,DockableWindowManager,org.gjt.sp.jedit.gui.DockableWindowManager,L22305,L103,15,44,34,3,16,0,1,1,1,1,1,1,0,0,0,0,1,2,0,0,4,4,57,0,0,0,0,0,0,0,,,,0,0
L7109,Class,VFSDirectoryEntryTable,org.gjt.sp.jedit.browser.VFSDirectoryEntryTable,L6753,L103,6,15,11,2,2,0,0,0,0,1,1,0,0,0,0,0,2,2,0,0,4,1,13,0,0,0,0,0,0,0,,,,0,0
L7225,Class,FileVFS,org.gjt.sp.jedit.io.FileVFS,L32901,L103,2,20,20,1,4,0,0,0,0,1,1,0,40,18,0,0,0,0,0,0,2,0,53,0,0,0,0,0,0,0,,,,0,0
L7422,Class,VFSDirectoryEntryTableModel,org.gjt.sp.jedit.browser.VFSDirectoryEntryTableModel,L6753,L103,4,19,17,2,11,0,0,0,0,1,1,0,0,0,0,0,0,0,0,0,2,0,14,0,0,0,0,0,0,0,,,,0,0
L7554,Class,FileCellRenderer,org.gjt.sp.jedit.browser.FileCellRenderer,L6753,L103,12,7,5,0,4,0,0,0,0,1,1,0,0,0,0,0,1,1,1,0,2,0,11,0,0,0,0,0,0,0,,,,0,0
L7756,Interface,DockableWindow,org.gjt.sp.jedit.gui.DockableWindow,L22305,L103,,1,,,,,,,0,0,,,,,,,,,,0,,0,1,,,,,,,0,0,2,0,0,0
L7845,Class,HistoryTextField,org.gjt.sp.jedit.gui.HistoryTextField,L22305,L103,2,17,15,7,2,0,0,3,3,1,1,1,0,0,0,0,2,2,4,0,0,3,8,0,0,0,0,0,0,0,,,,0,0
L7901,Class,GlobVFSFileFilter,org.gjt.sp.jedit.io.GlobVFSFileFilter,L32901,L103,2,7,7,1,2,0,1,0,0,0,0,0,0,0,0,0,0,0,0,1,2,0,7,0,0,0,0,0,0,0,,,,0,0
L7923,Interface,VFSFileFilter,org.gjt.sp.jedit.io.VFSFileFilter,L32901,L103,,3,,,,,,,0,0,,,,,,,,,,0,,4,3,,,,,,,0,0,2,0,0,0
L7953,Class,HistoryModel,org.gjt.sp.jedit.gui.HistoryModel,L22305,L103,3,13,13,2,3,0,1,0,0,1,1,0,0,0,0,0,3,3,0,0,1,3,8,0,0,0,0,0,0,0,,,,0,0
L7992,Class,PluginUpdate,org.gjt.sp.jedit.msg.PluginUpdate,L37588,L103,6,5,5,0,3,0,0,0,0,1,1,0,5,1,0,0,0,0,0,0,1,0,5,0,0,0,0,0,0,0,,,,0,0
L8005,Class,VFSUpdate,org.gjt.sp.jedit.msg.VFSUpdate,L37588,L103,1,3,3,0,1,0,0,0,0,1,1,0,5,1,0,0,0,0,0,0,1,0,3,0,0,0,0,0,0,0,,,,0,0
L8146,Class,FilePropertiesDialog,org.gjt.sp.jedit.gui.FilePropertiesDialog,L22305,L103,7,11,10,0,0,0,0,0,0,2,2,0,7,2,0,0,0,0,2,0,5,0,9,0,0,0,0,0,0,0,,,,0,0
L8169,Class,DirectoryListSet,org.gjt.sp.jedit.search.DirectoryListSet,L43370,L103,5,9,8,3,4,0,0,0,0,1,1,0,7,1,0,0,0,0,0,0,1,0,9,0,0,0,0,0,0,0,,,,0,0
L8309,Class,jEdit,org.gjt.sp.jedit.jEdit,L5503,L103,17,143,109,8,56,0,0,0,0,0,0,0,0,0,0,0,8,11,0,0,6,0,203,0,0,0,0,0,0,0,,,,0,0
L8868,Class,VFSPathSelected,org.gjt.sp.jedit.msg.VFSPathSelected,L37588,L103,2,4,4,0,3,0,0,0,0,1,1,0,5,1,0,0,0,0,0,0,1,0,4,0,0,0,0,0,0,0,,,,0,0
L9092,Class,VFSFileChooserDialog,org.gjt.sp.jedit.browser.VFSFileChooserDialog,L6753,L103,5,13,9,0,4,0,0,0,0,2,2,0,7,2,0,0,2,2,0,0,3,0,17,0,0,0,0,0,0,0,,,,0,0
L9095,Class,EnhancedDialog,org.gjt.sp.jedit.gui.EnhancedDialog,L22305,L103,2,7,6,1,1,0,0,19,22,1,1,2,0,0,0,0,0,0,0,0,1,0,4,0,0,0,0,0,0,0,,,,0,0
L9196,Class,VFSFileNameField,org.gjt.sp.jedit.browser.VFSFileNameField,L6753,L103,0,5,2,0,0,0,0,0,0,2,2,0,17,2,0,0,2,2,0,0,0,0,7,0,0,0,0,0,0,0,,,,0,0
L9284,Interface,WorkThreadProgressListener,org.gjt.sp.util.WorkThreadProgressListener,L52433,L103,,2,,,,,,,0,1,,,,,,,,,,0,,2,2,,,,,,,0,0,3,0,0,0
L9290,Class,WorkThreadPool,org.gjt.sp.util.WorkThreadPool,L52433,L103,13,17,9,0,5,0,0,0,0,0,0,0,0,0,0,0,1,1,1,0,4,10,10,0,0,0,0,0,0,0,,,,0,0
L9484,Class,BlockNameSpace,org.gjt.sp.jedit.bsh.BlockNameSpace,L9395,L103,0,10,7,3,3,0,0,0,0,1,1,0,74,16,0,0,0,0,0,0,0,0,15,0,0,0,0,0,0,0,,,,0,0
L9524,Class,This,org.gjt.sp.jedit.bsh.This,L9395,L103,0,11,8,0,5,0,2,2,2,0,0,1,0,0,0,0,2,2,0,0,0,8,22,0,0,0,0,0,0,0,,,,0,0
L9548,Class,BSHAllocationExpression,org.gjt.sp.jedit.bsh.BSHAllocationExpression,L9395,L103,1,10,1,0,0,0,0,0,0,1,1,0,18,2,0,0,0,0,0,0,0,0,43,0,0,0,0,0,0,0,,,,0,0
L9550,Class,SimpleNode,org.gjt.sp.jedit.bsh.SimpleNode,L9395,L103,2,18,18,1,4,0,1,37,37,0,0,1,0,0,0,0,6,6,0,0,1,27,14,0,0,0,0,0,0,0,,,,0,0
L9563,Class,BSHAmbiguousName,org.gjt.sp.jedit.bsh.BSHAmbiguousName,L9395,L103,1,8,6,0,1,0,0,0,0,1,1,0,18,2,0,0,0,0,0,0,1,3,18,0,0,0,0,0,0,0,,,,0,0
L9566,Class,BSHArguments,org.gjt.sp.jedit.bsh.BSHArguments,L9395,L103,0,2,1,0,1,0,0,0,0,1,1,0,18,2,0,0,0,0,0,0,0,2,3,0,0,0,0,0,0,0,,,,0,0
L9573,Class,BSHArrayDimensions,org.gjt.sp.jedit.bsh.BSHArrayDimensions,L9395,L103,4,5,4,0,0,0,0,0,0,1,1,0,18,2,0,0,0,0,0,0,1,4,7,0,0,0,0,0,0,0,,,,0,0
L9578,Class,BSHPrimitiveType,org.gjt.sp.jedit.bsh.BSHPrimitiveType,L9395,L103,1,2,1,0,1,0,0,0,0,1,1,0,18,2,0,0,0,0,0,0,1,1,1,0,0,0,0,0,0,0,,,,0,0
L9593,Class,ClassIdentifier,org.gjt.sp.jedit.bsh.ClassIdentifier,L9395,L103,1,3,3,0,1,0,0,0,0,0,0,0,0,0,0,0,0,0,0,0,1,1,3,0,0,0,0,0,0,0,,,,0,0
L9602,Class,BSHBlock,org.gjt.sp.jedit.bsh.BSHBlock,L9395,L103,1,4,2,0,0,0,0,0,0,1,1,0,18,2,0,0,2,2,0,0,0,9,10,0,0,0,0,0,0,0,,,,0,0
L9618,Class,ReflectError,org.gjt.sp.jedit.bsh.ReflectError,L9395,L103,0,2,2,0,0,0,0,0,0,1,1,0,0,0,0,0,0,0,0,0,0,1,1,0,0,0,0,0,0,0,,,,0,0
L9641,Class,Modifiers,org.gjt.sp.jedit.bsh.Modifiers,L9395,L103,4,7,3,0,1,0,1,0,0,0,0,0,0,0,0,0,6,6,0,0,1,16,5,0,0,0,0,0,0,0,,,,0,0
L9708,Class,Name,org.gjt.sp.jedit.bsh.Name,L9395,L103,8,19,8,0,2,0,1,0,0,0,0,0,0,0,0,0,1,1,0,0,3,2,47,0,0,0,0,0,0,0,,,,0,0
L9727,Class,LHS,org.gjt.sp.jedit.bsh.LHS,L9395,L103,12,9,3,0,1,0,2,0,0,0,0,0,0,0,0,0,2,2,0,0,3,7,14,0,0,0,0,0,0,0,,,,0,0
L9738,Class,InterpreterError,org.gjt.sp.jedit.bsh.InterpreterError,L9395,L103,0,1,1,0,0,0,0,0,0,1,1,0,0,0,0,0,0,0,0,0,0,0,1,0,0,0,0,0,0,0,,,,0,0
L9774,Class,BSHArrayInitializer,org.gjt.sp.jedit.bsh.BSHArrayInitializer,L9395,L103,0,4,2,0,0,0,0,0,0,1,1,0,18,2,0,0,0,0,0,0,0,0,10,0,0,0,0,0,0,0,,,,0,0
L9820,Class,BSHAssignment,org.gjt.sp.jedit.bsh.BSHAssignment,L9395,L103,1,3,1,0,0,0,1,0,0,1,1,0,18,2,0,0,0,0,0,0,0,0,6,0,0,0,0,0,0,0,,,,0,0
L9821,Interface,ParserConstants,org.gjt.sp.jedit.bsh.ParserConstants,L9395,L103,,0,,,,,,,0,0,,,,,,,,,,0,,0,0,,,,,,,0,0,13,0,0,0
L9830,Class,BSHPrimaryExpression,org.gjt.sp.jedit.bsh.BSHPrimaryExpression,L9395,L103,0,4,2,0,0,0,0,0,0,1,1,0,18,2,0,0,0,0,0,0,0,0,9,0,0,0,0,0,0,0,,,,0,0
L9914,Class,BSHBinaryExpression,org.gjt.sp.jedit.bsh.BSHBinaryExpression,L9395,L103,1,4,1,0,2,0,1,0,0,1,1,0,18,2,0,0,0,0,0,0,0,0,5,0,0,0,0,0,0,0,,,,0,0
L9929,Class,BSHType,org.gjt.sp.jedit.bsh.BSHType,L9395,L103,4,9,7,0,6,0,1,0,0,1,1,0,18,2,0,0,0,0,0,0,2,3,11,0,0,0,0,0,0,0,,,,0,0
L9979,Class,BSHClassDeclaration,org.gjt.sp.jedit.bsh.BSHClassDeclaration,L9395,L103,5,3,2,0,0,0,0,0,0,1,1,0,18,2,0,0,1,1,0,0,1,0,4,0,0,0,0,0,0,0,,,,0,0
L9982,Class,ReturnControl,org.gjt.sp.jedit.bsh.ReturnControl,L9395,L103,2,1,1,0,0,0,1,0,0,0,0,0,0,0,0,0,1,1,0,0,1,0,2,0,0,0,0,0,0,0,,,,0,0
L9986,Class,BSHCastExpression,org.gjt.sp.jedit.bsh.BSHCastExpression,L9395,L103,0,2,2,0,0,0,0,0,0,1,1,0,18,2,0,0,0,0,0,0,0,0,3,0,0,0,0,0,0,0,,,,0,0
L17403,Class,JEditBuffer,org.gjt.sp.jedit.buffer.JEditBuffer,L18248,L103,16,119,97,15,51,0,0,1,1,0,0,1,0,0,0,0,6,7,9,0,5,109,59,0,0,0,0,0,0,0,,,,1,1
L18181,Class,BufferSet,org.gjt.sp.jedit.bufferset.BufferSet,L20797,L103,4,17,13,0,6,0,0,0,0,0,0,0,0,0,0,0,1,4,0,1,2,10,12,0,0,0,0,0,0,0,,,,1,1
L21839,Class,TextAreaPainter,org.gjt.sp.jedit.textarea.TextAreaPainter,L46755,L103,34,54,52,20,26,0,1,0,0,1,1,0,0,0,0,0,3,3,1,0,8,2,35,0,0,0,0,0,0,0,,,,1,1
L30097,Class,MultiSelectWidgetFactory,org.gjt.sp.jedit.gui.statusbar.MultiSelectWidgetFactory,L29615,L103,0,1,1,0,1,0,1,0,0,0,0,0,0,0,0,0,0,0,0,0,0,0,2,0,0,0,0,0,0,0,,,,1,1
L30126,Class,OverwriteWidgetFactory,org.gjt.sp.jedit.gui.statusbar.OverwriteWidgetFactory,L29615,L103,0,1,1,0,1,0,1,0,0,0,0,0,0,0,0,0,0,0,0,0,0,0,2,0,0,0,0,0,0,0,,,,1,1
L30160,Class,RectSelectWidgetFactory,org.gjt.sp.jedit.gui.statusbar.RectSelectWidgetFactory,L29615,L103,0,1,1,0,1,0,1,0,0,0,0,0,0,0,0,0,0,0,0,0,0,0,2,0,0,0,0,0,0,0,,,,1,1
L30247,Class,WrapWidgetFactory,org.gjt.sp.jedit.gui.statusbar.WrapWidgetFactory,L29615,L103,0,1,1,0,1,0,1,0,0,0,0,0,0,0,0,0,0,0,0,0,0,0,2,0,0,0,0,0,0,0,,,,1,1
L31735,Class,HelpTOCPanel,org.gjt.sp.jedit.help.HelpTOCPanel,L31323,L103,4,6,3,0,0,0,0,0,0,1,1,0,0,0,0,0,2,2,0,0,4,0,7,0,0,0,0,0,0,0,,,,1,1
L4034,Class,View,org.gjt.sp.jedit.View,L5503,L103,38,85,64,11,28,0,2,0,0,1,1,0,0,0,0,0,2,31,0,15,9,248,75,0,0,0,0,0,0,0,,,,1,1
L4449,Class,EditPane,org.gjt.sp.jedit.EditPane,L5503,L103,4,36,30,3,8,0,2,0,0,1,1,0,0,0,0,0,2,5,0,0,2,35,20,0,0,0,0,0,0,0,,,,1,1
L31355,Class,HelpViewer,org.gjt.sp.jedit.help.HelpViewer,L31323,L103,7,13,11,0,5,0,3,0,0,1,1,0,0,0,0,0,3,3,0,0,5,2,8,0,0,0,0,0,0,0,,,,2,1
