ID,Type,Name,LongName,Parent,Component,NumAttr,NumOps,NumPubOps,Setters,Getters,Nesting,IFImpl,NOC,NumDesc,NumAnc,DIT,CLD,OpsInh,AttrInh,Dep_Out,Dep_In,NumAssEl_ssc,NumAssEl_sb,NumAssEl_nsb,EC_Attr,IC_Attr,EC_Par,IC_Par,Connectors,InstSpec,LLInst,MsgSent,MsgRecv,MsgSelf,Diags,Assoc,NumDirClients,NumIndClients,BugNo,Label
L1060,Class,LocationInfo,org.apache.log4j.spi.LocationInfo,L5980,L103,10,5,5,0,4,0,1,0,0,0,0,0,0,0,0,0,1,1,0,0,3,1,6,0,0,0,0,0,0,0,,,,0,0
L1515,Class,QuietWriter,org.apache.log4j.helpers.QuietWriter,L2996,L103,0,4,4,1,0,0,0,2,2,1,1,1,0,0,0,0,0,1,3,0,0,1,4,0,0,0,0,0,0,0,,,,0,0
L2307,Class,MessageRenderer,org.apache.log4j.or.MessageRenderer,L5406,L103,0,2,2,0,0,0,1,0,0,0,0,0,0,0,0,0,0,0,0,0,0,0,2,0,0,0,0,0,0,0,,,,0,0
L2350,Class,CyclicBuffer,org.apache.log4j.helpers.CyclicBuffer,L2996,L103,4,7,7,0,3,0,0,0,0,0,0,0,0,0,0,0,0,0,2,0,0,0,3,0,0,0,0,0,0,0,,,,0,0
L2372,Interface,TriggeringEventEvaluator,org.apache.log4j.spi.TriggeringEventEvaluator,L5980,L103,,1,,,,,,,0,0,,,,,,,,,,0,,1,1,,,,,,,0,1,1,0,0,0
L2379,Class,DefaultEvaluator,org.apache.log4j.net.DefaultEvaluator,L2054,L103,0,1,1,0,1,0,1,0,0,0,0,0,0,0,0,0,0,0,0,0,0,0,1,0,0,0,0,0,0,0,,,,0,0
L2710,Class,RootCategory,org.apache.log4j.spi.RootCategory,L5980,L103,0,3,3,1,1,0,0,0,0,1,1,0,0,0,0,0,0,0,0,0,0,0,3,0,0,0,0,0,0,0,,,,0,0
L2790,Class,SyslogQuietWriter,org.apache.log4j.helpers.SyslogQuietWriter,L2996,L103,2,4,4,2,0,0,0,0,0,2,2,0,4,0,0,0,0,0,1,0,0,0,3,0,0,0,0,0,0,0,,,,0,0
L2871,Class,SyslogWriter,org.apache.log4j.helpers.SyslogWriter,L2996,L103,4,5,5,0,0,0,0,0,0,1,1,0,0,0,0,0,0,0,0,0,3,0,2,0,0,0,0,0,0,0,,,,0,0
L2897,Class,Loop,org.apache.log4j.net.test.Loop,L2891,L103,0,2,1,0,0,0,0,0,0,0,0,0,0,0,0,0,0,0,0,0,0,0,2,0,0,0,0,0,0,0,,,,0,0
L2922,Class,SMTPMin,org.apache.log4j.net.test.SMTPMin,L2891,L103,1,4,1,0,0,0,0,0,0,0,0,0,0,0,0,0,0,0,0,0,1,0,3,0,0,0,0,0,0,0,,,,0,0
L2944,Class,SocketMin,org.apache.log4j.net.test.SocketMin,L2891,L103,1,5,1,0,0,0,0,0,0,0,0,0,0,0,0,0,0,1,0,0,1,0,4,0,0,0,0,0,0,0,,,,0,0
L2947,Class,SyslogMin,org.apache.log4j.net.test.SyslogMin,L2891,L103,1,4,1,0,0,0,0,0,0,0,0,0,0,0,0,0,0,0,0,0,1,0,4,0,0,0,0,0,0,0,,,,0,0
L3034,Class,AbsoluteTimeDateFormat,org.apache.log4j.helpers.AbsoluteTimeDateFormat,L2996,L103,3,4,4,0,0,0,0,2,2,1,1,1,0,0,0,0,0,0,0,0,1,0,8,0,0,0,0,0,0,0,,,,0,0
L3086,Class,AppenderAttachableImpl,org.apache.log4j.helpers.AppenderAttachableImpl,L2996,L103,1,7,7,0,2,0,1,0,0,0,0,0,0,0,0,0,0,2,0,0,1,0,7,0,0,0,0,0,0,0,,,,0,0
L3136,Class,BoundedFIFO,org.apache.log4j.helpers.BoundedFIFO,L2996,L103,4,10,9,0,3,0,0,0,0,0,0,0,0,0,0,0,0,2,1,0,0,1,2,0,0,0,0,0,0,0,,,,0,0
L3178,Class,CountingQuietWriter,org.apache.log4j.helpers.CountingQuietWriter,L2996,L103,1,4,4,1,1,0,0,0,0,2,2,0,4,0,0,0,0,0,0,0,0,0,3,0,0,0,0,0,0,0,,,,0,0
L3287,Class,RelativeTimeDateFormat,org.apache.log4j.helpers.RelativeTimeDateFormat,L2996,L103,1,3,3,0,0,0,0,0,0,1,1,0,0,0,0,0,0,0,0,0,0,0,7,0,0,0,0,0,0,0,,,,0,0
L3297,Class,DateTimeDateFormat,org.apache.log4j.helpers.DateTimeDateFormat,L2996,L103,1,4,4,0,0,0,0,0,0,2,2,0,4,3,0,0,0,0,0,0,1,0,8,0,0,0,0,0,0,0,,,,0,0
L3303,Class,ISO8601DateFormat,org.apache.log4j.helpers.ISO8601DateFormat,L2996,L103,0,4,4,0,0,0,0,0,0,2,2,0,4,3,0,0,0,0,0,0,0,0,8,0,0,0,0,0,0,0,,,,0,0
L3365,Class,FormattingInfo,org.apache.log4j.helpers.FormattingInfo,L2996,L103,3,2,0,0,0,0,0,0,0,0,0,0,0,0,0,0,1,1,0,0,0,8,0,0,0,0,0,0,0,0,,,,0,0
L3440,Class,LogLog,org.apache.log4j.helpers.LogLog,L2996,L103,7,8,8,2,0,0,0,0,0,0,0,0,0,0,0,0,0,0,0,0,1,0,9,0,0,0,0,0,0,0,,,,0,0
L3483,Class,NullEnumeration,org.apache.log4j.helpers.NullEnumeration,L2996,L103,0,4,3,0,2,0,1,0,0,0,0,0,0,0,0,0,0,0,0,0,0,0,1,0,0,0,0,0,0,0,,,,0,0
L3498,Class,OnlyOnceErrorHandler,org.apache.log4j.helpers.OnlyOnceErrorHandler,L2996,L103,3,5,5,1,1,0,1,0,0,0,0,0,0,0,0,0,0,0,0,0,1,0,6,0,0,0,0,0,0,0,,,,0,0
L360,Interface,Appender,org.apache.log4j.Appender,L106,L103,,12,,,,,,,0,0,,,,,,,,,,0,,18,9,,,,,,,0,1,2,0,0,0
L3620,Class,PatternConverter,org.apache.log4j.helpers.PatternConverter,L2996,L103,4,5,2,0,0,0,0,6,8,0,0,2,0,0,0,0,1,2,0,0,1,3,6,0,0,0,0,0,0,0,,,,0,0
L3651,Class,PatternParser,org.apache.log4j.helpers.PatternParser,L2996,L103,22,7,2,0,0,0,0,1,1,0,0,1,0,0,0,0,2,2,0,0,2,2,5,0,0,0,0,0,0,0,,,,0,0
L4269,Class,Dispatcher,org.apache.log4j.Dispatcher,L106,L103,1,3,1,0,0,0,0,0,0,1,1,0,0,0,0,0,1,3,0,0,0,0,2,0,0,0,0,0,0,0,,,,0,0
L4376,Interface,ObjectRenderer,org.apache.log4j.or.ObjectRenderer,L5406,L103,,1,,,,,,,0,0,,,,,,,,,,0,,6,2,,,,,,,0,1,4,0,0,0
L446,Interface,AppenderAttachable,org.apache.log4j.spi.AppenderAttachable,L5980,L103,,6,,,,,,,0,0,,,,,,,,,,0,,0,6,,,,,,,0,0,2,0,0,0
L461,Interface,ErrorHandler,org.apache.log4j.spi.ErrorHandler,L5980,L103,,2,,,,,,,0,1,,,,,,,,,,0,,9,3,,,,,,,0,2,1,0,0,0
L4619,Class,CategoryKey,org.apache.log4j.CategoryKey,L106,L103,2,3,2,0,1,0,0,0,0,0,0,0,0,0,0,0,0,0,0,0,1,0,2,0,0,0,0,0,0,0,,,,0,0
L4702,Class,PropertyPrinter,org.apache.log4j.config.PropertyPrinter,L4636,L103,5,10,6,0,1,0,1,0,0,0,0,0,0,0,0,0,0,0,0,0,2,0,17,0,0,0,0,0,0,0,,,,0,0
L471,Class,Filter,org.apache.log4j.spi.Filter,L5980,L103,3,2,2,0,0,0,1,4,4,0,0,1,0,0,0,0,0,1,0,0,0,5,1,0,0,0,0,0,0,0,,,,0,0
L4806,Class,PropertySetterException,org.apache.log4j.config.PropertySetterException,L4636,L103,1,3,3,0,1,0,0,0,0,1,1,0,0,0,0,0,0,0,0,0,1,0,3,0,0,0,0,0,0,0,,,,0,0
L4919,Class,RollingCalendar,org.apache.log4j.RollingCalendar,L106,L103,1,3,2,1,2,0,0,0,0,1,1,0,0,0,0,0,1,1,0,0,0,0,3,0,0,0,0,0,0,0,,,,0,0
L5003,Class,DefaultCategoryFactory,org.apache.log4j.DefaultCategoryFactory,L106,L103,0,2,1,0,0,0,1,0,0,0,0,0,0,0,0,0,0,0,0,0,0,0,2,0,0,0,0,0,0,0,,,,0,0
L5090,Class,RendererMap,org.apache.log4j.or.RendererMap,L5406,L103,1,8,7,0,3,0,0,0,0,0,0,0,0,0,0,0,1,2,0,0,1,1,11,0,0,0,0,0,0,0,,,,0,0
L5135,Class,ProvisionNode,org.apache.log4j.ProvisionNode,L106,L103,0,1,0,0,0,0,0,0,0,1,1,0,0,0,0,0,0,0,0,0,0,1,1,0,0,0,0,0,0,0,,,,0,0
L524,Class,Layout,org.apache.log4j.Layout,L106,L103,2,5,5,0,3,0,1,5,7,0,0,2,0,0,0,0,1,1,0,0,1,29,5,0,0,0,0,0,0,0,,,,0,0
L5387,Class,NTMin,org.apache.log4j.nt.test.NTMin,L5384,L103,1,4,1,0,0,0,0,0,0,0,0,0,0,0,0,0,0,0,0,0,1,0,3,0,0,0,0,0,0,0,,,,0,0
L5413,Class,DefaultRenderer,org.apache.log4j.or.DefaultRenderer,L5406,L103,0,2,1,0,0,0,1,0,0,0,0,0,0,0,0,0,0,0,0,0,0,0,2,0,0,0,0,0,0,0,,,,0,0
L5458,Class,ThreadGroupRenderer,org.apache.log4j.or.ThreadGroupRenderer,L5406,L103,0,2,2,0,0,0,1,0,0,0,0,0,0,0,0,0,0,0,0,0,0,0,2,0,0,0,0,0,0,0,,,,0,0
L5538,Class,ConcatVsArray,org.apache.log4j.performance.ConcatVsArray,L5528,L103,0,2,1,0,0,0,0,0,0,0,0,0,0,0,0,0,0,0,0,0,0,0,1,0,0,0,0,0,0,0,,,,0,0
L5550,Class,ListVsVector,org.apache.log4j.performance.ListVsVector,L5528,L103,4,3,1,0,0,0,0,0,0,0,0,0,0,0,0,0,0,0,0,0,3,0,1,0,0,0,0,0,0,0,,,,0,0
L5618,Class,NewVsSetLen,org.apache.log4j.performance.NewVsSetLen,L5528,L103,6,3,1,1,0,0,0,0,0,0,0,0,0,0,0,0,0,0,0,0,1,0,1,0,0,0,0,0,0,0,,,,0,0
L5646,Class,NOPWriter,org.apache.log4j.performance.NOPWriter,L5528,L103,0,7,7,0,0,0,0,0,0,1,1,0,0,0,0,0,0,0,0,0,0,0,2,0,0,0,0,0,0,0,,,,0,0
L5707,Class,SimpleLayout,org.apache.log4j.SimpleLayout,L106,L103,1,6,6,1,1,0,0,0,0,1,1,0,5,2,0,0,0,0,0,0,1,0,5,0,0,0,0,0,0,0,,,,0,0
L5720,Class,NullAppender,org.apache.log4j.performance.NullAppender,L5528,L103,2,6,6,0,0,0,0,0,0,1,1,0,19,3,0,0,0,0,0,0,1,0,3,0,0,0,0,0,0,0,,,,0,0
L5736,Class,SystemTime,org.apache.log4j.performance.SystemTime,L5528,L103,1,3,1,0,0,0,0,0,0,0,0,0,0,0,0,0,0,0,0,0,0,0,1,0,0,0,0,0,0,0,,,,0,0
L5949,Class,RollingFileAppenderBeanInfo,org.apache.log4j.RollingFileAppenderBeanInfo,L106,L103,1,2,2,0,1,0,0,0,0,1,1,0,0,0,0,0,0,0,0,0,1,0,1,0,0,0,0,0,0,0,,,,0,0
L6016,Interface,ErrorCode,org.apache.log4j.spi.ErrorCode,L5980,L103,,0,,,,,,,0,0,,,,,,,,,,0,,0,0,,,,,,,0,0,0,0,0,0
L6192,Class,VectorWriter,org.apache.log4j.spi.VectorWriter,L5980,L103,1,6,5,0,0,0,0,0,0,1,1,0,0,0,0,0,1,1,0,0,1,0,3,0,0,0,0,0,0,0,,,,0,0
L6208,Class,NullWriter,org.apache.log4j.spi.NullWriter,L5980,L103,0,3,3,0,0,0,0,0,0,1,1,0,0,0,0,0,0,0,0,0,0,0,0,0,0,0,0,0,0,0,,,,0,0
L6360,Class,Base64,org.apache.log4j.test.Base64,L6310,L103,3,3,1,0,0,0,0,0,0,0,0,0,0,0,0,0,0,0,0,0,0,0,3,0,0,0,0,0,0,0,,,,0,0
L6380,Class,CategoryWrapper,org.apache.log4j.test.CategoryWrapper,L6310,L103,2,5,3,0,0,0,0,0,0,0,0,0,0,0,0,0,0,0,0,0,2,0,5,0,0,0,0,0,0,0,,,,0,0
L6402,Class,ConfigurationFileParsing,org.apache.log4j.test.ConfigurationFileParsing,L6310,L103,0,2,1,0,0,0,0,0,0,0,0,0,0,0,0,0,0,0,0,0,0,0,2,0,0,0,0,0,0,0,,,,0,0
L6411,Class,DefaultInit,org.apache.log4j.test.DefaultInit,L6310,L103,1,2,1,0,0,0,0,0,0,0,0,0,0,0,0,0,0,0,0,0,1,0,2,0,0,0,0,0,0,0,,,,0,0
L6421,Class,DelayedLoop,org.apache.log4j.test.DelayedLoop,L6310,L103,2,4,1,0,0,0,0,0,0,0,0,0,0,0,0,0,0,0,0,0,1,0,3,0,0,0,0,0,0,0,,,,0,0
L6439,Class,Finalize,org.apache.log4j.test.Finalize,L6310,L103,1,6,1,0,0,0,0,0,0,0,0,0,0,0,0,0,0,0,0,0,1,0,4,0,0,0,0,0,0,0,,,,0,0
L6461,Class,Hello,org.apache.log4j.test.Hello,L6310,L103,1,1,1,0,0,0,0,0,0,0,0,0,0,0,0,0,0,0,0,0,1,0,1,0,0,0,0,0,0,0,,,,0,0
L6470,Class,L7D,org.apache.log4j.test.L7D,L6310,L103,1,4,1,0,0,0,0,0,0,0,0,0,0,0,0,0,0,0,0,0,1,0,5,0,0,0,0,0,0,0,,,,0,0
L6499,Class,Min,org.apache.log4j.test.Min,L6310,L103,0,4,1,0,0,0,0,0,0,0,0,0,0,0,0,0,0,0,0,0,0,0,3,0,0,0,0,0,0,0,,,,0,0
L6515,Class,MultipleAppenders,org.apache.log4j.test.MultipleAppenders,L6310,L103,0,1,1,0,0,0,0,0,0,0,0,0,0,0,0,0,0,0,0,0,0,0,1,0,0,0,0,0,0,0,,,,0,0
L6539,Class,PrintProperties,org.apache.log4j.test.PrintProperties,L6310,L103,0,1,1,0,0,0,0,0,0,0,0,0,0,0,0,0,0,0,0,0,0,0,1,0,0,0,0,0,0,0,,,,0,0
L6544,Class,ROFile,org.apache.log4j.test.ROFile,L6310,L103,1,4,1,0,0,0,0,0,0,0,0,0,0,0,0,0,0,0,0,0,1,0,3,0,0,0,0,0,0,0,,,,0,0
L6587,Class,ShortSocketServer,org.apache.log4j.test.ShortSocketServer,L6310,L103,2,3,1,0,0,0,0,0,0,0,0,0,0,0,0,0,0,0,0,0,1,0,4,0,0,0,0,0,0,0,,,,0,0
L6626,Class,SpacePad,org.apache.log4j.test.SpacePad,L6310,L103,1,2,2,0,0,0,0,0,0,0,0,0,0,0,0,0,0,0,0,0,1,0,2,0,0,0,0,0,0,0,,,,0,0
L6636,Class,StressAsyncAppender,org.apache.log4j.test.StressAsyncAppender,L6310,L103,9,8,7,0,0,0,0,0,0,1,1,0,0,0,0,0,0,0,0,0,3,0,1,0,0,0,0,0,0,0,,,,0,0
L6678,Class,StressNDC,org.apache.log4j.test.StressNDC,L6310,L103,12,8,7,0,0,0,0,0,0,1,1,0,0,0,0,0,0,0,0,0,4,0,3,0,0,0,0,0,0,0,,,,0,0
L697,Class,FileWatchdog,org.apache.log4j.helpers.FileWatchdog,L2996,L103,7,5,2,1,0,0,0,2,2,1,1,1,0,0,0,0,0,0,0,0,2,0,1,0,0,0,0,0,0,0,,,,0,0
L834,Interface,CategoryFactory,org.apache.log4j.spi.CategoryFactory,L5980,L103,,1,,,,,,,0,0,,,,,,,,,,0,,1,2,,,,,,,0,2,3,0,0,0
L1409,Class,PatternLayout,org.apache.log4j.PatternLayout,L106,L103,8,10,9,2,2,0,0,1,1,1,1,1,5,2,0,0,0,1,0,0,2,0,10,0,0,0,0,0,0,0,,,,1,1
L1797,Class,RollingFileAppender,org.apache.log4j.RollingFileAppender,L106,L103,4,15,13,7,3,0,0,1,1,3,3,1,54,10,0,0,0,0,0,0,1,0,11,0,0,0,0,0,0,0,,,,1,1
L2319,Class,SimpleSocketServer,org.apache.log4j.net.SimpleSocketServer,L2054,L103,2,3,1,0,0,0,0,0,0,0,0,0,0,0,0,0,0,0,0,0,1,0,4,0,0,0,0,0,0,0,,,,1,1
L2491,Class,SocketAppender,org.apache.log4j.net.SocketAppender,L2054,L103,15,21,18,5,6,0,0,0,0,1,1,0,19,3,0,0,0,1,0,0,4,0,11,0,0,0,0,0,0,0,,,,1,1
L2652,Class,SocketServer,org.apache.log4j.net.SocketServer,L2054,L103,6,6,2,0,0,0,0,0,0,0,0,0,0,0,0,0,0,1,0,0,4,0,9,0,0,0,0,0,0,0,,,,1,1
L2726,Class,SyslogAppender,org.apache.log4j.net.SyslogAppender,L2054,L103,30,18,17,4,6,0,0,0,0,1,1,0,19,3,0,0,0,0,1,0,1,0,13,0,0,0,0,0,0,0,,,,1,1
L309,Interface,Configurator,org.apache.log4j.spi.Configurator,L5980,L103,,1,,,,,,,0,0,,,,,,,,,,0,,0,2,,,,,,,0,0,3,0,1,1
L3222,Class,DateLayout,org.apache.log4j.helpers.DateLayout,L2996,L103,9,10,10,5,3,0,0,1,1,1,1,1,5,2,0,0,0,0,0,0,4,0,13,0,0,0,0,0,0,0,,,,1,1
L3413,Class,Loader,org.apache.log4j.helpers.Loader,L2996,L103,1,2,1,0,1,0,0,0,0,0,0,0,0,0,0,0,0,0,0,0,1,0,6,0,0,0,0,0,0,0,,,,1,1
L4642,Class,PropertyGetter,org.apache.log4j.config.PropertyGetter,L4636,L103,3,4,3,0,3,0,0,0,0,0,0,0,0,0,0,0,0,0,0,0,2,0,7,0,0,0,0,0,0,0,,,,1,1
L5315,Class,NTEventLogAppender,org.apache.log4j.nt.NTEventLogAppender,L5312,L103,9,18,15,2,2,0,0,0,0,1,1,0,19,3,0,0,0,0,0,0,1,0,18,0,0,0,0,0,0,0,,,,1,1
L5579,Class,Logging,org.apache.log4j.performance.Logging,L5528,L103,5,5,1,0,0,0,0,0,0,0,0,0,0,0,0,0,0,0,0,0,1,0,10,0,0,0,0,0,0,0,,,,1,1
L5668,Class,NotLogging,org.apache.log4j.performance.NotLogging,L5528,L103,10,6,1,0,0,0,0,0,0,0,0,0,0,0,0,0,0,0,0,0,2,0,6,0,0,0,0,0,0,0,,,,1,1
L6354,Class,Shallow,org.apache.log4j.test.Shallow,L6310,L103,1,5,1,0,0,0,0,0,0,0,0,0,0,0,0,0,0,0,0,0,1,0,3,0,0,0,0,0,0,0,,,,1,1
L6729,Class,SysoutConfigurator,org.apache.log4j.test.SysoutConfigurator,L6310,L103,0,1,1,0,0,0,1,0,0,0,0,0,0,0,0,0,0,0,0,0,0,0,2,0,0,0,0,0,0,0,,,,1,1
L743,Class,XCategory,org.apache.log4j.xml.examples.XCategory,L707,L103,4,12,11,1,4,0,1,0,0,1,1,0,0,0,0,0,0,0,2,0,2,0,17,0,0,0,0,0,0,0,,,,1,1
L745,Interface,OptionHandler,org.apache.log4j.spi.OptionHandler,L5980,L103,,3,,,,,,,1,0,,,,,,,,,,0,,0,3,,,,,,,0,0,4,1,1,1
L2230,Class,JMSAppender,org.apache.log4j.net.JMSAppender,L2054,L103,7,13,11,3,3,0,0,0,0,1,1,0,19,3,0,0,0,0,0,0,4,0,11,0,0,0,0,0,0,0,,,,2,1
L306,Class,BasicConfigurator,org.apache.log4j.BasicConfigurator,L106,L103,3,12,10,0,0,0,0,2,2,0,0,1,0,0,0,0,0,0,0,0,1,0,7,0,0,0,0,0,0,0,,,,2,1
L415,Class,PropertySetter,org.apache.log4j.config.PropertySetter,L4636,L103,2,9,6,4,1,0,0,0,0,0,0,0,0,0,0,0,0,0,0,0,2,1,16,0,0,0,0,0,0,0,,,,2,1
L5162,Class,HTMLLayout,org.apache.log4j.HTMLLayout,L106,L103,8,14,12,3,6,0,0,0,0,1,1,0,5,2,0,0,0,0,0,0,2,0,14,0,0,0,0,0,0,0,,,,2,1
L5235,Class,NDC,org.apache.log4j.NDC,L106,L103,3,11,9,1,2,0,0,0,0,0,0,0,0,0,0,0,0,0,0,0,1,0,5,0,0,0,0,0,0,0,,,,2,1
L6101,Class,ThrowableInformation,org.apache.log4j.spi.ThrowableInformation,L5980,L103,2,3,3,0,2,0,1,0,0,0,0,0,0,0,0,0,2,2,0,0,2,1,3,0,0,0,0,0,0,0,,,,2,1
L6233,Class,StressCategory,org.apache.log4j.StressCategory,L106,L103,5,10,2,0,1,0,0,0,0,0,0,0,0,0,0,0,1,1,0,0,4,0,4,0,0,0,0,0,0,0,,,,2,1
L1079,Class,FileAppender,org.apache.log4j.FileAppender,L106,L103,5,16,13,5,3,0,0,3,4,2,2,2,38,5,0,0,0,0,0,0,1,0,15,0,0,0,0,0,0,0,,,,3,1
L2298,Class,JMSSink,org.apache.log4j.net.JMSSink,L2054,L103,0,3,1,0,0,0,0,0,0,0,0,0,0,0,0,0,0,0,0,0,0,0,5,0,0,0,0,0,0,0,,,,3,1
L2334,Class,SocketNode,org.apache.log4j.net.SocketNode,L2054,L103,3,2,2,0,0,0,1,0,0,0,0,0,0,0,0,0,0,1,0,0,3,0,2,0,0,0,0,0,0,0,,,,3,1
L2342,Class,SMTPAppender,org.apache.log4j.net.SMTPAppender,L2054,L103,15,26,22,8,9,0,0,0,0,1,1,0,19,3,0,0,0,0,2,0,3,0,19,0,0,0,0,0,0,0,,,,3,1
L3524,Class,OptionConverter,org.apache.log4j.helpers.OptionConverter,L2996,L103,5,13,12,0,1,0,0,0,0,0,0,0,0,0,0,0,0,0,0,0,2,0,31,0,0,0,0,0,0,0,,,,3,1
L480,Class,Hierarchy,org.apache.log4j.Hierarchy,L106,L103,7,22,20,1,6,0,0,0,0,0,0,0,0,0,0,0,0,4,0,0,2,20,20,0,0,0,0,0,0,0,,,,3,1
L1506,Class,AppenderSkeleton,org.apache.log4j.AppenderSkeleton,L106,L103,3,19,18,5,8,0,2,14,20,0,0,4,0,0,0,0,2,4,0,0,1,0,17,0,0,0,0,0,0,0,,,,4,1
L4852,Class,WriterAppender,org.apache.log4j.WriterAppender,L106,L103,2,19,13,4,2,0,0,2,6,1,1,3,19,3,0,0,0,1,0,0,1,0,11,0,0,0,0,0,0,0,,,,4,1
L827,Class,LoggingEvent,org.apache.log4j.spi.LoggingEvent,L5980,L103,15,13,9,0,8,0,1,0,0,0,0,0,0,0,0,0,2,3,4,0,6,56,16,0,0,0,0,0,0,0,,,,4,1
L4252,Class,AsyncAppender,org.apache.log4j.AsyncAppender,L106,L103,5,16,16,3,5,0,1,0,0,1,1,0,19,3,0,0,1,3,0,0,1,1,10,0,0,0,0,0,0,0,,,,5,1
L546,Class,Priority,org.apache.log4j.Priority,L106,L103,8,10,9,0,3,0,0,1,1,0,0,1,0,0,0,0,2,7,1,2,1,26,4,0,0,0,0,0,0,0,,,,5,1
L2717,Class,PropertyConfigurator,org.apache.log4j.PropertyConfigurator,L106,L103,8,16,8,0,0,0,1,0,0,1,1,0,12,3,0,0,0,1,0,0,2,0,30,0,0,0,0,0,0,0,,,,6,1
