ID,Type,Name,LongName,parent,Component,NumAttr,NumOps,NumPubOps,Setters,Getters,Nesting,IFImpl,NOC,NumDesc,NumAnc,DIT,CLD,OpsInh,AttrInh,Dep_Out,Dep_In,NumAssEl_ssc,NumAssEl_sb,NumAssEl_nsb,EC_Attr,IC_Attr,EC_Par,IC_Par,Connectors,InstSpec,LLInst,MsgSent,MsgRecv,MsgSelf,Diags,Assoc,NumDirClients,NumIndClients,BugNo,Label
L10264,Interface,TermDocs,org.apache.lucene.index.TermDocs,L29717,L103,,8,,,,,,,1,0,,,,,,,,,,2,,14,2,,,,,,,0,2,4,5,0,0
L11459,Class,QueryFilter,org.apache.lucene.search.QueryFilter,L20308,L103,0,3,3,0,1,0,0,0,0,2,2,0,6,1,0,0,0,0,1,0,0,0,2,0,0,0,0,0,0,0,,,,0,0
L1403,Class,WhitespaceTokenizer,org.apache.lucene.analysis.WhitespaceTokenizer,L134,L103,0,2,1,0,1,0,0,0,0,3,3,0,10,8,0,0,0,0,0,0,0,0,1,0,0,0,0,0,0,0,,,,0,0
L16043,Class,BooleanClause,org.apache.lucene.search.BooleanClause,L20308,L103,1,10,10,2,5,0,1,0,0,0,0,0,0,0,0,0,1,1,0,0,1,2,8,0,0,0,0,0,0,0,,,,0,0
L21028,Interface,TermFreqVector,org.apache.lucene.index.TermFreqVector,L29717,L103,,6,,,,,,,1,0,,,,,,,,,,0,,17,4,,,,,,,0,0,2,1,0,0
L21033,Interface,TermPositionVector,org.apache.lucene.index.TermPositionVector,L29717,L103,,2,,,,,,,0,1,,,,,,,,,,0,,2,1,,,,,,,0,0,1,0,0,0
L21059,Class,TermVectorOffsetInfo,org.apache.lucene.index.TermVectorOffsetInfo,L29717,L103,2,8,8,2,3,0,0,0,0,0,0,0,0,0,0,0,3,3,0,1,0,7,1,0,0,0,0,0,0,0,,,,0,0
L21212,Class,MultiSearcher,org.apache.lucene.search.MultiSearcher,L20308,L103,2,16,14,0,2,0,0,1,1,1,1,1,22,0,0,0,1,1,0,0,0,2,22,0,0,0,0,0,0,0,,,,0,0
L21367,Class,DefaultSimilarity,org.apache.lucene.search.DefaultSimilarity,L20308,L103,0,6,6,0,0,0,0,4,4,1,1,1,15,1,0,0,0,0,0,0,0,0,1,0,0,0,0,0,0,0,,,,0,0
L21444,Class,FuzzyTermEnum,org.apache.lucene.search.FuzzyTermEnum,L20308,L103,10,14,6,0,1,0,0,0,0,2,2,0,14,0,0,0,0,0,1,0,1,0,8,0,0,0,0,0,0,0,,,,0,0
L21449,Class,TermEnum,org.apache.lucene.index.TermEnum,L29717,L103,0,5,5,0,0,0,0,5,8,0,0,2,0,0,0,0,1,1,2,3,0,24,2,0,0,0,0,0,0,0,,,,0,0
L21966,Class,MultiTermQuery,org.apache.lucene.search.MultiTermQuery,L20308,L103,0,7,6,0,3,0,0,3,3,1,1,1,12,1,0,0,0,0,1,0,0,0,9,0,0,0,0,0,0,0,,,,0,0
L21985,Class,FilteredTermEnum,org.apache.lucene.search.FilteredTermEnum,L20308,L103,0,9,6,1,0,0,0,3,3,1,1,1,5,0,0,0,0,0,2,0,0,4,3,0,0,0,0,0,0,0,,,,0,0
L22057,Class,SpanOrQuery,org.apache.lucene.search.spans.SpanOrQuery,L26910,L103,2,10,10,0,5,0,0,0,0,2,2,0,16,1,0,0,0,0,0,0,2,4,12,0,0,0,0,0,0,0,,,,0,0
L22063,Interface,Spans,org.apache.lucene.search.spans.Spans,L26910,L103,,5,,,,,,,0,0,,,,,,,,,,1,,14,0,,,,,,,0,2,4,0,0,0
L22402,Class,CorruptIndexException,org.apache.lucene.index.CorruptIndexException,L29717,L103,0,1,1,0,0,0,0,0,0,1,1,0,0,0,0,0,0,0,0,0,0,0,1,0,0,0,0,0,0,0,,,,0,0
L22415,Class,Parameter,org.apache.lucene.util.Parameter,L42699,L103,2,5,1,0,0,0,1,6,6,0,0,1,0,0,0,0,0,0,0,0,2,0,5,0,0,0,0,0,0,0,,,,0,0
L22495,Interface,Weight,org.apache.lucene.search.Weight,L20308,L103,,6,,,,,,,0,1,,,,,,,,,,2,,53,5,,,,,,,0,5,11,0,0,0
L22536,Class,Explanation,org.apache.lucene.search.Explanation,L20308,L103,3,13,11,2,5,0,1,1,1,0,0,1,0,0,0,0,0,0,0,0,2,41,7,0,0,0,0,0,0,0,,,,0,0
L22608,Class,BooleanScorer,org.apache.lucene.search.BooleanScorer,L20308,L103,10,12,7,0,0,0,0,0,0,1,1,0,9,0,0,0,0,0,0,0,3,0,7,0,0,0,0,0,0,0,,,,0,0
L22637,Class,HitCollector,org.apache.lucene.search.HitCollector,L20308,L103,0,1,1,0,0,0,0,5,7,0,0,2,0,0,0,0,0,0,0,1,0,23,0,0,0,0,0,0,0,0,,,,0,0
L22823,Class,DisjunctionSumScorer,org.apache.lucene.search.DisjunctionSumScorer,L20308,L103,7,12,9,0,0,0,0,0,0,1,1,0,9,0,0,0,0,0,1,0,1,0,5,0,0,0,0,0,0,0,,,,0,0
L22872,Class,NonMatchingScorer,org.apache.lucene.search.NonMatchingScorer,L20308,L103,0,6,6,0,0,0,0,0,0,1,1,0,9,0,0,0,0,0,0,0,0,0,1,0,0,0,0,0,0,0,,,,0,0
L22887,Class,ReqOptSumScorer,org.apache.lucene.search.ReqOptSumScorer,L20308,L103,1,6,6,0,0,0,0,0,0,1,1,0,9,0,0,0,1,1,0,0,0,0,3,0,0,0,0,0,0,0,,,,0,0
L22894,Class,ReqExclScorer,org.apache.lucene.search.ReqExclScorer,L20308,L103,1,7,6,0,0,0,0,0,0,1,1,0,9,0,0,0,1,1,0,0,0,0,3,0,0,0,0,0,0,0,,,,0,0
L23291,Class,ScorerDocQueue,org.apache.lucene.util.ScorerDocQueue,L42699,L103,4,16,12,0,0,0,0,0,0,0,0,0,0,0,0,0,0,0,1,0,1,0,4,0,0,0,0,0,0,0,,,,0,0
L23351,Class,ExactPhraseScorer,org.apache.lucene.search.ExactPhraseScorer,L20308,L103,0,2,0,0,0,0,0,0,0,2,2,0,22,5,0,0,0,0,0,0,0,0,3,0,0,0,0,0,0,0,,,,0,0
L23352,Class,PhraseScorer,org.apache.lucene.search.PhraseScorer,L20308,L103,5,13,6,0,0,0,0,2,2,1,1,1,9,0,0,0,3,3,0,0,0,0,5,0,0,0,0,0,0,0,,,,0,0
L23373,Class,PhrasePositions,org.apache.lucene.search.PhrasePositions,L20308,L103,5,5,0,0,0,0,0,0,0,0,0,0,0,0,0,0,2,2,1,0,0,1,1,0,0,0,0,0,0,0,,,,0,0
L23534,Class,SortComparator,org.apache.lucene.search.SortComparator,L20308,L103,0,2,1,0,1,0,1,0,0,0,0,0,0,0,0,0,0,0,0,0,0,3,5,0,0,0,0,0,0,0,,,,0,0
L23759,Class,ScoreDoc,org.apache.lucene.search.ScoreDoc,L20308,L103,2,1,1,0,0,0,1,1,1,0,0,1,0,0,0,0,1,1,0,0,0,5,0,0,0,0,0,0,0,0,,,,0,0
L2384,Class,LetterTokenizer,org.apache.lucene.analysis.LetterTokenizer,L134,L103,0,2,1,0,1,0,0,1,1,3,3,1,10,8,0,0,0,0,0,0,0,0,1,0,0,0,0,0,0,0,,,,0,0
L23905,Interface,SortComparatorSource,org.apache.lucene.search.SortComparatorSource,L20308,L103,,1,,,,,,,0,1,,,,,,,,,,0,,5,3,,,,,,,0,1,1,0,0,0
L2397,Class,LowerCaseTokenizer,org.apache.lucene.analysis.LowerCaseTokenizer,L134,L103,0,2,1,0,0,0,0,0,0,4,4,0,12,8,0,0,0,0,0,0,0,0,1,0,0,0,0,0,0,0,,,,0,0
L2408,Class,PerFieldAnalyzerWrapper,org.apache.lucene.analysis.PerFieldAnalyzerWrapper,L134,L103,1,5,5,0,1,0,0,0,0,1,1,0,2,0,0,0,1,1,1,0,1,0,8,0,0,0,0,0,0,0,,,,0,0
L24456,Class,FieldScoreQuery,org.apache.lucene.search.function.FieldScoreQuery,L24151,L103,0,2,1,0,1,0,0,0,0,2,2,0,19,1,0,0,0,0,0,0,0,0,5,0,0,0,0,0,0,0,,,,0,0
L25245,Class,HitQueue,org.apache.lucene.search.HitQueue,L20308,L103,0,2,0,0,0,0,0,0,0,1,1,0,11,3,0,0,0,0,0,0,0,1,2,0,0,0,0,0,0,0,,,,0,0
L25259,Class,HitDoc,org.apache.lucene.search.HitDoc,L20308,L103,2,1,0,0,0,0,0,0,0,0,0,0,0,0,0,0,1,1,1,0,0,3,0,0,0,0,0,0,0,0,,,,0,0
L2565,Class,SimpleAnalyzer,org.apache.lucene.analysis.SimpleAnalyzer,L134,L103,0,1,1,0,0,0,0,0,0,1,1,0,2,0,0,0,0,0,0,0,0,0,3,0,0,0,0,0,0,0,,,,0,0
L25765,Class,MultiSearcherThread,org.apache.lucene.search.MultiSearcherThread,L20308,L103,4,6,6,0,2,0,0,0,0,1,1,0,0,0,0,0,5,5,1,0,1,0,12,0,0,0,0,0,0,0,,,,0,0
L25858,Class,SpanWeight,org.apache.lucene.search.spans.SpanWeight,L26910,L103,5,7,7,0,2,0,1,1,1,0,0,1,0,0,0,0,1,2,0,0,1,0,7,0,0,0,0,0,0,0,,,,0,0
L2586,Interface,CharStream,org.apache.lucene.analysis.standard.CharStream,L2574,L103,,12,,,,,,,0,0,,,,,,,,,,0,,6,1,,,,,,,0,1,1,0,0,0
L25878,Class,TermSpans,org.apache.lucene.search.spans.TermSpans,L26910,L103,4,8,8,0,1,0,1,0,0,0,0,0,0,0,0,0,0,0,2,0,0,1,4,0,0,0,0,0,0,0,,,,0,0
L26114,Class,PhraseQueue,org.apache.lucene.search.PhraseQueue,L20308,L103,0,2,0,0,0,0,0,0,0,1,1,0,11,3,0,0,1,1,0,0,0,0,2,0,0,0,0,0,0,0,,,,0,0
L2614,Class,FastCharStream,org.apache.lucene.analysis.standard.FastCharStream,L2574,L103,6,14,13,0,6,0,1,0,0,0,0,0,0,0,0,0,0,0,0,0,1,0,2,0,0,0,0,0,0,0,,,,0,0
L26177,Class,PrefixGenerator,org.apache.lucene.search.PrefixGenerator,L20308,L103,0,2,1,0,0,0,1,0,0,0,0,0,0,0,0,0,0,0,1,0,0,0,2,0,0,0,0,0,0,0,,,,0,0
L26192,Interface,IdGenerator,org.apache.lucene.search.IdGenerator,L20308,L103,,2,,,,,,,0,0,,,,,,,,,,0,,0,1,,,,,,,0,0,1,0,0,0
L26207,Class,PrefixQuery,org.apache.lucene.search.PrefixQuery,L20308,L103,0,6,6,0,2,0,0,0,0,1,1,0,12,1,0,0,0,0,1,0,0,0,7,0,0,0,0,0,0,0,,,,0,0
L26406,Class,RemoteSearchable,org.apache.lucene.search.RemoteSearchable,L20308,L103,0,13,13,0,0,0,1,0,0,1,1,0,0,0,0,0,1,1,0,0,0,0,21,0,0,0,0,0,0,0,,,,0,0
L2656,Class,ParseException,org.apache.lucene.analysis.standard.ParseException,L2574,L103,4,5,4,0,1,0,0,0,0,1,1,0,0,0,0,0,1,1,0,0,1,1,6,0,0,0,0,0,0,0,,,,0,0
L2662,Class,Token,org.apache.lucene.analysis.standard.Token,L2574,L103,6,2,2,0,0,0,0,0,0,0,0,0,0,0,0,0,2,2,0,0,1,6,1,0,0,0,0,0,0,0,,,,0,0
L26932,Class,NearSpansOrdered,org.apache.lucene.search.spans.NearSpansOrdered,L26910,L103,8,13,7,0,0,0,1,0,0,0,0,0,0,0,0,0,2,2,0,0,1,0,5,0,0,0,0,0,0,0,,,,0,0
L27193,Class,SpanNotQuery,org.apache.lucene.search.spans.SpanNotQuery,L26910,L103,0,11,11,0,6,0,0,0,0,2,2,0,16,1,0,0,1,1,0,0,0,1,14,0,0,0,0,0,0,0,,,,0,0
L2739,Interface,StandardTokenizerConstants,org.apache.lucene.analysis.standard.StandardTokenizerConstants,L2574,L103,,0,,,,,,,0,0,,,,,,,,,,0,,0,0,,,,,,,0,0,3,0,0,0
L27699,Class,TermScorer,org.apache.lucene.search.TermScorer,L20308,L103,9,9,7,0,0,0,0,0,0,1,1,0,9,0,0,0,1,1,1,0,0,0,7,0,0,0,0,0,0,0,,,,0,0
L27858,Class,WildcardTermEnum,org.apache.lucene.search.WildcardTermEnum,L20308,L103,7,6,5,0,0,0,0,0,0,2,2,0,14,0,0,0,0,0,1,0,1,0,5,0,0,0,0,0,0,0,,,,0,0
L2801,Class,StandardTokenizerTokenManager,org.apache.lucene.analysis.standard.StandardTokenizerTokenManager,L2574,L103,34,21,7,1,1,0,1,0,0,0,0,0,0,0,0,0,2,2,0,0,2,2,7,0,0,0,0,0,0,0,,,,0,0
L29658,Class,FieldSelectorResult,org.apache.lucene.document.FieldSelectorResult,L42288,L103,1,3,2,0,1,0,1,0,0,0,0,0,0,0,0,0,0,0,0,0,0,4,1,0,0,0,0,0,0,0,,,,0,0
L3010,Class,TokenMgrError,org.apache.lucene.analysis.standard.TokenMgrError,L2574,L103,5,6,4,0,1,0,0,0,0,1,1,0,0,0,0,0,0,0,0,0,0,0,7,0,0,0,0,0,0,0,,,,0,0
L30874,Class,SegmentTermDocs,org.apache.lucene.index.SegmentTermDocs,L29717,L103,11,12,8,0,0,0,1,2,2,0,0,1,0,0,0,0,2,2,2,0,0,0,5,0,0,0,0,0,0,0,,,,0,0
L3088,Class,StopAnalyzer,org.apache.lucene.analysis.StopAnalyzer,L134,L103,2,6,6,0,0,0,0,0,0,1,1,0,2,0,0,0,1,1,0,0,2,0,7,0,0,0,0,0,0,0,,,,0,0
L31045,Class,DefaultSkipListReader,org.apache.lucene.index.DefaultSkipListReader,L29717,L103,7,8,0,1,3,0,0,0,0,1,1,0,10,13,0,0,1,1,0,0,0,0,2,0,0,0,0,0,0,0,,,,0,0
L31099,Class,DefaultSkipListWriter,org.apache.lucene.index.DefaultSkipListWriter,L29717,L103,9,4,0,1,0,0,0,0,0,1,1,0,6,2,0,0,1,1,1,0,0,0,3,0,0,0,0,0,0,0,,,,0,0
L31101,Class,MultiLevelSkipListWriter,org.apache.lucene.index.MultiLevelSkipListWriter,L29717,L103,2,6,0,0,0,0,0,1,1,0,0,1,0,0,0,0,0,0,1,0,0,0,2,0,0,0,0,0,0,0,,,,0,0
L31145,Class,DocumentWriter,org.apache.lucene.index.DocumentWriter,L29717,L103,10,11,0,1,1,0,0,0,0,0,0,0,0,0,0,0,2,2,3,0,4,0,19,0,0,0,0,0,0,0,,,,0,0
L31301,Class,TermInfo,org.apache.lucene.index.TermInfo,L29717,L103,4,5,0,2,0,0,0,0,0,0,0,0,0,0,0,0,4,4,0,0,0,8,0,0,0,0,0,0,0,0,,,,0,0
L31477,Class,FieldReaderException,org.apache.lucene.index.FieldReaderException,L29717,L103,0,4,4,0,0,0,0,0,0,1,1,0,0,0,0,0,0,0,0,0,0,0,4,0,0,0,0,0,0,0,,,,0,0
L32136,Class,StaleReaderException,org.apache.lucene.index.StaleReaderException,L29717,L103,0,1,1,0,0,0,0,0,0,1,1,0,0,0,0,0,0,0,0,0,0,0,1,0,0,0,0,0,0,0,,,,0,0
L3214,Class,WhitespaceAnalyzer,org.apache.lucene.analysis.WhitespaceAnalyzer,L134,L103,0,1,1,0,0,0,0,0,0,1,1,0,2,0,0,0,0,0,0,0,0,0,3,0,0,0,0,0,0,0,,,,0,0
L3228,Class,WordlistLoader,org.apache.lucene.analysis.WordlistLoader,L134,L103,0,3,3,0,3,0,0,0,0,0,0,0,0,0,0,0,0,0,0,0,0,0,6,0,0,0,0,0,0,0,,,,0,0
L33164,Class,MultiTermEnum,org.apache.lucene.index.MultiTermEnum,L29717,L103,1,5,5,0,0,0,0,0,0,1,1,0,5,0,0,0,2,2,0,0,0,0,3,0,0,0,0,0,0,0,,,,0,0
L33174,Class,MultiTermDocs,org.apache.lucene.index.MultiTermDocs,L29717,L103,3,11,9,0,0,0,1,1,1,0,0,1,0,0,0,0,3,3,0,0,0,0,6,0,0,0,0,0,0,0,,,,0,0
L33180,Class,MultiTermPositions,org.apache.lucene.index.MultiTermPositions,L29717,L103,0,6,5,0,3,0,1,0,0,1,1,0,11,3,0,0,0,0,0,0,0,0,3,0,0,0,0,0,0,0,,,,0,0
L33192,Class,SegmentMergeQueue,org.apache.lucene.index.SegmentMergeQueue,L29717,L103,0,3,0,0,0,0,0,0,0,1,1,0,11,3,0,0,2,2,0,0,0,0,2,0,0,0,0,0,0,0,,,,0,0
L33203,Class,SegmentMergeInfo,org.apache.lucene.index.SegmentMergeInfo,L29717,L103,2,5,0,0,2,0,0,0,0,0,0,0,0,0,0,0,4,4,0,0,0,2,3,0,0,0,0,0,0,0,,,,0,0
L3378,Class,Query,org.apache.lucene.search.Query,L20308,L103,1,12,11,1,2,0,2,19,31,0,0,3,0,0,0,0,8,10,5,2,0,256,12,0,0,0,0,0,0,0,,,,0,0
L33806,Class,BitVector,org.apache.lucene.util.BitVector,L42699,L103,4,13,8,1,2,0,0,0,0,0,0,0,0,0,0,0,0,0,2,0,0,2,8,0,0,0,0,0,0,0,,,,0,0
L34117,Class,TermBuffer,org.apache.lucene.index.TermBuffer,L29717,L103,4,9,6,3,0,0,1,0,0,0,0,0,0,0,0,0,2,2,0,0,1,0,5,0,0,0,0,0,0,0,,,,0,0
L34257,Class,SegmentTermPositionVector,org.apache.lucene.index.SegmentTermPositionVector,L29717,L103,2,3,3,0,2,0,1,0,0,1,1,0,8,3,0,0,1,1,0,0,0,0,4,0,0,0,0,0,0,0,,,,0,0
L35355,Class,LoadFirstFieldSelector,org.apache.lucene.document.LoadFirstFieldSelector,L42288,L103,0,1,1,0,0,0,1,0,0,0,0,0,0,0,0,0,0,0,0,0,0,0,2,0,0,0,0,0,0,0,,,,0,0
L38901,Class,FastCharStream,org.apache.lucene.queryParser.FastCharStream,L36699,L103,6,14,13,0,6,0,1,0,0,0,0,0,0,0,0,0,0,0,0,0,1,0,2,0,0,0,0,0,0,0,,,,0,0
L42342,Class,DateField,org.apache.lucene.document.DateField,L42288,L103,1,7,6,0,0,0,0,0,0,0,0,0,0,0,0,0,0,0,0,0,0,0,8,0,0,0,0,0,0,0,,,,0,0
L42583,Class,NumberTools,org.apache.lucene.document.NumberTools,L42288,L103,6,2,2,0,0,0,0,0,0,0,0,0,0,0,0,0,0,0,0,0,1,0,2,0,0,0,0,0,0,0,,,,0,0
L42688,Class,LucenePackage,org.apache.lucene.LucenePackage,L106,L103,0,2,1,0,1,0,0,0,0,0,0,0,0,0,0,0,0,0,0,0,0,0,1,0,0,0,0,0,0,0,,,,0,0
L42763,Class,Constants,org.apache.lucene.util.Constants,L42699,L103,8,1,0,0,0,0,0,0,0,0,0,0,0,0,0,0,0,0,0,0,1,0,0,0,0,0,0,0,0,0,,,,0,0
L42920,Class,StringHelper,org.apache.lucene.util.StringHelper,L42699,L103,0,2,1,0,0,0,0,0,0,0,0,0,0,0,0,0,0,0,0,0,0,0,2,0,0,0,0,0,0,0,,,,0,0
L42927,Class,ToStringUtils,org.apache.lucene.util.ToStringUtils,L42699,L103,0,1,1,0,0,0,0,0,0,0,0,0,0,0,0,0,0,0,0,0,0,0,1,0,0,0,0,0,0,0,,,,0,0
L4370,Class,SpanFirstQuery,org.apache.lucene.search.spans.SpanFirstQuery,L26910,L103,1,11,11,0,6,0,0,0,0,2,2,0,16,1,0,0,1,1,0,0,0,1,12,0,0,0,0,0,0,0,,,,0,0
L4375,Class,SpanTermQuery,org.apache.lucene.search.spans.SpanTermQuery,L26910,L103,0,9,9,0,5,0,0,1,1,2,2,1,16,1,0,0,0,0,1,0,0,3,10,0,0,0,0,0,0,0,,,,0,0
L4380,Class,SpanNearQuery,org.apache.lucene.search.spans.SpanNearQuery,L26910,L103,4,12,12,0,7,0,0,0,0,2,2,0,16,1,0,0,2,2,0,0,2,8,12,0,0,0,0,0,0,0,,,,0,0
L4385,Class,SpanQuery,org.apache.lucene.search.spans.SpanQuery,L26910,L103,0,4,3,0,3,0,0,6,7,1,1,2,12,1,0,0,3,3,0,0,0,36,6,0,0,0,0,0,0,0,,,,0,0
L4388,Class,WildcardQuery,org.apache.lucene.search.WildcardQuery,L20308,L103,1,4,3,0,1,0,0,0,0,2,2,0,19,1,0,0,0,0,0,0,0,0,6,0,0,0,0,0,0,0,,,,0,0
L5300,Interface,FieldSelector,org.apache.lucene.document.FieldSelector,L42288,L103,,1,,,,,,,0,1,,,,,,,,,,0,,12,2,,,,,,,0,2,3,0,0,0
L5318,Class,SetBasedFieldSelector,org.apache.lucene.document.SetBasedFieldSelector,L42288,L103,2,2,2,0,0,0,1,0,0,0,0,0,0,0,0,0,0,0,0,0,1,0,4,0,0,0,0,0,0,0,,,,0,0
L7056,Class,AlreadyClosedException,org.apache.lucene.store.AlreadyClosedException,L6369,L103,0,1,1,0,0,0,0,0,0,1,1,0,0,0,0,0,0,0,0,0,0,0,1,0,0,0,0,0,0,0,,,,0,0
L7112,Class,BufferedIndexOutput,org.apache.lucene.store.BufferedIndexOutput,L6369,L103,4,9,7,0,1,0,0,1,1,1,1,1,14,0,0,0,0,0,0,0,0,0,0,0,0,0,0,0,0,0,,,,0,0
L7555,Class,LockObtainFailedException,org.apache.lucene.store.LockObtainFailedException,L6369,L103,0,1,1,0,0,0,0,0,0,1,1,0,0,0,0,0,0,0,0,0,0,0,1,0,0,0,0,0,0,0,,,,0,0
L7717,Class,NativeFSLock,org.apache.lucene.store.NativeFSLock,L6369,L103,6,6,6,0,1,0,0,0,0,1,1,0,4,2,0,0,0,0,0,0,5,0,3,0,0,0,0,0,0,0,,,,0,0
L7759,Class,NoLockFactory,org.apache.lucene.store.NoLockFactory,L6369,L103,0,3,3,0,1,0,0,0,0,1,1,0,4,1,0,0,1,1,0,0,0,0,3,0,0,0,0,0,0,0,,,,0,0
L7764,Class,NoLock,org.apache.lucene.store.NoLock,L6369,L103,0,4,4,0,1,0,0,0,0,1,1,0,4,2,0,0,1,1,0,0,0,0,1,0,0,0,0,0,0,0,,,,0,0
L7999,Class,SimpleFSLock,org.apache.lucene.store.SimpleFSLock,L6369,L103,2,5,5,0,1,0,0,0,0,1,1,0,4,2,0,0,0,0,0,0,1,0,3,0,0,0,0,0,0,0,,,,0,0
L8022,Class,SingleInstanceLock,org.apache.lucene.store.SingleInstanceLock,L6369,L103,2,5,5,0,1,0,0,0,0,1,1,0,4,2,0,0,0,0,0,0,2,0,3,0,0,0,0,0,0,0,,,,0,0
L10493,Class,IndexFileNameFilter,org.apache.lucene.index.IndexFileNameFilter,L29717,L103,2,4,4,0,2,0,1,0,0,0,0,0,0,0,0,0,0,0,0,0,1,0,3,0,0,0,0,0,0,0,,,,1,1
L10624,Class,Filter,org.apache.lucene.search.Filter,L20308,L103,0,1,1,0,0,0,1,13,16,0,0,2,0,0,0,0,8,8,1,2,0,64,2,0,0,0,0,0,0,0,,,,1,1
L184,Class,Analyzer,org.apache.lucene.analysis.Analyzer,L134,L103,0,2,2,0,1,0,0,28,28,0,0,1,0,0,0,0,1,2,32,0,0,110,4,0,0,0,0,0,0,0,,,,1,1
L20751,Class,PriorityQueue,org.apache.lucene.util.PriorityQueue,L42699,L103,3,11,7,0,0,0,0,15,15,0,0,1,0,0,0,0,0,0,2,0,1,5,6,0,0,0,0,0,0,0,,,,1,1
L21518,Class,SimilarityDelegator,org.apache.lucene.search.SimilarityDelegator,L20308,L103,0,7,7,0,0,0,0,0,0,1,1,0,15,1,0,0,1,1,0,0,0,0,2,0,0,0,0,0,0,0,,,,1,1
L22519,Class,Scorer,org.apache.lucene.search.Scorer,L20308,L103,0,9,7,0,1,0,0,16,19,0,0,2,0,0,0,0,5,5,0,5,0,40,5,0,0,0,0,0,0,0,,,,1,1
L22523,Class,BooleanScorer2,org.apache.lucene.search.BooleanScorer2,L20308,L103,6,19,10,0,0,0,0,0,0,1,1,0,9,0,0,0,2,2,0,0,2,0,19,0,0,0,0,0,0,0,,,,1,1
L22542,Class,ComplexExplanation,org.apache.lucene.search.ComplexExplanation,L20308,L103,1,6,5,1,3,0,0,0,0,1,1,0,13,3,0,0,0,0,0,0,1,0,4,0,0,0,0,0,0,0,,,,1,1
L22845,Class,ConjunctionScorer,org.apache.lucene.search.ConjunctionScorer,L20308,L103,6,10,6,0,0,0,0,0,0,1,1,0,9,0,0,0,1,1,0,0,0,0,3,0,0,0,0,0,0,0,,,,1,1
L22925,Class,CachingWrapperFilter,org.apache.lucene.search.CachingWrapperFilter,L20308,L103,1,5,5,0,1,0,0,2,2,1,1,1,1,0,0,0,1,1,0,0,1,0,5,0,0,0,0,0,0,0,,,,1,1
L23005,Class,ConstantScoreQuery,org.apache.lucene.search.ConstantScoreQuery,L20308,L103,0,8,7,0,2,0,0,0,0,1,1,0,12,1,0,0,1,1,0,0,0,0,10,0,0,0,0,0,0,0,,,,1,1
L23079,Class,ConstantScoreRangeQuery,org.apache.lucene.search.ConstantScoreRangeQuery,L20308,L103,5,10,10,0,4,0,0,0,0,1,1,0,12,1,0,0,0,0,0,0,1,0,11,0,0,0,0,0,0,0,,,,1,1
L23195,Class,DisjunctionMaxScorer,org.apache.lucene.search.DisjunctionMaxScorer,L20308,L103,4,11,7,0,0,0,0,0,0,1,1,0,9,0,0,0,0,0,0,0,1,0,3,0,0,0,0,0,0,0,,,,1,1
L23421,Interface,FieldCache,org.apache.lucene.search.FieldCache,L20308,L103,,12,,,,,,,0,0,,,,,,,,,,0,,5,33,,,,,,,0,1,1,0,1,1
L2345,Class,KeywordAnalyzer,org.apache.lucene.analysis.KeywordAnalyzer,L134,L103,0,1,1,0,0,0,0,0,0,1,1,0,2,0,0,0,0,0,0,0,0,0,3,0,0,0,0,0,0,0,,,,1,1
L2371,Class,LengthFilter,org.apache.lucene.analysis.LengthFilter,L134,L103,2,2,2,0,0,0,0,0,0,2,2,0,5,0,0,0,0,0,0,0,0,0,2,0,0,0,0,0,0,0,,,,1,1
L23756,Class,FieldDoc,org.apache.lucene.search.FieldDoc,L20308,L103,1,2,2,0,0,0,0,0,0,1,1,0,1,2,0,0,0,0,0,0,1,3,1,0,0,0,0,0,0,0,,,,1,1
L23845,Interface,ScoreDocComparator,org.apache.lucene.search.ScoreDocComparator,L20308,L103,,3,,,,,,,0,0,,,,,,,,,,0,,8,4,,,,,,,0,1,0,0,1,1
L24073,Class,FilterManager,org.apache.lucene.search.FilterManager,L20308,L103,6,5,4,2,2,0,0,0,0,0,0,0,0,0,0,0,0,0,0,0,2,0,2,0,0,0,0,0,0,0,,,,1,1
L24170,Class,ByteFieldSource,org.apache.lucene.search.function.ByteFieldSource,L24151,L103,1,6,6,0,1,0,0,0,0,2,2,0,13,1,0,0,0,0,0,0,1,0,9,0,0,0,0,0,0,0,,,,1,1
L24193,Class,DocValues,org.apache.lucene.search.function.DocValues,L24151,L103,5,14,11,0,4,0,0,0,0,0,0,0,0,0,0,0,0,0,0,1,0,9,4,0,0,0,0,0,0,0,,,,1,1
L24227,Class,CustomScoreQuery,org.apache.lucene.search.function.CustomScoreQuery,L24151,L103,1,14,13,1,2,0,0,0,0,1,1,0,12,1,0,0,1,2,0,0,0,0,16,0,0,0,0,0,0,0,,,,1,1
L24231,Class,ValueSourceQuery,org.apache.lucene.search.function.ValueSourceQuery,L24151,L103,0,7,6,0,1,0,0,1,1,1,1,1,12,1,0,0,2,2,0,0,0,1,9,0,0,0,0,0,0,0,,,,1,1
L2429,Class,PorterStemFilter,org.apache.lucene.analysis.PorterStemFilter,L134,L103,0,2,2,0,0,0,0,0,0,2,2,0,5,0,0,0,1,1,0,0,0,0,2,0,0,0,0,0,0,0,,,,1,1
L2432,Class,PorterStemmer,org.apache.lucene.analysis.PorterStemmer,L134,L103,8,27,13,1,2,0,0,0,0,0,0,0,0,0,0,0,1,1,0,0,0,0,7,0,0,0,0,0,0,0,,,,1,1
L24423,Class,ValueSource,org.apache.lucene.search.function.ValueSource,L24151,L103,0,5,5,0,2,0,1,3,7,0,0,2,0,0,0,0,1,1,0,0,0,2,5,0,0,0,0,0,0,0,,,,1,1
L24491,Class,ShortFieldSource,org.apache.lucene.search.function.ShortFieldSource,L24151,L103,1,6,6,0,1,0,0,0,0,2,2,0,13,1,0,0,0,0,0,0,1,0,9,0,0,0,0,0,0,0,,,,1,1
L24497,Class,IntFieldSource,org.apache.lucene.search.function.IntFieldSource,L24151,L103,1,6,6,0,1,0,0,0,0,2,2,0,13,1,0,0,0,0,0,0,1,0,9,0,0,0,0,0,0,0,,,,1,1
L24925,Class,TopDocs,org.apache.lucene.search.TopDocs,L20308,L103,2,3,2,1,1,0,1,1,1,0,0,1,0,0,0,0,2,2,0,0,0,14,1,0,0,0,0,0,0,0,,,,1,1
L25055,Class,FuzzyQuery,org.apache.lucene.search.FuzzyQuery,L20308,L103,4,10,9,0,4,0,0,0,0,2,2,0,19,1,0,0,0,0,0,0,0,0,10,0,0,0,0,0,0,0,,,,1,1
L25377,Class,TopFieldDocs,org.apache.lucene.search.TopFieldDocs,L20308,L103,0,1,0,0,0,0,0,0,0,1,1,0,3,2,0,0,1,1,0,0,0,10,2,0,0,0,0,0,0,0,,,,1,1
L25408,Class,MatchAllDocsQuery,org.apache.lucene.search.MatchAllDocsQuery,L20308,L103,0,6,5,0,1,0,0,0,0,1,1,0,12,1,0,0,0,0,0,0,0,0,6,0,0,0,0,0,0,0,,,,1,1
L25534,Class,MultipleTermPositions,org.apache.lucene.index.MultipleTermPositions,L29717,L103,4,13,13,0,3,0,1,0,0,0,0,0,0,0,0,0,0,0,0,0,2,0,4,0,0,0,0,0,0,0,,,,1,1
L25545,Class,SloppyPhraseScorer,org.apache.lucene.search.SloppyPhraseScorer,L20308,L103,2,4,0,0,0,0,0,0,0,2,2,0,22,5,0,0,1,1,0,0,0,0,4,0,0,0,0,0,0,0,,,,1,1
L25746,Class,ParallelMultiSearcher,org.apache.lucene.search.ParallelMultiSearcher,L20308,L103,1,6,6,0,0,0,0,0,0,2,2,0,38,2,0,0,1,1,0,0,0,0,14,0,0,0,0,0,0,0,,,,1,1
L25885,Class,SpanScorer,org.apache.lucene.search.spans.SpanScorer,L26910,L103,6,7,5,1,0,0,0,1,1,1,1,1,9,0,0,0,1,2,0,0,0,0,4,0,0,0,0,0,0,0,,,,1,1
L26166,Class,PrefixFilter,org.apache.lucene.search.PrefixFilter,L20308,L103,0,4,4,0,1,0,0,0,0,1,1,0,1,0,0,0,0,0,1,0,0,0,5,0,0,0,0,0,0,0,,,,1,1
L26265,Class,QueryWrapperFilter,org.apache.lucene.search.QueryWrapperFilter,L20308,L103,0,5,5,0,1,0,0,0,0,1,1,0,1,0,0,0,1,1,0,0,0,0,5,0,0,0,0,0,0,0,,,,1,1
L26275,Class,QueryTermVector,org.apache.lucene.search.QueryTermVector,L20308,L103,2,10,9,0,3,0,1,0,0,0,0,0,0,0,0,0,0,0,0,0,1,0,9,0,0,0,0,0,0,0,,,,1,1
L264,Class,StandardFilter,org.apache.lucene.analysis.standard.StandardFilter,L2574,L103,2,2,2,0,0,0,1,0,0,2,2,0,5,0,0,0,0,0,0,0,1,0,2,0,0,0,0,0,0,0,,,,1,1
L27012,Class,NearSpansUnordered,org.apache.lucene.search.spans.NearSpansUnordered,L26910,L103,9,14,7,0,0,0,1,0,0,0,0,0,0,0,0,0,1,1,0,0,3,0,5,0,0,0,0,0,0,0,,,,1,1
L279,Class,LowerCaseFilter,org.apache.lucene.analysis.LowerCaseFilter,L134,L103,0,2,2,0,0,0,0,0,0,2,2,0,5,0,0,0,0,0,0,0,0,0,2,0,0,0,0,0,0,0,,,,1,1
L29161,Class,MapFieldSelector,org.apache.lucene.document.MapFieldSelector,L42288,L103,1,4,4,0,0,0,1,0,0,0,0,0,0,0,0,0,0,0,0,0,1,0,5,0,0,0,0,0,0,0,,,,1,1
L31047,Class,MultiLevelSkipListReader,org.apache.lucene.index.MultiLevelSkipListReader,L29717,L103,13,10,1,1,1,0,0,1,1,0,0,1,0,0,0,0,0,0,1,0,0,0,2,0,0,0,0,0,0,0,,,,1,1
L31306,Class,FieldInfo,org.apache.lucene.index.FieldInfo,L29717,L103,8,1,0,0,0,0,0,0,0,0,0,0,0,0,0,0,0,0,0,0,1,11,1,0,0,0,0,0,0,0,,,,1,1
L31866,Interface,IndexDeletionPolicy,org.apache.lucene.index.IndexDeletionPolicy,L29717,L103,,2,,,,,,,0,0,,,,,,,,,,0,,7,2,,,,,,,0,2,5,0,1,1
L32418,Class,KeepOnlyLastCommitDeletionPolicy,org.apache.lucene.index.KeepOnlyLastCommitDeletionPolicy,L29717,L103,0,2,2,0,0,0,1,0,0,0,0,0,0,0,0,0,0,0,0,0,0,0,2,0,0,0,0,0,0,0,,,,1,1
L3315,Interface,TermPositions,org.apache.lucene.index.TermPositions,L29717,L103,,4,,,,,,,0,1,,,,,,,,,,1,,20,0,,,,,,,0,3,5,0,1,1
L3320,Class,Term,org.apache.lucene.index.Term,L29717,L103,2,12,9,1,1,0,2,0,0,0,0,0,0,0,0,0,9,10,14,6,1,135,13,0,0,0,0,0,0,0,,,,1,1
L33948,Class,SegmentTermPositions,org.apache.lucene.index.SegmentTermPositions,L29717,L103,6,15,7,0,3,0,1,0,0,1,1,0,12,11,0,0,0,0,1,0,0,0,3,0,0,0,0,0,0,0,,,,1,1
L34259,Class,SegmentTermVector,org.apache.lucene.index.SegmentTermVector,L29717,L103,3,8,7,0,3,0,1,1,1,0,0,1,0,0,0,0,0,0,0,0,1,2,7,0,0,0,0,0,0,0,,,,1,1
L3730,Class,TermQuery,org.apache.lucene.search.TermQuery,L20308,L103,0,7,6,0,2,0,0,1,1,1,1,1,12,1,0,0,1,1,1,0,0,1,8,0,0,0,0,0,0,0,,,,1,1
L39007,Class,Token,org.apache.lucene.queryParser.Token,L36699,L103,6,2,2,0,0,0,0,0,0,0,0,0,0,0,0,0,2,2,0,1,1,6,1,0,0,0,0,0,0,0,,,,1,1
L39083,Class,DateTools,org.apache.lucene.document.DateTools,L42288,L103,8,7,6,0,0,0,0,0,0,0,0,0,0,0,0,0,0,0,0,0,2,0,12,0,0,0,0,0,0,0,,,,1,1
L42889,Class,SmallFloat,org.apache.lucene.util.SmallFloat,L42699,L103,0,6,6,0,0,0,0,0,0,0,0,0,0,0,0,0,0,0,0,0,0,0,0,0,0,0,0,0,0,0,,,,1,1
L4456,Class,PhraseQuery,org.apache.lucene.search.PhraseQuery,L20308,L103,4,12,11,1,4,0,0,0,0,1,1,0,12,1,0,0,1,1,0,0,2,0,9,0,0,0,0,0,0,0,,,,1,1
L6590,Class,IndexInput,org.apache.lucene.store.IndexInput,L6369,L103,1,14,14,0,1,0,1,10,15,0,0,2,0,0,0,0,0,0,8,4,0,43,2,0,0,0,0,0,0,0,,,,1,1
L7157,Class,LockFactory,org.apache.lucene.store.LockFactory,L6369,L103,1,4,4,1,1,0,0,5,5,0,0,1,0,0,0,0,1,1,0,0,1,6,5,0,0,0,0,0,0,0,,,,1,1
L7599,Class,MMapDirectory,org.apache.lucene.store.MMapDirectory,L6369,L103,1,1,1,0,0,0,0,0,0,2,2,0,43,9,0,0,0,0,0,0,0,0,2,0,0,0,0,0,0,0,,,,1,1
L7792,Class,SingleInstanceLockFactory,org.apache.lucene.store.SingleInstanceLockFactory,L6369,L103,1,2,2,0,0,0,0,0,0,1,1,0,4,1,0,0,0,0,0,0,1,0,3,0,0,0,0,0,0,0,,,,1,1
L16026,Class,Sort,org.apache.lucene.search.Sort,L20308,L103,0,13,13,5,1,0,1,0,0,0,0,0,0,0,0,0,4,4,1,0,0,21,12,0,0,0,0,0,0,0,,,,2,1
L16098,Class,Hit,org.apache.lucene.search.Hit,L20308,L103,2,8,6,0,5,0,1,0,0,0,0,0,0,0,0,0,1,1,1,0,0,0,5,0,0,0,0,0,0,0,,,,2,1
L1849,Class,CharTokenizer,org.apache.lucene.analysis.CharTokenizer,L134,L103,7,4,2,0,1,0,0,3,4,2,2,2,6,1,0,0,0,0,0,0,0,0,2,0,0,0,0,0,0,0,,,,2,1
L20863,Class,FilteredQuery,org.apache.lucene.search.FilteredQuery,L20308,L103,0,9,8,0,3,0,0,0,0,1,1,0,12,1,0,0,2,2,0,0,0,1,12,0,0,0,0,0,0,0,,,,2,1
L2285,Class,CachingTokenFilter,org.apache.lucene.analysis.CachingTokenFilter,L134,L103,2,4,3,0,0,0,0,0,0,2,2,0,5,0,0,0,0,0,0,0,1,0,2,0,0,0,0,0,0,0,,,,2,1
L23150,Class,DisjunctionMaxQuery,org.apache.lucene.search.DisjunctionMaxQuery,L20308,L103,2,12,11,0,1,0,0,0,0,1,1,0,12,1,0,0,0,0,0,0,1,0,13,0,0,0,0,0,0,0,,,,2,1
L23776,Class,FieldDocSortedHitQueue,org.apache.lucene.search.FieldDocSortedHitQueue,L20308,L103,1,5,0,1,2,0,0,0,0,1,1,0,11,3,0,0,1,1,0,0,1,1,7,0,0,0,0,0,0,0,,,,2,1
L24172,Class,FieldCacheSource,org.apache.lucene.search.function.FieldCacheSource,L24151,L103,1,8,8,0,3,0,0,4,4,1,1,1,5,0,0,0,0,1,0,0,1,4,9,0,0,0,0,0,0,0,,,,2,1
L24503,Class,FloatFieldSource,org.apache.lucene.search.function.FloatFieldSource,L24151,L103,1,6,6,0,1,0,0,0,0,2,2,0,13,1,0,0,0,0,0,0,1,0,9,0,0,0,0,0,0,0,,,,2,1
L24584,Class,OrdFieldSource,org.apache.lucene.search.function.OrdFieldSource,L24151,L103,2,5,5,0,2,0,0,0,0,1,1,0,5,0,0,0,0,0,0,0,1,0,5,0,0,0,0,0,0,0,,,,2,1
L24622,Class,ReverseOrdFieldSource,org.apache.lucene.search.function.ReverseOrdFieldSource,L24151,L103,2,5,5,0,2,0,0,0,0,1,1,0,5,0,0,0,0,0,0,0,1,0,5,0,0,0,0,0,0,0,,,,2,1
L24832,Interface,Fieldable,org.apache.lucene.document.Fieldable,L42288,L103,,18,,,,,,,0,1,,,,,,,,,,0,,5,4,,,,,,,0,0,3,0,2,1
L25222,Class,HitIterator,org.apache.lucene.search.HitIterator,L20308,L103,1,5,4,0,1,0,1,0,0,0,0,0,0,0,0,0,1,1,0,0,0,0,2,0,0,0,0,0,0,0,,,,2,1
L25366,Class,TopDocCollector,org.apache.lucene.search.TopDocCollector,L20308,L103,3,5,4,0,1,0,0,1,1,1,1,1,1,0,0,0,0,0,1,0,0,0,2,0,0,0,0,0,0,0,,,,2,1
L25384,Class,TopFieldDocCollector,org.apache.lucene.search.TopFieldDocCollector,L20308,L103,0,3,3,0,0,0,0,0,0,2,2,0,6,3,0,0,0,0,0,0,0,0,3,0,0,0,0,0,0,0,,,,2,1
L25472,Class,MultiPhraseQuery,org.apache.lucene.search.MultiPhraseQuery,L20308,L103,4,13,12,1,4,0,0,0,0,1,1,0,12,1,0,0,0,0,0,0,3,0,12,0,0,0,0,0,0,0,,,,2,1
L25622,Interface,Searchable,org.apache.lucene.search.Searchable,L20308,L103,,11,,,,,,,0,1,,,,,,,,,,0,,12,19,,,,,,,0,4,2,0,2,1
L26361,Class,RangeQuery,org.apache.lucene.search.RangeQuery,L20308,L103,1,9,9,0,5,0,0,0,0,1,1,0,12,1,0,0,0,0,1,0,0,0,10,0,0,0,0,0,0,0,,,,2,1
L26395,Class,RemoteCachingWrapperFilter,org.apache.lucene.search.RemoteCachingWrapperFilter,L20308,L103,0,2,2,0,0,0,0,1,1,1,1,1,1,0,0,0,1,1,0,0,0,0,3,0,0,0,0,0,0,0,,,,2,1
L285,Class,TokenFilter,org.apache.lucene.analysis.TokenFilter,L134,L103,0,2,1,0,0,0,0,27,27,1,1,1,3,0,0,0,1,1,0,0,0,0,1,0,0,0,0,0,0,0,,,,2,1
L30883,Class,CompoundFileReader,org.apache.lucene.index.CompoundFileReader,L29717,L103,3,16,16,0,2,0,0,0,0,1,1,0,17,0,0,0,1,1,2,0,2,0,22,0,0,0,0,0,0,0,,,,2,1
L31150,Class,FieldInfos,org.apache.lucene.index.FieldInfos,L29717,L103,8,20,16,0,1,0,0,0,0,0,0,0,0,0,0,0,13,13,0,0,2,15,22,0,0,0,0,0,0,0,,,,2,1
L3157,Class,Payload,org.apache.lucene.index.Payload,L29717,L103,3,7,6,0,0,0,1,0,0,0,0,0,0,0,0,0,1,1,1,0,0,4,0,0,0,0,0,0,0,0,,,,2,1
L31612,Class,AbstractField,org.apache.lucene.document.AbstractField,L42288,L103,13,18,15,3,11,0,1,3,3,0,0,1,0,0,0,0,0,0,0,0,2,0,7,0,0,0,0,0,0,0,,,,2,1
L31750,Class,FilterIndexReader,org.apache.lucene.index.FilterIndexReader,L29717,L103,0,24,19,0,8,0,0,2,2,1,1,1,61,6,0,0,1,1,0,0,0,0,18,0,0,0,0,0,0,0,,,,2,1
L31859,Interface,IndexCommitPoint,org.apache.lucene.index.IndexCommitPoint,L29717,L103,,2,,,,,,,0,0,,,,,,,,,,0,,0,1,,,,,,,0,0,1,0,2,1
L3269,Class,RAMDirectory,org.apache.lucene.store.RAMDirectory,L6369,L103,3,17,15,0,0,0,1,1,1,1,1,1,17,0,0,0,1,1,19,0,1,3,16,0,0,0,0,0,0,0,,,,2,1
L3296,Class,Field,org.apache.lucene.document.Field,L42288,L103,0,11,11,0,0,0,2,0,0,1,1,0,18,13,0,0,0,0,1,0,0,6,24,0,0,0,0,0,0,0,,,,2,1
L3347,Class,IndexSearcher,org.apache.lucene.search.IndexSearcher,L20308,L103,1,15,14,0,1,0,0,2,2,1,1,1,22,0,0,0,10,18,7,1,0,12,23,0,0,0,0,0,0,0,,,,2,1
L3383,Class,Hits,org.apache.lucene.search.Hits,L20308,L103,4,11,5,0,1,0,0,0,0,0,0,0,0,0,0,0,7,8,0,0,1,32,12,0,0,0,0,0,0,0,,,,2,1
L38873,Interface,CharStream,org.apache.lucene.queryParser.CharStream,L36699,L103,,12,,,,,,,0,0,,,,,,,,,,0,,6,1,,,,,,,0,1,1,0,2,1
L38937,Class,MultiFieldQueryParser,org.apache.lucene.queryParser.MultiFieldQueryParser,L36699,L103,2,11,5,0,6,0,0,0,0,1,1,0,63,36,0,0,0,0,0,0,2,0,38,0,0,0,0,0,0,0,,,,2,1
L39046,Interface,QueryParserConstants,org.apache.lucene.queryParser.QueryParserConstants,L36699,L103,,0,,,,,,,0,0,,,,,,,,,,0,,0,0,,,,,,,0,0,2,0,2,1
L6570,Class,IndexOutput,org.apache.lucene.store.IndexOutput,L6369,L103,0,14,14,0,1,0,0,4,6,0,0,2,0,0,0,0,0,0,5,0,0,19,2,0,0,0,0,0,0,0,,,,2,1
L6600,Class,Lock,org.apache.lucene.store.Lock,L6369,L103,2,4,4,0,1,0,0,8,8,0,0,1,0,0,0,0,0,0,2,0,1,10,0,0,0,0,0,0,0,0,,,,2,1
L7299,Class,NativeFSLockFactory,org.apache.lucene.store.NativeFSLockFactory,L6369,L103,1,7,4,1,0,0,0,0,0,1,1,0,4,1,0,0,0,0,0,0,1,0,6,0,0,0,0,0,0,0,,,,2,1
L7822,Class,RAMFile,org.apache.lucene.store.RAMFile,L6369,L103,5,8,0,2,3,0,1,0,0,0,0,0,0,0,0,0,3,3,0,0,1,4,1,0,0,0,0,0,0,0,,,,2,1
L16029,Class,SortField,org.apache.lucene.search.SortField,L20308,L103,11,14,14,0,5,0,1,0,0,0,0,0,0,0,0,0,5,5,0,0,2,12,16,0,0,0,0,0,0,0,,,,3,1
L21157,Class,RangeFilter,org.apache.lucene.search.RangeFilter,L20308,L103,5,7,7,0,1,0,0,0,0,1,1,0,1,0,0,0,0,0,1,0,1,0,11,0,0,0,0,0,0,0,,,,3,1
L21363,Class,Similarity,org.apache.lucene.search.Similarity,L20308,L103,1,15,15,1,2,0,1,3,7,0,0,2,0,0,0,0,6,8,7,7,0,35,5,0,0,0,0,0,0,0,,,,3,1
L2331,Class,ISOLatin1AccentFilter,org.apache.lucene.analysis.ISOLatin1AccentFilter,L134,L103,0,3,3,0,0,0,0,0,0,2,2,0,5,0,0,0,0,0,0,0,0,0,4,0,0,0,0,0,0,0,,,,3,1
L2351,Class,KeywordTokenizer,org.apache.lucene.analysis.KeywordTokenizer,L134,L103,3,3,3,0,0,0,0,0,0,2,2,0,6,1,0,0,0,0,0,0,0,0,3,0,0,0,0,0,0,0,,,,3,1
L30987,Class,CompoundFileWriter,org.apache.lucene.index.CompoundFileWriter,L29717,L103,4,6,5,0,2,0,0,0,0,0,0,0,0,0,0,0,0,0,1,0,3,0,7,0,0,0,0,0,0,0,,,,3,1
L31205,Class,Posting,org.apache.lucene.index.Posting,L29717,L103,2,1,0,0,0,0,0,0,0,0,0,0,0,0,0,0,3,3,0,0,0,3,3,0,0,0,0,0,0,0,,,,3,1
L31293,Class,TermInfosWriter,org.apache.lucene.index.TermInfosWriter,L29717,L103,7,6,0,0,0,0,0,0,0,0,0,0,0,0,0,0,4,4,1,0,0,0,12,0,0,0,0,0,0,0,,,,3,1
L31296,Class,TermVectorsWriter,org.apache.lucene.index.TermVectorsWriter,L29717,L103,11,15,10,0,2,0,0,0,0,0,0,0,0,0,0,0,2,2,1,0,3,2,10,0,0,0,0,0,0,0,,,,3,1
L31969,Class,SegmentInfo,org.apache.lucene.index.SegmentInfo,L29717,L103,12,18,4,2,6,0,0,0,0,0,0,0,0,0,0,0,1,1,1,0,2,17,11,0,0,0,0,0,0,0,,,,3,1
L32034,Class,IndexFileNames,org.apache.lucene.index.IndexFileNames,L29717,L103,12,1,0,0,0,0,0,0,0,0,0,0,0,0,0,0,0,0,0,0,1,0,3,0,0,0,0,0,0,0,,,,3,1
L34059,Class,SegmentTermEnum,org.apache.lucene.index.SegmentTermEnum,L29717,L103,9,13,4,0,0,0,1,0,0,1,1,0,5,0,0,0,4,4,1,0,0,3,10,0,0,0,0,0,0,0,,,,3,1
L39107,Class,TokenMgrError,org.apache.lucene.queryParser.TokenMgrError,L36699,L103,5,6,4,0,1,0,0,0,0,1,1,0,0,0,0,0,0,0,0,0,0,0,7,0,0,0,0,0,0,0,,,,3,1
L4296,Class,ParseException,org.apache.lucene.queryParser.ParseException,L36699,L103,4,5,4,0,1,0,0,0,0,1,1,0,0,0,0,0,1,1,0,0,1,1,6,0,0,0,0,0,0,0,,,,3,1
L4428,Class,BooleanQuery,org.apache.lucene.search.BooleanQuery,L20308,L103,5,23,22,4,8,0,0,0,0,1,1,0,12,1,0,0,0,0,0,0,1,7,16,0,0,0,0,0,0,0,,,,3,1
L471,Class,Tokenizer,org.apache.lucene.analysis.Tokenizer,L134,L103,1,3,1,0,0,0,0,7,11,1,1,3,3,0,0,0,0,0,0,0,1,0,1,0,0,0,0,0,0,0,,,,3,1
L7061,Class,BufferedIndexInput,org.apache.lucene.store.BufferedIndexInput,L6369,L103,6,13,9,1,2,0,0,4,4,1,1,1,14,1,0,0,0,0,0,0,0,1,1,0,0,0,0,0,0,0,,,,3,1
L7304,Class,SimpleFSLockFactory,org.apache.lucene.store.SimpleFSLockFactory,L6369,L103,1,6,4,1,0,0,0,0,0,1,1,0,4,1,0,0,0,0,0,0,1,0,6,0,0,0,0,0,0,0,,,,3,1
L7876,Class,RAMInputStream,org.apache.lucene.store.RAMInputStream,L6369,L103,7,8,7,0,1,0,1,1,1,1,1,1,14,1,0,0,1,1,0,0,0,0,1,0,0,0,0,0,0,0,,,,3,1
L23466,Class,FieldCacheImpl,org.apache.lucene.search.FieldCacheImpl,L20308,L103,12,12,12,0,12,0,1,0,0,0,0,0,0,0,0,0,0,0,0,0,5,0,33,0,0,0,0,0,0,0,,,,4,1
L251,Class,TokenStream,org.apache.lucene.analysis.TokenStream,L134,L103,0,3,3,0,0,0,0,8,46,0,0,4,0,0,0,0,1,3,1,0,0,94,1,0,0,0,0,0,0,0,,,,4,1
L25846,Class,BoostingTermQuery,org.apache.lucene.search.payloads.BoostingTermQuery,L25841,L103,0,3,2,0,0,0,0,0,0,3,3,0,25,1,0,0,0,0,0,0,0,0,4,0,0,0,0,0,0,0,,,,4,1
L269,Class,StopFilter,org.apache.lucene.analysis.StopFilter,L134,L103,2,7,7,0,0,0,0,0,0,2,2,0,5,0,0,0,0,0,0,0,1,0,13,0,0,0,0,0,0,0,,,,4,1
L32266,Class,MultiReader,org.apache.lucene.index.MultiReader,L29717,L103,6,28,17,0,6,0,0,0,0,1,1,0,61,6,0,0,1,1,0,0,1,0,22,0,0,0,0,0,0,0,,,,4,1
L3266,Class,Directory,org.apache.lucene.store.Directory,L6369,L103,0,17,17,1,2,0,0,6,9,0,0,2,0,0,0,0,1,1,39,7,0,125,20,0,0,0,0,0,0,0,,,,4,1
L33797,Class,TermInfosReader,org.apache.lucene.index.TermInfosReader,L29717,L103,4,17,4,0,7,0,0,0,0,0,0,0,0,0,0,0,5,5,1,0,2,0,18,0,0,0,0,0,0,0,,,,4,1
L3711,Class,Searcher,org.apache.lucene.search.Searcher,L20308,L103,0,22,21,1,1,0,1,3,6,0,0,2,0,0,0,0,4,6,6,5,0,62,47,0,0,0,0,0,0,0,,,,4,1
L39340,Class,QueryParserTokenManager,org.apache.lucene.queryParser.QueryParserTokenManager,L36699,L103,18,35,7,1,1,0,1,0,0,0,0,0,0,0,0,0,2,2,0,0,2,2,7,0,0,0,0,0,0,0,,,,4,1
L7868,Class,RAMOutputStream,org.apache.lucene.store.RAMOutputStream,L6369,L103,6,13,10,1,1,0,0,1,1,1,1,1,14,0,0,0,1,1,1,0,0,0,2,0,0,0,0,0,0,0,,,,4,1
L15586,Class,IndexModifier,org.apache.lucene.index.IndexModifier,L29717,L103,6,26,22,5,5,0,0,1,1,0,0,1,0,0,0,0,3,3,3,1,1,6,15,0,0,0,0,0,0,0,,,,5,1
L23836,Class,FieldSortedHitQueue,org.apache.lucene.search.FieldSortedHitQueue,L20308,L103,2,13,4,0,3,0,0,0,0,1,1,0,11,3,0,0,2,2,0,0,1,0,30,0,0,0,0,0,0,0,,,,5,1
L3279,Class,Document,org.apache.lucene.document.Document,L42288,L103,2,17,17,1,10,0,1,0,0,0,0,0,0,0,0,0,0,0,11,0,1,85,20,0,0,0,0,0,0,0,,,,5,1
L33275,Class,ParallelReader,org.apache.lucene.index.ParallelReader,L29717,L103,7,26,21,0,6,0,0,0,0,1,1,0,61,6,0,0,0,0,0,0,3,0,23,0,0,0,0,0,0,0,,,,5,1
L259,Class,StandardTokenizer,org.apache.lucene.analysis.standard.StandardTokenizer,L2574,L103,7,14,11,0,2,0,1,0,0,2,2,0,6,1,0,0,2,2,0,0,1,0,10,0,0,0,0,0,0,0,,,,6,1
L2710,Class,StandardAnalyzer,org.apache.lucene.analysis.standard.StandardAnalyzer,L2574,L103,2,6,6,0,0,0,0,0,0,1,1,0,2,0,0,0,0,0,0,1,2,0,7,0,0,0,0,0,0,0,,,,6,1
L31213,Class,FieldsWriter,org.apache.lucene.index.FieldsWriter,L29717,L103,3,4,0,0,0,0,0,0,0,0,0,0,0,0,0,0,1,1,1,0,0,0,4,0,0,0,0,0,0,0,,,,7,1
L3373,Class,QueryParser,org.apache.lucene.queryParser.QueryParser,L36699,L103,36,63,40,10,21,0,1,5,5,0,0,1,0,0,0,0,2,2,5,0,8,6,61,0,0,0,0,0,0,0,,,,7,1
L290,Class,Token,org.apache.lucene.analysis.Token,L134,L103,5,13,13,3,2,0,1,0,0,0,0,0,0,0,0,0,0,6,5,1,1,54,10,0,0,0,0,0,0,0,,,,8,1
L31903,Class,SegmentInfos,org.apache.lucene.index.SegmentInfos,L29717,L103,12,24,23,4,12,0,0,0,0,1,1,0,0,0,0,0,3,3,0,0,1,11,19,0,0,0,0,0,0,0,,,,8,1
L32763,Class,SegmentMerger,org.apache.lucene.index.SegmentMerger,L29717,L103,8,15,0,0,0,0,0,0,0,0,0,0,0,0,0,0,5,5,2,0,2,0,13,0,0,0,0,0,0,0,,,,8,1
L30857,Class,SegmentReader,org.apache.lucene.index.SegmentReader,L29717,L103,11,42,20,1,15,0,0,1,1,1,1,1,61,6,0,0,10,10,2,0,4,3,35,0,0,0,0,0,0,0,,,,11,1
L31492,Class,FieldsReader,org.apache.lucene.index.FieldsReader,L29717,L103,3,15,0,0,2,0,0,0,0,0,0,0,0,0,0,0,2,2,1,0,1,0,20,0,0,0,0,0,0,0,,,,11,1
L31874,Class,IndexFileDeleter,org.apache.lucene.index.IndexFileDeleter,L29717,L103,6,14,4,1,1,0,0,0,0,0,0,0,0,0,0,0,2,2,1,0,3,0,17,0,0,0,0,0,0,0,,,,11,1
L3310,Class,IndexReader,org.apache.lucene.index.IndexReader,L29717,L103,6,61,46,2,14,0,0,5,8,0,0,2,0,0,0,0,8,8,19,3,0,185,51,0,0,0,0,0,0,0,,,,11,1
L33801,Class,TermVectorsReader,org.apache.lucene.index.TermVectorsReader,L29717,L103,3,10,0,0,2,0,1,0,0,0,0,0,0,0,0,0,2,2,1,0,0,2,15,0,0,0,0,0,0,0,,,,11,1
L7012,Class,FSDirectory,org.apache.lucene.store.FSDirectory,L6369,L103,9,26,23,1,9,0,0,2,2,1,1,1,17,0,0,0,0,0,0,0,5,1,29,0,0,0,0,0,0,0,,,,11,1
L3274,Class,IndexWriter,org.apache.lucene.index.IndexWriter,L29717,L103,26,79,52,12,19,0,0,1,1,0,0,1,0,0,0,0,3,3,9,1,3,40,60,0,0,0,0,0,0,0,,,,47,1
