ID,Type,Name,LongName,Parent,Component,NumAttr,NumOps,NumPubOps,Setters,Getters,Nesting,IFImpl,NOC,NumDesc,NumAnc,DIT,CLD,OpsInh,AttrInh,Dep_Out,Dep_In,NumAssEl_ssc,NumAssEl_sb,NumAssEl_nsb,EC_Attr,IC_Attr,EC_Par,IC_Par,Connectors,InstSpec,LLInst,MsgSent,MsgRecv,MsgSelf,Diags,Assoc,NumDirClients,NumIndClients,BugNo,label
L1144,Interface,DatabaseFactory,net.sourceforge.pbeans.data.DatabaseFactory,L629,L103,,1,,,,,,,0,0,,,,,,,,,,0,,1,2,,,,,,,0,0,1,0,0,0
L1401,Class,ObjectClass,net.sourceforge.pbeans.ObjectClass,L106,L103,2,6,6,2,2,0,1,0,0,0,0,0,0,0,0,0,0,0,0,1,2,0,6,0,0,0,0,0,0,0,,,,0,0
L1948,Class,BeanMapper,net.sourceforge.pbeans.util.BeanMapper,L1945,L103,0,2,2,0,0,0,0,0,0,0,0,0,0,0,0,0,0,0,0,0,0,0,4,0,0,0,0,0,0,0,,,,0,0
L296,Class,DuplicateEntryException,net.sourceforge.pbeans.DuplicateEntryException,L106,L103,0,3,3,0,0,0,0,0,0,2,2,0,3,0,0,0,0,0,0,0,0,0,4,0,0,0,0,0,0,0,,,,0,0
L494,Class,StoreException,net.sourceforge.pbeans.StoreException,L106,L103,0,3,3,0,0,0,0,1,1,1,1,1,0,0,0,0,0,0,0,0,0,0,4,0,0,0,0,0,0,0,,,,0,0
L963,Interface,ResultsIterator,net.sourceforge.pbeans.data.ResultsIterator,L629,L103,,1,,,,,,,0,1,,,,,,,,,,0,,9,0,,,,,,,0,0,0,0,0,0
L1188,Class,GenericDatabase,net.sourceforge.pbeans.data.GenericDatabase,L629,L103,0,4,2,0,3,0,0,0,0,1,1,0,33,10,0,0,0,0,0,0,0,0,11,0,0,0,0,0,0,0,,,,1,1
L1251,Class,GenericDataSource,net.sourceforge.pbeans.data.GenericDataSource,L629,L103,3,10,10,4,4,0,1,0,0,0,0,0,0,0,0,0,0,0,0,0,3,0,10,0,0,0,0,0,0,0,,,,1,1
L145,Interface,Persistent,net.sourceforge.pbeans.Persistent,L106,L103,,0,,,,,,,0,0,,,,,,,,,,0,,35,0,,,,,,,0,1,6,0,1,1
L1474,Class,PersistentMap_StoreInfo,net.sourceforge.pbeans.PersistentMap_StoreInfo,L106,L103,0,2,2,0,0,0,0,0,0,1,1,0,7,2,0,0,0,0,0,0,0,0,2,0,0,0,0,0,0,0,,,,1,1
L1492,Class,PersistentMapEntry_StoreInfo,net.sourceforge.pbeans.PersistentMapEntry_StoreInfo,L106,L103,0,2,2,0,1,0,0,0,0,1,1,0,7,2,0,0,0,0,0,0,0,0,1,0,0,0,0,0,0,0,,,,1,1
L423,Class,FieldDescriptor,net.sourceforge.pbeans.data.FieldDescriptor,L629,L103,4,11,11,0,4,0,0,0,0,0,0,0,0,0,0,0,0,0,0,0,1,15,12,0,0,0,0,0,0,0,,,,1,1
L438,Class,Index,net.sourceforge.pbeans.Index,L106,L103,2,7,7,0,3,0,0,0,0,0,0,0,0,0,0,0,0,0,0,0,1,5,5,0,0,0,0,0,0,0,,,,1,1
L446,Interface,StoreInfo,net.sourceforge.pbeans.StoreInfo,L106,L103,,6,,,,,,,0,0,,,,,,,,,,0,,8,15,,,,,,,0,0,1,0,1,1
L645,Interface,Database,net.sourceforge.pbeans.data.Database,L629,L103,,8,,,,,,,0,0,,,,,,,,,,0,,2,15,,,,,,,0,1,1,0,1,1
L663,Class,ConnectionPool,net.sourceforge.pbeans.data.ConnectionPool,L629,L103,6,5,4,2,1,0,0,0,0,0,0,0,0,0,0,0,1,1,0,0,4,0,2,0,0,0,0,0,0,0,,,,1,1
L838,Class,IndexDescriptor,net.sourceforge.pbeans.data.IndexDescriptor,L629,L103,3,9,9,0,4,0,0,0,0,0,0,0,0,0,0,0,0,0,0,0,2,1,10,0,0,0,0,0,0,0,,,,1,1
L1149,Class,DefaultDatabaseFactory,net.sourceforge.pbeans.data.DefaultDatabaseFactory,L629,L103,3,4,4,3,1,0,1,0,0,0,0,0,0,0,0,0,0,0,0,0,0,0,2,0,0,0,0,0,0,0,,,,2,1
L1183,Class,SQLServerDatabase,net.sourceforge.pbeans.data.SQLServerDatabase,L629,L103,0,5,2,0,4,0,0,0,0,1,1,0,33,10,0,0,0,0,0,0,0,0,12,0,0,0,0,0,0,0,,,,2,1
L1362,Class,DefaultStoreInfo,net.sourceforge.pbeans.DefaultStoreInfo,L106,L103,0,1,1,0,0,0,0,0,0,1,1,0,7,2,0,0,0,0,0,0,0,0,1,0,0,0,0,0,0,0,,,,2,1
L1417,Class,PersistentMap,net.sourceforge.pbeans.PersistentMap,L106,L103,0,9,7,0,4,0,1,0,0,0,0,0,0,0,0,0,2,2,0,0,0,3,19,0,0,0,0,0,0,0,,,,2,1
L1449,Class,PersistentMapEntry,net.sourceforge.pbeans.PersistentMapEntry,L106,L103,1,6,6,3,3,0,1,0,0,0,0,0,0,0,0,0,2,2,0,0,1,1,6,0,0,0,0,0,0,0,,,,2,1
L1176,Class,MySQLDatabase,net.sourceforge.pbeans.data.MySQLDatabase,L629,L103,0,5,2,0,4,0,0,0,0,1,1,0,33,10,0,0,0,0,0,0,0,0,15,0,0,0,0,0,0,0,,,,3,1
L198,Class,Store,net.sourceforge.pbeans.Store,L106,L103,16,65,21,0,30,0,0,0,0,0,0,0,0,0,0,0,1,4,0,0,7,11,148,0,0,0,0,0,0,0,,,,4,1
L416,Class,AbstractStoreInfo,net.sourceforge.pbeans.AbstractStoreInfo,L106,L103,2,7,6,0,3,0,1,4,4,0,0,1,0,0,0,0,0,0,0,0,2,0,16,0,0,0,0,0,0,0,,,,4,1
L643,Class,AbstractDatabase,net.sourceforge.pbeans.data.AbstractDatabase,L629,L103,10,33,12,3,17,0,1,3,3,0,0,1,0,0,0,0,1,1,0,0,4,0,60,0,0,0,0,0,0,0,,,,4,1
