ID,Type,Name,LongName,Parent,Component,NumAttr,NumOps,NumPubOps,Setters,Getters,Nesting,IFImpl,NOC,NumDesc,NumAnc,DIT,CLD,OpsInh,AttrInh,Dep_Out,Dep_In,NumAssEl_ssc,NumAssEl_sb,NumAssEl_nsb,EC_Attr,IC_Attr,EC_Par,IC_Par,Connectors,InstSpec,LLInst,MsgSent,MsgRecv,MsgSelf,Diags,Assoc,NumDirClients,NumIndClients,BugNo,Label
L9735,Class,EscherDgRecord,org.apache.poi.ddf.EscherDgRecord,L25632,L103,4,12,12,2,6,0,0,0,0,1,1,0,20,2,0,0,0,0,0,0,1,2,4,0,0,0,0,0,0,0,,,,0,0
L9727,Class,EscherDggRecord,org.apache.poi.ddf.EscherDggRecord,L25632,L103,6,16,16,4,8,0,0,0,0,1,1,0,20,2,0,0,0,0,1,0,2,3,6,0,0,0,0,0,0,0,,,,0,0
L9724,Class,DrawingManager,org.apache.poi.hssf.model.DrawingManager,L9550,L103,1,7,4,0,1,0,0,0,0,0,0,0,0,0,0,0,1,1,2,0,1,4,3,0,0,0,0,0,0,0,,,,0,0
L9709,Class,EscherChildAnchorRecord,org.apache.poi.ddf.EscherChildAnchorRecord,L25632,L103,6,14,14,4,7,0,0,0,0,1,1,0,20,2,0,0,0,0,0,0,1,1,4,0,0,0,0,0,0,0,,,,0,0
L9674,Class,ConvertAnchor,org.apache.poi.hssf.model.ConvertAnchor,L9550,L103,0,1,1,0,0,0,0,0,0,0,0,0,0,0,0,0,0,0,0,0,0,0,2,0,0,0,0,0,0,0,,,,0,0
L9658,Class,EscherSimpleProperty,org.apache.poi.ddf.EscherSimpleProperty,L25632,L103,1,8,8,0,2,0,0,3,3,1,1,1,10,1,0,0,0,0,0,0,0,0,2,0,0,0,0,0,0,0,,,,0,0
L9644,Class,EscherRGBProperty,org.apache.poi.ddf.EscherRGBProperty,L25632,L103,0,5,5,0,4,0,0,0,0,2,2,0,18,2,0,0,0,0,0,0,0,0,0,0,0,0,0,0,0,0,,,,0,0
L9634,Class,EscherBoolProperty,org.apache.poi.ddf.EscherBoolProperty,L25632,L103,0,3,3,0,2,0,0,0,0,2,2,0,18,2,0,0,0,0,0,0,0,0,0,0,0,0,0,0,0,0,,,,0,0
L9629,Class,EscherOptRecord,org.apache.poi.ddf.EscherOptRecord,L25632,L103,3,11,10,0,6,0,0,0,0,1,1,0,20,2,0,0,0,0,0,0,2,1,7,0,0,0,0,0,0,0,,,,0,0
L9615,Class,EscherContainerRecord,org.apache.poi.ddf.EscherContainerRecord,L25632,L103,7,10,10,1,4,0,0,0,0,1,1,0,20,2,0,0,0,0,4,0,1,12,9,0,0,0,0,0,0,0,,,,0,0
L9592,Class,SimpleFilledShape,org.apache.poi.hssf.model.SimpleFilledShape,L9550,L103,0,6,2,0,2,0,0,0,0,1,1,0,6,0,0,0,0,0,2,0,0,0,7,0,0,0,0,0,0,0,,,,0,0
L9587,Class,LineShape,org.apache.poi.hssf.model.LineShape,L9550,L103,0,5,2,0,2,0,0,0,0,1,1,0,6,0,0,0,0,0,2,0,0,0,7,0,0,0,0,0,0,0,,,,0,0
L9577,Class,TextboxShape,org.apache.poi.hssf.model.TextboxShape,L9550,L103,0,8,4,0,4,0,0,0,0,1,1,0,6,0,0,0,0,0,4,0,0,0,11,0,0,0,0,0,0,0,,,,0,0
L9473,Class,HSSFUserException,org.apache.poi.hssf.eventusermodel.HSSFUserException,L9458,L103,1,5,5,0,1,0,0,0,0,1,1,0,0,0,0,0,0,0,0,0,1,0,5,0,0,0,0,0,0,0,,,,0,0
L9465,Class,AbortableHSSFListener,org.apache.poi.hssf.eventusermodel.AbortableHSSFListener,L9458,L103,0,2,2,0,0,0,1,0,0,0,0,0,0,0,0,0,0,0,0,0,0,0,2,0,0,0,0,0,0,0,,,,0,0
L9319,Interface,ModelFactoryListener,org.apache.poi.hssf.eventmodel.ModelFactoryListener,L9185,L103,,1,,,,,,,0,0,,,,,,,,,,0,,1,1,,,,,,,0,0,1,0,0,0
L9309,Interface,Model,org.apache.poi.hssf.model.Model,L9550,L103,,0,,,,,,,0,0,,,,,,,,,,0,,3,0,,,,,,,0,1,2,0,0,0
L9305,Class,ModelFactory,org.apache.poi.hssf.eventmodel.ModelFactory,L9185,L103,2,5,4,0,0,0,1,0,0,0,0,0,0,0,0,0,1,1,1,0,1,0,4,0,0,0,0,0,0,0,,,,0,0
L9232,Class,ListenerWrapper,org.apache.poi.hssf.eventmodel.ListenerWrapper,L9185,L103,2,2,1,0,0,0,1,0,0,0,0,0,0,0,0,0,1,1,0,0,0,0,2,0,0,0,0,0,0,0,,,,0,0
L9194,Interface,ERFListener,org.apache.poi.hssf.eventmodel.ERFListener,L9185,L103,,1,,,,,,,0,0,,,,,,,,,,0,,2,1,,,,,,,0,1,2,0,0,0
L9114,Class,OperationPtg,org.apache.poi.hssf.record.formula.OperationPtg,L16233,L103,3,4,4,0,3,0,0,18,20,1,1,2,11,4,0,0,0,0,0,0,0,0,2,0,0,0,0,0,0,0,,,,0,0
L9057,Class,EFHSSFListener,org.apache.poi.hssf.dev.EFHSSFListener,L8365,L103,0,2,2,0,0,0,1,0,0,0,0,0,0,0,0,0,1,1,0,0,0,0,2,0,0,0,0,0,0,0,,,,0,0
L8387,Class,RecordFormatException,org.apache.poi.hssf.record.RecordFormatException,L12049,L103,0,1,1,0,0,0,0,0,0,1,1,0,0,0,0,0,0,0,0,0,0,0,1,0,0,0,0,0,0,0,,,,0,0
L757,Class,POIFSReaderEvent,org.apache.poi.poifs.eventfilesystem.POIFSReaderEvent,L27754,L103,1,4,3,0,3,0,0,0,0,0,0,0,0,0,0,0,0,0,2,0,1,7,6,0,0,0,0,0,0,0,,,,0,0
L731,Interface,POIFSReaderListener,org.apache.poi.poifs.eventfilesystem.POIFSReaderListener,L27754,L103,,1,,,,,,,0,0,,,,,,,,,,0,,7,1,,,,,,,0,1,6,0,0,0
L6789,Class,StaticFontMetrics,org.apache.poi.hssf.usermodel.StaticFontMetrics,L1919,L103,2,1,1,0,1,0,0,0,0,0,0,0,0,0,0,0,0,0,0,0,2,0,2,0,0,0,0,0,0,0,,,,0,0
L6769,Interface,DocumentEntry,org.apache.poi.poifs.filesystem.DocumentEntry,L27998,L103,,1,,,,,,,0,1,,,,,,,,,,0,,8,0,,,,,,,0,0,1,0,0,0
L6748,Interface,Entry,org.apache.poi.poifs.filesystem.Entry,L27998,L103,,6,,,,,,,2,0,,,,,,,,,,0,,3,3,,,,,,,0,0,1,2,0,0
L6741,Interface,DirectoryEntry,org.apache.poi.poifs.filesystem.DirectoryEntry,L27998,L103,,9,,,,,,,0,1,,,,,,,,,,0,,7,13,,,,,,,0,1,1,0,0,0
L6266,Class,EscherRecord,org.apache.poi.ddf.EscherRecord,L25632,L103,2,20,18,3,8,0,0,14,14,0,0,1,0,0,0,0,0,0,0,0,0,16,8,0,0,0,0,0,0,0,,,,0,0
L601,Class,NoPropertySetStreamException,org.apache.poi.hpsf.NoPropertySetStreamException,L24614,L103,0,4,4,0,0,0,0,0,0,2,2,0,5,1,0,0,0,0,0,0,0,0,4,0,0,0,0,0,0,0,,,,0,0
L539,Class,POIFSReader,org.apache.poi.poifs.eventfilesystem.POIFSReader,L27754,L103,1,7,6,0,0,0,0,0,0,0,0,0,0,0,0,0,1,1,0,0,0,0,12,0,0,0,0,0,0,0,,,,0,0
L5236,Class,HSSFPrintSetup,org.apache.poi.hssf.usermodel.HSSFPrintSetup,L1919,L103,9,39,38,19,19,0,0,0,0,1,1,0,0,0,0,0,0,0,1,0,0,1,1,0,0,0,0,0,0,0,,,,0,0
L5188,Class,HSSFShape,org.apache.poi.hssf.usermodel.HSSFShape,L1919,L103,19,17,16,8,7,0,0,3,4,0,0,2,0,0,0,0,1,1,0,0,0,9,3,0,0,0,0,0,0,0,,,,0,0
L5144,Interface,HSSFShapeContainer,org.apache.poi.hssf.usermodel.HSSFShapeContainer,L1919,L103,,1,,,,,,,0,0,,,,,,,,,,0,,1,1,,,,,,,0,0,2,0,0,0
L4895,Class,HSSFFooter,org.apache.poi.hssf.usermodel.HSSFFooter,L1919,L103,3,16,14,3,3,0,0,0,0,1,1,0,0,0,0,0,0,0,1,0,1,1,17,0,0,0,0,0,0,0,,,,0,0
L4784,Interface,HSSFErrorConstants,org.apache.poi.hssf.usermodel.HSSFErrorConstants,L1919,L103,,0,,,,,,,0,0,,,,,,,,,,0,,0,0,,,,,,,0,0,0,0,0,0
L4713,Class,HSSFDateUtil,org.apache.poi.hssf.usermodel.HSSFDateUtil,L1919,L103,3,10,6,0,6,0,0,0,0,0,0,0,0,0,0,0,0,0,0,0,0,0,7,0,0,0,0,0,0,0,,,,0,0
L4058,Interface,CellValueRecordInterface,org.apache.poi.hssf.record.CellValueRecordInterface,L12049,L103,,10,,,,,,,0,0,,,,,,,,,,0,,37,4,,,,,,,0,1,8,0,0,0
L4000,Class,HSSFAnchor,org.apache.poi.hssf.usermodel.HSSFAnchor,L1919,L103,4,12,12,4,6,0,0,2,2,0,0,1,0,0,0,0,1,1,0,0,0,9,0,0,0,0,0,0,0,0,,,,0,0
L3441,Class,FontDetails,org.apache.poi.hssf.usermodel.FontDetails,L1919,L103,3,9,8,0,4,0,0,0,0,0,0,0,0,0,0,0,1,1,0,0,2,1,8,0,0,0,0,0,0,0,,,,0,0
L3261,Class,POILogger,org.apache.poi.util.POILogger,L30305,L103,5,26,22,0,0,0,0,3,3,0,0,1,0,0,0,0,0,0,6,0,0,2,101,0,0,0,0,0,0,0,,,,0,0
L322,Class,DocumentInputStream,org.apache.poi.poifs.filesystem.DocumentInputStream,L27998,L103,6,13,11,0,0,0,0,0,0,1,1,0,0,0,0,0,1,1,2,0,0,5,2,0,0,0,0,0,0,0,,,,0,0
L31941,Class,SystemOutLogger,org.apache.poi.util.SystemOutLogger,L30305,L103,1,3,3,0,0,0,0,0,0,1,1,0,26,5,0,0,0,0,0,0,1,0,2,0,0,0,0,0,0,0,,,,0,0
L318,Class,POIFSDocumentPath,org.apache.poi.poifs.filesystem.POIFSDocumentPath,L27998,L103,2,9,9,0,3,0,0,0,0,0,0,0,0,0,0,0,3,3,4,2,1,18,5,0,0,0,0,0,0,0,,,,0,0
L31789,Class,ShortList,org.apache.poi.util.ShortList,L30305,L103,3,25,24,1,3,0,0,0,0,0,0,0,0,0,0,0,0,0,0,0,0,0,1,0,0,0,0,0,0,0,,,,0,0
L31546,Class,POILogFactory,org.apache.poi.util.POILogFactory,L30305,L103,1,3,2,0,2,0,0,0,0,0,0,0,0,0,0,0,0,0,0,0,1,0,4,0,0,0,0,0,0,0,,,,0,0
L31384,Class,NullLogger,org.apache.poi.util.NullLogger,L30305,L103,0,22,22,0,0,0,0,0,0,1,1,0,26,5,0,0,0,0,0,0,0,0,95,0,0,0,0,0,0,0,,,,0,0
L31193,Interface,LittleEndianConsts,org.apache.poi.util.LittleEndianConsts,L30305,L103,,0,,,,,,,0,0,,,,,,,,,,0,,0,0,,,,,,,0,0,1,0,0,0
L31180,Class,IOUtils,org.apache.poi.util.IOUtils,L30305,L103,0,3,2,0,0,0,0,0,0,0,0,0,0,0,0,0,0,0,0,0,0,0,2,0,0,0,0,0,0,0,,,,0,0
L31047,Class,HexRead,org.apache.poi.util.HexRead,L30305,L103,0,5,4,0,0,0,0,0,0,0,0,0,0,0,0,0,0,0,0,0,0,0,6,0,0,0,0,0,0,0,,,,0,0
L30995,Class,HexDump,org.apache.poi.util.HexDump,L30305,L103,3,12,8,0,0,0,0,0,0,0,0,0,0,0,0,0,0,0,0,0,1,0,12,0,0,0,0,0,0,0,,,,0,0
L30977,Class,DrawingDump,org.apache.poi.util.DrawingDump,L30305,L103,0,1,1,0,0,0,0,0,0,0,0,0,0,0,0,0,0,0,0,0,0,0,1,0,0,0,0,0,0,0,,,,0,0
L30953,Class,CommonsLogger,org.apache.poi.util.CommonsLogger,L30305,L103,2,3,3,0,0,0,0,0,0,1,1,0,26,5,0,0,0,0,0,0,2,0,2,0,0,0,0,0,0,0,,,,0,0
L30905,Interface,FixedField,org.apache.poi.util.FixedField,L30305,L103,,4,,,,,,,0,0,,,,,,,,,,0,,0,2,,,,,,,0,0,4,0,0,0
L30880,Class,BlockingInputStream,org.apache.poi.util.BlockingInputStream,L30305,L103,1,10,10,0,0,0,0,0,0,1,1,0,0,0,0,0,0,0,0,0,1,0,1,0,0,0,0,0,0,0,,,,0,0
L29910,Class,SmallDocumentBlockList,org.apache.poi.poifs.storage.SmallDocumentBlockList,L29511,L103,0,1,1,0,0,0,0,0,0,1,1,0,6,0,0,0,0,0,0,0,0,0,1,0,0,0,0,0,0,0,,,,0,0
L29903,Class,SmallBlockTableReader,org.apache.poi.poifs.storage.SmallBlockTableReader,L29511,L103,0,1,1,0,1,0,0,0,0,0,0,0,0,0,0,0,0,0,0,0,0,0,3,0,0,0,0,0,0,0,,,,0,0
L29862,Class,PropertyBlock,org.apache.poi.poifs.storage.PropertyBlock,L29511,L103,1,3,1,0,0,0,0,0,0,1,1,0,3,0,0,0,0,0,1,0,0,0,4,0,0,0,0,0,0,0,,,,0,0
L29790,Class,LongField,org.apache.poi.util.LongField,L30305,L103,2,11,11,2,1,0,1,0,0,0,0,0,0,0,0,0,0,0,0,0,0,0,2,0,0,0,0,0,0,0,,,,0,0
L29758,Interface,HeaderBlockConstants,org.apache.poi.poifs.storage.HeaderBlockConstants,L29511,L103,,0,,,,,,,0,0,,,,,,,,,,0,,0,0,,,,,,,0,0,2,0,0,0
L29699,Class,BlockListImpl,org.apache.poi.poifs.storage.BlockListImpl,L29511,L103,0,6,4,2,0,0,1,2,3,0,0,2,0,0,0,0,2,2,0,0,0,0,4,0,0,0,0,0,0,0,,,,0,0
L29550,Class,BigBlock,org.apache.poi.poifs.storage.BigBlock,L29511,L103,0,3,1,0,0,0,1,4,4,0,0,1,0,0,0,0,0,0,0,0,0,0,3,0,0,0,0,0,0,0,,,,0,0
L29308,Class,RootProperty,org.apache.poi.poifs.property.RootProperty,L28970,L103,0,3,1,1,0,0,0,0,0,2,2,0,40,24,0,0,1,1,1,0,0,3,0,0,0,0,0,0,0,0,,,,0,0
L29297,Class,PropertyFactory,org.apache.poi.poifs.property.PropertyFactory,L28970,L103,0,2,0,0,0,0,0,0,0,0,0,0,0,0,0,0,0,0,0,0,0,0,2,0,0,0,0,0,0,0,,,,0,0
L29293,Interface,PropertyConstants,org.apache.poi.poifs.property.PropertyConstants,L28970,L103,,0,,,,,,,0,0,,,,,,,,,,0,,0,0,,,,,,,0,0,0,0,0,0
L29143,Class,IntegerField,org.apache.poi.util.IntegerField,L30305,L103,2,11,11,2,1,0,1,0,0,0,0,0,0,0,0,0,0,0,4,0,0,0,2,0,0,0,0,0,0,0,,,,0,0
L29138,Class,ByteField,org.apache.poi.util.ByteField,L30305,L103,3,11,11,2,1,0,1,0,0,0,0,0,0,0,0,0,0,0,1,0,0,0,2,0,0,0,0,0,0,0,,,,0,0
L29134,Class,ShortField,org.apache.poi.util.ShortField,L30305,L103,2,11,11,2,1,0,1,0,0,0,0,0,0,0,0,0,0,0,1,0,0,0,2,0,0,0,0,0,0,0,,,,0,0
L29003,Interface,Parent,org.apache.poi.poifs.property.Parent,L28970,L103,,4,,,,,,,0,1,,,,,,,,,,0,,0,4,,,,,,,0,0,1,0,0,0
L28988,Interface,Child,org.apache.poi.poifs.property.Child,L28970,L103,,4,,,,,,,1,0,,,,,,,,,,0,,10,4,,,,,,,0,1,1,1,0,0
L28662,Class,BATBlock,org.apache.poi.poifs.storage.BATBlock,L29511,L103,5,11,7,1,1,0,0,0,0,1,1,0,3,0,0,0,1,1,1,0,0,3,1,0,0,0,0,0,0,0,,,,0,0
L28657,Class,HeaderBlockWriter,org.apache.poi.poifs.storage.HeaderBlockWriter,L29511,L103,2,7,5,4,0,0,1,0,0,1,1,0,3,0,0,0,0,0,1,0,0,0,2,0,0,0,0,0,0,0,,,,0,0
L28644,Class,BlockAllocationTableWriter,org.apache.poi.poifs.storage.BlockAllocationTableWriter,L29511,L103,1,8,7,1,1,0,2,0,0,0,0,0,0,0,0,0,2,2,1,0,0,2,1,0,0,0,0,0,0,0,,,,0,0
L28639,Class,SmallBlockTableWriter,org.apache.poi.poifs.storage.SmallBlockTableWriter,L29511,L103,2,6,6,1,2,0,2,0,0,0,0,0,0,0,0,0,1,1,1,0,1,0,4,0,0,0,0,0,0,0,,,,0,0
L28546,Class,POIFSWriterEvent,org.apache.poi.poifs.filesystem.POIFSWriterEvent,L27998,L103,2,5,4,0,4,0,0,0,0,0,0,0,0,0,0,0,2,2,0,0,1,2,6,0,0,0,0,0,0,0,,,,0,0
L28447,Class,DocumentBlock,org.apache.poi.poifs.storage.DocumentBlock,L29511,L103,3,9,7,0,1,0,0,0,0,1,1,0,3,0,0,0,0,0,0,1,0,2,3,0,0,0,0,0,0,0,,,,0,0
L28437,Interface,ListManagedBlock,org.apache.poi.poifs.storage.ListManagedBlock,L29511,L103,,1,,,,,,,0,0,,,,,,,,,,0,,12,0,,,,,,,0,1,2,0,0,0
L28429,Class,SmallDocumentBlock,org.apache.poi.poifs.storage.SmallDocumentBlock,L29511,L103,4,12,8,0,1,0,2,0,0,0,0,0,0,0,0,0,0,0,0,1,0,1,6,0,0,0,0,0,0,0,,,,0,0
L28390,Interface,BlockWritable,org.apache.poi.poifs.storage.BlockWritable,L29511,L103,,1,,,,,,,0,0,,,,,,,,,,0,,6,1,,,,,,,0,1,6,0,0,0
L28300,Class,DocumentOutputStream,org.apache.poi.poifs.filesystem.DocumentOutputStream,L27998,L103,3,8,5,0,0,0,0,0,0,1,1,0,0,0,0,0,1,1,0,0,1,2,1,0,0,0,0,0,0,0,,,,0,0
L28088,Class,DocumentProperty,org.apache.poi.poifs.property.DocumentProperty,L28970,L103,0,7,5,1,2,0,0,0,0,1,1,0,32,22,0,0,0,0,1,0,0,2,3,0,0,0,0,0,0,0,,,,0,0
L28083,Class,DocumentNode,org.apache.poi.poifs.filesystem.DocumentNode,L27998,L103,0,9,6,0,7,0,2,0,0,1,1,0,10,0,0,0,2,2,0,0,0,0,6,0,0,0,0,0,0,0,,,,0,0
L28061,Class,EntryNode,org.apache.poi.poifs.filesystem.EntryNode,L27998,L103,0,10,6,0,7,0,1,2,2,0,0,1,0,0,0,0,1,1,1,0,0,2,6,0,0,0,0,0,0,0,,,,0,0
L28059,Class,DirectoryNode,org.apache.poi.poifs.filesystem.DirectoryNode,L27998,L103,1,20,15,1,11,0,2,0,0,1,1,0,10,0,0,0,3,3,0,0,1,3,24,0,0,0,0,0,0,0,,,,0,0
L28049,Interface,POIFSWriterListener,org.apache.poi.poifs.filesystem.POIFSWriterListener,L27998,L103,,1,,,,,,,0,0,,,,,,,,,,2,,6,1,,,,,,,0,0,1,0,0,0
L28025,Interface,BATManaged,org.apache.poi.poifs.filesystem.BATManaged,L27998,L103,,2,,,,,,,0,0,,,,,,,,,,0,,0,0,,,,,,,0,0,4,0,0,0
L27941,Class,DocumentDescriptor,org.apache.poi.poifs.filesystem.DocumentDescriptor,L27998,L103,2,4,4,0,1,0,0,0,0,0,0,0,0,0,0,0,1,1,0,0,1,1,4,0,0,0,0,0,0,0,,,,0,0
L27871,Class,POIFSDocument,org.apache.poi.poifs.filesystem.POIFSDocument,L27998,L103,3,16,14,1,6,0,3,0,0,0,0,0,0,0,0,0,2,2,1,0,2,10,17,0,0,0,0,0,0,0,,,,0,0
L27853,Class,Property,org.apache.poi.poifs.property.Property,L28970,L103,22,32,18,10,16,0,2,4,5,0,0,2,0,0,0,0,1,1,6,0,1,9,12,0,0,0,0,0,0,0,,,,0,0
L27847,Interface,BlockList,org.apache.poi.poifs.storage.BlockList,L29511,L103,,4,,,,,,,0,0,,,,,,,,,,0,,9,3,,,,,,,0,0,1,0,0,0
L27800,Class,PropertyTable,org.apache.poi.poifs.property.PropertyTable,L28970,L103,2,11,10,1,2,0,2,0,0,0,0,0,0,0,0,0,0,0,2,0,1,0,6,0,0,0,0,0,0,0,,,,0,0
L27787,Class,BlockAllocationTableReader,org.apache.poi.poifs.storage.BlockAllocationTableReader,L29511,L103,0,7,1,1,2,0,0,0,0,0,0,0,0,0,0,0,1,1,1,0,0,2,7,0,0,0,0,0,0,0,,,,0,0
L27782,Class,RawDataBlockList,org.apache.poi.poifs.storage.RawDataBlockList,L29511,L103,0,1,1,0,0,0,0,1,1,1,1,1,6,0,0,0,0,0,0,0,0,2,1,0,0,0,0,0,0,0,,,,0,0
L27766,Class,POIFSReaderRegistry,org.apache.poi.poifs.eventfilesystem.POIFSReaderRegistry,L27754,L103,3,6,0,0,1,0,0,0,0,0,0,0,0,0,0,0,1,1,0,0,2,0,10,0,0,0,0,0,0,0,,,,0,0
L27742,Class,POIFSViewer,org.apache.poi.poifs.dev.POIFSViewer,L27688,L103,0,2,1,0,0,0,0,0,0,0,0,0,0,0,0,0,0,0,0,0,0,0,2,0,0,0,0,0,0,0,,,,0,0
L27703,Class,POIFSViewEngine,org.apache.poi.poifs.dev.POIFSViewEngine,L27688,L103,1,2,1,0,0,0,0,0,0,0,0,0,0,0,0,0,0,0,0,0,1,0,6,0,0,0,0,0,0,0,,,,0,0
L27693,Interface,POIFSViewable,org.apache.poi.poifs.dev.POIFSViewable,L27688,L103,,4,,,,,,,0,0,,,,,,,,,,0,,0,3,,,,,,,0,0,5,0,0,0
L27682,Interface,POIFSConstants,org.apache.poi.poifs.common.POIFSConstants,L27678,L103,,0,,,,,,,0,0,,,,,,,,,,0,,0,0,,,,,,,0,0,0,0,0,0
L27010,Class,EscherPropertyMetaData,org.apache.poi.ddf.EscherPropertyMetaData,L25632,L103,8,4,4,0,2,0,0,0,0,0,0,0,0,0,0,0,0,0,0,0,1,3,3,0,0,0,0,0,0,0,,,,0,0
L26487,Class,EscherProperties,org.apache.poi.ddf.EscherProperties,L25632,L103,275,6,2,0,2,0,0,0,0,0,0,0,0,0,0,0,0,0,0,0,1,0,6,0,0,0,0,0,0,0,,,,0,0
L26439,Class,EscherPropertyFactory,org.apache.poi.ddf.EscherPropertyFactory,L25632,L103,0,1,1,0,0,0,0,0,0,0,0,0,0,0,0,0,0,0,0,0,0,0,1,0,0,0,0,0,0,0,,,,0,0
L26351,Class,EscherDump,org.apache.poi.ddf.EscherDump,L25632,L103,0,9,5,0,1,0,0,0,0,0,0,0,0,0,0,0,0,0,0,0,0,0,10,0,0,0,0,0,0,0,,,,0,0
L26195,Class,EscherProperty,org.apache.poi.ddf.EscherProperty,L25632,L103,1,10,10,0,6,0,0,2,6,0,0,2,0,0,0,0,0,0,0,0,0,2,1,0,0,0,0,0,0,0,,,,0,0
L25720,Class,EscherComplexProperty,org.apache.poi.ddf.EscherComplexProperty,L25632,L103,1,9,9,0,3,0,0,1,1,1,1,1,10,1,0,0,0,0,0,0,0,0,2,0,0,0,0,0,0,0,,,,0,0
L25712,Class,UnknownEscherRecord,org.apache.poi.ddf.UnknownEscherRecord,L25632,L103,3,11,11,1,4,0,0,0,0,1,1,0,20,2,0,0,0,0,0,0,1,0,8,0,0,0,0,0,0,0,,,,0,0
L25706,Class,EscherBlipRecord,org.apache.poi.ddf.EscherBlipRecord,L25632,L103,16,31,31,12,14,0,0,0,0,1,1,0,20,2,0,0,0,0,0,0,1,0,4,0,0,0,0,0,0,0,,,,0,0
L2570,Class,EscherGraphics2d,org.apache.poi.hssf.usermodel.EscherGraphics2d,L1919,L103,5,80,72,16,19,0,0,0,0,1,1,0,0,0,0,0,2,2,1,0,5,1,74,0,0,0,0,0,0,0,,,,0,0
L25682,Class,EscherBSERecord,org.apache.poi.ddf.EscherBSERecord,L25632,L103,22,30,30,12,15,0,0,0,0,1,1,0,20,2,0,0,0,0,0,0,1,1,5,0,0,0,0,0,0,0,,,,0,0
L2567,Class,EscherGraphics,org.apache.poi.hssf.usermodel.EscherGraphics,L1919,L103,5,46,41,7,7,0,0,0,0,1,1,0,0,0,0,0,4,4,1,0,2,2,40,0,0,0,0,0,0,0,,,,0,0
L2548,Class,HSSFPolygon,org.apache.poi.hssf.usermodel.HSSFPolygon,L1919,L103,4,8,6,2,4,0,0,0,0,1,1,0,17,19,0,0,0,0,0,0,0,4,2,0,0,0,0,0,0,0,,,,0,0
L25212,Class,TypeReader,org.apache.poi.hpsf.TypeReader,L24614,L103,0,1,1,0,0,0,0,0,0,0,0,0,0,0,0,0,0,0,0,0,0,0,1,0,0,0,0,0,0,0,,,,0,0
L2498,Class,HSSFTextbox,org.apache.poi.hssf.usermodel.HSSFTextbox,L1919,L103,5,11,11,5,5,0,0,0,0,2,2,0,20,23,0,0,1,1,0,0,0,6,4,0,0,0,0,0,0,0,,,,0,0
L2485,Class,HSSFChildAnchor,org.apache.poi.hssf.usermodel.HSSFChildAnchor,L1919,L103,0,5,5,1,2,0,0,0,0,1,1,0,12,4,0,0,0,0,0,0,0,4,0,0,0,0,0,0,0,0,,,,0,0
L2463,Class,HSSFClientAnchor,org.apache.poi.hssf.usermodel.HSSFClientAnchor,L1919,L103,4,16,14,5,8,0,0,0,0,1,1,0,12,4,0,0,0,0,0,0,0,4,3,0,0,0,0,0,0,0,,,,0,0
L24458,Class,RKUtil,org.apache.poi.hssf.util.RKUtil,L23547,L103,0,2,1,0,0,0,0,0,0,0,0,0,0,0,0,0,0,0,0,0,0,0,0,0,0,0,0,0,0,0,,,,0,0
L2377,Class,HSSFRequest,org.apache.poi.hssf.eventusermodel.HSSFRequest,L9458,L103,1,4,3,0,0,0,0,0,0,0,0,0,0,0,0,0,0,0,0,0,1,5,3,0,0,0,0,0,0,0,,,,0,0
L2370,Class,POIFSFileSystem,org.apache.poi.poifs.filesystem.POIFSFileSystem,L27998,L103,1,17,13,0,4,0,1,0,0,0,0,0,0,0,0,0,2,2,4,0,1,8,24,0,0,0,0,0,0,0,,,,0,0
L2299,Interface,HSSFListener,org.apache.poi.hssf.eventusermodel.HSSFListener,L9458,L103,,1,,,,,,,0,0,,,,,,,,,,0,,2,1,,,,,,,0,0,3,0,0,0
L2101,Class,Region,org.apache.poi.hssf.util.Region,L23547,L103,4,16,16,4,5,0,1,0,0,0,0,0,0,0,0,0,0,0,0,0,0,10,2,0,0,0,0,0,0,0,,,,0,0
L19346,Class,PColor,org.apache.poi.hssf.record.PColor,L12049,L103,3,3,3,0,0,0,0,0,0,0,0,0,0,0,0,0,0,0,0,0,0,0,1,0,0,0,0,0,0,0,,,,0,0
L18763,Class,RkRec,org.apache.poi.hssf.record.RkRec,L12049,L103,2,0,0,0,0,0,0,0,0,0,0,0,0,0,0,0,0,0,0,0,0,0,0,0,0,0,0,0,0,0,,,,0,0
L16680,Class,ControlPtg,org.apache.poi.hssf.record.formula.ControlPtg,L16233,L103,0,0,0,0,0,0,0,1,1,1,1,1,11,4,0,0,0,0,0,0,0,0,0,0,0,0,0,0,0,0,,,,0,0
L16445,Class,AreaReference,org.apache.poi.hssf.util.AreaReference,L23547,L103,1,5,4,0,2,0,0,0,0,0,0,0,0,0,0,0,1,1,0,0,0,0,5,0,0,0,0,0,0,0,,,,0,0
L16282,Class,BinaryTree,org.apache.poi.util.BinaryTree,L30305,L103,12,49,17,0,10,0,0,0,0,1,1,0,0,0,0,0,0,0,5,0,4,7,61,0,0,0,0,0,0,0,,,,0,0
L15253,Class,EscherSpgrRecord,org.apache.poi.ddf.EscherSpgrRecord,L25632,L103,6,14,14,4,7,0,0,0,0,1,1,0,20,2,0,0,0,0,0,0,1,1,4,0,0,0,0,0,0,0,,,,0,0
L15191,Interface,EscherSerializationListener,org.apache.poi.ddf.EscherSerializationListener,L25632,L103,,2,,,,,,,0,0,,,,,,,,,,0,,15,2,,,,,,,0,0,1,0,0,0
L12754,Class,BitField,org.apache.poi.util.BitField,L30305,L103,2,18,18,8,6,0,0,0,0,0,0,0,0,0,0,0,1,1,39,0,0,0,0,0,0,0,0,0,0,0,,,,0,0
L12312,Class,NullEscherSerializationListener,org.apache.poi.ddf.NullEscherSerializationListener,L25632,L103,0,2,2,0,0,0,1,0,0,0,0,0,0,0,0,0,0,0,0,0,0,0,2,0,0,0,0,0,0,0,,,,0,0
L12290,Interface,EscherRecordFactory,org.apache.poi.ddf.EscherRecordFactory,L25632,L103,,1,,,,,,,0,0,,,,,,,,,,0,,16,1,,,,,,,0,0,1,0,0,0
L11861,Class,EscherSplitMenuColorsRecord,org.apache.poi.ddf.EscherSplitMenuColorsRecord,L25632,L103,6,14,14,4,7,0,0,0,0,1,1,0,20,2,0,0,0,0,0,0,1,1,4,0,0,0,0,0,0,0,,,,0,0
L11759,Class,SheetReferences,org.apache.poi.hssf.util.SheetReferences,L23547,L103,1,3,3,0,1,0,0,0,0,0,0,0,0,0,0,0,0,0,0,0,1,1,2,0,0,0,0,0,0,0,,,,0,0
L10645,Class,IntList,org.apache.poi.util.IntList,L30305,L103,3,25,24,1,3,0,0,0,0,0,0,0,0,0,0,0,0,0,3,0,0,1,1,0,0,0,0,0,0,0,,,,0,0
L10366,Interface,Margin,org.apache.poi.hssf.record.Margin,L12049,L103,,2,,,,,,,0,0,,,,,,,,,,0,,1,0,,,,,,,0,1,4,0,0,0
L10233,Class,EscherShapePathProperty,org.apache.poi.ddf.EscherShapePathProperty,L25632,L103,5,1,1,0,0,0,0,0,0,2,2,0,18,2,0,0,0,0,0,0,0,0,0,0,0,0,0,0,0,0,,,,0,0
L10216,Class,EscherClientDataRecord,org.apache.poi.ddf.EscherClientDataRecord,L25632,L103,3,8,8,1,4,0,0,0,0,1,1,0,20,2,0,0,0,0,0,0,1,1,4,0,0,0,0,0,0,0,,,,0,0
L10116,Class,Node,org.apache.poi.hssf.model.Node,L9550,L103,1,5,5,1,3,0,0,0,0,0,0,0,0,0,0,0,0,0,1,0,0,5,2,0,0,0,0,0,0,0,,,,0,0
L9993,Class,IntPtg,org.apache.poi.hssf.record.formula.IntPtg,L16233,L103,5,10,9,1,3,0,0,0,0,1,1,0,11,4,0,0,0,0,0,0,1,0,4,0,0,0,0,0,0,0,,,,1,1
L9988,Class,NumberPtg,org.apache.poi.hssf.record.formula.NumberPtg,L16233,L103,3,10,9,1,3,0,0,0,0,1,1,0,11,4,0,0,0,0,0,0,0,0,4,0,0,0,0,0,0,0,,,,1,1
L9974,Class,UnaryMinusPtg,org.apache.poi.hssf.record.formula.UnaryMinusPtg,L16233,L103,3,10,10,0,4,0,0,0,0,2,2,0,15,7,0,0,0,0,0,0,1,0,5,0,0,0,0,0,0,0,,,,1,1
L9941,Class,FuncVarPtg,org.apache.poi.hssf.record.formula.FuncVarPtg,L16233,L103,2,8,7,0,2,0,0,0,0,3,3,0,29,14,0,0,0,0,0,0,0,0,3,0,0,0,0,0,0,0,,,,1,1
L9925,Class,NamePtg,org.apache.poi.hssf.record.formula.NamePtg,L16233,L103,5,8,7,0,2,0,0,0,0,1,1,0,11,4,0,0,0,0,0,0,0,0,5,0,0,0,0,0,0,0,,,,1,1
L9918,Class,AbstractFunctionPtg,org.apache.poi.hssf.record.formula.AbstractFunctionPtg,L16233,L103,7,14,10,0,6,0,0,2,2,2,2,1,15,7,0,0,0,0,1,0,2,1,10,0,0,0,0,0,0,0,,,,1,1
L9678,Class,EscherClientAnchorRecord,org.apache.poi.ddf.EscherClientAnchorRecord,L25632,L103,12,26,26,10,13,0,0,0,0,1,1,0,20,2,0,0,0,0,0,0,1,1,4,0,0,0,0,0,0,0,,,,1,1
L9597,Class,EscherSpRecord,org.apache.poi.ddf.EscherSpRecord,L25632,L103,16,11,10,2,5,0,0,0,0,1,1,0,20,2,0,0,0,0,0,0,1,2,5,0,0,0,0,0,0,0,,,,1,1
L9582,Class,PolygonShape,org.apache.poi.hssf.model.PolygonShape,L9550,L103,1,5,2,0,2,0,0,0,0,1,1,0,6,0,0,0,0,0,2,0,0,0,7,0,0,0,0,0,0,0,,,,1,1
L9569,Class,AbstractShape,org.apache.poi.hssf.model.AbstractShape,L9550,L103,0,6,3,0,2,0,0,4,4,0,0,1,0,0,0,0,0,0,0,0,0,0,7,0,0,0,0,0,0,0,,,,1,1
L9157,Class,HSSF,org.apache.poi.hssf.dev.HSSF,L8365,L103,2,4,4,0,0,0,0,0,0,0,0,0,0,0,0,0,0,0,2,0,2,0,5,0,0,0,0,0,0,0,,,,1,1
L9104,Class,FuncPtg,org.apache.poi.hssf.record.formula.FuncPtg,L16233,L103,3,7,6,0,2,0,0,0,0,3,3,0,29,14,0,0,0,0,0,0,0,0,2,0,0,0,0,0,0,0,,,,1,1
L9087,Class,FormulaViewer,org.apache.poi.hssf.dev.FormulaViewer,L8365,L103,2,9,6,2,0,0,0,0,0,0,0,0,0,0,0,0,0,0,0,0,1,0,8,0,0,0,0,0,0,0,,,,1,1
L9042,Class,EFHSSF,org.apache.poi.hssf.dev.EFHSSF,L8365,L103,2,6,6,2,0,0,0,0,0,0,0,0,0,0,0,0,1,1,2,0,1,1,4,0,0,0,0,0,0,0,,,,1,1
L9021,Class,EFBiffViewer,org.apache.poi.hssf.dev.EFBiffViewer,L8365,L103,1,4,4,1,0,0,0,0,0,0,0,0,0,0,0,0,0,0,0,0,1,0,2,0,0,0,0,0,0,0,,,,1,1
L8974,Class,HorizontalPageBreakRecord,org.apache.poi.hssf.record.HorizontalPageBreakRecord,L12049,L103,1,5,5,0,1,0,0,0,0,2,2,0,32,6,0,0,0,0,0,0,0,0,0,0,0,0,0,0,0,0,,,,1,1
L8751,Class,MergeCellsRecord,org.apache.poi.hssf.record.MergeCellsRecord,L12049,L103,2,15,13,1,4,0,0,0,0,1,1,0,15,0,0,0,0,0,1,0,1,0,3,0,0,0,0,0,0,0,,,,1,1
L8744,Class,ColumnInfoRecord,org.apache.poi.hssf.record.ColumnInfoRecord,L12049,L103,7,26,24,8,10,0,0,0,0,1,1,0,15,0,0,0,0,0,1,0,0,6,2,0,0,0,0,0,0,0,,,,1,1
L8647,Class,DrawingSelectionRecord,org.apache.poi.hssf.record.DrawingSelectionRecord,L12049,L103,1,5,4,0,2,0,0,0,0,2,2,0,31,3,0,0,0,0,0,0,0,0,1,0,0,0,0,0,0,0,,,,1,1
L8640,Class,DrawingRecordForBiffViewer,org.apache.poi.hssf.record.DrawingRecordForBiffViewer,L12049,L103,1,5,4,0,2,0,0,0,0,2,2,0,31,3,0,0,0,0,0,0,0,0,1,0,0,0,0,0,0,0,,,,1,1
L8633,Class,DrawingGroupRecord,org.apache.poi.hssf.record.DrawingGroupRecord,L12049,L103,1,5,4,0,2,0,0,0,0,2,2,0,31,3,0,0,0,0,0,0,0,0,1,0,0,0,0,0,0,0,,,,1,1
L774,Class,HPSFException,org.apache.poi.hpsf.HPSFException,L24614,L103,1,5,5,0,1,0,0,3,3,1,1,1,0,0,0,0,0,0,0,0,1,0,5,0,0,0,0,0,0,0,,,,1,1
L7622,Class,ExtSSTRecord,org.apache.poi.hssf.record.ExtSSTRecord,L12049,L103,5,17,15,2,7,0,0,0,0,1,1,0,15,0,0,0,0,0,0,0,1,1,3,0,0,0,0,0,0,0,,,,1,1
L6696,Class,CellReference,org.apache.poi.hssf.util.CellReference,L23547,L103,5,12,9,0,5,0,0,0,0,0,0,0,0,0,0,0,1,1,0,0,1,1,7,0,0,0,0,0,0,0,,,,1,1
L6574,Class,UnionPtg,org.apache.poi.hssf.record.formula.UnionPtg,L16233,L103,1,9,9,0,3,0,0,0,0,2,2,0,15,7,0,0,0,0,0,0,0,0,5,0,0,0,0,0,0,0,,,,1,1
L6550,Class,MemFuncPtg,org.apache.poi.hssf.record.formula.MemFuncPtg,L16233,L103,2,10,10,1,4,0,0,0,0,2,2,0,11,4,0,0,0,0,0,0,0,0,3,0,0,0,0,0,0,0,,,,1,1
L6259,Class,EscherAggregate,org.apache.poi.hssf.record.EscherAggregate,L12049,L103,208,20,10,1,6,0,0,0,0,2,2,0,31,3,0,0,0,0,2,0,1,0,22,0,0,0,0,0,0,0,,,,1,1
L607,Class,UnexpectedPropertySetTypeException,org.apache.poi.hpsf.UnexpectedPropertySetTypeException,L24614,L103,0,4,4,0,0,0,0,0,0,2,2,0,5,1,0,0,0,0,0,0,0,0,4,0,0,0,0,0,0,0,,,,1,1
L604,Class,MarkUnsupportedException,org.apache.poi.hpsf.MarkUnsupportedException,L24614,L103,0,4,4,0,0,0,0,0,0,2,2,0,5,1,0,0,0,0,0,0,0,0,4,0,0,0,0,0,0,0,,,,1,1
L5073,Class,HSSFPalette,org.apache.poi.hssf.usermodel.HSSFPalette,L1919,L103,0,6,5,1,1,0,0,0,0,0,0,0,0,0,0,0,1,1,1,0,0,1,5,0,0,0,0,0,0,0,,,,1,1
L5061,Class,RangeAddress,org.apache.poi.hssf.util.RangeAddress,L23547,L103,6,30,24,1,20,0,0,0,0,0,0,0,0,0,0,0,0,0,0,0,1,0,31,0,0,0,0,0,0,0,,,,1,1
L5015,Class,HSSFName,org.apache.poi.hssf.usermodel.HSSFName,L1919,L103,0,7,5,3,3,0,0,0,0,0,0,0,0,0,0,0,0,0,2,0,0,2,8,0,0,0,0,0,0,0,,,,1,1
L4956,Class,HSSFHeader,org.apache.poi.hssf.usermodel.HSSFHeader,L1919,L103,3,16,14,3,3,0,0,0,0,1,1,0,0,0,0,0,0,0,1,0,1,1,17,0,0,0,0,0,0,0,,,,1,1
L31877,Class,StringUtil,org.apache.poi.util.StringUtil,L30305,L103,1,12,10,0,6,0,0,0,0,0,0,0,0,0,0,0,0,0,0,0,1,0,15,0,0,0,0,0,0,0,,,,1,1
L28408,Class,RawDataBlock,org.apache.poi.poifs.storage.RawDataBlock,L29511,L103,2,3,3,0,1,0,1,0,0,0,0,0,0,0,0,0,1,1,0,0,0,3,1,0,0,0,0,0,0,0,,,,1,1
L27862,Class,DirectoryProperty,org.apache.poi.poifs.property.DirectoryProperty,L28970,L103,2,8,6,0,2,0,1,1,1,1,1,1,32,22,0,0,1,1,0,0,2,3,6,0,0,0,0,0,0,0,,,,1,1
L27777,Class,HeaderBlockReader,org.apache.poi.poifs.storage.HeaderBlockReader,L29511,L103,1,7,7,0,6,0,1,0,0,0,0,0,0,0,0,0,0,0,1,0,0,0,1,0,0,0,0,0,0,0,,,,1,1
L27619,Class,RecordGenerator,org.apache.poi.dev.RecordGenerator,L27616,L103,0,2,1,0,0,0,0,0,0,0,0,0,0,0,0,0,0,0,0,0,0,0,5,0,0,0,0,0,0,0,,,,1,1
L2716,Class,DummyGraphics2d,org.apache.poi.hssf.usermodel.DummyGraphics2d,L1919,L103,2,85,85,13,17,0,0,0,0,1,1,0,0,0,0,0,0,0,0,0,2,0,73,0,0,0,0,0,0,0,,,,1,1
L26366,Class,LittleEndian,org.apache.poi.util.LittleEndian,L30305,L103,0,35,32,0,18,0,1,0,0,0,0,0,0,0,0,0,0,0,0,0,0,0,4,0,0,0,0,0,0,0,,,,1,1
L25422,Class,SectionIDMap,org.apache.poi.hpsf.wellknown.SectionIDMap,L25365,L103,3,6,6,0,4,0,0,0,0,1,1,0,0,0,0,0,0,0,0,0,1,0,9,0,0,0,0,0,0,0,,,,1,1
L25369,Class,PropertyIDMap,org.apache.poi.hpsf.wellknown.PropertyIDMap,L25365,L103,35,6,6,0,3,0,0,0,0,1,1,0,0,0,0,0,0,0,0,0,0,2,4,0,0,0,0,0,0,0,,,,1,1
L25276,Class,Variant,org.apache.poi.hpsf.Variant,L24614,L103,47,0,0,0,0,0,0,0,0,0,0,0,0,0,0,0,0,0,0,0,0,0,0,0,0,0,0,0,0,0,,,,1,1
L25246,Class,Util,org.apache.poi.hpsf.Util,L24614,L103,1,5,5,0,0,0,0,0,0,0,0,0,0,0,0,0,0,0,0,0,0,0,1,0,0,0,0,0,0,0,,,,1,1
L25161,Class,Thumbnail,org.apache.poi.hpsf.Thumbnail,L24614,L103,12,7,7,1,4,0,0,0,0,0,0,0,0,0,0,0,0,0,0,0,0,0,0,0,0,0,0,0,0,0,,,,1,1
L2505,Class,HSSFRichTextString,org.apache.poi.hssf.usermodel.HSSFRichTextString,L1919,L103,3,14,14,0,4,0,1,0,0,0,0,0,0,0,0,0,1,1,1,0,2,4,6,0,0,0,0,0,0,0,,,,1,1
L25026,Class,PropertySetFactory,org.apache.poi.hpsf.PropertySetFactory,L24614,L103,0,1,1,0,0,0,0,0,0,0,0,0,0,0,0,0,0,0,0,0,0,0,2,0,0,0,0,0,0,0,,,,1,1
L24866,Class,NoSingleSectionException,org.apache.poi.hpsf.NoSingleSectionException,L24614,L103,0,4,4,0,0,0,0,0,0,2,2,0,5,1,0,0,0,0,0,0,0,0,4,0,0,0,0,0,0,0,,,,1,1
L24828,Class,IllegalPropertySetDataException,org.apache.poi.hpsf.IllegalPropertySetDataException,L24614,L103,0,4,4,0,0,0,0,0,0,2,2,0,5,1,0,0,0,0,0,0,0,0,4,0,0,0,0,0,0,0,,,,1,1
L24808,Class,HPSFRuntimeException,org.apache.poi.hpsf.HPSFRuntimeException,L24614,L103,1,5,5,0,1,0,0,2,2,1,1,1,0,0,0,0,0,0,0,0,1,0,5,0,0,0,0,0,0,0,,,,1,1
L2478,Class,HSSFShapeGroup,org.apache.poi.hssf.usermodel.HSSFShapeGroup,L1919,L103,5,12,12,1,5,0,1,0,0,1,1,0,17,19,0,0,3,3,0,0,1,4,10,0,0,0,0,0,0,0,,,,1,1
L24711,Class,SpecialPropertySet,org.apache.poi.hpsf.SpecialPropertySet,L24614,L103,0,10,10,0,9,0,0,2,2,1,1,1,21,10,0,0,1,1,0,0,0,0,4,0,0,0,0,0,0,0,,,,1,1
L24709,Class,DocumentSummaryInformation,org.apache.poi.hpsf.DocumentSummaryInformation,L24614,L103,1,16,16,0,15,0,0,0,0,2,2,0,31,10,0,0,0,0,0,0,1,0,5,0,0,0,0,0,0,0,,,,1,1
L2458,Class,HSSFSimpleShape,org.apache.poi.hssf.usermodel.HSSFSimpleShape,L1919,L103,4,3,2,1,1,0,0,1,1,1,1,1,17,19,0,0,0,0,0,0,0,6,2,0,0,0,0,0,0,0,,,,1,1
L2445,Class,HSSFPatriarch,org.apache.poi.hssf.usermodel.HSSFPatriarch,L1919,L103,5,12,11,1,5,0,1,0,0,0,0,0,0,0,0,0,1,1,1,0,1,9,10,0,0,0,0,0,0,0,,,,1,1
L2310,Class,Record,org.apache.poi.hssf.record.Record,L12049,L103,0,15,12,0,4,0,0,132,142,0,0,2,0,0,0,0,0,0,1,1,0,87,2,0,0,0,0,0,0,0,,,,1,1
L20884,Class,SSTDeserializer,org.apache.poi.hssf.record.SSTDeserializer,L12049,L103,9,23,4,1,4,0,0,0,0,0,0,0,0,0,0,0,1,1,1,0,1,1,5,0,0,0,0,0,0,0,,,,1,1
L19928,Class,SSTRecordHeader,org.apache.poi.hssf.record.SSTRecordHeader,L12049,L103,2,2,2,0,0,0,0,0,0,0,0,0,0,0,0,0,2,2,0,0,0,0,0,0,0,0,0,0,0,0,,,,1,1
L17507,Class,UnknownPtg,org.apache.poi.hssf.record.formula.UnknownPtg,L16233,L103,1,7,7,0,2,0,0,0,0,1,1,0,11,4,0,0,0,0,0,0,0,0,3,0,0,0,0,0,0,0,,,,1,1
L17245,Class,UnaryPlusPtg,org.apache.poi.hssf.record.formula.UnaryPlusPtg,L16233,L103,3,10,10,0,4,0,0,0,0,2,2,0,15,7,0,0,0,0,0,0,1,0,5,0,0,0,0,0,0,0,,,,1,1
L17061,Class,NameXPtg,org.apache.poi.hssf.record.formula.NameXPtg,L16233,L103,5,8,7,0,2,0,0,0,0,1,1,0,11,4,0,0,0,0,0,0,0,0,4,0,0,0,0,0,0,0,,,,1,1
L15789,Class,ExtSSTInfoSubRecord,org.apache.poi.hssf.record.ExtSSTInfoSubRecord,L12049,L103,5,13,11,2,4,0,0,0,0,1,1,0,15,0,0,0,0,0,0,0,0,2,1,0,0,0,0,0,0,0,,,,1,1
L15275,Class,GroupMarkerSubRecord,org.apache.poi.hssf.record.GroupMarkerSubRecord,L12049,L103,2,10,8,0,2,0,0,0,0,2,2,0,19,0,0,0,0,0,0,0,0,0,2,0,0,0,0,0,0,0,,,,1,1
L14360,Interface,CustomField,org.apache.poi.hssf.record.CustomField,L12049,L103,,4,,,,,,,0,1,,,,,,,,,,0,,0,1,,,,,,,0,0,1,0,1,1
L12293,Class,DefaultEscherRecordFactory,org.apache.poi.ddf.DefaultEscherRecordFactory,L25632,L103,2,3,2,0,0,0,1,0,0,0,0,0,0,0,0,0,0,0,0,0,2,0,3,0,0,0,0,0,0,0,,,,1,1
L12255,Class,AbstractEscherHolderRecord,org.apache.poi.hssf.record.AbstractEscherHolderRecord,L12049,L103,3,16,13,0,5,0,0,4,4,1,1,1,15,0,0,0,0,0,0,0,1,0,7,0,0,0,0,0,0,0,,,,1,1
L11334,Class,WorkbookRecordList,org.apache.poi.hssf.model.WorkbookRecordList,L9550,L103,11,27,27,11,12,0,0,0,0,0,0,0,0,0,0,0,1,1,0,0,1,0,5,0,0,0,0,0,0,0,,,,1,1
L11254,Class,EscherTextboxRecord,org.apache.poi.ddf.EscherTextboxRecord,L25632,L103,4,8,8,0,3,0,0,0,0,1,1,0,20,2,0,0,0,0,1,0,1,0,5,0,0,0,0,0,0,0,,,,1,1
L10979,Class,DrawingRecord,org.apache.poi.hssf.record.DrawingRecord,L12049,L103,2,11,8,1,3,0,0,0,0,1,1,0,15,0,0,0,0,0,0,0,0,0,0,0,0,0,0,0,0,0,,,,1,1
L10098,Class,NotEqualPtg,org.apache.poi.hssf.record.formula.NotEqualPtg,L16233,L103,2,9,9,0,3,0,0,0,0,2,2,0,15,7,0,0,0,0,0,0,0,0,5,0,0,0,0,0,0,0,,,,1,1
L10092,Class,LessEqualPtg,org.apache.poi.hssf.record.formula.LessEqualPtg,L16233,L103,2,9,9,0,3,0,0,0,0,2,2,0,15,7,0,0,0,0,0,0,0,0,5,0,0,0,0,0,0,0,,,,1,1
L10086,Class,GreaterEqualPtg,org.apache.poi.hssf.record.formula.GreaterEqualPtg,L16233,L103,2,9,9,0,3,0,0,0,0,2,2,0,15,7,0,0,0,0,0,0,0,0,5,0,0,0,0,0,0,0,,,,1,1
L10080,Class,LessThanPtg,org.apache.poi.hssf.record.formula.LessThanPtg,L16233,L103,3,10,10,0,4,0,0,0,0,2,2,0,15,7,0,0,0,0,0,0,1,0,5,0,0,0,0,0,0,0,,,,1,1
L10070,Class,GreaterThanPtg,org.apache.poi.hssf.record.formula.GreaterThanPtg,L16233,L103,3,10,10,0,4,0,0,0,0,2,2,0,15,7,0,0,0,0,0,0,1,0,5,0,0,0,0,0,0,0,,,,1,1
L10053,Class,PowerPtg,org.apache.poi.hssf.record.formula.PowerPtg,L16233,L103,2,9,9,0,3,0,0,0,0,2,2,0,15,7,0,0,0,0,0,0,0,0,5,0,0,0,0,0,0,0,,,,1,1
L10048,Class,SubtractPtg,org.apache.poi.hssf.record.formula.SubtractPtg,L16233,L103,2,9,9,0,3,0,0,0,0,2,2,0,15,7,0,0,0,0,0,0,0,0,5,0,0,0,0,0,0,0,,,,1,1
L10041,Class,EqualPtg,org.apache.poi.hssf.record.formula.EqualPtg,L16233,L103,2,9,9,0,3,0,0,0,0,2,2,0,15,7,0,0,0,0,0,0,0,0,5,0,0,0,0,0,0,0,,,,1,1
L9979,Class,ParenthesisPtg,org.apache.poi.hssf.record.formula.ParenthesisPtg,L16233,L103,2,10,10,0,4,0,0,0,0,2,2,0,15,7,0,0,0,0,0,0,0,0,5,0,0,0,0,0,0,0,,,,2,1
L9948,Class,AttrPtg,org.apache.poi.hssf.record.formula.AttrPtg,L16233,L103,4,25,25,5,13,0,0,0,0,2,2,0,15,7,0,0,0,0,1,0,0,0,6,0,0,0,0,0,0,0,,,,2,1
L9907,Class,ReferencePtg,org.apache.poi.hssf.record.formula.ReferencePtg,L16233,L103,4,19,18,5,7,0,0,0,0,1,1,0,11,4,0,0,0,0,1,0,0,0,5,0,0,0,0,0,0,0,,,,2,1
L9902,Class,BoolPtg,org.apache.poi.hssf.record.formula.BoolPtg,L16233,L103,4,10,9,1,3,0,0,0,0,1,1,0,11,4,0,0,0,0,0,0,1,0,4,0,0,0,0,0,0,0,,,,2,1
L9897,Class,Ref3DPtg,org.apache.poi.hssf.record.formula.Ref3DPtg,L16233,L103,5,22,22,7,8,0,0,0,0,1,1,0,11,4,0,0,0,0,1,0,0,0,6,0,0,0,0,0,0,0,,,,2,1
L9890,Class,AreaPtg,org.apache.poi.hssf.record.formula.AreaPtg,L16233,L103,6,29,28,10,12,0,0,0,0,1,1,0,11,4,0,0,0,0,1,0,0,0,5,0,0,0,0,0,0,0,,,,2,1
L9109,Class,ExpPtg,org.apache.poi.hssf.record.formula.ExpPtg,L16233,L103,3,7,7,0,2,0,0,0,0,1,1,0,11,4,0,0,0,0,0,0,0,0,3,0,0,0,0,0,0,0,,,,2,1
L8981,Class,VerticalPageBreakRecord,org.apache.poi.hssf.record.VerticalPageBreakRecord,L12049,L103,1,5,5,0,1,0,0,0,0,2,2,0,32,6,0,0,0,0,0,0,0,0,0,0,0,0,0,0,0,0,,,,2,1
L8967,Class,TextObjectRecord,org.apache.poi.hssf.record.TextObjectRecord,L12049,L103,1,13,9,1,2,0,0,0,0,2,2,0,53,21,0,0,0,0,2,0,0,2,5,0,0,0,0,0,0,0,,,,2,1
L8946,Class,PaneRecord,org.apache.poi.hssf.record.PaneRecord,L12049,L103,10,20,18,5,7,0,0,0,0,1,1,0,15,0,0,0,0,0,0,0,0,0,2,0,0,0,0,0,0,0,,,,2,1
L8928,Class,BottomMarginRecord,org.apache.poi.hssf.record.BottomMarginRecord,L12049,L103,2,12,10,1,3,0,1,0,0,1,1,0,15,0,0,0,0,0,0,0,0,0,2,0,0,0,0,0,0,0,,,,2,1
L8921,Class,TopMarginRecord,org.apache.poi.hssf.record.TopMarginRecord,L12049,L103,2,12,10,1,3,0,1,0,0,1,1,0,15,0,0,0,0,0,0,0,0,0,2,0,0,0,0,0,0,0,,,,2,1
L8914,Class,RightMarginRecord,org.apache.poi.hssf.record.RightMarginRecord,L12049,L103,2,12,10,1,3,0,1,0,0,1,1,0,15,0,0,0,0,0,0,0,0,0,2,0,0,0,0,0,0,0,,,,2,1
L8907,Class,LeftMarginRecord,org.apache.poi.hssf.record.LeftMarginRecord,L12049,L103,2,12,10,1,3,0,1,0,0,1,1,0,15,0,0,0,0,0,0,0,0,0,2,0,0,0,0,0,0,0,,,,2,1
L8888,Class,ObjectLinkRecord,org.apache.poi.hssf.record.ObjectLinkRecord,L12049,L103,9,16,14,3,5,0,0,0,0,1,1,0,15,0,0,0,0,0,0,0,0,0,2,0,0,0,0,0,0,0,,,,2,1
L8881,Class,SeriesTextRecord,org.apache.poi.hssf.record.SeriesTextRecord,L12049,L103,5,18,16,4,6,0,0,0,0,1,1,0,15,0,0,0,0,0,0,0,1,0,4,0,0,0,0,0,0,0,,,,2,1
L8796,Class,SeriesListRecord,org.apache.poi.hssf.record.SeriesListRecord,L12049,L103,2,12,10,1,3,0,0,0,0,1,1,0,15,0,0,0,0,0,0,0,0,0,2,0,0,0,0,0,0,0,,,,2,1
L8773,Class,DatRecord,org.apache.poi.hssf.record.DatRecord,L12049,L103,2,20,18,5,7,0,0,0,0,1,1,0,15,0,0,0,0,0,1,0,0,0,2,0,0,0,0,0,0,0,,,,2,1
L8758,Class,AreaRecord,org.apache.poi.hssf.record.AreaRecord,L12049,L103,2,18,16,4,6,0,0,0,0,1,1,0,15,0,0,0,0,0,1,0,0,0,2,0,0,0,0,0,0,0,,,,2,1
L8733,Class,MulBlankRecord,org.apache.poi.hssf.record.MulBlankRecord,L12049,L103,5,14,11,0,6,0,0,0,0,1,1,0,15,0,0,0,0,0,0,0,0,0,1,0,0,0,0,0,0,0,,,,2,1
L8726,Class,MulRKRecord,org.apache.poi.hssf.record.MulRKRecord,L12049,L103,5,15,12,0,7,0,0,0,0,1,1,0,15,0,0,0,0,0,0,0,1,0,2,0,0,0,0,0,0,0,,,,2,1
L8719,Class,LabelRecord,org.apache.poi.hssf.record.LabelRecord,L12049,L103,7,23,21,3,12,0,1,0,0,1,1,0,15,0,0,0,0,0,0,0,1,0,6,0,0,0,0,0,0,0,,,,2,1
L8714,Class,ContinueRecord,org.apache.poi.hssf.record.ContinueRecord,L12049,L103,2,14,11,1,2,0,0,0,0,1,1,0,15,0,0,0,0,0,0,0,0,2,2,0,0,0,0,0,0,0,,,,2,1
L8692,Class,RKRecord,org.apache.poi.hssf.record.RKRecord,L12049,L103,9,24,22,3,12,0,1,0,0,1,1,0,15,0,0,0,0,0,0,0,0,0,6,0,0,0,0,0,0,0,,,,2,1
L8598,Class,CalcCountRecord,org.apache.poi.hssf.record.CalcCountRecord,L12049,L103,2,12,10,1,3,0,0,0,0,1,1,0,15,0,0,0,0,0,0,0,0,0,2,0,0,0,0,0,0,0,,,,2,1
L8512,Class,ProtectionRev4Record,org.apache.poi.hssf.record.ProtectionRev4Record,L12049,L103,2,11,9,1,3,0,0,0,0,1,1,0,15,0,0,0,0,0,0,0,0,0,1,0,0,0,0,0,0,0,,,,2,1
L8505,Class,PasswordRecord,org.apache.poi.hssf.record.PasswordRecord,L12049,L103,2,12,10,1,3,0,0,0,0,1,1,0,15,0,0,0,0,0,0,0,0,0,2,0,0,0,0,0,0,0,,,,2,1
L7659,Class,SelectionRecord,org.apache.poi.hssf.record.SelectionRecord,L12049,L103,7,20,18,5,7,0,0,0,0,1,1,0,15,0,0,0,0,0,1,0,1,2,2,0,0,0,0,0,0,0,,,,2,1
L7656,Class,DefaultColWidthRecord,org.apache.poi.hssf.record.DefaultColWidthRecord,L12049,L103,2,12,10,1,3,0,0,0,0,1,1,0,15,0,0,0,0,0,1,0,0,0,2,0,0,0,0,0,0,0,,,,2,1
L7653,Class,DefaultRowHeightRecord,org.apache.poi.hssf.record.DefaultRowHeightRecord,L12049,L103,3,14,12,2,4,0,0,0,0,1,1,0,15,0,0,0,0,0,1,0,0,0,2,0,0,0,0,0,0,0,,,,2,1
L7650,Class,GutsRecord,org.apache.poi.hssf.record.GutsRecord,L12049,L103,5,18,16,4,6,0,0,0,0,1,1,0,15,0,0,0,0,0,0,0,0,0,2,0,0,0,0,0,0,0,,,,2,1
L7647,Class,GridsetRecord,org.apache.poi.hssf.record.GridsetRecord,L12049,L103,2,12,10,1,3,0,0,0,0,1,1,0,15,0,0,0,0,0,1,0,0,1,2,0,0,0,0,0,0,0,,,,2,1
L7644,Class,PrintGridlinesRecord,org.apache.poi.hssf.record.PrintGridlinesRecord,L12049,L103,2,12,10,1,3,0,0,0,0,1,1,0,15,0,0,0,0,0,1,0,0,2,2,0,0,0,0,0,0,0,,,,2,1
L7641,Class,PrintHeadersRecord,org.apache.poi.hssf.record.PrintHeadersRecord,L12049,L103,2,12,10,1,3,0,0,0,0,1,1,0,15,0,0,0,0,0,0,0,0,0,2,0,0,0,0,0,0,0,,,,2,1
L7638,Class,SaveRecalcRecord,org.apache.poi.hssf.record.SaveRecalcRecord,L12049,L103,2,12,10,1,3,0,0,0,0,1,1,0,15,0,0,0,0,0,0,0,0,0,2,0,0,0,0,0,0,0,,,,2,1
L7635,Class,DeltaRecord,org.apache.poi.hssf.record.DeltaRecord,L12049,L103,3,12,10,1,3,0,0,0,0,1,1,0,15,0,0,0,0,0,0,0,0,0,2,0,0,0,0,0,0,0,,,,2,1
L7632,Class,IterationRecord,org.apache.poi.hssf.record.IterationRecord,L12049,L103,2,12,10,1,3,0,0,0,0,1,1,0,15,0,0,0,0,0,0,0,0,0,2,0,0,0,0,0,0,0,,,,2,1
L7629,Class,RefModeRecord,org.apache.poi.hssf.record.RefModeRecord,L12049,L103,4,12,10,1,3,0,0,0,0,1,1,0,15,0,0,0,0,0,0,0,0,0,2,0,0,0,0,0,0,0,,,,2,1
L7626,Class,CalcModeRecord,org.apache.poi.hssf.record.CalcModeRecord,L12049,L103,5,12,10,1,3,0,0,0,0,1,1,0,15,0,0,0,0,0,0,0,0,0,2,0,0,0,0,0,0,0,,,,2,1
L7619,Class,ExternSheetRecord,org.apache.poi.hssf.record.ExternSheetRecord,L12049,L103,3,14,12,1,5,0,0,0,0,1,1,0,15,0,0,0,0,0,1,0,1,1,3,0,0,0,0,0,0,0,,,,2,1
L7616,Class,SupBookRecord,org.apache.poi.hssf.record.SupBookRecord,L12049,L103,3,13,11,2,4,0,0,0,0,1,1,0,15,0,0,0,0,0,0,0,0,0,1,0,0,0,0,0,0,0,,,,2,1
L7613,Class,CountryRecord,org.apache.poi.hssf.record.CountryRecord,L12049,L103,3,13,11,2,4,0,0,0,0,1,1,0,15,0,0,0,0,0,0,0,0,0,1,0,0,0,0,0,0,0,,,,2,1
L7610,Class,UseSelFSRecord,org.apache.poi.hssf.record.UseSelFSRecord,L12049,L103,4,11,9,1,3,0,0,0,0,1,1,0,15,0,0,0,0,0,0,0,0,0,1,0,0,0,0,0,0,0,,,,2,1
L7607,Class,StyleRecord,org.apache.poi.hssf.record.StyleRecord,L12049,L103,9,24,21,8,9,0,0,0,0,1,1,0,15,0,0,0,0,0,1,0,1,0,3,0,0,0,0,0,0,0,,,,2,1
L7604,Class,BookBoolRecord,org.apache.poi.hssf.record.BookBoolRecord,L12049,L103,2,11,9,1,3,0,0,0,0,1,1,0,15,0,0,0,0,0,0,0,0,0,1,0,0,0,0,0,0,0,,,,2,1
L7601,Class,RefreshAllRecord,org.apache.poi.hssf.record.RefreshAllRecord,L12049,L103,2,11,9,1,3,0,0,0,0,1,1,0,15,0,0,0,0,0,0,0,0,0,1,0,0,0,0,0,0,0,,,,2,1
L7598,Class,PrecisionRecord,org.apache.poi.hssf.record.PrecisionRecord,L12049,L103,2,11,9,1,3,0,0,0,0,1,1,0,15,0,0,0,0,0,0,0,0,0,1,0,0,0,0,0,0,0,,,,2,1
L7595,Class,DateWindow1904Record,org.apache.poi.hssf.record.DateWindow1904Record,L12049,L103,2,11,9,1,3,0,0,0,0,1,1,0,15,0,0,0,0,0,0,0,0,0,1,0,0,0,0,0,0,0,,,,2,1
L7592,Class,HideObjRecord,org.apache.poi.hssf.record.HideObjRecord,L12049,L103,5,11,9,1,3,0,0,0,0,1,1,0,15,0,0,0,0,0,0,0,0,0,1,0,0,0,0,0,0,0,,,,2,1
L7589,Class,WindowOneRecord,org.apache.poi.hssf.record.WindowOneRecord,L12049,L103,10,37,35,14,16,0,0,0,0,1,1,0,15,0,0,0,0,0,1,0,0,0,1,0,0,0,0,0,0,0,,,,2,1
L7586,Class,PasswordRev4Record,org.apache.poi.hssf.record.PasswordRev4Record,L12049,L103,2,11,9,1,3,0,0,0,0,1,1,0,15,0,0,0,0,0,0,0,0,0,1,0,0,0,0,0,0,0,,,,2,1
L7583,Class,WindowProtectRecord,org.apache.poi.hssf.record.WindowProtectRecord,L12049,L103,2,11,9,1,3,0,0,0,0,1,1,0,15,0,0,0,0,0,0,0,0,0,1,0,0,0,0,0,0,0,,,,2,1
L7580,Class,FnGroupCountRecord,org.apache.poi.hssf.record.FnGroupCountRecord,L12049,L103,3,11,9,1,3,0,0,0,0,1,1,0,15,0,0,0,0,0,0,0,0,0,1,0,0,0,0,0,0,0,,,,2,1
L7577,Class,TabIdRecord,org.apache.poi.hssf.record.TabIdRecord,L12049,L103,2,11,9,1,3,0,0,0,0,1,1,0,15,0,0,0,0,0,0,0,0,0,1,0,0,0,0,0,0,0,,,,2,1
L7574,Class,DSFRecord,org.apache.poi.hssf.record.DSFRecord,L12049,L103,2,11,9,1,3,0,0,0,0,1,1,0,15,0,0,0,0,0,0,0,0,0,1,0,0,0,0,0,0,0,,,,2,1
L7571,Class,CodepageRecord,org.apache.poi.hssf.record.CodepageRecord,L12049,L103,3,11,9,1,3,0,0,0,0,1,1,0,15,0,0,0,0,0,0,0,0,0,1,0,0,0,0,0,0,0,,,,2,1
L7568,Class,WriteAccessRecord,org.apache.poi.hssf.record.WriteAccessRecord,L12049,L103,2,11,9,1,3,0,0,0,0,1,1,0,15,0,0,0,0,0,0,0,1,0,3,0,0,0,0,0,0,0,,,,2,1
L7565,Class,InterfaceEndRecord,org.apache.poi.hssf.record.InterfaceEndRecord,L12049,L103,1,9,7,0,2,0,0,0,0,1,1,0,15,0,0,0,0,0,0,0,0,0,1,0,0,0,0,0,0,0,,,,2,1
L7562,Class,MMSRecord,org.apache.poi.hssf.record.MMSRecord,L12049,L103,3,13,11,2,4,0,0,0,0,1,1,0,15,0,0,0,0,0,0,0,0,0,1,0,0,0,0,0,0,0,,,,2,1
L7559,Class,InterfaceHdrRecord,org.apache.poi.hssf.record.InterfaceHdrRecord,L12049,L103,3,11,9,1,3,0,0,0,0,1,1,0,15,0,0,0,0,0,0,0,0,0,1,0,0,0,0,0,0,0,,,,2,1
L7498,Class,UnitsRecord,org.apache.poi.hssf.record.UnitsRecord,L12049,L103,2,12,10,1,3,0,0,0,0,1,1,0,15,0,0,0,0,0,0,0,0,1,2,0,0,0,0,0,0,0,,,,2,1
L7481,Class,ChartRecord,org.apache.poi.hssf.record.ChartRecord,L12049,L103,5,18,16,4,6,0,0,0,0,1,1,0,15,0,0,0,0,0,0,0,0,1,2,0,0,0,0,0,0,0,,,,2,1
L7476,Class,BeginRecord,org.apache.poi.hssf.record.BeginRecord,L12049,L103,1,9,7,0,2,0,0,0,0,1,1,0,15,0,0,0,0,0,0,0,0,1,1,0,0,0,0,0,0,0,,,,2,1
L7463,Class,PlotGrowthRecord,org.apache.poi.hssf.record.PlotGrowthRecord,L12049,L103,3,14,12,2,4,0,0,0,0,1,1,0,15,0,0,0,0,0,0,0,0,1,2,0,0,0,0,0,0,0,,,,2,1
L7450,Class,FrameRecord,org.apache.poi.hssf.record.FrameRecord,L12049,L103,5,18,16,4,6,0,0,0,0,1,1,0,15,0,0,0,0,0,1,0,0,2,2,0,0,0,0,0,0,0,,,,2,1
L7428,Class,LineFormatRecord,org.apache.poi.hssf.record.LineFormatRecord,L12049,L103,19,26,24,8,10,0,0,0,0,1,1,0,15,0,0,0,0,0,1,0,0,2,2,0,0,0,0,0,0,0,,,,2,1
L7409,Class,AreaFormatRecord,org.apache.poi.hssf.record.AreaFormatRecord,L12049,L103,7,26,24,8,10,0,0,0,0,1,1,0,15,0,0,0,0,0,1,0,0,2,2,0,0,0,0,0,0,0,,,,2,1
L7404,Class,EndRecord,org.apache.poi.hssf.record.EndRecord,L12049,L103,1,9,7,0,2,0,0,0,0,1,1,0,15,0,0,0,0,0,0,0,0,1,1,0,0,0,0,0,0,0,,,,2,1
L7381,Class,SeriesRecord,org.apache.poi.hssf.record.SeriesRecord,L12049,L103,19,22,20,6,8,0,0,0,0,1,1,0,15,0,0,0,0,0,0,0,0,1,2,0,0,0,0,0,0,0,,,,2,1
L7360,Class,DataFormatRecord,org.apache.poi.hssf.record.DataFormatRecord,L12049,L103,5,20,18,5,7,0,0,0,0,1,1,0,15,0,0,0,0,0,1,0,0,1,2,0,0,0,0,0,0,0,,,,2,1
L7355,Class,SeriesToChartGroupRecord,org.apache.poi.hssf.record.SeriesToChartGroupRecord,L12049,L103,2,12,10,1,3,0,0,0,0,1,1,0,15,0,0,0,0,0,0,0,0,1,2,0,0,0,0,0,0,0,,,,2,1
L7340,Class,SheetPropertiesRecord,org.apache.poi.hssf.record.SheetPropertiesRecord,L12049,L103,6,24,22,7,9,0,0,0,0,1,1,0,15,0,0,0,0,0,1,0,0,1,2,0,0,0,0,0,0,0,,,,2,1
L7332,Class,DefaultDataLabelTextPropertiesRecord,org.apache.poi.hssf.record.DefaultDataLabelTextPropertiesRecord,L12049,L103,5,12,10,1,3,0,0,0,0,1,1,0,15,0,0,0,0,0,0,0,0,1,2,0,0,0,0,0,0,0,,,,2,1
L7322,Class,FontIndexRecord,org.apache.poi.hssf.record.FontIndexRecord,L12049,L103,2,12,10,1,3,0,0,0,0,1,1,0,15,0,0,0,0,0,0,0,0,1,2,0,0,0,0,0,0,0,,,,2,1
L7314,Class,AxisUsedRecord,org.apache.poi.hssf.record.AxisUsedRecord,L12049,L103,2,12,10,1,3,0,0,0,0,1,1,0,15,0,0,0,0,0,0,0,0,1,2,0,0,0,0,0,0,0,,,,2,1
L7297,Class,AxisParentRecord,org.apache.poi.hssf.record.AxisParentRecord,L12049,L103,8,20,18,5,7,0,0,0,0,1,1,0,15,0,0,0,0,0,0,0,0,1,2,0,0,0,0,0,0,0,,,,2,1
L7289,Class,AxisRecord,org.apache.poi.hssf.record.AxisRecord,L12049,L103,9,20,18,5,7,0,0,0,0,1,1,0,15,0,0,0,0,0,0,0,0,1,2,0,0,0,0,0,0,0,,,,2,1
L7272,Class,CategorySeriesAxisRecord,org.apache.poi.hssf.record.CategorySeriesAxisRecord,L12049,L103,5,24,22,7,9,0,0,0,0,1,1,0,15,0,0,0,0,0,1,0,0,1,2,0,0,0,0,0,0,0,,,,2,1
L7235,Class,AxisOptionsRecord,org.apache.poi.hssf.record.AxisOptionsRecord,L12049,L103,10,44,42,17,19,0,0,0,0,1,1,0,15,0,0,0,0,0,1,0,0,1,2,0,0,0,0,0,0,0,,,,2,1
L7206,Class,TickRecord,org.apache.poi.hssf.record.TickRecord,L12049,L103,11,38,36,14,16,0,0,0,0,1,1,0,15,0,0,0,0,0,1,0,0,2,2,0,0,0,0,0,0,0,,,,2,1
L718,Class,Property,org.apache.poi.hpsf.Property,L24614,L103,4,5,4,0,3,0,0,0,0,0,0,0,0,0,0,0,1,1,0,0,1,2,2,0,0,0,0,0,0,0,,,,2,1
L7173,Class,ValueRangeRecord,org.apache.poi.hssf.record.ValueRangeRecord,L12049,L103,7,40,38,15,17,0,0,0,0,1,1,0,15,0,0,0,0,0,1,0,0,1,2,0,0,0,0,0,0,0,,,,2,1
L7165,Class,AxisLineFormatRecord,org.apache.poi.hssf.record.AxisLineFormatRecord,L12049,L103,6,12,10,1,3,0,0,0,0,1,1,0,15,0,0,0,0,0,0,0,0,1,2,0,0,0,0,0,0,0,,,,2,1
L7160,Class,PlotAreaRecord,org.apache.poi.hssf.record.PlotAreaRecord,L12049,L103,1,10,8,0,2,0,0,0,0,1,1,0,15,0,0,0,0,0,0,0,0,1,2,0,0,0,0,0,0,0,,,,2,1
L7145,Class,ChartFormatRecord,org.apache.poi.hssf.record.ChartFormatRecord,L12049,L103,6,19,17,5,7,0,0,0,0,1,1,0,15,0,0,0,0,0,1,0,0,1,1,0,0,0,0,0,0,0,,,,2,1
L7128,Class,BarRecord,org.apache.poi.hssf.record.BarRecord,L12049,L103,4,24,22,7,9,0,0,0,0,1,1,0,15,0,0,0,0,0,1,0,0,1,2,0,0,0,0,0,0,0,,,,2,1
L7095,Class,LegendRecord,org.apache.poi.hssf.record.LegendRecord,L12049,L103,17,36,34,13,15,0,0,0,0,1,1,0,15,0,0,0,0,0,1,0,0,1,2,0,0,0,0,0,0,0,,,,2,1
L7038,Class,TextRecord,org.apache.poi.hssf.record.TextRecord,L12049,L103,38,62,60,26,28,0,0,0,0,1,1,0,15,0,0,0,0,0,1,0,0,3,2,0,0,0,0,0,0,0,,,,2,1
L7033,Class,LinkedDataFormulaField,org.apache.poi.hssf.record.LinkedDataFormulaField,L12049,L103,1,9,8,1,3,0,1,0,0,0,0,0,0,0,0,0,1,1,0,0,1,2,6,0,0,0,0,0,0,0,,,,2,1
L7014,Class,LinkedDataRecord,org.apache.poi.hssf.record.LinkedDataRecord,L12049,L103,13,22,20,6,8,0,0,0,0,1,1,0,15,0,0,0,1,1,1,0,0,5,4,0,0,0,0,0,0,0,,,,2,1
L6950,Class,ProtectRecord,org.apache.poi.hssf.record.ProtectRecord,L12049,L103,2,12,10,1,3,0,0,0,0,1,1,0,15,0,0,0,0,0,1,0,0,2,2,0,0,0,0,0,0,0,,,,2,1
L6935,Class,FontBasisRecord,org.apache.poi.hssf.record.FontBasisRecord,L12049,L103,6,20,18,5,7,0,0,0,0,1,1,0,15,0,0,0,0,0,0,0,0,2,2,0,0,0,0,0,0,0,,,,2,1
L693,Class,Section,org.apache.poi.hpsf.Section,L24614,L103,5,12,9,0,9,0,0,0,0,0,0,0,0,0,0,0,2,2,0,0,1,3,4,0,0,0,0,0,0,0,,,,2,1
L6916,Class,DimensionsRecord,org.apache.poi.hssf.record.DimensionsRecord,L12049,L103,6,18,16,4,6,0,0,0,0,1,1,0,15,0,0,0,0,0,1,0,0,1,2,0,0,0,0,0,0,0,,,,2,1
L6908,Class,SeriesIndexRecord,org.apache.poi.hssf.record.SeriesIndexRecord,L12049,L103,2,12,10,1,3,0,0,0,0,1,1,0,15,0,0,0,0,0,0,0,0,1,2,0,0,0,0,0,0,0,,,,2,1
L6903,Class,EOFRecord,org.apache.poi.hssf.record.EOFRecord,L12049,L103,1,10,8,0,2,0,0,0,0,1,1,0,15,0,0,0,0,0,0,0,0,1,2,0,0,0,0,0,0,0,,,,2,1
L6559,Class,Area3DPtg,org.apache.poi.hssf.record.formula.Area3DPtg,L16233,L103,7,34,34,12,14,0,0,0,0,1,1,0,11,4,0,0,0,0,1,0,0,0,7,0,0,0,0,0,0,0,,,,2,1
L6514,Class,BackupRecord,org.apache.poi.hssf.record.BackupRecord,L12049,L103,2,11,9,1,3,0,0,0,0,1,1,0,15,0,0,0,0,0,0,0,0,1,1,0,0,0,0,0,0,0,,,,2,1
L651,Class,SummaryInformation,org.apache.poi.hpsf.SummaryInformation,L24614,L103,1,19,19,0,18,0,0,0,0,2,2,0,31,10,0,0,0,0,0,0,1,0,14,0,0,0,0,0,0,0,,,,2,1
L6484,Class,WindowTwoRecord,org.apache.poi.hssf.record.WindowTwoRecord,L12049,L103,8,48,46,19,21,0,0,0,0,1,1,0,15,0,0,0,0,0,2,0,0,1,2,0,0,0,0,0,0,0,,,,2,1
L6221,Class,PageBreakRecord,org.apache.poi.hssf.record.PageBreakRecord,L12049,L103,6,17,15,1,5,0,0,2,2,1,1,1,15,0,0,0,0,0,1,0,2,1,4,0,0,0,0,0,0,0,,,,2,1
L6091,Class,SCLRecord,org.apache.poi.hssf.record.SCLRecord,L12049,L103,3,14,12,2,4,0,0,0,0,1,1,0,15,0,0,0,0,0,0,0,0,2,2,0,0,0,0,0,0,0,,,,2,1
L5954,Class,WSBoolRecord,org.apache.poi.hssf.record.WSBoolRecord,L12049,L103,3,30,28,10,12,0,0,0,0,1,1,0,15,0,0,0,0,0,1,0,0,0,2,0,0,0,0,0,0,0,,,,2,1
L5919,Class,HCenterRecord,org.apache.poi.hssf.record.HCenterRecord,L12049,L103,2,12,10,1,3,0,0,0,0,1,1,0,15,0,0,0,0,0,0,0,0,1,2,0,0,0,0,0,0,0,,,,2,1
L5902,Class,VCenterRecord,org.apache.poi.hssf.record.VCenterRecord,L12049,L103,2,12,10,1,3,0,0,0,0,1,1,0,15,0,0,0,0,0,0,0,0,1,2,0,0,0,0,0,0,0,,,,2,1
L5248,Class,PrintSetupRecord,org.apache.poi.hssf.record.PrintSetupRecord,L12049,L103,12,48,46,19,21,0,0,0,0,1,1,0,15,0,0,0,0,0,3,0,0,4,2,0,0,0,0,0,0,0,,,,2,1
L5076,Class,PaletteRecord,org.apache.poi.hssf.record.PaletteRecord,L12049,L103,5,13,11,1,4,0,0,0,0,1,1,0,15,0,0,0,0,0,2,0,1,3,1,0,0,0,0,0,0,0,,,,2,1
L4959,Class,HeaderRecord,org.apache.poi.hssf.record.HeaderRecord,L12049,L103,3,14,12,2,4,0,0,0,0,1,1,0,15,0,0,0,0,0,2,0,1,4,4,0,0,0,0,0,0,0,,,,2,1
L4898,Class,FooterRecord,org.apache.poi.hssf.record.FooterRecord,L12049,L103,3,14,12,2,4,0,0,0,0,1,1,0,15,0,0,0,0,0,2,0,1,4,4,0,0,0,0,0,0,0,,,,2,1
L4818,Class,FontRecord,org.apache.poi.hssf.record.FontRecord,L12049,L103,20,37,35,14,16,0,0,0,0,1,1,0,15,0,0,0,0,0,2,0,1,3,3,0,0,0,0,0,0,0,,,,2,1
L4665,Class,FormatRecord,org.apache.poi.hssf.record.FormatRecord,L12049,L103,6,17,15,4,6,0,0,0,0,1,1,0,15,0,0,0,0,0,0,0,1,0,3,0,0,0,0,0,0,0,,,,2,1
L4143,Class,BoolErrRecord,org.apache.poi.hssf.record.BoolErrRecord,L12049,L103,6,30,28,6,14,0,2,0,0,1,1,0,15,0,0,0,0,0,0,0,0,0,7,0,0,0,0,0,0,0,,,,2,1
L4116,Class,BlankRecord,org.apache.poi.hssf.record.BlankRecord,L12049,L103,4,23,21,3,10,0,2,0,0,1,1,0,15,0,0,0,0,0,0,0,0,3,7,0,0,0,0,0,0,0,,,,2,1
L4081,Class,ExtendedFormatRecord,org.apache.poi.hssf.record.ExtendedFormatRecord,L12049,L103,55,95,93,43,45,0,0,0,0,1,1,0,15,0,0,0,0,0,2,0,0,4,1,0,0,0,0,0,0,0,,,,2,1
L263,Class,ClassID,org.apache.poi.hpsf.ClassID,L24614,L103,2,8,8,0,1,0,0,0,0,0,0,0,0,0,0,0,2,2,1,0,0,10,2,0,0,0,0,0,0,0,,,,2,1
L2387,Class,HSSFEventFactory,org.apache.poi.hssf.eventusermodel.HSSFEventFactory,L9458,L103,0,6,5,0,0,0,0,0,0,0,0,0,0,0,0,0,0,0,0,0,0,0,10,0,0,0,0,0,0,0,,,,2,1
L2360,Class,LabelSSTRecord,org.apache.poi.hssf.record.LabelSSTRecord,L12049,L103,5,25,23,4,11,0,2,0,0,1,1,0,15,0,0,0,0,0,0,0,0,1,7,0,0,0,0,0,0,0,,,,2,1
L2342,Class,NumberRecord,org.apache.poi.hssf.record.NumberRecord,L12049,L103,5,25,23,4,11,0,2,0,0,1,1,0,15,0,0,0,0,0,0,0,0,1,7,0,0,0,0,0,0,0,,,,2,1
L2326,Class,BoundSheetRecord,org.apache.poi.hssf.record.BoundSheetRecord,L12049,L103,6,20,18,5,8,0,0,0,0,1,1,0,15,0,0,0,0,0,0,0,1,0,3,0,0,0,0,0,0,0,,,,2,1
L2315,Class,BOFRecord,org.apache.poi.hssf.record.BOFRecord,L12049,L103,17,22,20,6,8,0,0,0,0,1,1,0,15,0,0,0,0,0,0,0,0,1,2,0,0,0,0,0,0,0,,,,2,1
L2304,Class,SSTRecord,org.apache.poi.hssf.record.SSTRecord,L12049,L103,11,25,20,2,9,0,0,0,0,1,1,0,15,0,0,0,1,1,3,0,1,0,8,0,0,0,0,0,0,0,,,,2,1
L21525,Class,TextObjectBaseRecord,org.apache.poi.hssf.record.TextObjectBaseRecord,L12049,L103,21,38,36,14,16,0,0,1,1,1,1,1,15,0,0,0,0,0,1,0,0,0,2,0,0,0,0,0,0,0,,,,2,1
L21149,Class,SSTRecordSizeCalculator,org.apache.poi.hssf.record.SSTRecordSizeCalculator,L12049,L103,11,8,3,0,2,0,0,0,0,0,0,0,0,0,0,0,1,1,0,0,2,0,2,0,0,0,0,0,0,0,,,,2,1
L20466,Class,SeriesLabelsRecord,org.apache.poi.hssf.record.SeriesLabelsRecord,L12049,L103,2,24,22,7,9,0,0,0,0,1,1,0,15,0,0,0,0,0,1,0,0,0,2,0,0,0,0,0,0,0,,,,2,1
L20389,Class,SeriesChartGroupIndexRecord,org.apache.poi.hssf.record.SeriesChartGroupIndexRecord,L12049,L103,2,12,10,1,3,0,0,0,0,1,1,0,15,0,0,0,0,0,0,0,0,0,2,0,0,0,0,0,0,0,,,,2,1
L19922,Class,RecordProcessor,org.apache.poi.hssf.record.RecordProcessor,L12049,L103,3,9,7,0,2,0,0,0,0,0,0,0,0,0,0,0,1,1,0,0,0,0,2,0,0,0,0,0,0,0,,,,2,1
L19061,Class,NumberFormatIndexRecord,org.apache.poi.hssf.record.NumberFormatIndexRecord,L12049,L103,2,12,10,1,3,0,0,0,0,1,1,0,15,0,0,0,0,0,0,0,0,0,2,0,0,0,0,0,0,0,,,,2,1
L16989,Class,MissingArgPtg,org.apache.poi.hssf.record.formula.MissingArgPtg,L16233,L103,2,7,7,0,2,0,0,0,0,1,1,0,11,4,0,0,0,0,0,0,0,0,3,0,0,0,0,0,0,0,,,,2,1
L16935,Class,MemErrPtg,org.apache.poi.hssf.record.formula.MemErrPtg,L16233,L103,4,11,11,2,4,0,0,0,0,1,1,0,11,4,0,0,0,0,0,0,0,0,3,0,0,0,0,0,0,0,,,,2,1
L1638,Class,HSSFFont,org.apache.poi.hssf.usermodel.HSSFFont,L1919,L103,14,21,20,9,10,0,0,0,0,0,0,0,0,0,0,0,0,0,1,0,1,9,4,0,0,0,0,0,0,0,,,,2,1
L1633,Class,HSSFCellStyle,org.apache.poi.hssf.usermodel.HSSFCellStyle,L1919,L103,44,42,41,20,21,0,0,0,0,0,0,0,0,0,0,0,1,1,1,0,0,5,2,0,0,0,0,0,0,0,,,,2,1
L1575,Class,HSSFColor,org.apache.poi.hssf.util.HSSFColor,L23547,L103,2,6,6,0,5,0,0,48,48,0,0,1,0,0,0,0,0,0,0,0,0,8,3,0,0,0,0,0,0,0,,,,2,1
L11780,Class,ExternSheetSubRecord,org.apache.poi.hssf.record.ExternSheetSubRecord,L12049,L103,4,15,13,3,5,0,0,0,0,1,1,0,15,0,0,0,0,0,0,0,0,2,1,0,0,0,0,0,0,0,,,,2,1
L11568,Class,RecalcIdRecord,org.apache.poi.hssf.record.RecalcIdRecord,L12049,L103,3,13,11,2,4,0,0,0,0,1,1,0,15,0,0,0,0,0,0,0,0,0,1,0,0,0,0,0,0,0,,,,2,1
L10374,Class,ColumnInfoRecordsAggregate,org.apache.poi.hssf.record.aggregates.ColumnInfoRecordsAggregate,L12377,L103,2,25,22,2,7,0,0,0,0,1,1,0,15,0,0,0,0,0,1,0,1,0,17,0,0,0,0,0,0,0,,,,2,1
L10313,Class,EscherArrayProperty,org.apache.poi.ddf.EscherArrayProperty,L25632,L103,1,14,13,5,5,0,0,0,0,2,2,0,19,2,0,0,0,0,0,0,0,0,1,0,0,0,0,0,0,0,,,,2,1
L10276,Class,EndSubRecord,org.apache.poi.hssf.record.EndSubRecord,L12049,L103,1,10,8,0,2,0,0,0,0,2,2,0,19,0,0,0,0,0,0,0,0,0,2,0,0,0,0,0,0,0,,,,2,1
L10259,Class,CommonObjectDataSubRecord,org.apache.poi.hssf.record.CommonObjectDataSubRecord,L12049,L103,38,30,28,10,12,0,0,0,0,2,2,0,19,0,0,0,0,0,1,0,0,0,2,0,0,0,0,0,0,0,,,,2,1
L10034,Class,ConcatPtg,org.apache.poi.hssf.record.formula.ConcatPtg,L16233,L103,3,9,9,0,3,0,0,0,0,2,2,0,15,7,0,0,0,0,0,0,1,0,5,0,0,0,0,0,0,0,,,,2,1
L10028,Class,AddPtg,org.apache.poi.hssf.record.formula.AddPtg,L16233,L103,3,10,10,0,4,0,0,0,0,2,2,0,15,7,0,0,0,0,0,0,1,0,5,0,0,0,0,0,0,0,,,,2,1
L10012,Class,DividePtg,org.apache.poi.hssf.record.formula.DividePtg,L16233,L103,2,9,9,0,3,0,0,0,0,2,2,0,15,7,0,0,0,0,0,0,0,0,5,0,0,0,0,0,0,0,,,,2,1
L10005,Class,MultiplyPtg,org.apache.poi.hssf.record.formula.MultiplyPtg,L16233,L103,3,11,11,0,4,0,0,0,0,2,2,0,15,7,0,0,0,0,0,0,1,0,7,0,0,0,0,0,0,0,,,,2,1
L8937,Class,StringRecord,org.apache.poi.hssf.record.StringRecord,L12049,L103,4,17,13,2,7,0,0,0,0,1,1,0,15,0,0,0,0,1,0,0,1,4,4,0,0,0,0,0,0,0,,,,3,1
L8701,Class,DBCellRecord,org.apache.poi.hssf.record.DBCellRecord,L12049,L103,3,15,13,1,6,0,0,0,0,1,1,0,15,0,0,0,0,0,0,0,0,1,1,0,0,0,0,0,0,0,,,,3,1
L8587,Class,IndexRecord,org.apache.poi.hssf.record.IndexRecord,L12049,L103,6,18,16,3,6,0,0,0,0,1,1,0,15,0,0,0,0,0,1,0,0,2,2,0,0,0,0,0,0,0,,,,3,1
L6780,Class,UnknownRecord,org.apache.poi.hssf.record.UnknownRecord,L12049,L103,2,11,8,0,2,0,0,0,0,1,1,0,15,0,0,0,0,0,0,0,0,2,2,0,0,0,0,0,0,0,,,,3,1
L593,Class,PropertySet,org.apache.poi.hpsf.PropertySet,L24614,L103,10,21,16,0,15,0,0,1,3,0,0,2,0,0,0,0,2,2,1,0,1,5,7,0,0,0,0,0,0,0,,,,3,1
L4642,Class,HSSFDataFormat,org.apache.poi.hssf.usermodel.HSSFDataFormat,L1919,L103,3,8,7,0,6,0,0,0,0,0,0,0,0,0,0,0,1,1,1,0,1,1,6,0,0,0,0,0,0,0,,,,3,1
L4132,Class,FormulaRecordAggregate,org.apache.poi.hssf.record.aggregates.FormulaRecordAggregate,L12377,L103,1,28,26,6,13,0,2,0,0,1,1,0,15,0,0,0,0,3,0,0,0,0,19,0,0,0,0,0,0,0,,,,3,1
L4127,Class,FormulaRecord,org.apache.poi.hssf.record.FormulaRecord,L12049,L103,12,37,32,6,17,0,2,0,0,1,1,0,15,0,0,0,0,1,0,0,1,9,12,0,0,0,0,0,0,0,,,,3,1
L21133,Class,SSTSerializer,org.apache.poi.hssf.record.SSTSerializer,L12049,L103,7,12,8,0,6,0,0,0,0,0,0,0,0,0,0,0,1,1,1,0,1,0,7,0,0,0,0,0,0,0,,,,3,1
L14129,Class,SubRecord,org.apache.poi.hssf.record.SubRecord,L12049,L103,0,4,4,0,0,0,0,3,3,1,1,1,15,0,0,0,0,0,0,0,0,0,1,0,0,0,0,0,0,0,,,,3,1
L10379,Class,RowRecordsAggregate,org.apache.poi.hssf.record.aggregates.RowRecordsAggregate,L12377,L103,4,22,20,0,9,0,0,0,0,1,1,0,15,0,0,0,0,0,1,0,1,0,7,0,0,0,0,0,0,0,,,,3,1
L9998,Class,StringPtg,org.apache.poi.hssf.record.formula.StringPtg,L16233,L103,5,9,8,0,3,0,0,0,0,1,1,0,11,4,0,0,0,0,1,0,1,0,5,0,0,0,0,0,0,0,,,,4,1
L8953,Class,SharedFormulaRecord,org.apache.poi.hssf.record.SharedFormulaRecord,L12049,L103,4,11,9,0,4,0,0,0,0,1,1,0,15,0,0,0,0,1,0,0,0,3,2,0,0,0,0,0,0,0,,,,4,1
L8372,Class,BiffViewer,org.apache.poi.hssf.dev.BiffViewer,L8365,L103,2,10,5,1,0,0,0,0,0,0,0,0,0,0,0,0,0,0,0,0,1,0,7,0,0,0,0,0,0,0,,,,4,1
L2333,Class,RowRecord,org.apache.poi.hssf.record.RowRecord,L12049,L103,9,37,35,12,15,0,1,0,0,1,1,0,15,0,0,0,0,0,2,0,0,13,4,0,0,0,0,0,0,0,,,,4,1
L19963,Class,UnicodeString,org.apache.poi.hssf.record.UnicodeString,L12049,L103,6,25,20,4,10,0,1,0,0,1,1,0,15,0,0,0,1,1,0,0,1,6,7,0,0,0,0,0,0,0,,,,4,1
L1331,Class,HSSFRow,org.apache.poi.hssf.usermodel.HSSFRow,L1919,L103,3,24,16,3,8,0,1,0,0,0,0,0,0,0,0,0,0,0,3,0,1,10,16,0,0,0,0,0,0,0,,,,4,1
L1270,Class,HSSFSheet,org.apache.poi.hssf.usermodel.HSSFSheet,L1919,L103,13,92,79,28,35,0,0,0,0,0,0,0,0,0,0,0,1,1,5,2,1,28,20,0,0,0,0,0,0,0,,,,4,1
L8960,Class,ObjRecord,org.apache.poi.hssf.record.ObjRecord,L12049,L103,2,14,12,0,3,0,0,0,0,1,1,0,15,0,0,0,0,0,4,0,1,9,5,0,0,0,0,0,0,0,,,,5,1
L6415,Class,EventRecordFactory,org.apache.poi.hssf.eventmodel.EventRecordFactory,L9185,L103,5,9,6,0,1,0,0,0,0,0,0,0,0,0,0,0,1,1,0,0,3,0,7,0,0,0,0,0,0,0,,,,5,1
L5019,Class,NameRecord,org.apache.poi.hssf.record.NameRecord,L12049,L103,39,62,56,19,32,0,0,0,0,1,1,0,15,0,0,0,0,0,1,0,2,9,19,0,0,0,0,0,0,0,,,,5,1
L4263,Class,Ptg,org.apache.poi.hssf.record.formula.Ptg,L16233,L103,4,11,11,1,4,0,0,16,37,0,0,3,0,0,0,0,0,0,1,0,0,10,5,0,0,0,0,0,0,0,,,,5,1
L4256,Class,FormulaParser,org.apache.poi.hssf.model.FormulaParser,L9550,L103,16,53,7,4,5,0,0,0,0,0,0,0,0,0,0,0,1,1,0,0,2,0,27,0,0,0,0,0,0,0,,,,5,1
L1289,Class,HSSFCell,org.apache.poi.hssf.usermodel.HSSFCell,L1919,L103,16,30,22,13,11,0,0,0,0,0,0,0,0,0,0,0,1,1,4,0,1,15,18,0,0,0,0,0,0,0,,,,6,1
L8349,Class,ValueRecordsAggregate,org.apache.poi.hssf.record.aggregates.ValueRecordsAggregate,L12377,L103,4,14,12,0,6,0,0,0,0,1,1,0,15,0,0,0,1,1,1,0,1,0,5,0,0,0,0,0,0,0,,,,7,1
L4048,Class,Workbook,org.apache.poi.hssf.model.Workbook,L9550,L103,9,85,48,4,22,0,1,0,0,0,0,0,0,0,0,0,3,3,9,0,1,53,64,0,0,0,0,0,0,0,,,,7,1
L19899,Class,RecordFactory,org.apache.poi.hssf.record.RecordFactory,L12049,L103,3,5,4,1,1,0,0,0,0,0,0,0,0,0,0,0,0,0,0,0,2,0,5,0,0,0,0,0,0,0,,,,7,1
L4052,Class,Sheet,org.apache.poi.hssf.model.Sheet,L9550,L103,18,128,95,25,36,0,1,0,0,0,0,0,0,0,0,0,0,0,21,0,3,9,74,0,0,0,0,0,0,0,,,,11,1
L1100,Class,HSSFWorkbook,org.apache.poi.hssf.usermodel.HSSFWorkbook,L1919,L103,7,53,45,8,21,0,0,0,0,1,1,0,0,0,0,0,3,3,9,0,1,23,45,0,0,0,0,0,0,0,,,,11,1
