ID,Type,Name,LongName,Parent,Component,NumAttr,NumOps,NumPubOps,Setters,Getters,Nesting,IFImpl,NOC,NumDesc,NumAnc,DIT,CLD,OpsInh,AttrInh,Dep_Out,Dep_In,NumAssEl_ssc,NumAssEl_sb,NumAssEl_nsb,EC_Attr,IC_Attr,EC_Par,IC_Par,Connectors,InstSpec,LLInst,MsgSent,MsgRecv,MsgSelf,Diags,Assoc,NumDirClients,NumIndClients,BugNo,Label
L9880,Class,DrawingSelectionRecord,org.apache.poi.hssf.record.DrawingSelectionRecord,L13365,L103,1,4,3,0,2,0,0,0,0,2,2,0,33,3,0,0,0,0,0,0,0,0,2,0,0,0,0,0,0,0,,,,0,0
L9873,Class,DrawingRecordForBiffViewer,org.apache.poi.hssf.record.DrawingRecordForBiffViewer,L13365,L103,1,4,3,0,2,0,0,0,0,2,2,0,33,3,0,0,0,0,0,0,0,0,2,0,0,0,0,0,0,0,,,,0,0
L9632,Class,RecordFormatException,org.apache.poi.hssf.record.RecordFormatException,L13365,L103,0,3,3,0,0,0,0,0,0,1,1,0,0,0,0,0,0,0,0,0,0,0,4,0,0,0,0,0,0,0,,,,0,0
L8415,Class,Ref3DPtg,org.apache.poi.hssf.record.formula.Ref3DPtg,L17110,L103,5,22,22,7,8,0,0,1,1,1,1,1,13,4,0,0,0,1,1,0,0,1,7,0,0,0,0,0,0,0,,,,0,0
L8383,Class,ParenthesisPtg,org.apache.poi.hssf.record.formula.ParenthesisPtg,L17110,L103,2,10,10,0,4,0,0,0,0,2,2,0,17,7,0,0,0,0,0,0,0,0,6,0,0,0,0,0,0,0,,,,0,0
L8380,Class,OperationPtg,org.apache.poi.hssf.record.formula.OperationPtg,L17110,L103,3,4,4,0,3,0,0,21,23,1,1,2,13,4,0,0,0,0,0,0,0,1,2,0,0,0,0,0,0,0,,,,0,0
L8377,Class,UnknownPtg,org.apache.poi.hssf.record.formula.UnknownPtg,L17110,L103,1,7,7,0,2,0,0,0,0,1,1,0,13,4,0,0,0,0,0,0,0,0,4,0,0,0,0,0,0,0,,,,0,0
L8374,Class,NameXPtg,org.apache.poi.hssf.record.formula.NameXPtg,L17110,L103,5,8,7,0,2,0,0,0,0,1,1,0,13,4,0,0,0,0,0,0,0,0,5,0,0,0,0,0,0,0,,,,0,0
L8371,Class,NamePtg,org.apache.poi.hssf.record.formula.NamePtg,L17110,L103,5,8,7,0,2,0,0,0,0,1,1,0,13,4,0,0,0,0,0,0,0,0,6,0,0,0,0,0,0,0,,,,0,0
L8368,Class,MissingArgPtg,org.apache.poi.hssf.record.formula.MissingArgPtg,L17110,L103,2,7,7,0,2,0,0,0,0,1,1,0,13,4,0,0,0,0,0,0,0,0,4,0,0,0,0,0,0,0,,,,0,0
L8365,Class,MemErrPtg,org.apache.poi.hssf.record.formula.MemErrPtg,L17110,L103,1,5,5,0,0,0,0,0,0,2,2,0,24,8,0,0,0,0,0,0,0,0,4,0,0,0,0,0,0,0,,,,0,0
L8362,Class,ControlPtg,org.apache.poi.hssf.record.formula.ControlPtg,L17110,L103,0,0,0,0,0,0,0,1,1,1,1,1,13,4,0,0,0,0,0,0,0,0,0,0,0,0,0,0,0,0,,,,0,0
L8294,Class,UnaryPlusPtg,org.apache.poi.hssf.record.formula.UnaryPlusPtg,L17110,L103,3,10,10,0,4,0,0,0,0,2,2,0,17,7,0,0,0,1,0,0,1,0,6,0,0,0,0,0,0,0,,,,0,0
L8288,Class,UnaryMinusPtg,org.apache.poi.hssf.record.formula.UnaryMinusPtg,L17110,L103,3,10,10,0,4,0,0,0,0,2,2,0,17,7,0,0,0,1,0,0,1,0,6,0,0,0,0,0,0,0,,,,0,0
L8282,Class,SubtractPtg,org.apache.poi.hssf.record.formula.SubtractPtg,L17110,L103,2,9,9,0,3,0,0,0,0,2,2,0,17,7,0,0,0,1,0,0,0,0,6,0,0,0,0,0,0,0,,,,0,0
L8276,Class,PowerPtg,org.apache.poi.hssf.record.formula.PowerPtg,L17110,L103,2,9,9,0,3,0,0,0,0,2,2,0,17,7,0,0,0,1,0,0,0,0,6,0,0,0,0,0,0,0,,,,0,0
L8264,Class,MultiplyPtg,org.apache.poi.hssf.record.formula.MultiplyPtg,L17110,L103,2,11,11,0,4,0,0,0,0,2,2,0,17,7,0,0,0,1,0,0,0,0,8,0,0,0,0,0,0,0,,,,0,0
L8237,Class,FuncVarPtg,org.apache.poi.hssf.record.formula.FuncVarPtg,L17110,L103,2,8,7,0,2,0,0,0,0,3,3,0,31,14,0,0,0,0,0,0,0,0,4,0,0,0,0,0,0,0,,,,0,0
L8231,Class,FuncPtg,org.apache.poi.hssf.record.formula.FuncPtg,L17110,L103,3,7,6,0,2,0,0,0,0,3,3,0,31,14,0,0,0,0,0,0,0,0,3,0,0,0,0,0,0,0,,,,0,0
L8225,Class,EqualPtg,org.apache.poi.hssf.record.formula.EqualPtg,L17110,L103,2,9,9,0,3,0,0,0,0,2,2,0,17,7,0,0,0,1,0,0,0,0,6,0,0,0,0,0,0,0,,,,0,0
L8219,Class,DividePtg,org.apache.poi.hssf.record.formula.DividePtg,L17110,L103,2,9,9,0,3,0,0,0,0,2,2,0,17,7,0,0,0,1,0,0,0,0,6,0,0,0,0,0,0,0,,,,0,0
L8213,Class,ConcatPtg,org.apache.poi.hssf.record.formula.ConcatPtg,L17110,L103,3,9,9,0,3,0,0,0,0,2,2,0,17,7,0,0,0,1,0,0,1,0,6,0,0,0,0,0,0,0,,,,0,0
L8207,Class,AddPtg,org.apache.poi.hssf.record.formula.AddPtg,L17110,L103,3,10,10,0,4,0,0,0,0,2,2,0,17,7,0,0,0,1,0,0,1,0,6,0,0,0,0,0,0,0,,,,0,0
L8200,Class,StringPtg,org.apache.poi.hssf.record.formula.StringPtg,L17110,L103,5,9,8,0,3,0,0,0,0,1,1,0,13,4,0,0,0,0,1,0,1,0,6,0,0,0,0,0,0,0,,,,0,0
L8185,Class,BoolPtg,org.apache.poi.hssf.record.formula.BoolPtg,L17110,L103,3,10,9,1,3,0,0,0,0,1,1,0,13,4,0,0,0,0,0,0,0,0,5,0,0,0,0,0,0,0,,,,0,0
L813,Class,HPSFException,org.apache.poi.hpsf.HPSFException,L28851,L103,1,5,5,0,1,0,0,4,8,1,1,3,0,0,0,0,0,0,0,0,1,0,5,0,0,0,0,0,0,0,,,,0,0
L796,Class,POIFSReaderEvent,org.apache.poi.poifs.eventfilesystem.POIFSReaderEvent,L33791,L103,1,4,3,0,3,0,0,0,0,0,0,0,0,0,0,0,0,0,2,0,1,10,6,0,0,0,0,0,0,0,,,,0,0
L770,Interface,POIFSReaderListener,org.apache.poi.poifs.eventfilesystem.POIFSReaderListener,L33791,L103,,1,,,,,,,0,0,,,,,,,,,,0,,7,1,,,,,,,0,1,9,0,0,0
L7695,Class,LinkedDataFormulaField,org.apache.poi.hssf.record.LinkedDataFormulaField,L13365,L103,1,8,8,1,2,0,1,0,0,0,0,0,0,0,0,0,1,1,0,0,1,2,6,0,0,0,0,0,0,0,,,,0,0
L7352,Interface,DocumentEntry,org.apache.poi.poifs.filesystem.DocumentEntry,L34035,L103,,1,,,,,,,0,1,,,,,,,,,,0,,10,0,,,,,,,0,0,1,0,0,0
L7333,Interface,Entry,org.apache.poi.poifs.filesystem.Entry,L34035,L103,,6,,,,,,,2,0,,,,,,,,,,0,,3,3,,,,,,,0,0,1,2,0,0
L7328,Interface,DirectoryEntry,org.apache.poi.poifs.filesystem.DirectoryEntry,L34035,L103,,9,,,,,,,0,1,,,,,,,,,,0,,13,13,,,,,,,0,2,1,0,0,0
L7165,Class,UnionPtg,org.apache.poi.hssf.record.formula.UnionPtg,L17110,L103,1,9,9,0,3,0,0,0,0,2,2,0,17,7,0,0,0,0,0,0,0,0,6,0,0,0,0,0,0,0,,,,0,0
L6640,Class,PaneInformation,org.apache.poi.hssf.util.PaneInformation,L27693,L103,10,7,7,0,6,0,0,0,0,0,0,0,0,0,0,0,0,0,0,0,0,2,0,0,0,0,0,0,0,0,,,,0,0
L640,Class,MarkUnsupportedException,org.apache.poi.hpsf.MarkUnsupportedException,L28851,L103,0,4,4,0,0,0,0,0,0,2,2,0,5,1,0,0,0,0,0,0,0,0,4,0,0,0,0,0,0,0,,,,0,0
L637,Class,NoPropertySetStreamException,org.apache.poi.hpsf.NoPropertySetStreamException,L28851,L103,0,4,4,0,0,0,0,0,0,2,2,0,5,1,0,0,0,0,0,0,0,0,4,0,0,0,0,0,0,0,,,,0,0
L629,Class,PropertySet,org.apache.poi.hpsf.PropertySet,L28851,L103,9,25,20,0,17,0,0,1,4,0,0,3,0,0,0,0,1,1,1,0,1,11,10,0,0,0,0,0,0,0,,,,0,0
L5629,Class,HSSFPrintSetup,org.apache.poi.hssf.usermodel.HSSFPrintSetup,L1954,L103,9,39,38,19,19,0,0,0,0,1,1,0,0,0,0,0,0,0,1,0,0,1,1,0,0,0,0,0,0,0,,,,0,0
L5484,Interface,HSSFShapeContainer,org.apache.poi.hssf.usermodel.HSSFShapeContainer,L1954,L103,,1,,,,,,,0,0,,,,,,,,,,0,,1,1,,,,,,,0,0,2,0,0,0
L5084,Interface,HSSFErrorConstants,org.apache.poi.hssf.usermodel.HSSFErrorConstants,L1954,L103,,0,,,,,,,0,0,,,,,,,,,,0,,0,0,,,,,,,0,0,0,0,0,0
L4939,Class,HSSFDataFormat,org.apache.poi.hssf.usermodel.HSSFDataFormat,L1954,L103,3,8,7,0,6,0,0,0,0,0,0,0,0,0,0,0,1,1,1,0,2,1,7,0,0,0,0,0,0,0,,,,0,0
L4196,Interface,CellValueRecordInterface,org.apache.poi.hssf.record.CellValueRecordInterface,L13365,L103,,10,,,,,,,0,0,,,,,,,,,,0,,37,4,,,,,,,0,2,8,0,0,0
L4144,Class,HSSFAnchor,org.apache.poi.hssf.usermodel.HSSFAnchor,L1954,L103,4,12,12,4,6,0,0,2,2,0,0,1,0,0,0,0,1,1,0,0,0,12,0,0,0,0,0,0,0,0,,,,0,0
L37845,Class,POILogFactory,org.apache.poi.util.POILogFactory,L36392,L103,1,3,2,0,2,0,0,0,0,0,0,0,0,0,0,0,0,0,0,0,1,0,4,0,0,0,0,0,0,0,,,,0,0
L37495,Interface,LittleEndianConsts,org.apache.poi.util.LittleEndianConsts,L36392,L103,,0,,,,,,,0,0,,,,,,,,,,0,,0,0,,,,,,,0,0,1,0,0,0
L37474,Class,List2d,org.apache.poi.util.List2d,L36392,L103,1,4,2,1,1,0,0,0,0,0,0,0,0,0,0,0,0,0,0,0,1,0,2,0,0,0,0,0,0,0,,,,0,0
L37424,Class,IntList2d,org.apache.poi.util.IntList2d,L36392,L103,1,5,3,1,2,0,0,0,0,0,0,0,0,0,0,0,0,0,0,0,1,0,0,0,0,0,0,0,0,0,,,,0,0
L37283,Class,HexRead,org.apache.poi.util.HexRead,L36392,L103,0,5,4,0,0,0,0,0,0,0,0,0,0,0,0,0,0,0,0,0,0,0,6,0,0,0,0,0,0,0,,,,0,0
L37202,Class,DrawingDump,org.apache.poi.util.DrawingDump,L36392,L103,0,1,1,0,0,0,0,0,0,0,0,0,0,0,0,0,0,0,0,0,0,0,1,0,0,0,0,0,0,0,,,,0,0
L37178,Class,DoubleList2d,org.apache.poi.util.DoubleList2d,L36392,L103,1,4,2,1,1,0,0,0,0,0,0,0,0,0,0,0,0,0,0,0,1,0,0,0,0,0,0,0,0,0,,,,0,0
L37088,Class,DoubleList,org.apache.poi.util.DoubleList,L36392,L103,3,25,24,1,3,0,0,0,0,0,0,0,0,0,0,0,0,0,0,0,0,0,1,0,0,0,0,0,0,0,,,,0,0
L37064,Class,CommonsLogger,org.apache.poi.util.CommonsLogger,L36392,L103,2,3,3,0,0,0,0,0,0,1,1,0,26,5,0,0,0,0,0,0,2,0,2,0,0,0,0,0,0,0,,,,0,0
L37016,Interface,FixedField,org.apache.poi.util.FixedField,L36392,L103,,4,,,,,,,0,0,,,,,,,,,,0,,0,2,,,,,,,0,0,4,0,0,0
L36991,Class,BlockingInputStream,org.apache.poi.util.BlockingInputStream,L36392,L103,1,10,10,0,0,0,0,0,0,1,1,0,0,0,0,0,0,0,0,0,1,0,1,0,0,0,0,0,0,0,,,,0,0
L36444,Class,ArrayUtil,org.apache.poi.util.ArrayUtil,L36392,L103,0,2,2,0,0,0,0,0,0,0,0,0,0,0,0,0,0,0,0,0,0,0,1,0,0,0,0,0,0,0,,,,0,0
L361,Class,DocumentInputStream,org.apache.poi.poifs.filesystem.DocumentInputStream,L34035,L103,6,13,11,0,0,0,0,0,0,1,1,0,0,0,0,0,1,1,2,0,0,7,2,0,0,0,0,0,0,0,,,,0,0
L35997,Class,SmallDocumentBlockList,org.apache.poi.poifs.storage.SmallDocumentBlockList,L35597,L103,0,1,1,0,0,0,0,0,0,1,1,0,6,0,0,0,0,0,0,0,0,0,1,0,0,0,0,0,0,0,,,,0,0
L35876,Class,LongField,org.apache.poi.util.LongField,L36392,L103,2,11,11,2,1,0,1,0,0,0,0,0,0,0,0,0,0,0,0,0,0,0,2,0,0,0,0,0,0,0,,,,0,0
L357,Class,POIFSDocumentPath,org.apache.poi.poifs.filesystem.POIFSDocumentPath,L34035,L103,2,9,9,0,3,0,0,0,0,0,0,0,0,0,0,0,3,3,4,2,1,25,5,0,0,0,0,0,0,0,,,,0,0
L35636,Class,BigBlock,org.apache.poi.poifs.storage.BigBlock,L35597,L103,0,3,1,0,0,0,1,4,4,0,0,1,0,0,0,0,0,0,0,0,0,0,3,0,0,0,0,0,0,0,,,,0,0
L35383,Class,PropertyFactory,org.apache.poi.poifs.property.PropertyFactory,L35062,L103,0,2,0,0,0,0,0,0,0,0,0,0,0,0,0,0,0,0,0,0,0,0,2,0,0,0,0,0,0,0,,,,0,0
L35379,Interface,PropertyConstants,org.apache.poi.poifs.property.PropertyConstants,L35062,L103,,0,,,,,,,0,0,,,,,,,,,,0,,0,0,,,,,,,0,0,0,0,0,0
L35229,Class,IntegerField,org.apache.poi.util.IntegerField,L36392,L103,2,11,11,2,1,0,1,0,0,0,0,0,0,0,0,0,0,0,4,0,0,0,2,0,0,0,0,0,0,0,,,,0,0
L35224,Class,ByteField,org.apache.poi.util.ByteField,L36392,L103,3,11,11,2,1,0,1,0,0,0,0,0,0,0,0,0,0,0,1,0,0,0,2,0,0,0,0,0,0,0,,,,0,0
L35220,Class,ShortField,org.apache.poi.util.ShortField,L36392,L103,2,11,11,2,1,0,1,0,0,0,0,0,0,0,0,0,0,0,1,0,0,0,2,0,0,0,0,0,0,0,,,,0,0
L35095,Interface,Parent,org.apache.poi.poifs.property.Parent,L35062,L103,,4,,,,,,,0,1,,,,,,,,,,0,,0,4,,,,,,,0,0,1,0,0,0
L35080,Interface,Child,org.apache.poi.poifs.property.Child,L35062,L103,,4,,,,,,,1,0,,,,,,,,,,0,,10,4,,,,,,,0,1,1,1,0,0
L34686,Class,HeaderBlockWriter,org.apache.poi.poifs.storage.HeaderBlockWriter,L35597,L103,2,7,5,4,0,0,1,0,0,1,1,0,3,0,0,0,0,0,1,0,0,0,2,0,0,0,0,0,0,0,,,,0,0
L34575,Class,POIFSWriterEvent,org.apache.poi.poifs.filesystem.POIFSWriterEvent,L34035,L103,2,5,4,0,4,0,0,0,0,0,0,0,0,0,0,0,2,2,0,0,1,2,6,0,0,0,0,0,0,0,,,,0,0
L34478,Class,DocumentBlock,org.apache.poi.poifs.storage.DocumentBlock,L35597,L103,3,9,7,0,1,0,0,0,0,1,1,0,3,0,0,0,0,0,0,1,0,2,3,0,0,0,0,0,0,0,,,,0,0
L34468,Interface,ListManagedBlock,org.apache.poi.poifs.storage.ListManagedBlock,L35597,L103,,1,,,,,,,0,0,,,,,,,,,,0,,12,0,,,,,,,0,1,2,0,0,0
L34421,Interface,BlockWritable,org.apache.poi.poifs.storage.BlockWritable,L35597,L103,,1,,,,,,,0,0,,,,,,,,,,0,,6,1,,,,,,,0,1,6,0,0,0
L34414,Class,OfficeXmlFileException,org.apache.poi.poifs.filesystem.OfficeXmlFileException,L34035,L103,0,1,1,0,0,0,0,0,0,1,1,0,0,0,0,0,0,0,0,0,0,0,1,0,0,0,0,0,0,0,,,,0,0
L34128,Class,DocumentProperty,org.apache.poi.poifs.property.DocumentProperty,L35062,L103,0,7,5,1,2,0,0,0,0,1,1,0,32,22,0,0,0,0,1,0,0,2,3,0,0,0,0,0,0,0,,,,0,0
L34123,Class,DocumentNode,org.apache.poi.poifs.filesystem.DocumentNode,L34035,L103,0,9,6,0,7,0,2,0,0,1,1,0,10,0,0,0,2,2,0,0,0,0,6,0,0,0,0,0,0,0,,,,0,0
L34101,Class,EntryNode,org.apache.poi.poifs.filesystem.EntryNode,L34035,L103,0,10,6,0,7,0,1,2,2,0,0,1,0,0,0,0,1,1,1,0,0,2,6,0,0,0,0,0,0,0,,,,0,0
L34099,Class,DirectoryNode,org.apache.poi.poifs.filesystem.DirectoryNode,L34035,L103,1,20,15,1,11,0,2,0,0,1,1,0,10,0,0,0,3,3,0,0,1,3,24,0,0,0,0,0,0,0,,,,0,0
L34089,Interface,POIFSWriterListener,org.apache.poi.poifs.filesystem.POIFSWriterListener,L34035,L103,,1,,,,,,,0,0,,,,,,,,,,2,,6,1,,,,,,,0,0,1,0,0,0
L34066,Interface,BATManaged,org.apache.poi.poifs.filesystem.BATManaged,L34035,L103,,2,,,,,,,0,0,,,,,,,,,,0,,0,0,,,,,,,0,0,4,0,0,0
L33978,Class,DocumentDescriptor,org.apache.poi.poifs.filesystem.DocumentDescriptor,L34035,L103,2,4,4,0,1,0,0,0,0,0,0,0,0,0,0,0,1,1,0,0,1,1,4,0,0,0,0,0,0,0,,,,0,0
L33819,Class,RawDataBlockList,org.apache.poi.poifs.storage.RawDataBlockList,L35597,L103,0,1,1,0,0,0,0,1,1,1,1,1,6,0,0,0,0,0,0,0,0,2,1,0,0,0,0,0,0,0,,,,0,0
L33803,Class,POIFSReaderRegistry,org.apache.poi.poifs.eventfilesystem.POIFSReaderRegistry,L33791,L103,3,6,0,0,1,0,0,0,0,0,0,0,0,0,0,0,1,1,0,0,2,0,10,0,0,0,0,0,0,0,,,,0,0
L33779,Class,POIFSViewer,org.apache.poi.poifs.dev.POIFSViewer,L33725,L103,0,2,1,0,0,0,0,0,0,0,0,0,0,0,0,0,0,0,0,0,0,0,2,0,0,0,0,0,0,0,,,,0,0
L33740,Class,POIFSViewEngine,org.apache.poi.poifs.dev.POIFSViewEngine,L33725,L103,1,2,1,0,0,0,0,0,0,0,0,0,0,0,0,0,0,0,0,0,1,0,6,0,0,0,0,0,0,0,,,,0,0
L33730,Interface,POIFSViewable,org.apache.poi.poifs.dev.POIFSViewable,L33725,L103,,4,,,,,,,0,0,,,,,,,,,,0,,0,3,,,,,,,0,0,5,0,0,0
L33719,Interface,POIFSConstants,org.apache.poi.poifs.common.POIFSConstants,L33715,L103,,0,,,,,,,0,0,,,,,,,,,,0,,0,0,,,,,,,0,0,0,0,0,0
L33612,Class,RecordGenerator,org.apache.poi.dev.RecordGenerator,L33609,L103,0,3,1,0,0,0,0,0,0,0,0,0,0,0,0,0,0,0,0,0,0,0,8,0,0,0,0,0,0,0,,,,0,0
L30927,Class,PropertyIDMap,org.apache.poi.hpsf.wellknown.PropertyIDMap,L30923,L103,36,7,7,0,3,0,0,0,0,1,1,0,0,0,0,0,0,0,0,0,0,2,5,0,0,0,0,0,0,0,,,,0,0
L30692,Class,Variant,org.apache.poi.hpsf.Variant,L28851,L103,55,2,2,0,2,0,0,1,1,0,0,1,0,0,0,0,0,0,0,0,2,0,1,0,0,0,0,0,0,0,,,,0,0
L30564,Class,TypeWriter,org.apache.poi.hpsf.TypeWriter,L28851,L103,0,8,8,0,0,0,0,0,0,0,0,0,0,0,0,0,0,0,0,0,0,0,10,0,0,0,0,0,0,0,,,,0,0
L30213,Class,ReadingNotSupportedException,org.apache.poi.hpsf.ReadingNotSupportedException,L28851,L103,0,1,1,0,0,0,0,0,0,4,4,0,9,3,0,0,0,0,0,0,0,0,1,0,0,0,0,0,0,0,,,,0,0
L30200,Class,PropertySetFactory,org.apache.poi.hpsf.PropertySetFactory,L28851,L103,0,3,3,0,0,0,0,0,0,0,0,0,0,0,0,0,0,0,0,0,0,0,4,0,0,0,0,0,0,0,,,,0,0
L302,Class,ClassID,org.apache.poi.hpsf.ClassID,L28851,L103,2,10,10,1,2,0,0,0,0,0,0,0,0,0,0,0,2,2,1,0,0,14,2,0,0,0,0,0,0,0,,,,0,0
L30052,Class,UnsupportedVariantTypeException,org.apache.poi.hpsf.UnsupportedVariantTypeException,L28851,L103,0,1,1,0,0,0,0,2,2,3,3,1,8,3,0,0,0,0,0,0,0,1,1,0,0,0,0,0,0,0,,,,0,0
L30013,Class,NoSingleSectionException,org.apache.poi.hpsf.NoSingleSectionException,L28851,L103,0,4,4,0,0,0,0,0,0,2,2,0,8,1,0,0,0,0,0,0,0,0,4,0,0,0,0,0,0,0,,,,0,0
L29847,Class,NoFormatIDException,org.apache.poi.hpsf.NoFormatIDException,L28851,L103,0,4,4,0,0,0,0,0,0,2,2,0,8,1,0,0,0,0,0,0,0,0,4,0,0,0,0,0,0,0,,,,0,0
L29745,Class,MissingSectionException,org.apache.poi.hpsf.MissingSectionException,L28851,L103,0,4,4,0,0,0,0,0,0,2,2,0,8,1,0,0,0,0,0,0,0,0,4,0,0,0,0,0,0,0,,,,0,0
L29709,Class,VariantTypeException,org.apache.poi.hpsf.VariantTypeException,L28851,L103,2,3,3,0,2,0,0,2,4,2,2,2,5,1,0,0,0,0,0,0,1,0,3,0,0,0,0,0,0,0,,,,0,0
L29707,Class,IllegalVariantTypeException,org.apache.poi.hpsf.IllegalVariantTypeException,L28851,L103,0,2,2,0,0,0,0,0,0,3,3,0,8,3,0,0,0,0,0,0,0,0,3,0,0,0,0,0,0,0,,,,0,0
L29690,Class,IllegalPropertySetDataException,org.apache.poi.hpsf.IllegalPropertySetDataException,L28851,L103,0,4,4,0,0,0,0,0,0,2,2,0,8,1,0,0,0,0,0,0,0,0,4,0,0,0,0,0,0,0,,,,0,0
L29436,Class,SpecialPropertySet,org.apache.poi.hpsf.SpecialPropertySet,L28851,L103,0,28,25,4,14,0,0,2,2,2,2,1,36,10,0,0,1,1,0,0,0,0,15,0,0,0,0,0,0,0,,,,0,0
L29338,Class,CustomProperty,org.apache.poi.hpsf.CustomProperty,L28851,L103,1,7,7,1,2,0,0,0,0,2,2,0,18,3,0,0,0,0,0,0,1,1,6,0,0,0,0,0,0,0,,,,0,0
L29212,Class,Constants,org.apache.poi.hpsf.Constants,L28851,L103,54,0,0,0,0,0,0,0,0,0,0,0,0,0,0,0,0,0,0,0,0,0,0,0,0,0,0,0,0,0,,,,0,0
L29159,Class,MutableProperty,org.apache.poi.hpsf.MutableProperty,L28851,L103,0,6,6,3,0,0,0,1,1,1,1,1,12,3,0,0,0,0,0,0,0,0,3,0,0,0,0,0,0,0,,,,0,0
L29114,Class,MutableSection,org.apache.poi.hpsf.MutableSection,L28851,L103,3,24,21,13,4,0,0,0,0,1,1,0,18,4,0,0,0,0,0,0,1,0,13,0,0,0,0,0,0,0,,,,0,0
L29018,Class,CustomProperties,org.apache.poi.hpsf.CustomProperties,L28851,L103,3,15,13,2,4,0,0,0,0,1,1,0,0,0,0,0,0,0,0,0,1,2,28,0,0,0,0,0,0,0,,,,0,0
L29005,Class,DocumentSummaryInformation,org.apache.poi.hpsf.DocumentSummaryInformation,L28851,L103,1,51,49,16,16,0,0,0,0,3,3,0,64,10,0,0,0,2,0,0,1,2,12,0,0,0,0,0,0,0,,,,0,0
L28991,Class,UnexpectedPropertySetTypeException,org.apache.poi.hpsf.UnexpectedPropertySetTypeException,L28851,L103,0,4,4,0,0,0,0,0,0,2,2,0,5,1,0,0,0,0,0,0,0,0,4,0,0,0,0,0,0,0,,,,0,0
L28948,Class,HPSFRuntimeException,org.apache.poi.hpsf.HPSFRuntimeException,L28851,L103,1,8,8,0,1,0,0,4,4,1,1,1,0,0,0,0,0,0,0,0,1,0,7,0,0,0,0,0,0,0,,,,0,0
L28945,Class,WritingNotSupportedException,org.apache.poi.hpsf.WritingNotSupportedException,L28851,L103,0,1,1,0,0,0,0,0,0,4,4,0,9,3,0,0,0,0,0,0,0,0,1,0,0,0,0,0,0,0,,,,0,0
L2830,Class,DummyGraphics2d,org.apache.poi.hssf.usermodel.DummyGraphics2d,L1954,L103,2,85,85,13,17,0,0,0,0,1,1,0,0,0,0,0,0,0,0,0,2,0,73,0,0,0,0,0,0,0,,,,0,0
L2657,Class,HSSFPolygon,org.apache.poi.hssf.usermodel.HSSFPolygon,L1954,L103,4,8,6,2,4,0,0,0,0,1,1,0,17,19,0,0,0,0,0,0,0,4,2,0,0,0,0,0,0,0,,,,0,0
L2562,Class,HSSFShapeGroup,org.apache.poi.hssf.usermodel.HSSFShapeGroup,L1954,L103,5,13,13,1,5,0,1,0,0,1,1,0,17,19,0,0,3,3,0,0,1,5,12,0,0,0,0,0,0,0,,,,0,0
L2547,Class,HSSFSimpleShape,org.apache.poi.hssf.usermodel.HSSFSimpleShape,L1954,L103,6,3,2,1,1,0,0,2,3,1,1,2,17,19,0,0,0,0,0,0,0,8,2,0,0,0,0,0,0,0,,,,0,0
L25462,Class,SSTRecordHeader,org.apache.poi.hssf.record.SSTRecordHeader,L13365,L103,2,2,2,0,0,0,0,0,0,0,0,0,0,0,0,0,1,1,0,0,0,0,1,0,0,0,0,0,0,0,,,,0,0
L25449,Class,SSTRecordSizeCalculator,org.apache.poi.hssf.record.SSTRecordSizeCalculator,L13365,L103,0,2,2,0,1,0,0,0,0,0,0,0,0,0,0,0,0,0,1,0,0,0,1,0,0,0,0,0,0,0,,,,0,0
L25435,Class,SSTSerializer,org.apache.poi.hssf.record.SSTSerializer,L13365,L103,4,6,4,0,4,0,0,0,0,0,0,0,0,0,0,0,1,1,1,0,0,0,4,0,0,0,0,0,0,0,,,,0,0
L25327,Class,SSTDeserializer,org.apache.poi.hssf.record.SSTDeserializer,L13365,L103,0,3,3,0,0,0,0,0,0,0,0,0,0,0,0,0,1,1,1,0,0,1,4,0,0,0,0,0,0,0,,,,0,0
L2462,Class,HSSFRequest,org.apache.poi.hssf.eventusermodel.HSSFRequest,L10659,L103,1,4,3,0,0,0,0,0,0,0,0,0,0,0,0,0,0,0,0,0,1,5,3,0,0,0,0,0,0,0,,,,0,0
L24540,Class,RecordProcessor,org.apache.poi.hssf.record.RecordProcessor,L13365,L103,0,0,0,0,0,0,0,0,0,0,0,0,0,0,0,0,0,0,0,0,0,0,0,0,0,0,0,0,0,0,,,,0,0
L24031,Class,PColor,org.apache.poi.hssf.record.PColor,L13365,L103,3,3,3,0,0,0,0,0,0,0,0,0,0,0,0,0,0,0,0,0,0,0,1,0,0,0,0,0,0,0,,,,0,0
L2384,Interface,HSSFListener,org.apache.poi.hssf.eventusermodel.HSSFListener,L10659,L103,,1,,,,,,,0,0,,,,,,,,,,0,,2,1,,,,,,,0,0,2,0,0,0
L23459,Class,RkRec,org.apache.poi.hssf.record.RkRec,L13365,L103,2,0,0,0,0,0,0,0,0,0,0,0,0,0,0,0,0,0,0,0,0,0,0,0,0,0,0,0,0,0,,,,0,0
L2139,Class,Region,org.apache.poi.hssf.util.Region,L27693,L103,4,16,16,4,5,0,1,0,0,0,0,0,0,0,0,0,0,0,0,0,0,10,2,0,0,0,0,0,0,0,,,,0,0
L18462,Class,RefNVPtg,org.apache.poi.hssf.record.formula.RefNVPtg,L17110,L103,1,6,5,0,1,0,0,0,0,2,2,0,34,8,0,0,0,0,0,0,0,0,5,0,0,0,0,0,0,0,,,,0,0
L18455,Class,RefNPtg,org.apache.poi.hssf.record.formula.RefNPtg,L17110,L103,1,6,5,0,1,0,0,0,0,2,2,0,34,8,0,0,0,0,0,0,0,0,5,0,0,0,0,0,0,0,,,,0,0
L18448,Class,RefNAPtg,org.apache.poi.hssf.record.formula.RefNAPtg,L17110,L103,1,6,5,0,1,0,0,0,0,2,2,0,34,8,0,0,0,0,0,0,0,0,5,0,0,0,0,0,0,0,,,,0,0
L18441,Class,RefVPtg,org.apache.poi.hssf.record.formula.RefVPtg,L17110,L103,1,5,4,0,1,0,0,0,0,2,2,0,34,8,0,0,0,0,0,0,0,0,3,0,0,0,0,0,0,0,,,,0,0
L18434,Class,RefAPtg,org.apache.poi.hssf.record.formula.RefAPtg,L17110,L103,1,5,4,0,1,0,0,0,0,2,2,0,34,8,0,0,0,0,0,0,0,0,3,0,0,0,0,0,0,0,,,,0,0
L18397,Class,RangePtg,org.apache.poi.hssf.record.formula.RangePtg,L17110,L103,1,9,9,0,3,0,0,0,0,2,2,0,17,7,0,0,0,0,0,0,0,0,6,0,0,0,0,0,0,0,,,,0,0
L18316,Class,PercentPtg,org.apache.poi.hssf.record.formula.PercentPtg,L17110,L103,3,10,10,0,4,0,0,0,0,2,2,0,17,7,0,0,0,0,0,0,1,0,6,0,0,0,0,0,0,0,,,,0,0
L17976,Class,IntersectionPtg,org.apache.poi.hssf.record.formula.IntersectionPtg,L17110,L103,1,9,9,0,3,0,0,0,0,2,2,0,17,7,0,0,0,0,0,0,0,0,6,0,0,0,0,0,0,0,,,,0,0
L17821,Class,ErrPtg,org.apache.poi.hssf.record.formula.ErrPtg,L17110,L103,3,7,7,0,2,0,0,0,0,1,1,0,13,4,0,0,0,0,0,0,0,0,4,0,0,0,0,0,0,0,,,,0,0
L17770,Class,DeletedRef3DPtg,org.apache.poi.hssf.record.formula.DeletedRef3DPtg,L17110,L103,1,2,2,0,0,0,0,0,0,2,2,0,35,9,0,0,0,0,0,0,0,0,2,0,0,0,0,0,0,0,,,,0,0
L17760,Class,DeletedArea3DPtg,org.apache.poi.hssf.record.formula.DeletedArea3DPtg,L17110,L103,1,2,2,0,0,0,0,0,0,2,2,0,47,11,0,0,0,0,0,0,0,0,2,0,0,0,0,0,0,0,,,,0,0
L17647,Class,ArrayPtgV,org.apache.poi.hssf.record.formula.ArrayPtgV,L17110,L103,1,3,2,0,0,0,0,0,0,2,2,0,27,15,0,0,0,0,0,0,0,0,2,0,0,0,0,0,0,0,,,,0,0
L17636,Class,ArrayPtgA,org.apache.poi.hssf.record.formula.ArrayPtgA,L17110,L103,1,3,2,0,0,0,0,0,0,2,2,0,27,15,0,0,0,0,0,0,0,0,2,0,0,0,0,0,0,0,,,,0,0
L17540,Class,AreaVPtg,org.apache.poi.hssf.record.formula.AreaVPtg,L17110,L103,1,5,4,0,1,0,0,0,0,2,2,0,44,10,0,0,0,0,0,0,0,0,3,0,0,0,0,0,0,0,,,,0,0
L17458,Class,AreaNVPtg,org.apache.poi.hssf.record.formula.AreaNVPtg,L17110,L103,1,6,5,0,1,0,0,0,0,2,2,0,44,10,0,0,0,0,0,0,0,0,5,0,0,0,0,0,0,0,,,,0,0
L17445,Class,AreaNPtg,org.apache.poi.hssf.record.formula.AreaNPtg,L17110,L103,1,6,5,0,1,0,0,0,0,2,2,0,44,10,0,0,0,0,0,0,0,0,5,0,0,0,0,0,0,0,,,,0,0
L17432,Class,AreaNAPtg,org.apache.poi.hssf.record.formula.AreaNAPtg,L17110,L103,1,6,5,0,1,0,0,0,0,2,2,0,44,10,0,0,0,0,0,0,0,0,5,0,0,0,0,0,0,0,,,,0,0
L17393,Class,AreaErrPtg,org.apache.poi.hssf.record.formula.AreaErrPtg,L17110,L103,1,6,5,0,0,0,0,0,0,2,2,0,44,10,0,0,0,0,0,0,0,0,5,0,0,0,0,0,0,0,,,,0,0
L17355,Class,AreaAPtg,org.apache.poi.hssf.record.formula.AreaAPtg,L17110,L103,1,5,4,0,1,0,0,0,0,2,2,0,44,10,0,0,0,0,0,0,0,0,3,0,0,0,0,0,0,0,,,,0,0
L16723,Class,ExtSSTInfoSubRecord,org.apache.poi.hssf.record.ExtSSTInfoSubRecord,L13365,L103,5,12,10,2,4,0,0,0,0,1,1,0,12,0,0,0,0,0,0,0,0,2,3,0,0,0,0,0,0,0,,,,0,0
L1608,Class,HSSFColor,org.apache.poi.hssf.util.HSSFColor,L27693,L103,2,6,6,0,5,0,0,49,49,0,0,1,0,0,0,0,0,0,0,0,0,8,3,0,0,0,0,0,0,0,,,,0,0
L14123,Class,BitField,org.apache.poi.util.BitField,L36392,L103,2,18,18,8,6,0,0,0,0,0,0,0,0,0,0,0,1,1,59,0,0,1,0,0,0,0,0,0,0,0,,,,0,0
L13022,Class,SheetReferences,org.apache.poi.hssf.util.SheetReferences,L27693,L103,1,3,3,0,1,0,0,0,0,0,0,0,0,0,0,0,0,0,0,0,1,1,2,0,0,0,0,0,0,0,,,,0,0
L11619,Class,ColumnInfoRecordsAggregate,org.apache.poi.hssf.record.aggregates.ColumnInfoRecordsAggregate,L13709,L103,1,25,22,2,7,0,0,0,0,1,1,0,12,0,0,0,1,1,1,0,1,0,20,0,0,0,0,0,0,0,,,,0,0
L11611,Interface,Margin,org.apache.poi.hssf.record.Margin,L13365,L103,,2,,,,,,,0,0,,,,,,,,,,0,,1,0,,,,,,,0,1,4,0,0,0
L11347,Class,Node,org.apache.poi.hssf.model.Node,L10749,L103,1,5,5,1,3,0,0,0,0,0,0,0,0,0,0,0,0,0,1,0,0,5,2,0,0,0,0,0,0,0,,,,0,0
L11053,Class,DrawingManager2,org.apache.poi.hssf.model.DrawingManager2,L10749,L103,1,8,4,0,2,0,0,0,0,0,0,0,0,0,0,0,2,2,2,0,1,4,4,0,0,0,0,0,0,0,,,,0,0
L10989,Class,DrawingManager,org.apache.poi.hssf.model.DrawingManager,L10749,L103,1,7,4,0,1,0,0,0,0,0,0,0,0,0,0,0,0,0,1,0,1,0,3,0,0,0,0,0,0,0,,,,0,0
L10772,Class,AbstractShape,org.apache.poi.hssf.model.AbstractShape,L10749,L103,0,6,3,0,2,0,0,5,6,0,0,2,0,0,0,0,0,0,0,0,0,0,7,0,0,0,0,0,0,0,,,,0,0
L10674,Class,HSSFUserException,org.apache.poi.hssf.eventusermodel.HSSFUserException,L10659,L103,1,5,5,0,1,0,0,0,0,1,1,0,0,0,0,0,0,0,0,0,1,0,5,0,0,0,0,0,0,0,,,,0,0
L10513,Interface,ModelFactoryListener,org.apache.poi.hssf.eventmodel.ModelFactoryListener,L10383,L103,,1,,,,,,,0,0,,,,,,,,,,0,,1,1,,,,,,,0,0,1,0,0,0
L10503,Interface,Model,org.apache.poi.hssf.model.Model,L10749,L103,,0,,,,,,,0,0,,,,,,,,,,0,,3,0,,,,,,,0,1,2,0,0,0
L10431,Class,ListenerWrapper,org.apache.poi.hssf.eventmodel.ListenerWrapper,L10383,L103,2,2,1,0,0,0,1,0,0,0,0,0,0,0,0,0,1,1,0,0,0,0,2,0,0,0,0,0,0,0,,,,0,0
L10392,Interface,ERFListener,org.apache.poi.hssf.eventmodel.ERFListener,L10383,L103,,1,,,,,,,0,0,,,,,,,,,,0,,2,1,,,,,,,0,1,2,0,0,0
L10296,Class,FormulaViewer,org.apache.poi.hssf.dev.FormulaViewer,L9610,L103,2,9,6,2,0,0,0,0,0,0,0,0,0,0,0,0,0,0,0,0,1,0,8,0,0,0,0,0,0,0,,,,0,0
L10275,Class,EFBiffViewer,org.apache.poi.hssf.dev.EFBiffViewer,L9610,L103,1,4,4,1,0,0,0,0,0,0,0,0,0,0,0,0,0,0,0,0,1,0,2,0,0,0,0,0,0,0,,,,0,0
L10142,Class,RightMarginRecord,org.apache.poi.hssf.record.RightMarginRecord,L13365,L103,2,11,9,1,3,0,1,0,0,1,1,0,12,0,0,0,0,0,0,0,0,0,4,0,0,0,0,0,0,0,,,,0,0
L9986,Class,AreaRecord,org.apache.poi.hssf.record.AreaRecord,L13365,L103,2,17,15,4,6,0,0,0,0,1,1,0,12,0,0,0,0,0,1,0,0,0,4,0,0,0,0,0,0,0,,,,1,1
L9979,Class,MergeCellsRecord,org.apache.poi.hssf.record.MergeCellsRecord,L13365,L103,2,14,12,1,4,0,0,0,0,1,1,0,12,0,0,0,0,0,1,0,1,0,5,0,0,0,0,0,0,0,,,,1,1
L9972,Class,ColumnInfoRecord,org.apache.poi.hssf.record.ColumnInfoRecord,L13365,L103,7,25,23,8,10,0,0,0,0,1,1,0,12,0,0,0,0,0,1,0,0,7,4,0,0,0,0,0,0,0,,,,1,1
L9934,Class,DBCellRecord,org.apache.poi.hssf.record.DBCellRecord,L13365,L103,4,15,13,1,7,0,0,0,0,1,1,0,12,0,0,0,0,0,0,0,0,0,3,0,0,0,0,0,0,0,,,,1,1
L9925,Class,RKRecord,org.apache.poi.hssf.record.RKRecord,L13365,L103,9,23,21,3,12,0,1,0,0,1,1,0,12,0,0,0,0,0,0,0,0,0,8,0,0,0,0,0,0,0,,,,1,1
L9836,Class,CalcCountRecord,org.apache.poi.hssf.record.CalcCountRecord,L13365,L103,2,11,9,1,3,0,0,0,0,1,1,0,12,0,0,0,0,0,0,0,0,0,4,0,0,0,0,0,0,0,,,,1,1
L9825,Class,IndexRecord,org.apache.poi.hssf.record.IndexRecord,L13365,L103,6,18,16,3,7,0,0,0,0,1,1,0,12,0,0,0,0,0,1,0,0,0,4,0,0,0,0,0,0,0,,,,1,1
L9750,Class,ProtectionRev4Record,org.apache.poi.hssf.record.ProtectionRev4Record,L13365,L103,2,10,8,1,3,0,0,0,0,1,1,0,12,0,0,0,0,0,0,0,0,0,3,0,0,0,0,0,0,0,,,,1,1
L9743,Class,PasswordRecord,org.apache.poi.hssf.record.PasswordRecord,L13365,L103,2,11,9,1,3,0,0,0,0,1,1,0,12,0,0,0,0,0,0,0,0,0,4,0,0,0,0,0,0,0,,,,1,1
L9415,Class,AreaReference,org.apache.poi.hssf.util.AreaReference,L27693,L103,1,5,4,0,2,0,0,0,0,0,0,0,0,0,0,0,1,1,0,0,0,0,5,0,0,0,0,0,0,0,,,,1,1
L8726,Class,DefaultColWidthRecord,org.apache.poi.hssf.record.DefaultColWidthRecord,L13365,L103,2,11,9,1,3,0,0,0,0,1,1,0,12,0,0,0,0,0,1,0,0,0,4,0,0,0,0,0,0,0,,,,1,1
L8723,Class,DefaultRowHeightRecord,org.apache.poi.hssf.record.DefaultRowHeightRecord,L13365,L103,3,13,11,2,4,0,0,0,0,1,1,0,12,0,0,0,0,0,1,0,0,0,4,0,0,0,0,0,0,0,,,,1,1
L8720,Class,GutsRecord,org.apache.poi.hssf.record.GutsRecord,L13365,L103,5,17,15,4,6,0,0,0,0,1,1,0,12,0,0,0,0,0,0,0,0,0,4,0,0,0,0,0,0,0,,,,1,1
L8717,Class,GridsetRecord,org.apache.poi.hssf.record.GridsetRecord,L13365,L103,2,11,9,1,3,0,0,0,0,1,1,0,12,0,0,0,0,0,1,0,0,1,4,0,0,0,0,0,0,0,,,,1,1
L8714,Class,PrintGridlinesRecord,org.apache.poi.hssf.record.PrintGridlinesRecord,L13365,L103,2,11,9,1,3,0,0,0,0,1,1,0,12,0,0,0,0,0,1,0,0,2,4,0,0,0,0,0,0,0,,,,1,1
L8711,Class,PrintHeadersRecord,org.apache.poi.hssf.record.PrintHeadersRecord,L13365,L103,2,11,9,1,3,0,0,0,0,1,1,0,12,0,0,0,0,0,0,0,0,0,4,0,0,0,0,0,0,0,,,,1,1
L8708,Class,SaveRecalcRecord,org.apache.poi.hssf.record.SaveRecalcRecord,L13365,L103,2,11,9,1,3,0,0,0,0,1,1,0,12,0,0,0,0,0,0,0,0,0,4,0,0,0,0,0,0,0,,,,1,1
L8705,Class,DeltaRecord,org.apache.poi.hssf.record.DeltaRecord,L13365,L103,3,11,9,1,3,0,0,0,0,1,1,0,12,0,0,0,0,0,0,0,0,0,4,0,0,0,0,0,0,0,,,,1,1
L8702,Class,IterationRecord,org.apache.poi.hssf.record.IterationRecord,L13365,L103,2,11,9,1,3,0,0,0,0,1,1,0,12,0,0,0,0,0,0,0,0,0,4,0,0,0,0,0,0,0,,,,1,1
L8699,Class,RefModeRecord,org.apache.poi.hssf.record.RefModeRecord,L13365,L103,4,11,9,1,3,0,0,0,0,1,1,0,12,0,0,0,0,0,0,0,0,0,4,0,0,0,0,0,0,0,,,,1,1
L8696,Class,CalcModeRecord,org.apache.poi.hssf.record.CalcModeRecord,L13365,L103,5,11,9,1,3,0,0,0,0,1,1,0,12,0,0,0,0,0,0,0,0,0,4,0,0,0,0,0,0,0,,,,1,1
L8683,Class,CountryRecord,org.apache.poi.hssf.record.CountryRecord,L13365,L103,3,12,10,2,4,0,0,0,0,1,1,0,12,0,0,0,0,0,0,0,0,0,3,0,0,0,0,0,0,0,,,,1,1
L8680,Class,UseSelFSRecord,org.apache.poi.hssf.record.UseSelFSRecord,L13365,L103,4,10,8,1,3,0,0,0,0,1,1,0,12,0,0,0,0,0,0,0,0,0,3,0,0,0,0,0,0,0,,,,1,1
L8674,Class,BookBoolRecord,org.apache.poi.hssf.record.BookBoolRecord,L13365,L103,2,10,8,1,3,0,0,0,0,1,1,0,12,0,0,0,0,0,0,0,0,0,3,0,0,0,0,0,0,0,,,,1,1
L8671,Class,RefreshAllRecord,org.apache.poi.hssf.record.RefreshAllRecord,L13365,L103,2,10,8,1,3,0,0,0,0,1,1,0,12,0,0,0,0,0,0,0,0,0,3,0,0,0,0,0,0,0,,,,1,1
L8668,Class,PrecisionRecord,org.apache.poi.hssf.record.PrecisionRecord,L13365,L103,2,10,8,1,3,0,0,0,0,1,1,0,12,0,0,0,0,0,0,0,0,0,3,0,0,0,0,0,0,0,,,,1,1
L8665,Class,DateWindow1904Record,org.apache.poi.hssf.record.DateWindow1904Record,L13365,L103,2,10,8,1,3,0,0,0,0,1,1,0,12,0,0,0,0,0,0,0,0,0,3,0,0,0,0,0,0,0,,,,1,1
L8662,Class,HideObjRecord,org.apache.poi.hssf.record.HideObjRecord,L13365,L103,5,10,8,1,3,0,0,0,0,1,1,0,12,0,0,0,0,0,0,0,0,0,3,0,0,0,0,0,0,0,,,,1,1
L8659,Class,WindowOneRecord,org.apache.poi.hssf.record.WindowOneRecord,L13365,L103,10,36,34,14,16,0,0,0,0,1,1,0,12,0,0,0,0,0,2,0,0,1,3,0,0,0,0,0,0,0,,,,1,1
L8656,Class,PasswordRev4Record,org.apache.poi.hssf.record.PasswordRev4Record,L13365,L103,2,10,8,1,3,0,0,0,0,1,1,0,12,0,0,0,0,0,0,0,0,0,3,0,0,0,0,0,0,0,,,,1,1
L8653,Class,WindowProtectRecord,org.apache.poi.hssf.record.WindowProtectRecord,L13365,L103,2,10,8,1,3,0,0,0,0,1,1,0,12,0,0,0,0,0,0,0,0,0,3,0,0,0,0,0,0,0,,,,1,1
L8650,Class,FnGroupCountRecord,org.apache.poi.hssf.record.FnGroupCountRecord,L13365,L103,3,10,8,1,3,0,0,0,0,1,1,0,12,0,0,0,0,0,0,0,0,0,3,0,0,0,0,0,0,0,,,,1,1
L8647,Class,TabIdRecord,org.apache.poi.hssf.record.TabIdRecord,L13365,L103,2,10,8,1,3,0,0,0,0,1,1,0,12,0,0,0,0,0,0,0,0,0,3,0,0,0,0,0,0,0,,,,1,1
L8644,Class,DSFRecord,org.apache.poi.hssf.record.DSFRecord,L13365,L103,2,10,8,1,3,0,0,0,0,1,1,0,12,0,0,0,0,0,0,0,0,0,3,0,0,0,0,0,0,0,,,,1,1
L8641,Class,CodepageRecord,org.apache.poi.hssf.record.CodepageRecord,L13365,L103,3,10,8,1,3,0,0,0,0,1,1,0,12,0,0,0,0,0,0,0,0,0,3,0,0,0,0,0,0,0,,,,1,1
L8635,Class,InterfaceEndRecord,org.apache.poi.hssf.record.InterfaceEndRecord,L13365,L103,1,8,6,0,2,0,0,0,0,1,1,0,12,0,0,0,0,0,0,0,0,0,3,0,0,0,0,0,0,0,,,,1,1
L8632,Class,MMSRecord,org.apache.poi.hssf.record.MMSRecord,L13365,L103,3,12,10,2,4,0,0,0,0,1,1,0,12,0,0,0,0,0,0,0,0,0,3,0,0,0,0,0,0,0,,,,1,1
L8629,Class,InterfaceHdrRecord,org.apache.poi.hssf.record.InterfaceHdrRecord,L13365,L103,3,10,8,1,3,0,0,0,0,1,1,0,12,0,0,0,0,0,0,0,0,0,3,0,0,0,0,0,0,0,,,,1,1
L8426,Class,AreaPtg,org.apache.poi.hssf.record.formula.AreaPtg,L17110,L103,6,31,30,10,13,0,0,6,6,1,1,1,13,4,0,0,0,1,1,0,0,0,7,0,0,0,0,0,0,0,,,,1,1
L8406,Class,ReferencePtg,org.apache.poi.hssf.record.formula.ReferencePtg,L17110,L103,4,21,20,5,8,0,0,5,5,1,1,1,13,4,0,0,0,1,1,0,0,1,7,0,0,0,0,0,0,0,,,,1,1
L8386,Class,AttrPtg,org.apache.poi.hssf.record.formula.AttrPtg,L17110,L103,4,25,25,5,13,0,0,0,0,2,2,0,17,7,0,0,0,0,1,0,0,0,7,0,0,0,0,0,0,0,,,,1,1
L8270,Class,NotEqualPtg,org.apache.poi.hssf.record.formula.NotEqualPtg,L17110,L103,2,9,9,0,3,0,0,0,0,2,2,0,17,7,0,0,0,1,0,0,0,0,6,0,0,0,0,0,0,0,,,,1,1
L8258,Class,LessThanPtg,org.apache.poi.hssf.record.formula.LessThanPtg,L17110,L103,3,10,10,0,4,0,0,0,0,2,2,0,17,7,0,0,0,1,0,0,1,0,6,0,0,0,0,0,0,0,,,,1,1
L8252,Class,LessEqualPtg,org.apache.poi.hssf.record.formula.LessEqualPtg,L17110,L103,2,9,9,0,3,0,0,0,0,2,2,0,17,7,0,0,0,1,0,0,0,0,6,0,0,0,0,0,0,0,,,,1,1
L8246,Class,GreaterThanPtg,org.apache.poi.hssf.record.formula.GreaterThanPtg,L17110,L103,3,10,10,0,4,0,0,0,0,2,2,0,17,7,0,0,0,1,0,0,1,0,6,0,0,0,0,0,0,0,,,,1,1
L8240,Class,GreaterEqualPtg,org.apache.poi.hssf.record.formula.GreaterEqualPtg,L17110,L103,2,9,9,0,3,0,0,0,0,2,2,0,17,7,0,0,0,1,0,0,0,0,6,0,0,0,0,0,0,0,,,,1,1
L8197,Class,NumberPtg,org.apache.poi.hssf.record.formula.NumberPtg,L17110,L103,3,10,9,1,3,0,0,0,0,1,1,0,13,4,0,0,0,0,0,0,0,0,5,0,0,0,0,0,0,0,,,,1,1
L8191,Class,IntPtg,org.apache.poi.hssf.record.formula.IntPtg,L17110,L103,3,10,9,1,3,0,0,0,0,1,1,0,13,4,0,0,0,0,0,0,0,0,5,0,0,0,0,0,0,0,,,,1,1
L8160,Class,UnitsRecord,org.apache.poi.hssf.record.UnitsRecord,L13365,L103,2,11,9,1,3,0,0,0,0,1,1,0,12,0,0,0,0,0,0,0,0,1,4,0,0,0,0,0,0,0,,,,1,1
L8143,Class,ChartRecord,org.apache.poi.hssf.record.ChartRecord,L13365,L103,5,17,15,4,6,0,0,0,0,1,1,0,12,0,0,0,0,0,0,0,0,1,4,0,0,0,0,0,0,0,,,,1,1
L8138,Class,BeginRecord,org.apache.poi.hssf.record.BeginRecord,L13365,L103,1,8,6,0,2,0,0,0,0,1,1,0,12,0,0,0,0,0,0,0,0,1,3,0,0,0,0,0,0,0,,,,1,1
L8125,Class,PlotGrowthRecord,org.apache.poi.hssf.record.PlotGrowthRecord,L13365,L103,3,13,11,2,4,0,0,0,0,1,1,0,12,0,0,0,0,0,0,0,0,1,4,0,0,0,0,0,0,0,,,,1,1
L8112,Class,FrameRecord,org.apache.poi.hssf.record.FrameRecord,L13365,L103,5,17,15,4,6,0,0,0,0,1,1,0,12,0,0,0,0,0,1,0,0,2,4,0,0,0,0,0,0,0,,,,1,1
L8090,Class,LineFormatRecord,org.apache.poi.hssf.record.LineFormatRecord,L13365,L103,19,25,23,8,10,0,0,0,0,1,1,0,12,0,0,0,0,0,1,0,0,2,4,0,0,0,0,0,0,0,,,,1,1
L8071,Class,AreaFormatRecord,org.apache.poi.hssf.record.AreaFormatRecord,L13365,L103,7,25,23,8,10,0,0,0,0,1,1,0,12,0,0,0,0,0,1,0,0,2,4,0,0,0,0,0,0,0,,,,1,1
L8066,Class,EndRecord,org.apache.poi.hssf.record.EndRecord,L13365,L103,1,8,6,0,2,0,0,0,0,1,1,0,12,0,0,0,0,0,0,0,0,1,3,0,0,0,0,0,0,0,,,,1,1
L8043,Class,SeriesRecord,org.apache.poi.hssf.record.SeriesRecord,L13365,L103,19,21,19,6,8,0,0,0,0,1,1,0,12,0,0,0,0,0,0,0,0,1,4,0,0,0,0,0,0,0,,,,1,1
L8022,Class,DataFormatRecord,org.apache.poi.hssf.record.DataFormatRecord,L13365,L103,5,19,17,5,7,0,0,0,0,1,1,0,12,0,0,0,0,0,1,0,0,1,4,0,0,0,0,0,0,0,,,,1,1
L8017,Class,SeriesToChartGroupRecord,org.apache.poi.hssf.record.SeriesToChartGroupRecord,L13365,L103,2,11,9,1,3,0,0,0,0,1,1,0,12,0,0,0,0,0,0,0,0,1,4,0,0,0,0,0,0,0,,,,1,1
L8002,Class,SheetPropertiesRecord,org.apache.poi.hssf.record.SheetPropertiesRecord,L13365,L103,6,23,21,7,9,0,0,0,0,1,1,0,12,0,0,0,0,0,1,0,0,1,4,0,0,0,0,0,0,0,,,,1,1
L7994,Class,DefaultDataLabelTextPropertiesRecord,org.apache.poi.hssf.record.DefaultDataLabelTextPropertiesRecord,L13365,L103,5,11,9,1,3,0,0,0,0,1,1,0,12,0,0,0,0,0,0,0,0,1,4,0,0,0,0,0,0,0,,,,1,1
L7984,Class,FontIndexRecord,org.apache.poi.hssf.record.FontIndexRecord,L13365,L103,2,11,9,1,3,0,0,0,0,1,1,0,12,0,0,0,0,0,0,0,0,1,4,0,0,0,0,0,0,0,,,,1,1
L7976,Class,AxisUsedRecord,org.apache.poi.hssf.record.AxisUsedRecord,L13365,L103,2,11,9,1,3,0,0,0,0,1,1,0,12,0,0,0,0,0,0,0,0,1,4,0,0,0,0,0,0,0,,,,1,1
L7959,Class,AxisParentRecord,org.apache.poi.hssf.record.AxisParentRecord,L13365,L103,8,19,17,5,7,0,0,0,0,1,1,0,12,0,0,0,0,0,0,0,0,1,4,0,0,0,0,0,0,0,,,,1,1
L7951,Class,AxisRecord,org.apache.poi.hssf.record.AxisRecord,L13365,L103,9,19,17,5,7,0,0,0,0,1,1,0,12,0,0,0,0,0,0,0,0,1,4,0,0,0,0,0,0,0,,,,1,1
L7934,Class,CategorySeriesAxisRecord,org.apache.poi.hssf.record.CategorySeriesAxisRecord,L13365,L103,5,23,21,7,9,0,0,0,0,1,1,0,12,0,0,0,0,0,1,0,0,1,4,0,0,0,0,0,0,0,,,,1,1
L7897,Class,AxisOptionsRecord,org.apache.poi.hssf.record.AxisOptionsRecord,L13365,L103,10,43,41,17,19,0,0,0,0,1,1,0,12,0,0,0,0,0,1,0,0,1,4,0,0,0,0,0,0,0,,,,1,1
L7868,Class,TickRecord,org.apache.poi.hssf.record.TickRecord,L13365,L103,13,37,35,14,16,0,0,0,0,1,1,0,12,0,0,0,0,0,1,0,0,2,4,0,0,0,0,0,0,0,,,,1,1
L7835,Class,ValueRangeRecord,org.apache.poi.hssf.record.ValueRangeRecord,L13365,L103,7,39,37,15,17,0,0,0,0,1,1,0,12,0,0,0,0,0,1,0,0,1,4,0,0,0,0,0,0,0,,,,1,1
L7827,Class,AxisLineFormatRecord,org.apache.poi.hssf.record.AxisLineFormatRecord,L13365,L103,6,11,9,1,3,0,0,0,0,1,1,0,12,0,0,0,0,0,0,0,0,1,4,0,0,0,0,0,0,0,,,,1,1
L7822,Class,PlotAreaRecord,org.apache.poi.hssf.record.PlotAreaRecord,L13365,L103,1,9,7,0,2,0,0,0,0,1,1,0,12,0,0,0,0,0,0,0,0,1,4,0,0,0,0,0,0,0,,,,1,1
L7807,Class,ChartFormatRecord,org.apache.poi.hssf.record.ChartFormatRecord,L13365,L103,6,18,16,5,7,0,0,0,0,1,1,0,12,0,0,0,0,0,1,0,0,1,3,0,0,0,0,0,0,0,,,,1,1
L7790,Class,BarRecord,org.apache.poi.hssf.record.BarRecord,L13365,L103,4,23,21,7,9,0,0,0,0,1,1,0,12,0,0,0,0,0,1,0,0,1,4,0,0,0,0,0,0,0,,,,1,1
L7757,Class,LegendRecord,org.apache.poi.hssf.record.LegendRecord,L13365,L103,17,35,33,13,15,0,0,0,0,1,1,0,12,0,0,0,0,0,1,0,0,1,4,0,0,0,0,0,0,0,,,,1,1
L7700,Class,TextRecord,org.apache.poi.hssf.record.TextRecord,L13365,L103,38,61,59,26,28,0,0,0,0,1,1,0,12,0,0,0,0,0,1,0,0,3,4,0,0,0,0,0,0,0,,,,1,1
L7676,Class,LinkedDataRecord,org.apache.poi.hssf.record.LinkedDataRecord,L13365,L103,13,21,19,6,8,0,0,0,0,1,1,0,12,0,0,0,1,1,1,0,0,5,6,0,0,0,0,0,0,0,,,,1,1
L7612,Class,ProtectRecord,org.apache.poi.hssf.record.ProtectRecord,L13365,L103,2,11,9,1,3,0,0,0,0,1,1,0,12,0,0,0,0,0,1,0,0,2,4,0,0,0,0,0,0,0,,,,1,1
L7597,Class,FontBasisRecord,org.apache.poi.hssf.record.FontBasisRecord,L13365,L103,6,19,17,5,7,0,0,0,0,1,1,0,12,0,0,0,0,0,0,0,0,2,4,0,0,0,0,0,0,0,,,,1,1
L7578,Class,DimensionsRecord,org.apache.poi.hssf.record.DimensionsRecord,L13365,L103,6,17,15,4,6,0,0,0,0,1,1,0,12,0,0,0,0,0,1,0,0,1,4,0,0,0,0,0,0,0,,,,1,1
L7570,Class,SeriesIndexRecord,org.apache.poi.hssf.record.SeriesIndexRecord,L13365,L103,2,11,9,1,3,0,0,0,0,1,1,0,12,0,0,0,0,0,0,0,0,1,4,0,0,0,0,0,0,0,,,,1,1
L7565,Class,EOFRecord,org.apache.poi.hssf.record.EOFRecord,L13365,L103,1,9,7,0,2,0,0,0,0,1,1,0,12,0,0,0,0,0,0,0,0,1,4,0,0,0,0,0,0,0,,,,1,1
L753,Class,Property,org.apache.poi.hpsf.Property,L28851,L103,3,12,8,0,5,0,0,1,2,0,0,2,0,0,0,0,1,1,0,0,1,12,5,0,0,0,0,0,0,0,,,,1,1
L7373,Class,DrawingGroupRecord,org.apache.poi.hssf.record.DrawingGroupRecord,L13365,L103,3,11,6,0,4,0,0,0,0,2,2,0,33,3,0,0,0,0,0,0,0,0,2,0,0,0,0,0,0,0,,,,1,1
L7284,Class,CellReference,org.apache.poi.hssf.util.CellReference,L27693,L103,5,12,9,0,5,0,0,0,0,0,0,0,0,0,0,0,1,1,1,0,1,1,7,0,0,0,0,0,0,0,,,,1,1
L7150,Class,Area3DPtg,org.apache.poi.hssf.record.formula.Area3DPtg,L17110,L103,7,34,34,12,14,0,0,1,1,1,1,1,13,4,0,0,0,1,1,0,0,0,8,0,0,0,0,0,0,0,,,,1,1
L7141,Class,MemFuncPtg,org.apache.poi.hssf.record.formula.MemFuncPtg,L17110,L103,2,10,10,1,4,0,0,0,0,2,2,0,13,4,0,0,0,0,0,0,0,0,4,0,0,0,0,0,0,0,,,,1,1
L7105,Class,BackupRecord,org.apache.poi.hssf.record.BackupRecord,L13365,L103,2,10,8,1,3,0,0,0,0,1,1,0,12,0,0,0,0,0,0,0,0,1,3,0,0,0,0,0,0,0,,,,1,1
L7075,Class,WindowTwoRecord,org.apache.poi.hssf.record.WindowTwoRecord,L13365,L103,8,47,45,19,21,0,0,0,0,1,1,0,12,0,0,0,0,0,2,0,0,1,4,0,0,0,0,0,0,0,,,,1,1
L7004,Class,LabelRecord,org.apache.poi.hssf.record.LabelRecord,L13365,L103,7,22,20,3,12,0,1,0,0,1,1,0,12,0,0,0,0,0,0,0,1,0,8,0,0,0,0,0,0,0,,,,1,1
L6966,Class,EventRecordFactory,org.apache.poi.hssf.eventmodel.EventRecordFactory,L10383,L103,5,9,6,0,1,0,0,0,0,0,0,0,0,0,0,0,1,1,0,0,3,0,8,0,0,0,0,0,0,0,,,,1,1
L686,Class,SummaryInformation,org.apache.poi.hpsf.SummaryInformation,L28851,L103,1,55,55,18,18,0,0,0,0,3,3,0,64,10,0,0,0,2,0,0,1,2,25,0,0,0,0,0,0,0,,,,1,1
L6698,Class,PageBreakRecord,org.apache.poi.hssf.record.PageBreakRecord,L13365,L103,6,16,14,1,5,0,0,2,2,1,1,1,12,0,0,0,0,0,1,0,2,1,6,0,0,0,0,0,0,0,,,,1,1
L6547,Class,SCLRecord,org.apache.poi.hssf.record.SCLRecord,L13365,L103,3,13,11,2,4,0,0,0,0,1,1,0,12,0,0,0,0,0,0,0,0,2,4,0,0,0,0,0,0,0,,,,1,1
L6410,Class,WSBoolRecord,org.apache.poi.hssf.record.WSBoolRecord,L13365,L103,3,29,27,10,12,0,0,0,0,1,1,0,12,0,0,0,0,0,1,0,0,0,4,0,0,0,0,0,0,0,,,,1,1
L6373,Class,HCenterRecord,org.apache.poi.hssf.record.HCenterRecord,L13365,L103,2,11,9,1,3,0,0,0,0,1,1,0,12,0,0,0,0,0,0,0,0,1,4,0,0,0,0,0,0,0,,,,1,1
L6356,Class,VCenterRecord,org.apache.poi.hssf.record.VCenterRecord,L13365,L103,2,11,9,1,3,0,0,0,0,1,1,0,12,0,0,0,0,0,0,0,0,1,4,0,0,0,0,0,0,0,,,,1,1
L578,Class,POIFSReader,org.apache.poi.poifs.eventfilesystem.POIFSReader,L33791,L103,1,7,6,0,0,0,0,0,0,0,0,0,0,0,0,0,1,1,0,0,0,0,12,0,0,0,0,0,0,0,,,,1,1
L5641,Class,PrintSetupRecord,org.apache.poi.hssf.record.PrintSetupRecord,L13365,L103,12,47,45,19,21,0,0,0,0,1,1,0,12,0,0,0,0,0,3,0,0,4,4,0,0,0,0,0,0,0,,,,1,1
L5414,Class,PaletteRecord,org.apache.poi.hssf.record.PaletteRecord,L13365,L103,5,11,8,1,3,0,0,0,0,1,1,0,12,0,0,0,0,0,2,0,1,3,3,0,0,0,0,0,0,0,,,,1,1
L5411,Class,HSSFPalette,org.apache.poi.hssf.usermodel.HSSFPalette,L1954,L103,0,6,5,1,1,0,0,0,0,0,0,0,0,0,0,0,1,1,1,0,0,1,5,0,0,0,0,0,0,0,,,,1,1
L5399,Class,RangeAddress,org.apache.poi.hssf.util.RangeAddress,L27693,L103,6,30,24,1,20,0,0,0,0,0,0,0,0,0,0,0,0,0,0,0,1,0,31,0,0,0,0,0,0,0,,,,1,1
L5279,Class,HSSFHeader,org.apache.poi.hssf.usermodel.HSSFHeader,L1954,L103,3,20,18,3,3,0,0,0,0,0,0,0,0,0,0,0,0,0,1,0,1,1,21,0,0,0,0,0,0,0,,,,1,1
L5210,Class,HSSFFooter,org.apache.poi.hssf.usermodel.HSSFFooter,L1954,L103,3,20,18,3,3,0,0,0,0,1,1,0,0,0,0,0,0,0,1,0,1,1,21,0,0,0,0,0,0,0,,,,1,1
L4961,Class,FormatRecord,org.apache.poi.hssf.record.FormatRecord,L13365,L103,5,15,13,4,5,0,0,0,0,1,1,0,12,0,0,0,0,0,0,0,1,0,5,0,0,0,0,0,0,0,,,,1,1
L4880,Class,HSSFShape,org.apache.poi.hssf.usermodel.HSSFShape,L1954,L103,19,17,16,8,7,0,0,3,6,0,0,3,0,0,0,0,1,1,0,0,0,13,3,0,0,0,0,0,0,0,,,,1,1
L4397,Class,Ptg,org.apache.poi.hssf.record.formula.Ptg,L17110,L103,4,13,13,1,4,0,0,19,59,0,0,3,0,0,0,0,0,0,1,0,0,34,9,0,0,0,0,0,0,0,,,,1,1
L4333,Class,BlankRecord,org.apache.poi.hssf.record.BlankRecord,L13365,L103,4,22,20,3,10,0,2,0,0,1,1,0,12,0,0,0,0,0,0,0,0,3,9,0,0,0,0,0,0,0,,,,1,1
L4242,Class,ExtendedFormatRecord,org.apache.poi.hssf.record.ExtendedFormatRecord,L13365,L103,55,94,92,43,45,0,0,0,0,1,1,0,12,0,0,0,0,0,2,0,0,4,3,0,0,0,0,0,0,0,,,,1,1
L38245,Class,TempFile,org.apache.poi.util.TempFile,L36392,L103,2,1,1,0,0,0,0,0,0,0,0,0,0,0,0,0,1,1,0,0,2,0,3,0,0,0,0,0,0,0,,,,1,1
L38166,Class,StringUtil,org.apache.poi.util.StringUtil,L36392,L103,1,14,12,0,8,0,0,0,0,0,0,0,0,0,0,0,0,0,0,0,1,0,17,0,0,0,0,0,0,0,,,,1,1
L38078,Class,ShortList,org.apache.poi.util.ShortList,L36392,L103,3,25,24,1,3,0,0,0,0,0,0,0,0,0,0,0,0,0,0,0,0,0,1,0,0,0,0,0,0,0,,,,1,1
L37683,Class,NullLogger,org.apache.poi.util.NullLogger,L36392,L103,0,22,22,0,0,0,0,0,0,1,1,0,26,5,0,0,0,0,0,0,0,0,95,0,0,0,0,0,0,0,,,,1,1
L36984,Class,BitFieldFactory,org.apache.poi.util.BitFieldFactory,L36392,L103,1,1,1,0,1,0,0,0,0,0,0,0,0,0,0,0,0,0,0,0,1,0,1,0,0,0,0,0,0,0,,,,1,1
L35949,Class,PropertyBlock,org.apache.poi.poifs.storage.PropertyBlock,L35597,L103,1,3,1,0,0,0,0,0,0,1,1,0,3,0,0,0,0,0,1,0,0,0,4,0,0,0,0,0,0,0,,,,1,1
L35844,Interface,HeaderBlockConstants,org.apache.poi.poifs.storage.HeaderBlockConstants,L35597,L103,,0,,,,,,,0,0,,,,,,,,,,0,,0,0,,,,,,,0,0,2,0,1,1
L35394,Class,RootProperty,org.apache.poi.poifs.property.RootProperty,L35062,L103,0,3,1,1,0,0,0,0,0,2,2,0,40,24,0,0,1,1,1,0,0,3,0,0,0,0,0,0,0,0,,,,1,1
L34691,Class,BATBlock,org.apache.poi.poifs.storage.BATBlock,L35597,L103,5,11,7,1,1,0,0,0,0,1,1,0,3,0,0,0,1,1,1,0,0,3,1,0,0,0,0,0,0,0,,,,1,1
L34673,Class,BlockAllocationTableWriter,org.apache.poi.poifs.storage.BlockAllocationTableWriter,L35597,L103,1,8,7,1,1,0,2,0,0,0,0,0,0,0,0,0,2,2,1,0,0,2,1,0,0,0,0,0,0,0,,,,1,1
L34668,Class,SmallBlockTableWriter,org.apache.poi.poifs.storage.SmallBlockTableWriter,L35597,L103,2,6,6,1,2,0,2,0,0,0,0,0,0,0,0,0,1,1,1,0,1,0,4,0,0,0,0,0,0,0,,,,1,1
L34460,Class,SmallDocumentBlock,org.apache.poi.poifs.storage.SmallDocumentBlock,L35597,L103,4,12,8,0,1,0,2,0,0,0,0,0,0,0,0,0,0,0,0,1,0,1,6,0,0,0,0,0,0,0,,,,1,1
L34439,Class,RawDataBlock,org.apache.poi.poifs.storage.RawDataBlock,L35597,L103,2,3,3,0,1,0,1,0,0,0,0,0,0,0,0,0,1,1,0,0,0,3,1,0,0,0,0,0,0,0,,,,1,1
L34337,Class,DocumentOutputStream,org.apache.poi.poifs.filesystem.DocumentOutputStream,L34035,L103,3,8,5,0,0,0,0,0,0,1,1,0,0,0,0,0,1,1,0,0,1,2,1,0,0,0,0,0,0,0,,,,1,1
L33908,Class,POIFSDocument,org.apache.poi.poifs.filesystem.POIFSDocument,L34035,L103,3,16,14,1,6,0,3,0,0,0,0,0,0,0,0,0,2,2,1,0,2,10,17,0,0,0,0,0,0,0,,,,1,1
L33899,Class,DirectoryProperty,org.apache.poi.poifs.property.DirectoryProperty,L35062,L103,2,8,6,0,2,0,1,1,1,1,1,1,32,22,0,0,1,1,0,0,2,3,6,0,0,0,0,0,0,0,,,,1,1
L33890,Class,Property,org.apache.poi.poifs.property.Property,L35062,L103,22,32,18,10,16,0,2,4,5,0,0,2,0,0,0,0,1,1,6,0,1,10,12,0,0,0,0,0,0,0,,,,1,1
L33884,Interface,BlockList,org.apache.poi.poifs.storage.BlockList,L35597,L103,,4,,,,,,,0,0,,,,,,,,,,0,,9,3,,,,,,,0,0,1,0,1,1
L33814,Class,HeaderBlockReader,org.apache.poi.poifs.storage.HeaderBlockReader,L35597,L103,1,7,7,0,6,0,1,0,0,0,0,0,0,0,0,0,0,0,1,0,0,0,1,0,0,0,0,0,0,0,,,,1,1
L3375,Class,POILogger,org.apache.poi.util.POILogger,L36392,L103,5,26,22,0,0,0,0,3,3,0,0,1,0,0,0,0,0,1,10,0,0,2,101,0,0,0,0,0,0,0,,,,1,1
L32993,Class,EscherPropertyMetaData,org.apache.poi.ddf.EscherPropertyMetaData,L31584,L103,8,4,4,0,2,0,0,0,0,0,0,0,0,0,0,0,0,0,0,0,1,3,3,0,0,0,0,0,0,0,,,,1,1
L32431,Class,EscherPropertyFactory,org.apache.poi.ddf.EscherPropertyFactory,L31584,L103,0,1,1,0,0,0,0,0,0,0,0,0,0,0,0,0,0,0,0,0,0,0,1,0,0,0,0,0,0,0,,,,1,1
L32358,Class,LittleEndian,org.apache.poi.util.LittleEndian,L36392,L103,0,36,33,0,19,0,1,0,0,0,0,0,0,0,0,0,0,0,0,0,0,0,4,0,0,0,0,0,0,0,,,,1,1
L32346,Class,EscherDump,org.apache.poi.ddf.EscherDump,L31584,L103,0,9,5,0,1,0,0,0,0,0,0,0,0,0,0,0,0,0,0,0,0,0,10,0,0,0,0,0,0,0,,,,1,1
L31789,Class,EscherBlipWMFRecord,org.apache.poi.ddf.EscherBlipWMFRecord,L31584,L103,14,31,31,12,14,0,0,0,0,2,2,0,26,7,0,0,0,0,0,0,1,0,4,0,0,0,0,0,0,0,,,,1,1
L31672,Class,EscherComplexProperty,org.apache.poi.ddf.EscherComplexProperty,L31584,L103,1,9,9,0,3,0,0,1,1,1,1,1,10,1,0,0,0,0,0,0,0,0,2,0,0,0,0,0,0,0,,,,1,1
L31664,Class,UnknownEscherRecord,org.apache.poi.ddf.UnknownEscherRecord,L31584,L103,3,11,11,1,4,0,0,0,0,1,1,0,20,2,0,0,0,0,0,0,1,0,8,0,0,0,0,0,0,0,,,,1,1
L31004,Class,SectionIDMap,org.apache.poi.hpsf.wellknown.SectionIDMap,L30923,L103,3,6,6,0,4,0,0,0,0,1,1,0,0,0,0,0,0,0,0,0,1,0,9,0,0,0,0,0,0,0,,,,1,1
L30814,Class,VariantSupport,org.apache.poi.hpsf.VariantSupport,L28851,L103,2,6,5,1,1,0,0,0,0,1,1,0,2,55,0,0,0,0,0,0,1,0,5,0,0,0,0,0,0,0,,,,1,1
L30618,Class,Util,org.apache.poi.hpsf.Util,L28851,L103,1,14,13,0,0,0,0,0,0,0,0,0,0,0,0,0,0,0,0,0,0,0,12,0,0,0,0,0,0,0,,,,1,1
L30513,Class,Thumbnail,org.apache.poi.hpsf.Thumbnail,L28851,L103,12,7,7,1,4,0,0,0,0,0,0,0,0,0,0,0,0,0,0,0,0,0,0,0,0,0,0,0,0,0,,,,1,1
L28962,Class,MutablePropertySet,org.apache.poi.hpsf.MutablePropertySet,L28851,L103,1,11,11,4,0,0,0,1,3,1,1,2,25,9,0,0,1,1,0,0,0,1,7,0,0,0,0,0,0,0,,,,1,1
L28650,Class,RKUtil,org.apache.poi.hssf.util.RKUtil,L27693,L103,0,2,1,0,0,0,0,0,0,0,0,0,0,0,0,0,0,0,0,0,0,0,0,0,0,0,0,0,0,0,,,,1,1
L2679,Class,EscherGraphics2d,org.apache.poi.hssf.usermodel.EscherGraphics2d,L1954,L103,5,81,73,16,19,0,0,0,0,1,1,0,0,0,0,0,2,2,1,0,5,1,74,0,0,0,0,0,0,0,,,,1,1
L2676,Class,EscherGraphics,org.apache.poi.hssf.usermodel.EscherGraphics,L1954,L103,5,48,42,7,8,0,0,0,0,1,1,0,0,0,0,0,4,4,1,0,2,2,41,0,0,0,0,0,0,0,,,,1,1
L2582,Class,HSSFTextbox,org.apache.poi.hssf.usermodel.HSSFTextbox,L1954,L103,5,11,11,5,5,0,0,1,1,2,2,1,20,25,0,0,1,1,0,0,0,6,4,0,0,0,0,0,0,0,,,,1,1
L25714,Class,TextObjectBaseRecord,org.apache.poi.hssf.record.TextObjectBaseRecord,L13365,L103,21,37,35,14,16,0,0,1,1,1,1,1,12,0,0,0,0,0,1,0,0,0,4,0,0,0,0,0,0,0,,,,1,1
L2569,Class,HSSFChildAnchor,org.apache.poi.hssf.usermodel.HSSFChildAnchor,L1954,L103,0,5,5,1,2,0,0,0,0,1,1,0,12,4,0,0,0,0,0,0,0,5,0,0,0,0,0,0,0,0,,,,1,1
L25330,Class,IntMapper,org.apache.poi.util.IntMapper,L36392,L103,3,7,7,0,2,0,0,0,0,0,0,0,0,0,0,0,0,0,5,0,2,5,4,0,0,0,0,0,0,0,,,,1,1
L24944,Class,SeriesLabelsRecord,org.apache.poi.hssf.record.SeriesLabelsRecord,L13365,L103,2,23,21,7,9,0,0,0,0,1,1,0,12,0,0,0,0,0,1,0,0,0,4,0,0,0,0,0,0,0,,,,1,1
L24887,Class,SeriesChartGroupIndexRecord,org.apache.poi.hssf.record.SeriesChartGroupIndexRecord,L13365,L103,2,11,9,1,3,0,0,0,0,1,1,0,12,0,0,0,0,0,0,0,0,0,4,0,0,0,0,0,0,0,,,,1,1
L2445,Class,LabelSSTRecord,org.apache.poi.hssf.record.LabelSSTRecord,L13365,L103,5,24,22,4,11,0,2,0,0,1,1,0,12,0,0,0,0,0,1,0,0,3,9,0,0,0,0,0,0,0,,,,1,1
L2427,Class,NumberRecord,org.apache.poi.hssf.record.NumberRecord,L13365,L103,5,24,22,4,11,0,2,0,0,1,1,0,12,0,0,0,0,0,0,0,0,1,9,0,0,0,0,0,0,0,,,,1,1
L23809,Class,NumberFormatIndexRecord,org.apache.poi.hssf.record.NumberFormatIndexRecord,L13365,L103,2,11,9,1,3,0,0,0,0,1,1,0,12,0,0,0,0,0,0,0,0,0,4,0,0,0,0,0,0,0,,,,1,1
L2315,Class,HSSFPatriarch,org.apache.poi.hssf.usermodel.HSSFPatriarch,L1954,L103,5,14,13,1,5,0,1,0,0,0,0,0,0,0,0,0,1,1,1,0,1,9,14,0,0,0,0,0,0,0,,,,1,1
L22771,Class,IntList,org.apache.poi.util.IntList,L36392,L103,4,27,25,1,3,0,0,0,0,0,0,0,0,0,0,0,0,0,3,0,0,0,1,0,0,0,0,0,0,0,,,,1,1
L18489,Class,RefErrorPtg,org.apache.poi.hssf.record.formula.RefErrorPtg,L17110,L103,3,10,9,1,3,0,0,0,0,1,1,0,13,4,0,0,0,0,0,0,0,0,5,0,0,0,0,0,0,0,,,,1,1
L17560,Class,ArrayPtg,org.apache.poi.hssf.record.formula.ArrayPtg,L17110,L103,11,14,13,2,4,0,0,2,2,1,1,1,13,4,0,0,0,0,0,0,1,0,6,0,0,0,0,0,0,0,,,,1,1
L17188,Class,BinaryTree,org.apache.poi.util.BinaryTree,L36392,L103,12,49,17,0,10,0,0,0,0,1,1,0,0,0,0,0,0,0,1,0,4,4,61,0,0,0,0,0,0,0,,,,1,1
L1671,Class,HSSFFont,org.apache.poi.hssf.usermodel.HSSFFont,L1954,L103,17,23,22,10,11,0,0,0,0,0,0,0,0,0,0,0,0,0,1,0,1,9,4,0,0,0,0,0,0,0,,,,1,1
L16239,Class,GroupMarkerSubRecord,org.apache.poi.hssf.record.GroupMarkerSubRecord,L13365,L103,2,9,7,0,2,0,0,0,0,2,2,0,15,0,0,0,0,0,0,0,0,0,4,0,0,0,0,0,0,0,,,,1,1
L16217,Class,EscherSpgrRecord,org.apache.poi.ddf.EscherSpgrRecord,L31584,L103,6,14,14,4,7,0,0,0,0,1,1,0,20,2,0,0,0,0,0,0,1,1,4,0,0,0,0,0,0,0,,,,1,1
L16156,Interface,EscherSerializationListener,org.apache.poi.ddf.EscherSerializationListener,L31584,L103,,2,,,,,,,0,0,,,,,,,,,,0,,17,2,,,,,,,0,0,1,0,1,1
L15456,Interface,CustomField,org.apache.poi.hssf.record.CustomField,L13365,L103,,4,,,,,,,0,1,,,,,,,,,,0,,0,2,,,,,,,0,0,1,0,1,1
L13635,Class,NullEscherSerializationListener,org.apache.poi.ddf.NullEscherSerializationListener,L31584,L103,0,2,2,0,0,0,1,0,0,0,0,0,0,0,0,0,0,0,0,0,0,0,2,0,0,0,0,0,0,0,,,,1,1
L13613,Interface,EscherRecordFactory,org.apache.poi.ddf.EscherRecordFactory,L31584,L103,,1,,,,,,,0,0,,,,,,,,,,0,,18,1,,,,,,,0,0,1,0,1,1
L13122,Class,EscherSplitMenuColorsRecord,org.apache.poi.ddf.EscherSplitMenuColorsRecord,L31584,L103,6,14,14,4,7,0,0,0,0,1,1,0,20,2,0,0,0,0,0,0,1,1,4,0,0,0,0,0,0,0,,,,1,1
L13043,Class,ExternSheetSubRecord,org.apache.poi.hssf.record.ExternSheetSubRecord,L13365,L103,4,14,12,3,5,0,0,0,0,1,1,0,12,0,0,0,0,0,0,0,0,2,3,0,0,0,0,0,0,0,,,,1,1
L12832,Class,RecalcIdRecord,org.apache.poi.hssf.record.RecalcIdRecord,L13365,L103,3,12,10,2,4,0,0,0,0,1,1,0,12,0,0,0,0,0,0,0,0,0,3,0,0,0,0,0,0,0,,,,1,1
L12594,Class,WorkbookRecordList,org.apache.poi.hssf.model.WorkbookRecordList,L10749,L103,11,27,27,11,12,0,0,0,0,0,0,0,0,0,0,0,1,1,0,0,1,0,5,0,0,0,0,0,0,0,,,,1,1
L12529,Class,EscherTextboxRecord,org.apache.poi.ddf.EscherTextboxRecord,L31584,L103,4,10,10,2,3,0,0,0,0,1,1,0,20,2,0,0,0,0,2,0,1,2,5,0,0,0,0,0,0,0,,,,1,1
L11559,Class,EscherArrayProperty,org.apache.poi.ddf.EscherArrayProperty,L31584,L103,3,15,14,5,5,0,0,0,0,2,2,0,19,2,0,0,0,0,0,0,0,0,1,0,0,0,0,0,0,0,,,,1,1
L11495,Class,EndSubRecord,org.apache.poi.hssf.record.EndSubRecord,L13365,L103,1,9,7,0,2,0,0,0,0,2,2,0,15,0,0,0,0,0,0,0,0,0,4,0,0,0,0,0,0,0,,,,1,1
L11458,Class,EscherShapePathProperty,org.apache.poi.ddf.EscherShapePathProperty,L31584,L103,5,1,1,0,0,0,0,0,0,2,2,0,18,2,0,0,0,0,0,0,0,0,0,0,0,0,0,0,0,0,,,,1,1
L11441,Class,EscherClientDataRecord,org.apache.poi.ddf.EscherClientDataRecord,L31584,L103,3,8,8,1,4,0,0,0,0,1,1,0,20,2,0,0,0,0,0,0,1,1,4,0,0,0,0,0,0,0,,,,1,1
L11200,Class,AbstractFunctionPtg,org.apache.poi.hssf.record.formula.AbstractFunctionPtg,L17110,L103,7,14,10,0,6,0,0,2,2,2,2,1,17,7,0,0,0,1,1,0,2,1,10,0,0,0,0,0,0,0,,,,1,1
L11000,Class,EscherDgRecord,org.apache.poi.ddf.EscherDgRecord,L31584,L103,4,12,12,2,6,0,0,0,0,1,1,0,20,2,0,0,0,0,0,0,1,4,4,0,0,0,0,0,0,0,,,,1,1
L10974,Class,EscherChildAnchorRecord,org.apache.poi.ddf.EscherChildAnchorRecord,L31584,L103,6,14,14,4,7,0,0,0,0,1,1,0,20,2,0,0,0,0,0,0,1,1,4,0,0,0,0,0,0,0,,,,1,1
L10946,Class,EscherClientAnchorRecord,org.apache.poi.ddf.EscherClientAnchorRecord,L31584,L103,13,26,26,10,13,0,0,0,0,1,1,0,20,2,0,0,0,0,0,0,1,1,4,0,0,0,0,0,0,0,,,,1,1
L10921,Class,EscherProperty,org.apache.poi.ddf.EscherProperty,L31584,L103,1,10,10,0,6,0,0,2,6,0,0,2,0,0,0,0,0,0,0,0,0,3,1,0,0,0,0,0,0,0,,,,1,1
L10899,Class,NoteStructureSubRecord,org.apache.poi.hssf.record.NoteStructureSubRecord,L13365,L103,2,8,6,0,2,0,0,0,0,2,2,0,15,0,0,0,0,0,0,0,0,0,3,0,0,0,0,0,0,0,,,,1,1
L10871,Class,EscherSimpleProperty,org.apache.poi.ddf.EscherSimpleProperty,L31584,L103,1,8,8,0,2,0,0,3,3,1,1,1,10,1,0,0,0,0,0,0,0,0,2,0,0,0,0,0,0,0,,,,1,1
L10857,Class,EscherRGBProperty,org.apache.poi.ddf.EscherRGBProperty,L31584,L103,0,5,5,0,4,0,0,0,0,2,2,0,18,2,0,0,0,0,0,0,0,0,0,0,0,0,0,0,0,0,,,,1,1
L10847,Class,EscherBoolProperty,org.apache.poi.ddf.EscherBoolProperty,L31584,L103,0,3,3,0,2,0,0,0,0,2,2,0,18,2,0,0,0,0,0,0,0,0,0,0,0,0,0,0,0,0,,,,1,1
L10842,Class,EscherOptRecord,org.apache.poi.ddf.EscherOptRecord,L31584,L103,3,11,10,0,6,0,0,0,0,1,1,0,20,2,0,0,0,0,0,0,2,4,7,0,0,0,0,0,0,0,,,,1,1
L10810,Class,EscherSpRecord,org.apache.poi.ddf.EscherSpRecord,L31584,L103,16,11,10,2,5,0,0,0,0,1,1,0,20,2,0,0,0,0,0,0,1,2,5,0,0,0,0,0,0,0,,,,1,1
L10800,Class,LineShape,org.apache.poi.hssf.model.LineShape,L10749,L103,0,5,2,0,2,0,0,0,0,1,1,0,6,0,0,0,0,0,2,0,0,0,7,0,0,0,0,0,0,0,,,,1,1
L10795,Class,PictureShape,org.apache.poi.hssf.model.PictureShape,L10749,L103,0,5,2,0,2,0,0,0,0,1,1,0,6,0,0,0,0,0,2,0,0,0,7,0,0,0,0,0,0,0,,,,1,1
L10790,Class,PolygonShape,org.apache.poi.hssf.model.PolygonShape,L10749,L103,1,5,2,0,2,0,0,0,0,1,1,0,6,0,0,0,0,0,2,0,0,0,7,0,0,0,0,0,0,0,,,,1,1
L10666,Class,AbortableHSSFListener,org.apache.poi.hssf.eventusermodel.AbortableHSSFListener,L10659,L103,0,2,2,0,0,0,1,0,0,0,0,0,0,0,0,0,0,0,0,0,0,0,2,0,0,0,0,0,0,0,,,,1,1
L10499,Class,ModelFactory,org.apache.poi.hssf.eventmodel.ModelFactory,L10383,L103,2,5,4,0,0,0,1,0,0,0,0,0,0,0,0,0,1,1,1,0,1,0,4,0,0,0,0,0,0,0,,,,1,1
L10313,Class,ExpPtg,org.apache.poi.hssf.record.formula.ExpPtg,L17110,L103,4,10,10,0,4,0,0,0,0,1,1,0,13,4,0,0,0,0,0,0,0,0,5,0,0,0,0,0,0,0,,,,1,1
L10212,Class,WriteProtectRecord,org.apache.poi.hssf.record.WriteProtectRecord,L13365,L103,1,8,6,0,2,0,0,0,0,1,1,0,12,0,0,0,0,0,0,0,0,0,3,0,0,0,0,0,0,0,,,,1,1
L10205,Class,VerticalPageBreakRecord,org.apache.poi.hssf.record.VerticalPageBreakRecord,L13365,L103,1,4,4,0,1,0,0,0,0,2,2,0,28,6,0,0,0,0,0,0,0,0,1,0,0,0,0,0,0,0,,,,1,1
L10198,Class,HorizontalPageBreakRecord,org.apache.poi.hssf.record.HorizontalPageBreakRecord,L13365,L103,1,4,4,0,1,0,0,0,0,2,2,0,28,6,0,0,0,0,0,0,0,0,1,0,0,0,0,0,0,0,,,,1,1
L10176,Class,PaneRecord,org.apache.poi.hssf.record.PaneRecord,L13365,L103,10,19,17,5,7,0,0,0,0,1,1,0,12,0,0,0,0,0,0,0,0,0,4,0,0,0,0,0,0,0,,,,1,1
L10156,Class,BottomMarginRecord,org.apache.poi.hssf.record.BottomMarginRecord,L13365,L103,2,11,9,1,3,0,1,0,0,1,1,0,12,0,0,0,0,0,0,0,0,0,4,0,0,0,0,0,0,0,,,,1,1
L10149,Class,TopMarginRecord,org.apache.poi.hssf.record.TopMarginRecord,L13365,L103,2,11,9,1,3,0,1,0,0,1,1,0,12,0,0,0,0,0,0,0,0,0,4,0,0,0,0,0,0,0,,,,1,1
L10135,Class,LeftMarginRecord,org.apache.poi.hssf.record.LeftMarginRecord,L13365,L103,2,11,9,1,3,0,1,0,0,1,1,0,12,0,0,0,0,0,0,0,0,0,4,0,0,0,0,0,0,0,,,,1,1
L10116,Class,ObjectLinkRecord,org.apache.poi.hssf.record.ObjectLinkRecord,L13365,L103,9,15,13,3,5,0,0,0,0,1,1,0,12,0,0,0,0,0,0,0,0,0,4,0,0,0,0,0,0,0,,,,1,1
L10109,Class,SeriesTextRecord,org.apache.poi.hssf.record.SeriesTextRecord,L13365,L103,5,17,15,4,6,0,0,0,0,1,1,0,12,0,0,0,0,0,0,0,1,0,6,0,0,0,0,0,0,0,,,,1,1
L10024,Class,SeriesListRecord,org.apache.poi.hssf.record.SeriesListRecord,L13365,L103,2,11,9,1,3,0,0,0,0,1,1,0,12,0,0,0,0,0,0,0,0,0,4,0,0,0,0,0,0,0,,,,1,1
L10001,Class,DatRecord,org.apache.poi.hssf.record.DatRecord,L13365,L103,2,19,17,5,7,0,0,0,0,1,1,0,12,0,0,0,0,0,1,0,0,0,4,0,0,0,0,0,0,0,,,,1,1
L9954,Class,MulRKRecord,org.apache.poi.hssf.record.MulRKRecord,L13365,L103,5,14,11,0,7,0,0,0,0,1,1,0,12,0,0,0,0,0,0,0,1,0,5,0,0,0,0,0,0,0,,,,2,1
L9947,Class,ContinueRecord,org.apache.poi.hssf.record.ContinueRecord,L13365,L103,2,11,9,1,2,0,0,0,0,1,1,0,12,0,0,0,0,0,0,0,0,2,4,0,0,0,0,0,0,0,,,,2,1
L9617,Class,BiffViewer,org.apache.poi.hssf.dev.BiffViewer,L9610,L103,2,7,5,1,0,0,0,0,0,0,0,0,0,0,0,0,0,0,0,0,1,0,7,0,0,0,0,0,0,0,,,,2,1
L8729,Class,SelectionRecord,org.apache.poi.hssf.record.SelectionRecord,L13365,L103,7,19,17,5,7,0,0,0,0,1,1,0,12,0,0,0,0,0,1,0,1,2,4,0,0,0,0,0,0,0,,,,2,1
L8692,Class,ExtSSTRecord,org.apache.poi.hssf.record.ExtSSTRecord,L13365,L103,5,16,14,2,7,0,0,0,0,1,1,0,12,0,0,0,0,0,0,0,1,1,5,0,0,0,0,0,0,0,,,,2,1
L8689,Class,ExternSheetRecord,org.apache.poi.hssf.record.ExternSheetRecord,L13365,L103,3,13,11,1,5,0,0,0,0,1,1,0,12,0,0,0,0,0,1,0,1,1,5,0,0,0,0,0,0,0,,,,2,1
L8686,Class,SupBookRecord,org.apache.poi.hssf.record.SupBookRecord,L13365,L103,3,12,10,2,4,0,0,0,0,1,1,0,12,0,0,0,0,0,0,0,0,0,3,0,0,0,0,0,0,0,,,,2,1
L8677,Class,StyleRecord,org.apache.poi.hssf.record.StyleRecord,L13365,L103,9,23,20,8,9,0,0,0,0,1,1,0,12,0,0,0,0,0,1,0,1,0,5,0,0,0,0,0,0,0,,,,2,1
L8638,Class,WriteAccessRecord,org.apache.poi.hssf.record.WriteAccessRecord,L13365,L103,2,10,8,1,3,0,0,0,0,1,1,0,12,0,0,0,0,0,0,0,1,0,5,0,0,0,0,0,0,0,,,,2,1
L7451,Class,StaticFontMetrics,org.apache.poi.hssf.usermodel.StaticFontMetrics,L1954,L103,2,1,1,0,1,0,0,0,0,0,0,0,0,0,0,0,0,0,0,0,2,0,2,0,0,0,0,0,0,0,,,,2,1
L7406,Class,EscherBSERecord,org.apache.poi.ddf.EscherBSERecord,L31584,L103,22,32,32,13,16,0,0,0,0,1,1,0,20,2,0,0,1,1,0,0,1,2,7,0,0,0,0,0,0,0,,,,2,1
L728,Class,Section,org.apache.poi.hpsf.Section,L28851,L103,4,18,14,0,12,0,0,1,1,0,0,1,0,0,0,0,2,2,0,0,1,7,9,0,0,0,0,0,0,0,,,,2,1
L6749,Class,EscherRecord,org.apache.poi.ddf.EscherRecord,L31584,L103,2,20,18,3,8,0,0,14,16,0,0,2,0,0,0,0,0,0,1,0,0,19,8,0,0,0,0,0,0,0,,,,2,1
L5582,Class,EscherBitmapBlip,org.apache.poi.ddf.EscherBitmapBlip,L31584,L103,6,10,10,3,4,0,0,0,0,2,2,0,26,7,0,0,0,0,1,0,0,1,3,0,0,0,0,0,0,0,,,,2,1
L5569,Class,HSSFPictureData,org.apache.poi.hssf.usermodel.HSSFPictureData,L1954,L103,7,3,2,0,1,0,0,0,0,0,0,0,0,0,0,0,0,0,1,0,0,0,2,0,0,0,0,0,0,0,,,,2,1
L5282,Class,HeaderRecord,org.apache.poi.hssf.record.HeaderRecord,L13365,L103,5,14,12,2,5,0,0,0,0,1,1,0,12,0,0,0,0,0,2,0,1,4,6,0,0,0,0,0,0,0,,,,2,1
L5213,Class,FooterRecord,org.apache.poi.hssf.record.FooterRecord,L13365,L103,5,14,12,2,5,0,0,0,0,1,1,0,12,0,0,0,0,0,2,0,1,4,6,0,0,0,0,0,0,0,,,,2,1
L5124,Class,FontRecord,org.apache.poi.hssf.record.FontRecord,L13365,L103,20,36,34,14,16,0,0,0,0,1,1,0,12,0,0,0,0,0,2,0,1,3,5,0,0,0,0,0,0,0,,,,2,1
L4523,Class,CommonObjectDataSubRecord,org.apache.poi.hssf.record.CommonObjectDataSubRecord,L13365,L103,38,29,27,10,12,0,0,0,0,2,2,0,15,0,0,0,0,0,1,0,0,0,4,0,0,0,0,0,0,0,,,,2,1
L4516,Class,SubRecord,org.apache.poi.hssf.record.SubRecord,L13365,L103,0,3,3,0,0,0,0,4,4,1,1,1,12,0,0,0,0,0,0,0,0,0,3,0,0,0,0,0,0,0,,,,2,1
L4513,Class,ObjRecord,org.apache.poi.hssf.record.ObjRecord,L13365,L103,2,13,11,0,3,0,0,0,0,1,1,0,12,0,0,0,0,0,5,0,1,11,7,0,0,0,0,0,0,0,,,,2,1
L4259,Class,BoolErrRecord,org.apache.poi.hssf.record.BoolErrRecord,L13365,L103,6,29,27,6,14,0,2,0,0,1,1,0,12,0,0,0,0,0,0,0,0,0,9,0,0,0,0,0,0,0,,,,2,1
L38230,Class,SystemOutLogger,org.apache.poi.util.SystemOutLogger,L36392,L103,1,3,3,0,0,0,0,0,0,1,1,0,26,5,0,0,0,0,0,0,1,0,2,0,0,0,0,0,0,0,,,,2,1
L37221,Class,HexDump,org.apache.poi.util.HexDump,L36392,L103,3,15,11,0,0,0,0,0,0,0,0,0,0,0,0,0,0,0,0,0,1,0,15,0,0,0,0,0,0,0,,,,2,1
L35990,Class,SmallBlockTableReader,org.apache.poi.poifs.storage.SmallBlockTableReader,L35597,L103,0,1,1,0,1,0,0,0,0,0,0,0,0,0,0,0,0,0,0,0,0,0,3,0,0,0,0,0,0,0,,,,2,1
L3568,Class,FontDetails,org.apache.poi.hssf.usermodel.FontDetails,L1954,L103,3,9,8,0,4,0,0,0,0,0,0,0,0,0,0,0,1,1,0,0,2,1,8,0,0,0,0,0,0,0,,,,2,1
L33837,Class,PropertyTable,org.apache.poi.poifs.property.PropertyTable,L35062,L103,2,11,10,1,2,0,2,0,0,0,0,0,0,0,0,0,0,0,2,0,1,0,6,0,0,0,0,0,0,0,,,,2,1
L32478,Class,EscherProperties,org.apache.poi.ddf.EscherProperties,L31584,L103,275,6,2,0,2,0,0,0,0,0,0,0,0,0,0,0,0,0,0,0,1,0,6,0,0,0,0,0,0,0,,,,2,1
L2418,Class,RowRecord,org.apache.poi.hssf.record.RowRecord,L13365,L103,10,36,34,12,15,0,1,0,0,1,1,0,12,0,0,0,0,0,2,0,0,13,6,0,0,0,0,0,0,0,,,,2,1
L2411,Class,BoundSheetRecord,org.apache.poi.hssf.record.BoundSheetRecord,L13365,L103,6,19,17,5,8,0,0,0,0,1,1,0,12,0,0,0,0,0,0,0,1,0,5,0,0,0,0,0,0,0,,,,2,1
L2332,Class,HSSFClientAnchor,org.apache.poi.hssf.usermodel.HSSFClientAnchor,L1954,L103,5,18,16,6,9,0,0,0,0,1,1,0,12,4,0,0,0,0,0,0,0,5,3,0,0,0,0,0,0,0,,,,2,1
L2327,Class,HSSFComment,org.apache.poi.hssf.usermodel.HSSFComment,L1954,L103,4,11,10,5,4,0,0,0,0,3,3,0,31,30,0,0,1,1,2,0,1,7,7,0,0,0,0,0,0,0,,,,2,1
L18079,Class,MemAreaPtg,org.apache.poi.hssf.record.formula.MemAreaPtg,L17110,L103,4,11,11,2,4,0,0,1,1,1,1,1,13,4,0,0,0,0,0,0,0,0,4,0,0,0,0,0,0,0,,,,2,1
L1666,Class,HSSFCellStyle,org.apache.poi.hssf.usermodel.HSSFCellStyle,L1954,L103,45,43,41,20,21,0,0,0,0,0,0,0,0,0,0,0,0,0,1,0,0,6,2,0,0,0,0,0,0,0,,,,2,1
L13616,Class,DefaultEscherRecordFactory,org.apache.poi.ddf.DefaultEscherRecordFactory,L31584,L103,2,3,2,0,0,0,1,0,0,0,0,0,0,0,0,0,0,0,0,0,2,1,3,0,0,0,0,0,0,0,,,,2,1
L12254,Class,DrawingRecord,org.apache.poi.hssf.record.DrawingRecord,L13365,L103,2,10,8,1,3,0,0,0,0,1,1,0,12,0,0,0,0,0,0,0,0,0,2,0,0,0,0,0,0,0,,,,2,1
L10992,Class,EscherDggRecord,org.apache.poi.ddf.EscherDggRecord,L31584,L103,6,16,16,4,8,0,0,0,0,1,1,0,20,2,0,0,0,0,3,0,2,5,6,0,0,0,0,0,0,0,,,,2,1
L10942,Class,ConvertAnchor,org.apache.poi.hssf.model.ConvertAnchor,L10749,L103,0,1,1,0,0,0,0,0,0,0,0,0,0,0,0,0,0,0,0,0,0,0,2,0,0,0,0,0,0,0,,,,2,1
L10805,Class,SimpleFilledShape,org.apache.poi.hssf.model.SimpleFilledShape,L10749,L103,0,6,2,0,2,0,0,0,0,1,1,0,6,0,0,0,0,0,2,0,0,0,7,0,0,0,0,0,0,0,,,,2,1
L10785,Class,TextboxShape,org.apache.poi.hssf.model.TextboxShape,L10749,L103,0,8,4,0,4,0,0,1,1,1,1,1,6,0,0,0,0,0,4,0,0,0,11,0,0,0,0,0,0,0,,,,2,1
L10780,Class,CommentShape,org.apache.poi.hssf.model.CommentShape,L10749,L103,0,4,2,0,1,0,0,0,0,2,2,0,14,0,0,0,0,0,1,0,0,0,6,0,0,0,0,0,0,0,,,,2,1
L10358,Class,HSSF,org.apache.poi.hssf.dev.HSSF,L9610,L103,1,4,4,0,0,0,0,0,0,0,0,0,0,0,0,0,0,0,1,0,1,0,5,0,0,0,0,0,0,0,,,,2,1
L10219,Class,FilePassRecord,org.apache.poi.hssf.record.FilePassRecord,L13365,L103,2,9,7,0,2,0,0,0,0,1,1,0,12,0,0,0,0,0,0,0,0,0,4,0,0,0,0,0,0,0,,,,2,1
L7441,Class,EscherBlipRecord,org.apache.poi.ddf.EscherBlipRecord,L31584,L103,5,6,6,0,2,0,0,2,2,1,1,1,20,2,0,0,1,1,0,0,1,2,4,0,0,0,0,0,0,0,,,,3,1
L5014,Class,HSSFDateUtil,org.apache.poi.hssf.usermodel.HSSFDateUtil,L1954,L103,3,10,6,0,6,0,0,0,0,0,0,0,0,0,0,0,0,0,0,0,0,0,7,0,0,0,0,0,0,0,,,,3,1
L4496,Class,TextObjectRecord,org.apache.poi.hssf.record.TextObjectRecord,L13365,L103,0,12,7,1,2,0,0,0,0,2,2,0,49,21,0,0,0,0,3,0,0,3,9,0,0,0,0,0,0,0,,,,3,1
L4390,Class,FormulaParser,org.apache.poi.hssf.model.FormulaParser,L10749,L103,13,55,7,4,6,0,0,0,0,0,0,0,0,0,0,0,1,1,0,0,2,0,30,0,0,0,0,0,0,0,,,,3,1
L4320,Class,UnicodeString,org.apache.poi.hssf.record.UnicodeString,L13365,L103,6,35,29,6,13,0,1,0,0,0,0,0,0,0,0,0,1,1,2,0,2,14,17,0,0,0,0,0,0,0,,,,3,1
L37462,Class,IOUtils,org.apache.poi.util.IOUtils,L36392,L103,0,3,2,0,0,0,0,0,0,0,0,0,0,0,0,0,0,0,0,0,0,0,2,0,0,0,0,0,0,0,,,,3,1
L35785,Class,BlockListImpl,org.apache.poi.poifs.storage.BlockListImpl,L35597,L103,0,6,4,2,0,0,1,2,3,0,0,2,0,0,0,0,2,2,0,0,0,0,4,0,0,0,0,0,0,0,,,,3,1
L2615,Class,HSSFPicture,org.apache.poi.hssf.usermodel.HSSFPicture,L1954,L103,7,3,2,1,1,0,0,0,0,2,2,0,20,25,0,0,0,0,0,0,0,2,2,0,0,0,0,0,0,0,,,,3,1
L2455,Class,POIFSFileSystem,org.apache.poi.poifs.filesystem.POIFSFileSystem,L34035,L103,1,17,13,0,4,0,1,0,0,0,0,0,0,0,0,0,2,4,12,2,1,30,24,0,0,0,0,0,0,0,,,,3,1
L2400,Class,BOFRecord,org.apache.poi.hssf.record.BOFRecord,L13365,L103,17,21,19,6,8,0,0,0,0,1,1,0,12,0,0,0,0,0,0,0,0,1,4,0,0,0,0,0,0,0,,,,3,1
L2395,Class,Record,org.apache.poi.hssf.record.Record,L13365,L103,0,12,10,0,4,0,0,134,145,0,0,2,0,0,0,0,0,0,0,1,0,84,4,0,0,0,0,0,0,0,,,,3,1
L2389,Class,SSTRecord,org.apache.poi.hssf.record.SSTRecord,L13365,L103,10,22,17,2,9,0,0,0,0,1,1,0,12,0,0,0,2,2,3,0,0,0,9,0,0,0,0,0,0,0,,,,3,1
L10828,Class,EscherContainerRecord,org.apache.poi.ddf.EscherContainerRecord,L31584,L103,7,10,10,1,4,0,0,0,0,1,1,0,20,2,0,0,0,0,7,0,1,36,9,0,0,0,0,0,0,0,,,,3,1
L10167,Class,StringRecord,org.apache.poi.hssf.record.StringRecord,L13365,L103,4,15,12,2,6,0,0,0,0,1,1,0,12,0,0,0,0,1,0,0,1,3,6,0,0,0,0,0,0,0,,,,3,1
L9961,Class,MulBlankRecord,org.apache.poi.hssf.record.MulBlankRecord,L13365,L103,5,13,10,0,6,0,0,0,0,1,1,0,12,0,0,0,0,0,0,0,0,0,4,0,0,0,0,0,0,0,,,,4,1
L9594,Class,ValueRecordsAggregate,org.apache.poi.hssf.record.aggregates.ValueRecordsAggregate,L13709,L103,3,17,15,0,7,0,0,0,0,1,1,0,12,0,0,0,1,2,1,0,0,1,6,0,0,0,0,0,0,0,,,,4,1
L6737,Class,EscherAggregate,org.apache.poi.hssf.record.EscherAggregate,L13365,L103,209,20,10,1,6,0,0,0,0,2,2,0,33,3,0,0,0,0,2,0,2,0,22,0,0,0,0,0,0,0,,,,4,1
L4287,Class,FormulaRecord,org.apache.poi.hssf.record.FormulaRecord,L13365,L103,11,37,34,8,17,0,2,0,0,1,1,0,12,0,0,0,0,1,1,0,1,10,14,0,0,0,0,0,0,0,,,,4,1
L33824,Class,BlockAllocationTableReader,org.apache.poi.poifs.storage.BlockAllocationTableReader,L35597,L103,0,7,1,1,2,0,0,0,0,0,0,0,0,0,0,0,1,1,1,0,0,2,7,0,0,0,0,0,0,0,,,,4,1
L2472,Class,HSSFEventFactory,org.apache.poi.hssf.eventusermodel.HSSFEventFactory,L10659,L103,0,6,5,0,0,0,0,0,0,0,0,0,0,0,0,0,0,0,0,0,0,0,10,0,0,0,0,0,0,0,,,,4,1
L2322,Class,HSSFRichTextString,org.apache.poi.hssf.usermodel.HSSFRichTextString,L1954,L103,1,22,16,2,5,0,1,0,0,0,0,0,0,0,0,0,2,2,4,1,0,9,14,0,0,0,0,0,0,0,,,,4,1
L1364,Class,HSSFRow,org.apache.poi.hssf.usermodel.HSSFRow,L1954,L103,2,26,18,4,9,0,1,0,0,0,0,0,0,0,0,0,2,2,3,0,0,16,16,0,0,0,0,0,0,0,,,,4,1
L5346,Class,HSSFName,org.apache.poi.hssf.usermodel.HSSFName,L1954,L103,0,7,5,3,3,0,0,0,0,0,0,0,0,0,0,0,0,0,2,0,0,2,8,0,0,0,0,0,0,0,,,,5,1
L4489,Class,NoteRecord,org.apache.poi.hssf.record.NoteRecord,L13365,L103,8,18,16,5,7,0,0,0,0,1,1,0,12,0,0,0,0,0,2,0,1,3,5,0,0,0,0,0,0,0,,,,5,1
L4239,Class,FormulaRecordAggregate,org.apache.poi.hssf.record.aggregates.FormulaRecordAggregate,L13709,L103,1,25,23,5,12,0,2,0,0,1,1,0,12,0,0,0,0,2,0,0,0,0,15,0,0,0,0,0,0,0,,,,5,1
L11624,Class,RowRecordsAggregate,org.apache.poi.hssf.record.aggregates.RowRecordsAggregate,L13709,L103,4,29,26,0,14,0,0,0,0,1,1,0,12,0,0,0,0,0,1,0,1,0,9,0,0,0,0,0,0,0,,,,5,1
L10183,Class,SharedFormulaRecord,org.apache.poi.hssf.record.SharedFormulaRecord,L13365,L103,8,19,16,0,11,0,0,0,0,1,1,0,12,0,0,0,0,0,0,0,1,0,8,0,0,0,0,0,0,0,,,,5,1
L9678,Class,RecordInputStream,org.apache.poi.hssf.record.RecordInputStream,L13365,L103,10,26,25,1,8,0,0,2,2,1,1,1,0,0,0,0,0,0,0,0,1,355,4,0,0,0,0,0,0,0,,,,6,1
L7433,Class,AbstractEscherHolderRecord,org.apache.poi.hssf.record.AbstractEscherHolderRecord,L13365,L103,3,21,17,1,6,0,0,4,4,1,1,1,12,0,0,0,0,0,0,0,1,0,9,0,0,0,0,0,0,0,,,,6,1
L5350,Class,NameRecord,org.apache.poi.hssf.record.NameRecord,L13365,L103,38,60,55,19,32,0,0,0,0,1,1,0,12,0,0,0,0,0,1,0,2,9,20,0,0,0,0,0,0,0,,,,8,1
L7363,Class,UnknownRecord,org.apache.poi.hssf.record.UnknownRecord,L13365,L103,2,11,8,0,2,0,0,0,0,1,1,0,12,0,0,0,0,0,0,0,0,2,4,0,0,0,0,0,0,0,,,,9,1
L4188,Class,Workbook,org.apache.poi.hssf.model.Workbook,L10749,L103,10,87,50,4,23,0,1,0,0,0,0,0,0,0,0,0,3,3,11,0,2,69,66,0,0,0,0,0,0,0,,,,9,1
L24436,Class,RecordFactory,org.apache.poi.hssf.record.RecordFactory,L13365,L103,3,5,4,1,1,0,0,0,0,0,0,0,0,0,0,0,0,0,0,0,2,0,6,0,0,0,0,0,0,0,,,,13,1
L1322,Class,HSSFCell,org.apache.poi.hssf.usermodel.HSSFCell,L1954,L103,11,36,27,15,13,0,0,0,0,0,0,0,0,0,0,0,3,3,4,0,0,25,25,0,0,0,0,0,0,0,,,,14,1
L1133,Class,HSSFWorkbook,org.apache.poi.hssf.usermodel.HSSFWorkbook,L1954,L103,13,64,52,10,24,0,0,0,0,0,0,0,0,0,0,0,4,4,9,0,1,31,50,0,0,0,0,0,0,0,,,,14,1
L4192,Class,Sheet,org.apache.poi.hssf.model.Sheet,L10749,L103,17,133,101,29,41,0,1,0,0,0,0,0,0,0,0,0,0,0,21,0,3,10,75,0,0,0,0,0,0,0,,,,16,1
L1303,Class,HSSFSheet,org.apache.poi.hssf.usermodel.HSSFSheet,L1954,L103,13,101,88,30,40,0,0,0,0,0,0,0,0,0,0,0,2,2,4,2,1,35,23,0,0,0,0,0,0,0,,,,19,1
